0.0 2.002074478 0.209668821379 0.0
0.0 2.00368257 0.209791352099 0.0
0.0 2.005290662 0.20991308269 0.0
0.0 2.006898754 0.210034014305 0.0
0.0 2.008506846 0.210154148102 0.0
0.0 2.010114938 0.210273485243 0.0
0.0 2.01172303 0.21039202688 0.0
0.0 2.013331122 0.210509774174 0.0
0.0 2.014939214 0.210626728281 0.0
0.0 2.016547306 0.210742890358 0.0
0.0 2.018155398 0.210858261564 0.0
0.0 2.01976349 0.210972843056 0.0
0.0 2.021371582 0.211086635991 0.0
0.0 2.022979674 0.211199641529 0.0
0.0 2.024587766 0.211311860826 0.0
0.0 2.026195858 0.21142329504 0.0
0.0 2.027803949 0.211533945262 0.0
0.0 2.029412041 0.211643812786 0.0
0.0 2.031020133 0.2117528987 0.0
0.0 2.032628225 0.211861204165 0.0
0.0 2.034236317 0.211968730337 0.0
0.0 2.035844409 0.212075478376 0.0
0.0 2.037452501 0.212181449437 0.0
0.0 2.039060593 0.212286644681 0.0
0.0 2.040668685 0.212391065264 0.0
0.0 2.042276777 0.212494712348 0.0
0.0 2.043884869 0.212597587088 0.0
0.0 2.045492961 0.212699690642 0.0
0.0 2.047101053 0.212801024171 0.0
0.0 2.048709145 0.212901588832 0.0
0.0 2.050317237 0.213001385784 0.0
0.0 2.051925329 0.213100416185 0.0
0.0 2.053533421 0.213198681193 0.0
0.0 2.055141513 0.213296181967 0.0
0.0 2.056749605 0.213392919665 0.0
0.0 2.058357697 0.213488895446 0.0
0.0 2.059965788 0.21358411041 0.0
0.0 2.06157388 0.213678565834 0.0
0.0 2.063181972 0.213772262816 0.0
0.0 2.064790064 0.213865202516 0.0
0.0 2.066398156 0.213957386094 0.0
0.0 2.068006248 0.214048814705 0.0
0.0 2.06961434 0.214139489508 0.0
0.0 2.071222432 0.214229411663 0.0
0.0 2.072830524 0.21431858233 0.0
0.0 2.074438616 0.214407002665 0.0
0.0 2.076046708 0.214494673826 0.0
0.0 2.0776548 0.214581596974 0.0
0.0 2.079262892 0.21466777327 0.0
0.0 2.080870984 0.21475320387 0.0
0.0 2.082479076 0.214837889931 0.0
0.0 2.084087168 0.214921832613 0.0
0.0 2.08569526 0.215005033078 0.0
0.0 2.087303352 0.215087492484 0.0
0.0 2.088911444 0.215169211985 0.0
0.0 2.090519536 0.215250192745 0.0
0.0 2.092127627 0.21533043586 0.0
0.0 2.093735719 0.215409942603 0.0
0.0 2.095343811 0.215488714089 0.0
0.0 2.096951903 0.215566751471 0.0
0.0 2.098559995 0.215644055892 0.0
0.0 2.100168087 0.215720628517 0.0
0.0 2.101776179 0.215796470524 0.0
0.0 2.103384271 0.215871583073 0.0
0.0 2.104992363 0.215945967285 0.0
0.0 2.106600455 0.216019624316 0.0
0.0 2.108208547 0.216092555351 0.0
0.0 2.109816639 0.216164761549 0.0
0.0 2.111424731 0.216236244057 0.0
0.0 2.113032823 0.216307004026 0.0
0.0 2.114640915 0.216377042627 0.0
0.0 2.116249007 0.216446361001 0.0
0.0 2.117857099 0.216514960344 0.0
0.0 2.119465191 0.216582841852 0.0
0.0 2.121073283 0.216650006652 0.0
0.0 2.122681375 0.216716455814 0.0
0.0 2.124289466 0.216782190509 0.0
0.0 2.125897558 0.216847212024 0.0
0.0 2.12750565 0.216911521466 0.0
0.0 2.129113742 0.21697511989 0.0
0.0 2.130721834 0.217038008534 0.0
0.0 2.132329926 0.217100188578 0.0
0.0 2.133938018 0.217161661175 0.0
0.0 2.13554611 0.217222427473 0.0
0.0 2.137154202 0.217282488592 0.0
0.0 2.138762294 0.217341845727 0.0
0.0 2.140370386 0.21740050001 0.0
0.0 2.141978478 0.217458452637 0.0
0.0 2.14358657 0.217515704755 0.0
0.0 2.145194662 0.217572257516 0.0
0.0 2.146802754 0.217628112053 0.0
0.0 2.148410846 0.217683269559 0.0
0.0 2.150018938 0.217737731182 0.0
0.0 2.15162703 0.217791498079 0.0
0.0 2.153235122 0.217844571422 0.0
0.0 2.154843214 0.217896952312 0.0
0.0 2.156451305 0.217948641934 0.0
0.0 2.158059397 0.217999641491 0.0
0.0 2.159667489 0.218049952107 0.0
0.0 2.161275581 0.218099574939 0.0
0.0 2.162883673 0.218148511146 0.0
0.0 2.164491765 0.218196761884 0.0
0.0 2.166099857 0.218244328311 0.0
0.0 2.167707949 0.218291211584 0.0
0.0 2.169316041 0.21833741286 0.0
0.0 2.170924133 0.218382933296 0.0
0.0 2.172532225 0.218427774049 0.0
0.0 2.174140317 0.218471936277 0.0
0.0 2.175748409 0.218515421136 0.0
0.0 2.177356501 0.218558229784 0.0
0.0 2.178964593 0.218600363376 0.0
0.0 2.180572685 0.21864182307 0.0
0.0 2.182180777 0.218682610023 0.0
0.0 2.183788869 0.218722725391 0.0
0.0 2.185396961 0.218762170331 0.0
0.0 2.187005053 0.218800945999 0.0
0.0 2.188613145 0.218839053552 0.0
0.0 2.190221236 0.218876494124 0.0
0.0 2.191829328 0.218913268916 0.0
0.0 2.19343742 0.218949379062 0.0
0.0 2.195045512 0.218984825719 0.0
0.0 2.196653604 0.219019610043 0.0
0.0 2.198261696 0.219053733187 0.0
0.0 2.199869788 0.219087196311 0.0
0.0 2.20147788 0.21912000057 0.0
0.0 2.203085972 0.219152147126 0.0
0.0 2.204694064 0.219183637149 0.0
0.0 2.206302156 0.21921447171 0.0
0.0 2.207910248 0.219244652062 0.0
0.0 2.20951834 0.21927417933 0.0
0.0 2.211126432 0.21930305473 0.0
0.0 2.212734524 0.219331279435 0.0
0.0 2.214342616 0.219358854308 0.0
0.0 2.215950708 0.219385780763 0.0
0.0 2.2175588 0.219412060013 0.0
0.0 2.219166892 0.21943769317 0.0
0.0 2.220774984 0.219462681367 0.0
0.0 2.221786975 0.219478076209 0.0
0.0 2.222987941 0.219496015567 0.0
0.0 2.224188907 0.219513596586 0.0
0.0 2.225389873 0.219530820081 0.0
0.0 2.226590839 0.219547686645 0.0
0.0 2.227791805 0.219564195794 0.0
0.0 2.228992771 0.219580349179 0.0
0.0 2.230193737 0.219596146728 0.0
0.0 2.231394703 0.219611589094 0.0
0.0 2.232595669 0.219626676109 0.0
0.0 2.233796635 0.219641409006 0.0
0.0 2.234997601 0.21965578762 0.0
0.0 2.236198567 0.21966981272 0.0
0.0 2.237399533 0.21968348585 0.0
0.0 2.238600498 0.219696805412 0.0
0.0 2.239801464 0.219709773572 0.0
0.0 2.24100243 0.219722390247 0.0
0.0 2.242203396 0.219734655917 0.0
0.0 2.243404362 0.219746571061 0.0
0.0 2.244605328 0.219758136162 0.0
0.0 2.245806294 0.219769351698 0.0
0.0 2.24700726 0.219780218508 0.0
0.0 2.248208226 0.219790736442 0.0
0.0 2.249409192 0.219800910424 0.0
0.0 2.250610158 0.219810729415 0.0
0.0 2.251811124 0.219820210183 0.0
0.0 2.25301209 0.219829340292 0.0
0.0 2.254213056 0.219838128602 0.0
0.0 2.255414021 0.219846564154 0.0
0.0 2.256614987 0.219854649574 0.0
0.0 2.257815953 0.219862402143 0.0
0.0 2.259016919 0.219869806124 0.0
0.0 2.260217885 0.219876847078 0.0
0.0 2.261418851 0.219883563717 0.0
0.0 2.262619817 0.219889950905 0.0
0.0 2.263820783 0.219895981844 0.0
0.0 2.265021749 0.219901692794 0.0
0.0 2.266222715 0.21990702352 0.0
0.0 2.267423681 0.219912031973 0.0
0.0 2.268624647 0.219916708763 0.0
0.0 2.269825613 0.219921034082 0.0
0.0 2.271026579 0.219925041271 0.0
0.0 2.272227545 0.219928698695 0.0
0.0 2.27342851 0.219931992569 0.0
0.0 2.274629476 0.219934996887 0.0
0.0 2.275830442 0.219937639613 0.0
0.0 2.277031408 0.21993993231 0.0
0.0 2.278232374 0.219941870036 0.0
0.0 2.27943334 0.219943512096 0.0
0.0 2.280634306 0.219944773794 0.0
0.0 2.281835272 0.219945714521 0.0
0.0 2.283036238 0.219946363741 0.0
0.0 2.284237204 0.219946637669 0.0
0.0 2.28543817 0.219946602574 0.0
0.0 2.286639136 0.219946250972 0.0
0.0 2.287840102 0.219945538184 0.0
0.0 2.289041068 0.219944464429 0.0
0.0 2.290242034 0.219943123119 0.0
0.0 2.291442999 0.21994142382 0.0
0.0 2.292643965 0.219939401146 0.0
0.0 2.293844931 0.219937040127 0.0
0.0 2.295045897 0.219934398844 0.0
0.0 2.296246863 0.219931407365 0.0
0.0 2.297447829 0.219928084404 0.0
0.0 2.298648795 0.219924409285 0.0
0.0 2.299849761 0.219920355535 0.0
0.0 2.301050727 0.219916061777 0.0
0.0 2.302251693 0.219911433268 0.0
0.0 2.303452659 0.219906379945 0.0
0.0 2.304653625 0.219901042939 0.0
0.0 2.305854591 0.219895470862 0.0
0.0 2.307055557 0.219889501516 0.0
0.0 2.308256523 0.219883373999 0.0
0.0 2.309457488 0.219876727934 0.0
0.0 2.310658454 0.219869869246 0.0
0.0 2.31185942 0.219862694243 0.0
0.0 2.313060386 0.219855044033 0.0
0.0 2.314261352 0.219847384932 0.0
0.0 2.315462318 0.219839255666 0.0
0.0 2.316663284 0.219830887914 0.0
0.0 2.31786425 0.219822296793 0.0
0.0 2.319065216 0.219813460225 0.0
0.0 2.320266182 0.219804117845 0.0
0.0 2.321467148 0.219794100394 0.0
0.0 2.322668114 0.219784572348 0.0
0.0 2.32386908 0.219773816119 0.0
0.0 2.325070046 0.219763037796 0.0
0.0 2.326271012 0.219751846021 0.0
0.0 2.327471977 0.21974145186 0.0
0.0 2.328672943 0.219728392486 0.0
0.0 2.329873909 0.219715867335 0.0
0.0 2.331074875 0.219704987014 0.0
0.0 2.332275841 0.21969189291 0.0
0.0 2.333476807 0.21967891688 0.0
0.0 2.334677773 0.219665223822 0.0
0.0 2.335878739 0.219651034908 0.0
0.0 2.337079705 0.219637371911 0.0
0.0 2.338280671 0.219624027759 0.0
0.0 2.339481637 0.219609006384 0.0
0.0 2.340682603 0.219594943351 0.0
0.0 2.341883569 0.219579256876 0.0
0.0 2.343084535 0.219564861794 0.0
0.0 2.344285501 0.219549435826 0.0
0.0 2.345486466 0.219534112583 0.0
0.0 2.346687432 0.219517983029 0.0
0.0 2.347888398 0.219500415791 0.0
0.0 2.349089364 0.219483302135 0.0
0.0 2.35029033 0.219466868352 0.0
0.0 2.351491296 0.219449618818 0.0
0.0 2.352692262 0.219430523899 0.0
0.0 2.353893228 0.219411487691 0.0
0.0 2.355094194 0.219392805616 0.0
0.0 2.35629516 0.21937407911 0.0
0.0 2.357496126 0.219355025221 0.0
0.0 2.358697092 0.219335879895 0.0
0.0 2.359898058 0.219315994981 0.0
0.0 2.361099024 0.219295455506 0.0
0.0 2.362299989 0.219275275472 0.0
0.0 2.363500955 0.219255735673 0.0
0.0 2.364701921 0.219235535004 0.0
0.0 2.365902887 0.21921591307 0.0
0.0 2.367103853 0.219194958349 0.0
0.0 2.368304819 0.219175185557 0.0
0.0 2.369505785 0.219155896926 0.0
0.0 2.370706751 0.219145029891 0.0
0.0 2.371907717 0.219134599225 0.0
0.0 2.373108683 0.219126651093 0.0
0.0 2.374309649 0.219128713078 0.0
0.0 2.375510615 0.219133682252 0.0
0.0 2.376711581 0.219147802702 0.0
0.0 2.377912547 0.219164083507 0.0
0.0 2.379113513 0.219194548912 0.0
0.0 2.380314478 0.219240826455 0.0
0.0 2.381515444 0.219302592711 0.0
0.0 2.38271641 0.219384751752 0.0
0.0 2.383917376 0.219493080941 0.0
0.0 2.385118342 0.219635604742 0.0
0.0 2.386319308 0.219816873939 0.0
0.0 2.387520274 0.220057715455 0.0
0.0 2.38872124 0.220366770782 0.0
0.0 2.389922206 0.220766071042 0.0
0.0 2.391123172 0.221282243155 0.0
0.0 2.392324138 0.2219504802 0.0
0.0 2.393525104 0.222828606202 0.0
0.0 2.39472607 0.223979870937 0.0
0.0 2.395927036 0.225493122334 0.0
0.0 2.397128002 0.227500733335 0.0
0.0 2.398328967 0.230173372033 0.0
0.0 2.399529933 0.233741910425 0.0
0.0 2.400730899 0.238495128508 0.0
0.0 2.401931865 0.244812950902 0.0
0.0 2.403132831 0.253169001401 0.0
0.0 2.404333797 0.264100922459 0.0
0.0 2.405534763 0.278185792888 0.0
0.0 2.406735729 0.295953910711 0.0
0.0 2.407936695 0.317799047406 0.0
0.0 2.409137661 0.343825833401 0.0
0.0 2.410338627 0.373616806232 0.0
0.0 2.411539593 0.406156805328 0.0
0.0 2.412740559 0.439851669153 0.0
0.0 2.413941525 0.472683283748 0.0
0.0 2.415142491 0.502565941856 0.0
0.0 2.416343456 0.527888870308 0.0
0.0 2.417544422 0.547862078289 0.0
0.0 2.418745388 0.562497165174 0.0
0.0 2.419946354 0.572519786013 0.0
0.0 2.42114732 0.579197928345 0.0
0.0 2.422348286 0.58375240043 0.0
0.0 2.423549252 0.586380119733 0.0
0.0 2.424750218 0.588117396917 0.0
0.0 2.425951184 0.589421436746 0.0
0.0 2.42715215 0.590552869694 0.0
0.0 2.428353116 0.591664169678 0.0
0.0 2.429554082 0.592852261656 0.0
0.0 2.430755048 0.594135325255 0.0
0.0 2.431956014 0.595479518299 0.0
0.0 2.43315698 0.596833538652 0.0
0.0 2.434357945 0.598150067058 0.0
0.0 2.435558911 0.59940271544 0.0
0.0 2.436759877 0.600569528574 0.0
0.0 2.437960843 0.601679359605 0.0
0.0 2.439161809 0.602646301141 0.0
0.0 2.440362775 0.603461454069 0.0
0.0 2.441563741 0.60411446181 0.0
0.0 2.442764707 0.604652765147 0.0
0.0 2.443965673 0.605061944346 0.0
0.0 2.445166639 0.605361870298 0.0
0.0 2.446367605 0.605561832031 0.0
0.0 2.447568571 0.605433247119 0.0
0.0 2.448769537 0.60529480221 0.0
0.0 2.449970503 0.605082894477 0.0
0.0 2.451171469 0.604796308908 0.0
0.0 2.452372434 0.604482070268 0.0
0.0 2.4535734 0.604140909289 0.0
0.0 2.454774366 0.603789445613 0.0
0.0 2.455975332 0.603590265853 0.0
0.0 2.457176298 0.603392190957 0.0
0.0 2.458377264 0.603209746451 0.0
0.0 2.45957823 0.603047062621 0.0
0.0 2.460779196 0.602867698004 0.0
0.0 2.461980162 0.602692594976 0.0
0.0 2.463181128 0.602561544545 0.0
0.0 2.464382094 0.602479353921 0.0
0.0 2.46558306 0.602439111506 0.0
0.0 2.466784026 0.602438604254 0.0
0.0 2.467984992 0.60250311226 0.0
0.0 2.469185958 0.602736817175 0.0
0.0 2.470386923 0.602963009429 0.0
0.0 2.471587889 0.603305621841 0.0
0.0 2.472788855 0.603722940177 0.0
0.0 2.473989821 0.604625583398 0.0
0.0 2.475190787 0.605298401708 0.0
0.0 2.476391753 0.605969442752 0.0
0.0 2.477592719 0.606690054761 0.0
0.0 2.478793685 0.607432915672 0.0
0.0 2.479994651 0.60824304703 0.0
0.0 2.481195617 0.608858361513 0.0
0.0 2.482396583 0.609280203866 0.0
0.0 2.483597549 0.610040265114 0.0
0.0 2.484798515 0.610701248998 0.0
0.0 2.485999481 0.611356847258 0.0
0.0 2.487200446 0.611967002763 0.0
0.0 2.488401412 0.61248340869 0.0
0.0 2.489602378 0.612907407757 0.0
0.0 2.490803344 0.613249675666 0.0
0.0 2.49200431 0.613484144472 0.0
0.0 2.493205276 0.613711370569 0.0
0.0 2.494406242 0.613900909823 0.0
0.0 2.495607208 0.613974089201 0.0
0.0 2.496808174 0.613980743843 0.0
0.0 2.49800914 0.613860919271 0.0
0.0 2.499210106 0.613633131907 0.0
0.0 2.500411072 0.613353833197 0.0
0.0 2.501612038 0.61299815502 0.0
0.0 2.502813004 0.612551895836 0.0
0.0 2.50401397 0.612076320313 0.0
0.0 2.505214935 0.611558243536 0.0
0.0 2.506415901 0.610999874718 0.0
0.0 2.507616867 0.610438692288 0.0
0.0 2.508817833 0.609891016298 0.0
0.0 2.510018799 0.609327310248 0.0
0.0 2.511219765 0.608794080276 0.0
0.0 2.512420731 0.608367597939 0.0
0.0 2.513621697 0.608040798431 0.0
0.0 2.514822663 0.607750194566 0.0
0.0 2.516023629 0.607520180386 0.0
0.0 2.517224595 0.607322832334 0.0
0.0 2.518425561 0.6071599291 0.0
0.0 2.519626527 0.607054978519 0.0
0.0 2.520827493 0.607001741012 0.0
0.0 2.522028459 0.606974978304 0.0
0.0 2.523229424 0.606993228472 0.0
0.0 2.52443039 0.607039482463 0.0
0.0 2.525631356 0.607093013734 0.0
0.0 2.526832322 0.607178210225 0.0
0.0 2.528033288 0.607284565802 0.0
0.0 2.529234254 0.607362076799 0.0
0.0 2.53043522 0.60746506789 0.0
0.0 2.531636186 0.607613868767 0.0
0.0 2.532837152 0.607841807715 0.0
0.0 2.534038118 0.608067818686 0.0
0.0 2.535239084 0.608283043749 0.0
0.0 2.53644005 0.608444795832 0.0
0.0 2.537641016 0.608587312649 0.0
0.0 2.538841982 0.608715671201 0.0
0.0 2.540042948 0.608793153198 0.0
0.0 2.541243913 0.608829678982 0.0
0.0 2.542444879 0.608842150359 0.0
0.0 2.543645845 0.608804379564 0.0
0.0 2.544846811 0.60873131356 0.0
0.0 2.546047777 0.608640229886 0.0
0.0 2.547248743 0.608490197108 0.0
0.0 2.548449709 0.608311026567 0.0
0.0 2.549650675 0.608104396817 0.0
0.0 2.550851641 0.607810615302 0.0
0.0 2.552052607 0.607531311374 0.0
0.0 2.553253573 0.607277240524 0.0
0.0 2.554454539 0.606894862114 0.0
0.0 2.555655505 0.606428941013 0.0
0.0 2.556856471 0.605877233532 0.0
0.0 2.558057437 0.605196548036 0.0
0.0 2.559258402 0.604417340075 0.0
0.0 2.560459368 0.603548521516 0.0
0.0 2.561660334 0.602562351441 0.0
0.0 2.5628613 0.601510801283 0.0
0.0 2.564062266 0.600438633038 0.0
0.0 2.565263232 0.599294409152 0.0
0.0 2.566464198 0.598194944204 0.0
0.0 2.567665164 0.597184185154 0.0
0.0 2.56886613 0.596248989693 0.0
0.0 2.570067096 0.59556834629 0.0
0.0 2.571268062 0.595496715853 0.0
0.0 2.572469028 0.595302719947 0.0
0.0 2.573669994 0.59552891005 0.0
0.0 2.57487096 0.596049027512 0.0
0.0 2.576071926 0.596785928984 0.0
0.0 2.577272891 0.59764076185 0.0
0.0 2.578473857 0.598219073002 0.0
0.0 2.579674823 0.598676121983 0.0
0.0 2.580875789 0.598390613048 0.0
0.0 2.582076755 0.596743653751 0.0
0.0 2.583277721 0.593223320227 0.0
0.0 2.584478687 0.587259441875 0.0
0.0 2.585679653 0.578084886574 0.0
0.0 2.586880619 0.565481951438 0.0
0.0 2.588081585 0.549183471394 0.0
0.0 2.589282551 0.529140621816 0.0
0.0 2.590483517 0.505706796944 0.0
0.0 2.591684483 0.479468832428 0.0
0.0 2.592885449 0.451077250041 0.0
0.0 2.594086414 0.421730395941 0.0
0.0 2.59528738 0.391838099351 0.0
0.0 2.596488346 0.363631847275 0.0
0.0 2.597689312 0.337976157733 0.0
0.0 2.598890278 0.31502493544 0.0
0.0 2.600091244 0.295148879756 0.0
0.0 2.60129221 0.278401733076 0.0
0.0 2.602493176 0.26458395159 0.0
0.0 2.603694142 0.253442381433 0.0
0.0 2.604895108 0.244555822069 0.0
0.0 2.606096074 0.237391900803 0.0
0.0 2.60729704 0.231783568901 0.0
0.0 2.608498006 0.227335535421 0.0
0.0 2.609698972 0.223788213716 0.0
0.0 2.610899938 0.220972537923 0.0
0.0 2.612100903 0.218716808209 0.0
0.0 2.613301869 0.216893845768 0.0
0.0 2.614502835 0.215431195385 0.0
0.0 2.615703801 0.214230652399 0.0
0.0 2.616904767 0.213254422584 0.0
0.0 2.618105733 0.212450777781 0.0
0.0 2.619306699 0.211774140552 0.0
0.0 2.620507665 0.21121608161 0.0
0.0 2.621708631 0.210738489847 0.0
0.0 2.622909597 0.210329641166 0.0
0.0 2.624110563 0.20998860195 0.0
0.0 2.625311529 0.209688023297 0.0
0.0 2.626512495 0.209425864503 0.0
0.0 2.627713461 0.20919490163 0.0
0.0 2.628914427 0.208981820806 0.0
0.0 2.630115392 0.208797256842 0.0
0.0 2.631316358 0.208627420611 0.0
0.0 2.632517324 0.208467526834 0.0
0.0 2.63371829 0.208331008329 0.0
0.0 2.634919256 0.208192690289 0.0
0.0 2.636120222 0.208063392201 0.0
0.0 2.637321188 0.207944984424 0.0
0.0 2.638522154 0.207829267296 0.0
0.0 2.63972312 0.207725944555 0.0
0.0 2.640924086 0.207620034668 0.0
0.0 2.642125052 0.207514192824 0.0
0.0 2.643326018 0.207420041687 0.0
0.0 2.644526984 0.207321319197 0.0
0.0 2.64572795 0.207224349641 0.0
0.0 2.646928916 0.20713196264 0.0
0.0 2.648129881 0.207036829214 0.0
0.0 2.649330847 0.20694821072 0.0
0.0 2.650531813 0.206853751615 0.0
0.0 2.651732779 0.206765608993 0.0
0.0 2.652933745 0.206682265686 0.0
0.0 2.654134711 0.206588401245 0.0
0.0 2.655335677 0.206502032212 0.0
0.0 2.656536643 0.206416548036 0.0
0.0 2.657737609 0.20632557304 0.0
0.0 2.658938575 0.206241133084 0.0
0.0 2.660139541 0.206151500698 0.0
0.0 2.661340507 0.206063782266 0.0
0.0 2.662541473 0.205977424967 0.0
0.0 2.663742439 0.205890880659 0.0
0.0 2.664943405 0.205809981818 0.0
0.0 2.66614437 0.205720403603 0.0
0.0 2.667345336 0.205635245319 0.0
0.0 2.668546302 0.205553198338 0.0
0.0 2.669747268 0.205467005519 0.0
0.0 2.670948234 0.205384928368 0.0
0.0 2.6721492 0.205298140159 0.0
0.0 2.673350166 0.205215315289 0.0
0.0 2.674551132 0.205136327059 0.0
0.0 2.675752098 0.205048687269 0.0
0.0 2.676953064 0.204966257372 0.0
0.0 2.67815403 0.204880063879 0.0
0.0 2.679354996 0.204792970075 0.0
0.0 2.680555962 0.204709075829 0.0
0.0 2.681756928 0.204623722908 0.0
0.0 2.682957894 0.204542513047 0.0
0.0 2.684158859 0.204457378651 0.0
0.0 2.685359825 0.204370434024 0.0
0.0 2.686560791 0.204286432884 0.0
0.0 2.687761757 0.204200932029 0.0
0.0 2.688962723 0.204117267028 0.0
0.0 2.690163689 0.204032345503 0.0
0.0 2.691364655 0.203944879493 0.0
0.0 2.692565621 0.203860189309 0.0
0.0 2.693766587 0.203772291638 0.0
0.0 2.694967553 0.203687065418 0.0
0.0 2.696168519 0.203601780103 0.0
0.0 2.697369485 0.203513023103 0.0
0.0 2.698570451 0.203429435702 0.0
0.0 2.699771417 0.203342743217 0.0
0.0 2.700972383 0.203253527833 0.0
0.0 2.702173348 0.203163687777 0.0
0.0 2.703374314 0.203075679261 0.0
0.0 2.70457528 0.202988669225 0.0
0.0 2.705776246 0.202898203943 0.0
0.0 2.706977212 0.202813186773 0.0
0.0 2.708178178 0.20272493723 0.0
0.0 2.709379144 0.202637825522 0.0
0.0 2.71058011 0.202549785859 0.0
0.0 2.711781076 0.202459125152 0.0
0.0 2.712982042 0.202370819541 0.0
0.0 2.714183008 0.202281102824 0.0
0.0 2.715383974 0.202192870306 0.0
0.0 2.71658494 0.202103808641 0.0
0.0 2.717785906 0.20201256669 0.0
0.0 2.718986871 0.201924495457 0.0
0.0 2.720187837 0.201835047715 0.0
0.0 2.721388803 0.201745910556 0.0
0.0 2.722589769 0.201651615822 0.0
0.0 2.723790735 0.201563061612 0.0
0.0 2.724991701 0.201474248379 0.0
0.0 2.726192667 0.201381822969 0.0
0.0 2.727393633 0.201292341667 0.0
0.0 2.728594599 0.201200452273 0.0
0.0 2.729795565 0.201109623935 0.0
0.0 2.730996531 0.201016820555 0.0
0.0 2.732197497 0.200923217159 0.0
0.0 2.733398463 0.200832253097 0.0
0.0 2.734599429 0.200737878617 0.0
0.0 2.735800395 0.200646970921 0.0
0.0 2.73700136 0.200554509251 0.0
0.0 2.738202326 0.200461377091 0.0
0.0 2.739403292 0.20037021405 0.0
0.0 2.740604258 0.200276463371 0.0
0.0 2.741805224 0.200184621521 0.0
0.0 2.74300619 0.200091367339 0.0
0.0 2.744207156 0.199998121816 0.0
0.0 2.745408122 0.199903068923 0.0
0.0 2.746609088 0.199809236987 0.0
0.0 2.747810054 0.199718240832 0.0
0.0 2.74901102 0.199623989846 0.0
0.0 2.750211986 0.199529566797 0.0
0.0 2.751412952 0.199436970273 0.0
0.0 2.752613918 0.199346703037 0.0
0.0 2.753814884 0.199251049126 0.0
0.0 2.755015849 0.199156380236 0.0
0.0 2.756216815 0.199064090222 0.0
0.0 2.757417781 0.198969452507 0.0
0.0 2.758618747 0.198874296826 0.0
0.0 2.759819713 0.198780154556 0.0
0.0 2.761020679 0.19868772443 0.0
0.0 2.762221645 0.198591084809 0.0
0.0 2.763422611 0.198497826996 0.0
0.0 2.764623577 0.198401737507 0.0
0.0 2.765824543 0.198302564199 0.0
0.0 2.767025509 0.198209284967 0.0
0.0 2.768226475 0.198113040691 0.0
0.0 2.769427441 0.198018488767 0.0
0.0 2.770628407 0.197920166751 0.0
0.0 2.771829373 0.197822732614 0.0
0.0 2.773030338 0.197727955026 0.0
0.0 2.774231304 0.197631527212 0.0
0.0 2.77543227 0.197534630481 0.0
0.0 2.776633236 0.197438641057 0.0
0.0 2.777834202 0.197343731808 0.0
0.0 2.779035168 0.197244564155 0.0
0.0 2.780236134 0.19714908637 0.0
0.0 2.7814371 0.197050929048 0.0
0.0 2.782638066 0.196953631316 0.0
0.0 2.783839032 0.196857578566 0.0
0.0 2.785039998 0.196757469834 0.0
0.0 2.786240964 0.196660120802 0.0
0.0 2.78744193 0.196560766683 0.0
0.0 2.788642896 0.196463824554 0.0
0.0 2.789843862 0.196364211816 0.0
0.0 2.791044827 0.19626630712 0.0
0.0 2.792245793 0.196166228739 0.0
0.0 2.793446759 0.196066125304 0.0
0.0 2.794647725 0.195966387883 0.0
0.0 2.795848691 0.195865691101 0.0
0.0 2.797049657 0.195765769606 0.0
0.0 2.798250623 0.195665301617 0.0
0.0 2.799451589 0.195568560979 0.0
0.0 2.800652555 0.195468949964 0.0
0.0 2.801853521 0.195373548325 0.0
0.0 2.803054487 0.195275412083 0.0
0.0 2.804255453 0.195172638777 0.0
0.0 2.805456419 0.195072121306 0.0
0.0 2.806657385 0.194972107677 0.0
0.0 2.807858351 0.194872985117 0.0
0.0 2.809059316 0.194774938009 0.0
0.0 2.810260282 0.19467583374 0.0
0.0 2.811461248 0.194572035296 0.0
0.0 2.812662214 0.194471792612 0.0
0.0 2.81386318 0.194369617085 0.0
0.0 2.815064146 0.194267051922 0.0
0.0 2.816265112 0.194168690513 0.0
0.0 2.817466078 0.194072899683 0.0
0.0 2.818667044 0.193971757978 0.0
0.0 2.81986801 0.193870079145 0.0
0.0 2.821068976 0.193767285621 0.0
0.0 2.822269942 0.193662794456 0.0
0.0 2.823470908 0.1935637488 0.0
0.0 2.824671874 0.193462571264 0.0
0.0 2.825872839 0.193361038277 0.0
0.0 2.827073805 0.193259487163 0.0
0.0 2.828274771 0.193158623569 0.0
0.0 2.829475737 0.19305390629 0.0
0.0 2.830676703 0.192950903848 0.0
0.0 2.831877669 0.192849474139 0.0
0.0 2.833078635 0.192748821745 0.0
0.0 2.834279601 0.19264704871 0.0
0.0 2.835480567 0.192544286198 0.0
0.0 2.836681533 0.192441676315 0.0
0.0 2.837882499 0.192335570311 0.0
0.0 2.839083465 0.192233935035 0.0
0.0 2.840284431 0.19213066263 0.0
0.0 2.841485397 0.192027879754 0.0
0.0 2.842686363 0.19192275306 0.0
0.0 2.843887328 0.191820058168 0.0
0.0 2.845088294 0.191716194917 0.0
0.0 2.84628926 0.191613424944 0.0
0.0 2.847490226 0.191509842482 0.0
0.0 2.848691192 0.191404203431 0.0
0.0 2.849892158 0.191298585913 0.0
0.0 2.851093124 0.191194240347 0.0
0.0 2.85229409 0.191091684004 0.0
0.0 2.853495056 0.190986469268 0.0
0.0 2.854696022 0.190881979517 0.0
0.0 2.855896988 0.190774557109 0.0
0.0 2.857097954 0.190671608756 0.0
0.0 2.85829892 0.190563825859 0.0
0.0 2.859499886 0.190457204627 0.0
0.0 2.860700852 0.190352293456 0.0
0.0 2.861901817 0.19024658762 0.0
0.0 2.863102783 0.19014140296 0.0
0.0 2.864303749 0.190038284664 0.0
0.0 2.865504715 0.18992956017 0.0
0.0 2.866705681 0.189820796291 0.0
0.0 2.867906647 0.189714534383 0.0
0.0 2.869107613 0.189607823419 0.0
0.0 2.870308579 0.189500683815 0.0
0.0 2.871509545 0.189395831413 0.0
0.0 2.872710511 0.189289940939 0.0
0.0 2.873911477 0.189183601608 0.0
0.0 2.875112443 0.189080290015 0.0
0.0 2.876313409 0.188973743392 0.0
0.0 2.877514375 0.18886584393 0.0
0.0 2.878715341 0.18875549514 0.0
0.0 2.879916306 0.188649422599 0.0
0.0 2.881117272 0.188542117655 0.0
0.0 2.882318238 0.188434105787 0.0
0.0 2.883519204 0.188325654266 0.0
0.0 2.88472017 0.188218087731 0.0
0.0 2.885921136 0.188109467013 0.0
0.0 2.887122102 0.188003453745 0.0
0.0 2.888323068 0.187896913949 0.0
0.0 2.889524034 0.187792025893 0.0
0.0 2.890725 0.187683139444 0.0
0.0 2.891925966 0.187575041489 0.0
0.0 2.893126932 0.187463445971 0.0
0.0 2.894327898 0.187354348993 0.0
0.0 2.895528864 0.187246581987 0.0
0.0 2.89672983 0.187139503636 0.0
0.0 2.897930795 0.187029648661 0.0
0.0 2.899131761 0.186916792362 0.0
0.0 2.900332727 0.186809962744 0.0
0.0 2.901533693 0.18670366353 0.0
0.0 2.902734659 0.186590169896 0.0
0.0 2.903935625 0.18648057076 0.0
0.0 2.905136591 0.186372724005 0.0
0.0 2.906337557 0.186263838252 0.0
0.0 2.907538523 0.186156171356 0.0
0.0 2.908739489 0.186046682582 0.0
0.0 2.909940455 0.185933849787 0.0
0.0 2.911141421 0.185821297142 0.0
0.0 2.912342387 0.185712728074 0.0
0.0 2.913543353 0.185604061581 0.0
0.0 2.914744319 0.185493045324 0.0
0.0 2.915945284 0.185381140267 0.0
0.0 2.91714625 0.18527152847 0.0
0.0 2.918347216 0.185163265959 0.0
0.0 2.919548182 0.18505510331 0.0
0.0 2.920749148 0.184943053779 0.0
0.0 2.921950114 0.184832796569 0.0
0.0 2.92315108 0.184719863619 0.0
0.0 2.924352046 0.184610223455 0.0
0.0 2.925553012 0.184502379744 0.0
0.0 2.926753978 0.184391332256 0.0
0.0 2.927954944 0.184277767548 0.0
0.0 2.92915591 0.184169832303 0.0
0.0 2.930356876 0.184059213057 0.0
0.0 2.931557842 0.183949746148 0.0
0.0 2.932758808 0.183838723512 0.0
0.0 2.933959773 0.183728432001 0.0
0.0 2.935160739 0.183612299237 0.0
0.0 2.936361705 0.183501542222 0.0
0.0 2.937562671 0.183391763991 0.0
0.0 2.938763637 0.18328027276 0.0
0.0 2.939964603 0.183168142331 0.0
0.0 2.941165569 0.183058050557 0.0
0.0 2.942366535 0.182947257628 0.0
0.0 2.943567501 0.182834631784 0.0
0.0 2.944768467 0.182723320855 0.0
0.0 2.945969433 0.182611558258 0.0
0.0 2.947170399 0.182498928679 0.0
0.0 2.948371365 0.18238802159 0.0
0.0 2.949572331 0.182277239567 0.0
0.0 2.950773296 0.182166441883 0.0
0.0 2.951974262 0.182052384502 0.0
0.0 2.953175228 0.18193964426 0.0
0.0 2.954376194 0.181827300135 0.0
0.0 2.95557716 0.181715662252 0.0
0.0 2.956778126 0.181602959258 0.0
0.0 2.957979092 0.181492297803 0.0
0.0 2.959180058 0.181379962048 0.0
0.0 2.960381024 0.181266990768 0.0
0.0 2.96158199 0.181154245254 0.0
0.0 2.962782956 0.181043234135 0.0
0.0 2.963983922 0.180929152696 0.0
0.0 2.965184888 0.180816280125 0.0
0.0 2.966385854 0.180703089254 0.0
0.0 2.96758682 0.180591148001 0.0
0.0 2.968787785 0.180478952102 0.0
0.0 2.969988751 0.180365700362 0.0
0.0 2.971189717 0.180248710289 0.0
0.0 2.972390683 0.180134773788 0.0
0.0 2.973591649 0.180021696138 0.0
0.0 2.974792615 0.179911259538 0.0
0.0 2.975993581 0.179798673811 0.0
0.0 2.977194547 0.17968417577 0.0
0.0 2.978395513 0.179571703781 0.0
0.0 2.979596479 0.179459136806 0.0
0.0 2.980797445 0.179344271047 0.0
0.0 2.981998411 0.179227573677 0.0
0.0 2.983199377 0.179114160727 0.0
0.0 2.984400343 0.179003341548 0.0
0.0 2.985601309 0.178891530627 0.0
0.0 2.986802274 0.17877497352 0.0
0.0 2.98800324 0.178660502457 0.0
0.0 2.989204206 0.178544372547 0.0
0.0 2.990405172 0.178428941814 0.0
0.0 2.991606138 0.178314554066 0.0
0.0 2.992807104 0.178201947836 0.0
0.0 2.99400807 0.178086380835 0.0
0.0 2.995209036 0.17797367363 0.0
0.0 2.996410002 0.177859147857 0.0
0.0 2.997610968 0.177743175612 0.0
0.0 2.998811934 0.177625750839 0.0
0.0 3.0000129 0.177513117945 0.0
0.0 3.001213866 0.177398424365 0.0
0.0 3.002414832 0.177284905832 0.0
0.0 3.003615798 0.177168858136 0.0
0.0 3.004816763 0.177053194633 0.0
0.0 3.006017729 0.176937215698 0.0
0.0 3.007218695 0.176823098388 0.0
0.0 3.008419661 0.176707529576 0.0
0.0 3.009620627 0.176593729326 0.0
0.0 3.010821593 0.1764779742 0.0
0.0 3.012022559 0.176358849506 0.0
0.0 3.013223525 0.176244888918 0.0
0.0 3.014424491 0.176131720776 0.0
0.0 3.015625457 0.176017001438 0.0
0.0 3.016826423 0.175900635836 0.0
0.0 3.018027389 0.175785098474 0.0
0.0 3.019228355 0.175669285338 0.0
0.0 3.020429321 0.175553064143 0.0
0.0 3.021630287 0.175435007075 0.0
0.0 3.022831252 0.175318664005 0.0
0.0 3.024032218 0.175202348223 0.0
0.0 3.025233184 0.175088780306 0.0
0.0 3.02643415 0.174974725567 0.0
0.0 3.027635116 0.174859188665 0.0
0.0 3.028836082 0.174743265855 0.0
0.0 3.030037048 0.174628878169 0.0
0.0 3.031238014 0.174511543473 0.0
0.0 3.03243898 0.174395478733 0.0
0.0 3.033639946 0.174277619763 0.0
0.0 3.034840912 0.174160639396 0.0
0.0 3.036041878 0.174044904647 0.0
0.0 3.037242844 0.173927502009 0.0
0.0 3.03844381 0.173810455604 0.0
0.0 3.039644776 0.173693868065 0.0
0.0 3.040845741 0.173579206044 0.0
0.0 3.042046707 0.173465503729 0.0
0.0 3.043247673 0.173349700953 0.0
0.0 3.044448639 0.1732316406 0.0
0.0 3.045649605 0.173116376378 0.0
0.0 3.046850571 0.172999859636 0.0
0.0 3.048051537 0.172882670683 0.0
0.0 3.049252503 0.172764090138 0.0
0.0 3.050453469 0.172648915332 0.0
0.0 3.051654435 0.17253249861 0.0
0.0 3.052855401 0.172414071314 0.0
0.0 3.054056367 0.172295646122 0.0
0.0 3.055257333 0.172177797796 0.0
0.0 3.056458299 0.172061799019 0.0
0.0 3.057659264 0.17194731051 0.0
0.0 3.05886023 0.17183204842 0.0
0.0 3.060061196 0.171712990411 0.0
0.0 3.061262162 0.171595190732 0.0
0.0 3.062463128 0.171479820277 0.0
0.0 3.063664094 0.171365032297 0.0
0.0 3.06486506 0.171246244338 0.0
0.0 3.066066026 0.1711299645 0.0
0.0 3.067266992 0.171011514223 0.0
0.0 3.068467958 0.170893554115 0.0
0.0 3.069668924 0.170776785314 0.0
0.0 3.07086989 0.170658719706 0.0
0.0 3.072070856 0.170542253766 0.0
0.0 3.073271822 0.170425135445 0.0
0.0 3.074472788 0.170310843716 0.0
0.0 3.075673753 0.17019148595 0.0
0.0 3.076874719 0.170073866535 0.0
0.0 3.078075685 0.169956152804 0.0
0.0 3.079276651 0.169839555014 0.0
0.0 3.080477617 0.169724702364 0.0
0.0 3.081678583 0.169608162782 0.0
0.0 3.082879549 0.1694898279 0.0
0.0 3.084080515 0.169373103473 0.0
0.0 3.085281481 0.169257822265 0.0
0.0 3.086482447 0.169138892051 0.0
0.0 3.087683413 0.169020846816 0.0
0.0 3.088884379 0.168903652622 0.0
0.0 3.090085345 0.168786541052 0.0
0.0 3.091286311 0.168668965785 0.0
0.0 3.092487277 0.168551775257 0.0
0.0 3.093688242 0.168435094555 0.0
0.0 3.094889208 0.168318456383 0.0
0.0 3.096090174 0.168202273942 0.0
0.0 3.09729114 0.168087220753 0.0
0.0 3.098492106 0.167969906129 0.0
0.0 3.099693072 0.167849707418 0.0
0.0 3.100894038 0.167731415767 0.0
0.0 3.102095004 0.167614238655 0.0
0.0 3.10329597 0.167498169122 0.0
0.0 3.104496936 0.167381308628 0.0
0.0 3.105697902 0.167267416767 0.0
0.0 3.106898868 0.167150582169 0.0
0.0 3.108099834 0.167032682078 0.0
0.0 3.1093008 0.16691709527 0.0
0.0 3.110501766 0.166799956653 0.0
0.0 3.111702731 0.166682528005 0.0
0.0 3.112903697 0.166564910942 0.0
0.0 3.114104663 0.166449952472 0.0
0.0 3.115305629 0.166333751339 0.0
0.0 3.116506595 0.166218016879 0.0
0.0 3.117707561 0.16609879729 0.0
0.0 3.118908527 0.165980097743 0.0
0.0 3.120109493 0.165863059117 0.0
0.0 3.121310459 0.16574528401 0.0
0.0 3.122511425 0.16562971009 0.0
0.0 3.123712391 0.165513921708 0.0
0.0 3.124913357 0.165397286168 0.0
0.0 3.126114323 0.165278953335 0.0
0.0 3.127315289 0.165161824705 0.0
0.0 3.128516255 0.165043857265 0.0
0.0 3.12971722 0.164927613921 0.0
0.0 3.130918186 0.164813327614 0.0
0.0 3.132119152 0.164697202439 0.0
0.0 3.133320118 0.164580998485 0.0
0.0 3.134521084 0.16446265685 0.0
0.0 3.13572205 0.164346999207 0.0
0.0 3.136923016 0.164229908632 0.0
0.0 3.138123982 0.164110764716 0.0
0.0 3.139324948 0.163993032192 0.0
0.0 3.140525914 0.163876054032 0.0
0.0 3.14172688 0.163757596668 0.0
0.0 3.142927846 0.163638356611 0.0
0.0 3.144128812 0.163521132627 0.0
0.0 3.145329778 0.163402904149 0.0
0.0 3.146530744 0.163284391068 0.0
0.0 3.147731709 0.163163364844 0.0
0.0 3.148932675 0.163044481757 0.0
0.0 3.150133641 0.162928750823 0.0
0.0 3.151334607 0.162809914131 0.0
0.0 3.152535573 0.162690679228 0.0
0.0 3.153736539 0.162572019517 0.0
0.0 3.154937505 0.162452891891 0.0
0.0 3.156138471 0.162332831342 0.0
0.0 3.157339437 0.162215320245 0.0
0.0 3.158540403 0.162097012704 0.0
0.0 3.159741369 0.161978757986 0.0
0.0 3.160942335 0.161860493055 0.0
0.0 3.162143301 0.161741223637 0.0
0.0 3.163344267 0.161624292676 0.0
0.0 3.164545233 0.161506025336 0.0
0.0 3.165746198 0.161389530992 0.0
0.0 3.166947164 0.161272880032 0.0
0.0 3.16814813 0.161154182474 0.0
0.0 3.169349096 0.161037566717 0.0
0.0 3.170550062 0.160918965714 0.0
0.0 3.171751028 0.160799879258 0.0
0.0 3.172951994 0.160683035004 0.0
0.0 3.17415296 0.160567872561 0.0
0.0 3.175353926 0.160451050168 0.0
0.0 3.176554892 0.160333065695 0.0
0.0 3.177755858 0.160216256452 0.0
0.0 3.178956824 0.160097258902 0.0
0.0 3.18015779 0.159980274138 0.0
0.0 3.181358756 0.159864649513 0.0
0.0 3.182559721 0.159749035769 0.0
0.0 3.183760687 0.159631152772 0.0
0.0 3.184961653 0.159511745004 0.0
0.0 3.186162619 0.159394450365 0.0
0.0 3.187363585 0.159278905871 0.0
0.0 3.188564551 0.159161508436 0.0
0.0 3.189765517 0.15904234546 0.0
0.0 3.190966483 0.158925417261 0.0
0.0 3.192167449 0.158808112104 0.0
0.0 3.193368415 0.158690687 0.0
0.0 3.194569381 0.158574550403 0.0
0.0 3.195770347 0.158457645725 0.0
0.0 3.196971313 0.158340563877 0.0
0.0 3.198172279 0.158222754779 0.0
0.0 3.199373245 0.158105924386 0.0
0.0 3.20057421 0.157989095154 0.0
0.0 3.201775176 0.157872611956 0.0
0.0 3.202976142 0.157754987558 0.0
0.0 3.204177108 0.157637208 0.0
0.0 3.205378074 0.157520977257 0.0
0.0 3.20657904 0.157403686421 0.0
0.0 3.207780006 0.157287687334 0.0
0.0 3.208980972 0.157171588307 0.0
0.0 3.210181938 0.157055606754 0.0
0.0 3.211382904 0.1569397035 0.0
0.0 3.21258387 0.156822142616 0.0
0.0 3.213784836 0.156706251311 0.0
0.0 3.214985802 0.156590351912 0.0
0.0 3.216186768 0.156474200959 0.0
0.0 3.217387734 0.156358418211 0.0
0.0 3.218588699 0.156241491039 0.0
0.0 3.219789665 0.156126046876 0.0
0.0 3.220990631 0.156009607324 0.0
0.0 3.222191597 0.155892550674 0.0
0.0 3.223392563 0.155775589898 0.0
0.0 3.224593529 0.155659113254 0.0
0.0 3.225794495 0.155543063698 0.0
0.0 3.226995461 0.155427196567 0.0
0.0 3.228196427 0.155311188162 0.0
0.0 3.229397393 0.155195261456 0.0
0.0 3.230598359 0.155079883003 0.0
0.0 3.231799325 0.15496430851 0.0
0.0 3.233000291 0.154848854782 0.0
0.0 3.234201257 0.154733811399 0.0
0.0 3.235402223 0.154617295644 0.0
0.0 3.236603188 0.154500747053 0.0
0.0 3.237804154 0.154385130919 0.0
0.0 3.23900512 0.154269584869 0.0
0.0 3.240206086 0.154154569296 0.0
0.0 3.241407052 0.15404078535 0.0
0.0 3.242608018 0.153924251337 0.0
0.0 3.243808984 0.153808035271 0.0
0.0 3.24500995 0.15369273419 0.0
0.0 3.246210916 0.153577622548 0.0
0.0 3.247411882 0.153462653019 0.0
0.0 3.248612848 0.153347926168 0.0
0.0 3.249813814 0.153231809747 0.0
0.0 3.25101478 0.153116656526 0.0
0.0 3.252215746 0.153001708086 0.0
0.0 3.253416712 0.152887895477 0.0
0.0 3.254617677 0.152773711553 0.0
0.0 3.255818643 0.152658649169 0.0
0.0 3.257019609 0.152544155409 0.0
0.0 3.258220575 0.152428506608 0.0
0.0 3.259421541 0.152313723083 0.0
0.0 3.260622507 0.152199554391 0.0
0.0 3.261823473 0.152084114197 0.0
0.0 3.263024439 0.151969201604 0.0
0.0 3.264225405 0.15185424793 0.0
0.0 3.265426371 0.151740437949 0.0
0.0 3.266627337 0.151627192897 0.0
0.0 3.267828303 0.151513325718 0.0
0.0 3.269029269 0.151397893906 0.0
0.0 3.270230235 0.151284103056 0.0
0.0 3.271431201 0.151170219101 0.0
0.0 3.272632166 0.151056092227 0.0
0.0 3.273833132 0.150941986542 0.0
0.0 3.275034098 0.150827487378 0.0
0.0 3.276235064 0.150712531354 0.0
0.0 3.27743603 0.150598836068 0.0
0.0 3.278636996 0.150486623168 0.0
0.0 3.279837962 0.150373063987 0.0
0.0 3.281038928 0.150258746503 0.0
0.0 3.282239894 0.150144019302 0.0
0.0 3.28344086 0.150030050893 0.0
0.0 3.284641826 0.1499178152 0.0
0.0 3.285842792 0.149804488824 0.0
0.0 3.287043758 0.149691086468 0.0
0.0 3.288244724 0.149577449561 0.0
0.0 3.289445689 0.149463968513 0.0
0.0 3.290646655 0.149351282081 0.0
0.0 3.291847621 0.14923875822 0.0
0.0 3.293048587 0.149125790762 0.0
0.0 3.294249553 0.149012183496 0.0
0.0 3.295450519 0.148899180059 0.0
0.0 3.296651485 0.148787192549 0.0
0.0 3.297852451 0.148673391837 0.0
0.0 3.299053417 0.148560429187 0.0
0.0 3.300254383 0.148447383098 0.0
0.0 3.301455349 0.148335506797 0.0
0.0 3.302656315 0.148223755207 0.0
0.0 3.303857281 0.148110796886 0.0
0.0 3.305058247 0.147998210482 0.0
0.0 3.306259213 0.14788580816 0.0
0.0 3.307460178 0.147772776368 0.0
0.0 3.308661144 0.147660623618 0.0
0.0 3.30986211 0.147548425684 0.0
0.0 3.311063076 0.147436454361 0.0
0.0 3.312264042 0.147325311733 0.0
0.0 3.313465008 0.147214061359 0.0
0.0 3.314665974 0.147102307124 0.0
0.0 3.31586694 0.14698955712 0.0
0.0 3.317067906 0.146878320895 0.0
0.0 3.318268872 0.146766406221 0.0
0.0 3.319469838 0.14665470715 0.0
0.0 3.320670804 0.146543518087 0.0
0.0 3.32187177 0.146432460814 0.0
0.0 3.323072736 0.146320918053 0.0
0.0 3.324273702 0.146210171081 0.0
0.0 3.325474667 0.14609880995 0.0
0.0 3.326675633 0.145987759676 0.0
0.0 3.327876599 0.145877372992 0.0
0.0 3.329077565 0.145766067217 0.0
0.0 3.330278531 0.145655300778 0.0
0.0 3.331479497 0.145544666286 0.0
0.0 3.332680463 0.145434098827 0.0
0.0 3.333881429 0.145323629496 0.0
0.0 3.335082395 0.145213244888 0.0
0.0 3.336283361 0.145102945508 0.0
0.0 3.337484327 0.14499273188 0.0
0.0 3.338685293 0.144882604523 0.0
0.0 3.339886259 0.144772563953 0.0
0.0 3.341087225 0.14466261068 0.0
0.0 3.342288191 0.14455274523 0.0
0.0 3.343489156 0.144442968217 0.0
0.0 3.344690122 0.144333279975 0.0
0.0 3.345891088 0.144223681115 0.0
0.0 3.347092054 0.144114172157 0.0
0.0 3.34829302 0.144004753622 0.0
0.0 3.349493986 0.14389542603 0.0
0.0 3.350694952 0.143786189888 0.0
0.0 3.351895918 0.143677045721 0.0
0.0 3.353096884 0.143567994059 0.0
0.0 3.35429785 0.143459035422 0.0
0.0 3.355498816 0.14335017033 0.0
0.0 3.356699782 0.143241399307 0.0
0.0 3.357900748 0.143132722874 0.0
0.0 3.359101714 0.143024141553 0.0
0.0 3.36030268 0.14291565837 0.0
0.0 3.361503645 0.142807557749 0.0
0.0 3.362704611 0.142698992284 0.0
0.0 3.363905577 0.142590778056 0.0
0.0 3.365106543 0.142482680175 0.0
0.0 3.366307509 0.142374680543 0.0
0.0 3.367508475 0.142266779686 0.0
0.0 3.368709441 0.142158978127 0.0
0.0 3.369910407 0.14205127659 0.0
0.0 3.371111373 0.141943944912 0.0
0.0 3.372312339 0.141836507816 0.0
0.0 3.373513305 0.141729208138 0.0
0.0 3.374714271 0.141623106221 0.0
0.0 3.375915237 0.141515262825 0.0
0.0 3.377116203 0.141407249771 0.0
0.0 3.378317169 0.14130034409 0.0
0.0 3.379518134 0.141193321371 0.0
0.0 3.3807191 0.141086897086 0.0
0.0 3.381920066 0.140980413357 0.0
0.0 3.383121032 0.14087329656 0.0
0.0 3.384321998 0.140767175305 0.0
0.0 3.385522964 0.140660826749 0.0
0.0 3.38672393 0.140554849583 0.0
0.0 3.387924896 0.1404487668 0.0
0.0 3.389125862 0.140342491567 0.0
0.0 3.390326828 0.140236473706 0.0
0.0 3.391527794 0.140131627964 0.0
0.0 3.39272876 0.140026458331 0.0
0.0 3.393929726 0.139920852228 0.0
0.0 3.395130692 0.139814330368 0.0
0.0 3.396331658 0.139708898794 0.0
0.0 3.397532623 0.139604396556 0.0
0.0 3.398733589 0.139500268656 0.0
0.0 3.399934555 0.139395436007 0.0
0.0 3.401135521 0.139288731086 0.0
0.0 3.402336487 0.139183150932 0.0
0.0 3.403537453 0.139079179736 0.0
0.0 3.404738419 0.138975944735 0.0
0.0 3.405939385 0.138872099014 0.0
0.0 3.407140351 0.138767068736 0.0
0.0 3.408341317 0.138661864012 0.0
0.0 3.409542283 0.138558585275 0.0
0.0 3.410743249 0.138455684185 0.0
0.0 3.411944215 0.138354471649 0.0
0.0 3.413145181 0.138252145811 0.0
0.0 3.414346146 0.138147247484 0.0
0.0 3.415547112 0.138041856584 0.0
0.0 3.416748078 0.137937308383 0.0
0.0 3.417949044 0.137833008378 0.0
0.0 3.41915001 0.137729687428 0.0
0.0 3.420350976 0.137627418117 0.0
0.0 3.421551942 0.137525062274 0.0
0.0 3.422752908 0.137421363329 0.0
0.0 3.423953874 0.137318143639 0.0
0.0 3.42515484 0.137216549237 0.0
0.0 3.426355806 0.137114351003 0.0
0.0 3.427556772 0.137012667471 0.0
0.0 3.428757738 0.136911665566 0.0
0.0 3.429958704 0.136808597282 0.0
0.0 3.43115967 0.13670625637 0.0
0.0 3.432360635 0.136605325078 0.0
0.0 3.433561601 0.136504353761 0.0
0.0 3.434762567 0.136402716662 0.0
0.0 3.435963533 0.136297600993 0.0
0.0 3.437164499 0.136195993896 0.0
0.0 3.438365465 0.136096278447 0.0
0.0 3.439566431 0.135996746576 0.0
0.0 3.440767397 0.135896125744 0.0
0.0 3.441968363 0.13579445517 0.0
0.0 3.443169329 0.1356942244 0.0
0.0 3.444370295 0.135593807416 0.0
0.0 3.445571261 0.135493549415 0.0
0.0 3.446772227 0.135393383475 0.0
0.0 3.447973193 0.135293817276 0.0
0.0 3.449174159 0.1351933165 0.0
0.0 3.450375124 0.135093221486 0.0
0.0 3.45157609 0.134993916676 0.0
0.0 3.452777056 0.13489481847 0.0
0.0 3.453978022 0.13479427548 0.0
0.0 3.455178988 0.134694032061 0.0
0.0 3.456379954 0.134594346347 0.0
0.0 3.45758092 0.134495770416 0.0
0.0 3.458781886 0.134397140442 0.0
0.0 3.459982852 0.134297949036 0.0
0.0 3.461183818 0.134199079394 0.0
0.0 3.462384784 0.134101759647 0.0
0.0 3.46358575 0.13400325808 0.0
0.0 3.464786716 0.133904630575 0.0
0.0 3.465987682 0.133806946342 0.0
0.0 3.467188648 0.13370989744 0.0
0.0 3.468389613 0.13361253602 0.0
0.0 3.469590579 0.133514989758 0.0
0.0 3.470791545 0.133418365419 0.0
0.0 3.471992511 0.133321575766 0.0
0.0 3.473193477 0.133224536972 0.0
0.0 3.474394443 0.133127710894 0.0
0.0 3.475595409 0.133029717187 0.0
0.0 3.476796375 0.132931578766 0.0
0.0 3.477997341 0.132835048904 0.0
0.0 3.479198307 0.132737951956 0.0
0.0 3.480399273 0.132642520609 0.0
0.0 3.481600239 0.132547568118 0.0
0.0 3.482801205 0.132452842084 0.0
0.0 3.484002171 0.132356455772 0.0
0.0 3.485203137 0.132259718087 0.0
0.0 3.486404102 0.132164678371 0.0
0.0 3.487605068 0.132070117355 0.0
0.0 3.488806034 0.131975155229 0.0
0.0 3.490007 0.131880112327 0.0
0.0 3.491207966 0.131786387475 0.0
0.0 3.492408932 0.131691186233 0.0
0.0 3.493609898 0.131595575097 0.0
0.0 3.494810864 0.131502162586 0.0
0.0 3.49601183 0.131406681688 0.0
0.0 3.497212796 0.131312409598 0.0
0.0 3.498413762 0.131218719213 0.0
0.0 3.499614728 0.131124999058 0.0
0.0 3.500815694 0.131030643149 0.0
0.0 3.50201666 0.130936244403 0.0
0.0 3.503217626 0.130843459441 0.0
0.0 3.504418591 0.130750663048 0.0
0.0 3.505619557 0.130657362219 0.0
0.0 3.506820523 0.130564518563 0.0
0.0 3.508021489 0.130471514227 0.0
0.0 3.509222455 0.130377746265 0.0
0.0 3.510423421 0.130286032061 0.0
0.0 3.511624387 0.130194360578 0.0
0.0 3.512825353 0.130103463299 0.0
0.0 3.514026319 0.130011914152 0.0
0.0 3.515227285 0.129920262768 0.0
0.0 3.516428251 0.129829561062 0.0
0.0 3.517629217 0.129738914372 0.0
0.0 3.518830183 0.12964737854 0.0
0.0 3.520031149 0.129554290383 0.0
0.0 3.521232114 0.129462519305 0.0
0.0 3.52243308 0.1293717208 0.0
0.0 3.523634046 0.129281792504 0.0
0.0 3.524835012 0.129192461981 0.0
0.0 3.526035978 0.1291026916 0.0
0.0 3.527236944 0.129012542844 0.0
0.0 3.52843791 0.128922211869 0.0
0.0 3.529638876 0.128832691754 0.0
0.0 3.530839842 0.128742129085 0.0
0.0 3.532040808 0.128652981985 0.0
0.0 3.533241774 0.128563773701 0.0
0.0 3.53444274 0.128475142601 0.0
0.0 3.535643706 0.128386545429 0.0
0.0 3.536844672 0.128297503076 0.0
0.0 3.538045638 0.128209284252 0.0
0.0 3.539246603 0.128122286156 0.0
0.0 3.540447569 0.128033851081 0.0
0.0 3.541648535 0.127945676772 0.0
0.0 3.542849501 0.127858728216 0.0
0.0 3.544050467 0.127772108845 0.0
0.0 3.545251433 0.127684797538 0.0
0.0 3.546452399 0.127598179043 0.0
0.0 3.547653365 0.127511227481 0.0
0.0 3.548854331 0.127423159547 0.0
0.0 3.550055297 0.127335231091 0.0
0.0 3.551256263 0.127247871544 0.0
0.0 3.552457229 0.127161355331 0.0
0.0 3.553658195 0.127074930436 0.0
0.0 3.554859161 0.126989600059 0.0
0.0 3.556060127 0.126903647407 0.0
0.0 3.557261092 0.126817758763 0.0
0.0 3.558462058 0.126732424827 0.0
0.0 3.559663024 0.126647277756 0.0
0.0 3.56086399 0.126562702295 0.0
0.0 3.562064956 0.126478124787 0.0
0.0 3.563265922 0.126392959589 0.0
0.0 3.564466888 0.126309021786 0.0
0.0 3.565667854 0.126225908282 0.0
0.0 3.56686882 0.126142104029 0.0
0.0 3.568069786 0.126057756502 0.0
0.0 3.569270752 0.125973920147 0.0
0.0 3.570471718 0.125890556857 0.0
0.0 3.571672684 0.125806685783 0.0
0.0 3.57287365 0.125724205354 0.0
0.0 3.574074616 0.125642138399 0.0
0.0 3.575275581 0.125559123493 0.0
0.0 3.576476547 0.12547588119 0.0
0.0 3.577677513 0.125393370499 0.0
0.0 3.578878479 0.125310875736 0.0
0.0 3.580079445 0.125228862989 0.0
0.0 3.581280411 0.125147202197 0.0
0.0 3.582481377 0.125065793847 0.0
0.0 3.583682343 0.124984468932 0.0
0.0 3.584883309 0.124903701681 0.0
0.0 3.586084275 0.124824007987 0.0
0.0 3.587285241 0.124743213398 0.0
0.0 3.588486207 0.124662191929 0.0
0.0 3.589687173 0.124582033313 0.0
0.0 3.590888139 0.124501702926 0.0
0.0 3.592089105 0.124421331094 0.0
0.0 3.59329007 0.124341369008 0.0
0.0 3.594491036 0.1242619297 0.0
0.0 3.595692002 0.124183540807 0.0
0.0 3.596892968 0.124105358292 0.0
0.0 3.598093934 0.124026808517 0.0
0.0 3.5992949 0.123948758421 0.0
0.0 3.600495866 0.123869060377 0.0
0.0 3.601696832 0.123789983426 0.0
0.0 3.602897798 0.123711934196 0.0
0.0 3.604098764 0.123635529218 0.0
0.0 3.60529973 0.12355868288 0.0
0.0 3.606500696 0.123480821443 0.0
0.0 3.607701662 0.123402854277 0.0
0.0 3.608902628 0.123325867 0.0
0.0 3.610103594 0.123249535075 0.0
0.0 3.611304559 0.123174667242 0.0
0.0 3.612505525 0.123097779928 0.0
0.0 3.613706491 0.123020795953 0.0
0.0 3.614907457 0.122943932132 0.0
0.0 3.616108423 0.122868053777 0.0
0.0 3.617309389 0.122792563051 0.0
0.0 3.618510355 0.122716736961 0.0
0.0 3.619711321 0.122641572469 0.0
0.0 3.620912287 0.122566767327 0.0
0.0 3.622113253 0.122492649364 0.0
0.0 3.623314219 0.122417936524 0.0
0.0 3.624515185 0.122343489623 0.0
0.0 3.625716151 0.122269866528 0.0
0.0 3.626917117 0.122196381568 0.0
0.0 3.628118082 0.122122537735 0.0
0.0 3.629319048 0.12204859125 0.0
0.0 3.630520014 0.12197563319 0.0
0.0 3.63172098 0.121904029296 0.0
0.0 3.632921946 0.121831523704 0.0
0.0 3.634122912 0.121758330936 0.0
0.0 3.635323878 0.12168571554 0.0
0.0 3.636524844 0.121613336361 0.0
0.0 3.63772581 0.121541688435 0.0
0.0 3.638926776 0.121469775436 0.0
0.0 3.640127742 0.121398128264 0.0
0.0 3.641328708 0.1213269275 0.0
0.0 3.642529674 0.121256690562 0.0
0.0 3.64373064 0.121187039445 0.0
0.0 3.644931606 0.121117243608 0.0
0.0 3.646132571 0.121047932001 0.0
0.0 3.647333537 0.120978177041 0.0
0.0 3.648534503 0.120908177806 0.0
0.0 3.649735469 0.120837549383 0.0
0.0 3.650936435 0.12076674622 0.0
0.0 3.652137401 0.120697561687 0.0
0.0 3.653338367 0.120628562382 0.0
0.0 3.654539333 0.120559691927 0.0
0.0 3.655740299 0.120491358521 0.0
0.0 3.656941265 0.120423298697 0.0
0.0 3.658142231 0.120356328048 0.0
0.0 3.659343197 0.120288729396 0.0
0.0 3.660544163 0.120220799032 0.0
0.0 3.661745129 0.120153279126 0.0
0.0 3.662946095 0.120086330265 0.0
0.0 3.66414706 0.120019655521 0.0
0.0 3.665348026 0.119953219473 0.0
0.0 3.666548992 0.119887022791 0.0
0.0 3.667749958 0.119821210036 0.0
0.0 3.668950924 0.119756511902 0.0
0.0 3.67015189 0.119692137989 0.0
0.0 3.671352856 0.119627097447 0.0
0.0 3.672553822 0.119561789802 0.0
0.0 3.673754788 0.119496779141 0.0
0.0 3.674955754 0.119431553004 0.0
0.0 3.67615672 0.119366933821 0.0
0.0 3.677357686 0.119303083716 0.0
0.0 3.678558652 0.119239852009 0.0
0.0 3.679759618 0.119176298892 0.0
0.0 3.680960584 0.119113026058 0.0
0.0 3.682161549 0.11904986661 0.0
0.0 3.683362515 0.118987544703 0.0
0.0 3.684563481 0.118925051109 0.0
0.0 3.685764447 0.118861575041 0.0
0.0 3.686965413 0.118799007396 0.0
0.0 3.688166379 0.118738266914 0.0
0.0 3.689367345 0.118677791574 0.0
0.0 3.690568311 0.118616548212 0.0
0.0 3.691769277 0.118555704003 0.0
0.0 3.692970243 0.118494320692 0.0
0.0 3.694171209 0.118433492928 0.0
0.0 3.695372175 0.118373231005 0.0
0.0 3.696573141 0.118314436752 0.0
0.0 3.697774107 0.118254885729 0.0
0.0 3.698975073 0.118194588374 0.0
0.0 3.700176038 0.118134865764 0.0
0.0 3.701377004 0.118075579196 0.0
0.0 3.70257797 0.118016628471 0.0
0.0 3.703778936 0.117958236066 0.0
0.0 3.704979902 0.117901006307 0.0
0.0 3.706180868 0.11784332028 0.0
0.0 3.707381834 0.11778539923 0.0
0.0 3.7085828 0.117727648746 0.0
0.0 3.709783766 0.11767062179 0.0
0.0 3.710984732 0.117613920128 0.0
0.0 3.712185698 0.117557367698 0.0
0.0 3.713386664 0.11749994655 0.0
0.0 3.71458763 0.117443567577 0.0
0.0 3.715788596 0.117387399605 0.0
0.0 3.716989562 0.117331610114 0.0
0.0 3.718190527 0.117277146322 0.0
0.0 3.719391493 0.117222116515 0.0
0.0 3.720592459 0.117166570809 0.0
0.0 3.721793425 0.117111451539 0.0
0.0 3.722994391 0.117057206219 0.0
0.0 3.724195357 0.117003230632 0.0
0.0 3.725396323 0.116949525097 0.0
0.0 3.726597289 0.11689609025 0.0
0.0 3.727798255 0.116842926733 0.0
0.0 3.728999221 0.116790043165 0.0
0.0 3.730200187 0.116738250588 0.0
0.0 3.731401153 0.116685552885 0.0
0.0 3.732602119 0.116632998766 0.0
0.0 3.733803085 0.116581201505 0.0
0.0 3.735004051 0.116529679423 0.0
0.0 3.736205016 0.116478433208 0.0
0.0 3.737405982 0.116427463409 0.0
0.0 3.738606948 0.116376770717 0.0
0.0 3.739807914 0.116326366651 0.0
0.0 3.74100888 0.116276576561 0.0
0.0 3.742209846 0.116226469658 0.0
0.0 3.743410812 0.116176784221 0.0
0.0 3.744611778 0.11612771993 0.0
0.0 3.745812744 0.116079591173 0.0
0.0 3.74701371 0.116030492416 0.0
0.0 3.748214676 0.115981294365 0.0
0.0 3.749415642 0.115933112927 0.0
0.0 3.750616608 0.115885226868 0.0
0.0 3.751817574 0.115837625039 0.0
0.0 3.753018539 0.115790308131 0.0
0.0 3.754219505 0.115743276715 0.0
0.0 3.755420471 0.115696531484 0.0
0.0 3.756621437 0.115650073089 0.0
0.0 3.757822403 0.115603902184 0.0
0.0 3.759023369 0.115558019422 0.0
0.0 3.760224335 0.115512425457 0.0
0.0 3.761425301 0.115467124774 0.0
0.0 3.762626267 0.115422280487 0.0
0.0 3.763827233 0.115377488918 0.0
0.0 3.765028199 0.115332950943 0.0
0.0 3.766229165 0.11528881052 0.0
0.0 3.767430131 0.115244963104 0.0
0.0 3.768631097 0.115201409078 0.0
0.0 3.769832063 0.115158149103 0.0
0.0 3.771033028 0.115115183872 0.0
0.0 3.772233994 0.115072513973 0.0
0.0 3.77343496 0.115030140102 0.0
0.0 3.774635926 0.114988062921 0.0
0.0 3.775836892 0.114946283091 0.0
0.0 3.777037858 0.114904901294 0.0
0.0 3.778238824 0.114863941028 0.0
0.0 3.77943979 0.114822750074 0.0
0.0 3.780640756 0.114782150528 0.0
0.0 3.781841722 0.114741869092 0.0
0.0 3.783042688 0.11470210989 0.0
0.0 3.784243654 0.114662948913 0.0
0.0 3.78544462 0.114623170911 0.0
0.0 3.786645586 0.114583759909 0.0
0.0 3.787846552 0.114544984984 0.0
0.0 3.789047517 0.114506526607 0.0
0.0 3.790248483 0.114468399225 0.0
0.0 3.791449449 0.114430506195 0.0
0.0 3.792650415 0.114392959064 0.0
0.0 3.793851381 0.114355780783 0.0
0.0 3.795052347 0.114318789738 0.0
0.0 3.796253313 0.114282164272 0.0
0.0 3.797454279 0.114245850495 0.0
0.0 3.798655245 0.114209846744 0.0
0.0 3.799856211 0.114174155775 0.0
0.0 3.801057177 0.114139100798 0.0
0.0 3.802258143 0.114103703008 0.0
0.0 3.803459109 0.114068945465 0.0
0.0 3.804660075 0.114034501949 0.0
0.0 3.805861041 0.114000372505 0.0
0.0 3.807062006 0.113966557837 0.0
0.0 3.808262972 0.113933058566 0.0
0.0 3.809463938 0.113899875399 0.0
0.0 3.810664904 0.113867009012 0.0
0.0 3.81186587 0.113834460085 0.0
0.0 3.813066836 0.113802229299 0.0
0.0 3.814267802 0.113770317332 0.0
0.0 3.815468768 0.113738724866 0.0
0.0 3.816669734 0.113707452582 0.0
0.0 3.8178707 0.113676501168 0.0
0.0 3.819071666 0.113645871294 0.0
0.0 3.820272632 0.11361556365 0.0
0.0 3.821473598 0.113585578919 0.0
0.0 3.822674564 0.113555917784 0.0
0.0 3.82387553 0.113526580934 0.0
0.0 3.825076495 0.113497569075 0.0
0.0 3.826277461 0.113468882846 0.0
0.0 3.827478427 0.113440522957 0.0
0.0 3.828679393 0.113412490097 0.0
0.0 3.829880359 0.113384784954 0.0
0.0 3.831081325 0.113357408216 0.0
0.0 3.832282291 0.113330360572 0.0
0.0 3.833483257 0.113303642713 0.0
0.0 3.834684223 0.113277255327 0.0
0.0 3.835885189 0.113251199108 0.0
0.0 3.837086155 0.113225474746 0.0
0.0 3.838287121 0.113200082937 0.0
0.0 3.839488087 0.113175024373 0.0
0.0 3.840689053 0.11315029974 0.0
0.0 3.841890019 0.113125909739 0.0
0.0 3.843090984 0.113101855083 0.0
0.0 3.84429195 0.113078136429 0.0
0.0 3.845492916 0.113054754492 0.0
0.0 3.846693882 0.113031709968 0.0
0.0 3.847894848 0.113009003558 0.0
0.0 3.849095814 0.112986635955 0.0
0.0 3.85029678 0.112964607862 0.0
0.0 3.851497746 0.112942919976 0.0
0.0 3.852698712 0.112921572999 0.0
0.0 3.853899678 0.112900567628 0.0
0.0 3.855100644 0.112879904567 0.0
0.0 3.85630161 0.112859584519 0.0
0.0 3.857502576 0.112839608186 0.0
0.0 3.858703542 0.112819976271 0.0
0.0 3.859904507 0.112800689489 0.0
0.0 3.861105473 0.112781748517 0.0
0.0 3.862306439 0.112763154075 0.0
0.0 3.863507405 0.112744906869 0.0
0.0 3.864708371 0.112727007606 0.0
0.0 3.865909337 0.112709456992 0.0
0.0 3.867110303 0.112692255736 0.0
0.0 3.868311269 0.112675404545 0.0
0.0 3.869512235 0.112658904129 0.0
0.0 3.870713201 0.112642755198 0.0
0.0 3.871914167 0.112626958461 0.0
0.0 3.873115133 0.112611514629 0.0
0.0 3.874316099 0.112596424416 0.0
0.0 3.875517065 0.112581688531 0.0
0.0 3.876718031 0.11256730769 0.0
0.0 3.877918996 0.112553282616 0.0
0.0 3.879119962 0.112539614001 0.0
0.0 3.880320928 0.112526302571 0.0
0.0 3.881521894 0.112513349043 0.0
0.0 3.88272286 0.112500754132 0.0
0.0 3.883923826 0.112488518555 0.0
0.0 3.885124792 0.112476643031 0.0
0.0 3.886325758 0.112465128276 0.0
0.0 3.887526724 0.112453975012 0.0
0.0 3.88872769 0.112443183956 0.0
0.0 3.889928656 0.112432755829 0.0
0.0 3.891129622 0.112422691352 0.0
0.0 3.892330588 0.112412991248 0.0
0.0 3.893531554 0.112403656238 0.0
0.0 3.89473252 0.112394687044 0.0
0.0 3.895933485 0.112386084399 0.0
0.0 3.897134451 0.112377849013 0.0
0.0 3.898335417 0.112369981622 0.0
0.0 3.899536383 0.112362482941 0.0
0.0 3.900737349 0.112355353703 0.0
0.0 3.901938315 0.112348594635 0.0
0.0 3.903139281 0.112342206464 0.0
0.0 3.904340247 0.11233618992 0.0
0.0 3.905541213 0.112330545731 0.0
0.0 3.906742179 0.112325274626 0.0
0.0 3.907943145 0.112320377337 0.0
0.0 3.909144111 0.112315854596 0.0
0.0 3.910345077 0.112311707133 0.0
0.0 3.911546043 0.112307937279 0.0
0.0 3.912747009 0.112305067745 0.0
0.0 3.913947974 0.112301530395 0.0
0.0 3.91514894 0.112298884743 0.0
0.0 3.916349906 0.112296624678 0.0
0.0 3.917550872 0.112294744298 0.0
0.0 3.918751838 0.11229324434 0.0
0.0 3.919952804 0.112292125542 0.0
0.0 3.92115377 0.112291388643 0.0
0.0 3.922354736 0.11229103438 0.0
0.0 3.923555702 0.112291063493 0.0
0.0 3.924756668 0.112291476723 0.0
0.0 3.925957634 0.112292274811 0.0
0.0 3.9271586 0.112293488889 0.0
0.0 3.928359566 0.112295427275 0.0
0.0 3.929560532 0.112297773042 0.0
0.0 3.930761498 0.112299787851 0.0
0.0 3.931962463 0.112302066016 0.0
0.0 3.933163429 0.112305186946 0.0
0.0 3.934364395 0.112308699849 0.0
0.0 3.935565361 0.112312603566 0.0
0.0 3.936766327 0.112316898842 0.0
0.0 3.937967293 0.112321586432 0.0
0.0 3.939168259 0.112326667073 0.0
0.0 3.940369225 0.112332170218 0.0
0.0 3.941570191 0.11233853243 0.0
0.0 3.942771157 0.112344609746 0.0
0.0 3.943972123 0.112350936567 0.0
0.0 3.945173089 0.112357992401 0.0
0.0 3.946374055 0.112365447153 0.0
0.0 3.947575021 0.112373300226 0.0
0.0 3.948775987 0.112381552374 0.0
0.0 3.949976952 0.112390204345 0.0
0.0 3.951177918 0.112399278424 0.0
0.0 3.952378884 0.112408817677 0.0
0.0 3.95357985 0.11241859619 0.0
0.0 3.954780816 0.112428825694 0.0
0.0 3.955981782 0.112439488181 0.0
0.0 3.957182748 0.112450555048 0.0
0.0 3.958383714 0.112462037024 0.0
0.0 3.95958468 0.112473944823 0.0
0.0 3.960785646 0.112486189532 0.0
0.0 3.961986612 0.112498881529 0.0
0.0 3.963187578 0.112511981715 0.0
0.0 3.964388544 0.112525490857 0.0
0.0 3.96558951 0.112539409718 0.0
0.0 3.966790476 0.112553739064 0.0
0.0 3.967991441 0.112568479649 0.0
0.0 3.969192407 0.112583685372 0.0
0.0 3.970393373 0.112599518414 0.0
0.0 3.971594339 0.112615215362 0.0
0.0 3.972795305 0.112631570023 0.0
0.0 3.973996271 0.112648378311 0.0
0.0 3.975197237 0.112665602564 0.0
0.0 3.976398203 0.112683243456 0.0
0.0 3.977599169 0.112701301764 0.0
0.0 3.978800135 0.112719778258 0.0
0.0 3.980001101 0.112738673709 0.0
0.0 3.981202067 0.112757988895 0.0
0.0 3.982403033 0.112777724592 0.0
0.0 3.983603999 0.112797881577 0.0
0.0 3.984804964 0.11281846061 0.0
0.0 3.98600593 0.112839462502 0.0
0.0 3.987206896 0.112860888017 0.0
0.0 3.988407862 0.112882737933 0.0
0.0 3.989608828 0.112905013032 0.0
0.0 3.990809794 0.112927714094 0.0
0.0 3.99201076 0.1129508419 0.0
0.0 3.993211726 0.112974397234 0.0
0.0 3.994412692 0.11299838088 0.0
0.0 3.995613658 0.113022793621 0.0
0.0 3.996814624 0.113047636243 0.0
0.0 3.99801559 0.113072909531 0.0
0.0 3.999216556 0.113098614273 0.0
0.0 4.000417522 0.113124751258 0.0
0.0 4.001618488 0.113151365501 0.0
0.0 4.002819453 0.113178332571 0.0
0.0 4.004020419 0.113205763509 0.0
0.0 4.005221385 0.113233637343 0.0
0.0 4.006422351 0.113261947367 0.0
0.0 4.007623317 0.113290694373 0.0
0.0 4.008824283 0.113319879154 0.0
0.0 4.010025249 0.113349502503 0.0
0.0 4.011226215 0.113379565215 0.0
0.0 4.012427181 0.113410068087 0.0
0.0 4.013628147 0.113441011912 0.0
0.0 4.014829113 0.113472397489 0.0
0.0 4.016030079 0.113504225615 0.0
0.0 4.017231045 0.113536497089 0.0
0.0 4.018432011 0.113569212713 0.0
0.0 4.019632977 0.113602373284 0.0
0.0 4.020833942 0.113635979578 0.0
0.0 4.022034908 0.113670032444 0.0
0.0 4.023235874 0.113704532663 0.0
0.0 4.02443684 0.113739481036 0.0
0.0 4.025637806 0.11377487837 0.0
0.0 4.026838772 0.113810725469 0.0
0.0 4.028039738 0.113847023139 0.0
0.0 4.029240704 0.11388379283 0.0
0.0 4.03044167 0.113921423296 0.0
0.0 4.031642636 0.113959225555 0.0
0.0 4.032843602 0.113996938613 0.0
0.0 4.034044568 0.114035858275 0.0
0.0 4.035245534 0.114074927582 0.0
0.0 4.0364465 0.114114498265 0.0
0.0 4.037647466 0.114154476539 0.0
0.0 4.038848431 0.114194885686 0.0
0.0 4.040049397 0.114235434168 0.0
0.0 4.041250363 0.11427648655 0.0
0.0 4.042451329 0.114318835956 0.0
0.0 4.043652295 0.11436118765 0.0
0.0 4.044853261 0.114402985582 0.0
0.0 4.046054227 0.114446108466 0.0
0.0 4.047255193 0.114489760418 0.0
0.0 4.048456159 0.114533807053 0.0
0.0 4.049657125 0.114578352362 0.0
0.0 4.050858091 0.114623365081 0.0
0.0 4.052059057 0.11466884466 0.0
0.0 4.053260023 0.114714791923 0.0
0.0 4.054460989 0.114761214865 0.0
0.0 4.055661955 0.114808147269 0.0
0.0 4.05686292 0.114855517732 0.0
0.0 4.058063886 0.114903308523 0.0
0.0 4.059264852 0.114951606088 0.0
0.0 4.060465818 0.115000411562 0.0
0.0 4.061666784 0.115049816174 0.0
0.0 4.06286775 0.115099589829 0.0
0.0 4.064068716 0.115149507743 0.0
0.0 4.065269682 0.115200168827 0.0
0.0 4.066470648 0.115251315865 0.0
0.0 4.067671614 0.11530303315 0.0
0.0 4.06887258 0.115355468571 0.0
0.0 4.070073546 0.115408078488 0.0
0.0 4.071274512 0.115460804858 0.0
0.0 4.072475478 0.115514229115 0.0
0.0 4.073676444 0.115568252761 0.0
0.0 4.074877409 0.115622760021 0.0
0.0 4.076078375 0.115677750813 0.0
0.0 4.077279341 0.115733225932 0.0
0.0 4.078480307 0.115789186219 0.0
0.0 4.079681273 0.115845632516 0.0
0.0 4.080882239 0.115902565666 0.0
0.0 4.082083205 0.115959986511 0.0
0.0 4.083284171 0.116017895897 0.0
0.0 4.084485137 0.116076294672 0.0
0.0 4.085686103 0.116135183678 0.0
0.0 4.086887069 0.116194563765 0.0
0.0 4.088088035 0.116254435782 0.0
0.0 4.089289001 0.116314800575 0.0
0.0 4.090489967 0.116375659357 0.0
0.0 4.091690932 0.116437044363 0.0
0.0 4.092891898 0.116498865329 0.0
0.0 4.094092864 0.116561209371 0.0
0.0 4.09529383 0.116624439045 0.0
0.0 4.096494796 0.116688012829 0.0
0.0 4.097695762 0.116751904336 0.0
0.0 4.098896728 0.116816330426 0.0
0.0 4.100097694 0.116881569226 0.0
0.0 4.10129866 0.116946339431 0.0
0.0 4.102499626 0.11701160068 0.0
0.0 4.103700592 0.117077924975 0.0
0.0 4.104901558 0.117144773547 0.0
0.0 4.106102524 0.117212126875 0.0
0.0 4.10730349 0.117279985823 0.0
0.0 4.108504456 0.117348352598 0.0
0.0 4.109705421 0.117417298587 0.0
0.0 4.110906387 0.117486608506 0.0
0.0 4.112107353 0.117556504062 0.0
0.0 4.113308319 0.117627238422 0.0
0.0 4.114509285 0.117698396181 0.0
0.0 4.115710251 0.117769735852 0.0
0.0 4.116911217 0.117842024999 0.0
0.0 4.118112183 0.117914650552 0.0
0.0 4.119313149 0.117987591732 0.0
0.0 4.120514115 0.118060466319 0.0
0.0 4.121715081 0.118134089264 0.0
0.0 4.122916047 0.118208557653 0.0
0.0 4.124117013 0.118283754061 0.0
0.0 4.125317979 0.118360680383 0.0
0.0 4.126518945 0.118438018946 0.0
0.0 4.12771991 0.118514919809 0.0
0.0 4.128920876 0.118591992153 0.0
0.0 4.130121842 0.118668494948 0.0
0.0 4.131322808 0.118745741994 0.0
0.0 4.132523774 0.118823713355 0.0
0.0 4.13372474 0.118902570276 0.0
0.0 4.134925706 0.118982289757 0.0
0.0 4.136126672 0.119062545117 0.0
0.0 4.137327638 0.119143455021 0.0
0.0 4.138528604 0.11922552669 0.0
0.0 4.13972957 0.119307958191 0.0
0.0 4.140930536 0.119390227212 0.0
0.0 4.142131502 0.119472786542 0.0
0.0 4.143332468 0.119556027216 0.0
0.0 4.144533434 0.119640227756 0.0
0.0 4.145734399 0.119724189875 0.0
0.0 4.146935365 0.119809307638 0.0
0.0 4.148136331 0.119895288101 0.0
0.0 4.149337297 0.119982481175 0.0
0.0 4.150538263 0.120069660327 0.0
0.0 4.151739229 0.120156749946 0.0
0.0 4.152940195 0.120243809822 0.0
0.0 4.154141161 0.120331173791 0.0
0.0 4.155342127 0.120419343492 0.0
0.0 4.156543093 0.12050838257 0.0
0.0 4.157744059 0.120598939223 0.0
0.0 4.158945025 0.120689909499 0.0
0.0 4.160145991 0.120781239243 0.0
0.0 4.161346957 0.120872807797 0.0
0.0 4.162547923 0.120964917045 0.0
0.0 4.163748888 0.121057523293 0.0
0.0 4.164949854 0.121150916615 0.0
0.0 4.16615082 0.121245125995 0.0
0.0 4.167351786 0.121339450767 0.0
0.0 4.168552752 0.121434325972 0.0
0.0 4.169753718 0.121529574259 0.0
0.0 4.170954684 0.121625467253 0.0
0.0 4.17215565 0.121721515152 0.0
0.0 4.173356616 0.121818838886 0.0
0.0 4.174557582 0.121916887261 0.0
0.0 4.175758548 0.122015495236 0.0
0.0 4.176959514 0.122114503513 0.0
0.0 4.17816048 0.122214387508 0.0
0.0 4.179361446 0.122314592917 0.0
0.0 4.180562412 0.122415284355 0.0
0.0 4.181763377 0.122516057629 0.0
0.0 4.182964343 0.1226157552 0.0
0.0 4.184165309 0.122716558955 0.0
0.0 4.185366275 0.122818935846 0.0
0.0 4.186567241 0.122921579174 0.0
0.0 4.187768207 0.123025351965 0.0
0.0 4.188969173 0.123129817365 0.0
0.0 4.190170139 0.123234544227 0.0
0.0 4.191371105 0.123340209512 0.0
0.0 4.192572071 0.123445845429 0.0
0.0 4.193773037 0.123552463346 0.0
0.0 4.194974003 0.123659911585 0.0
0.0 4.196174969 0.123768573678 0.0
0.0 4.197375935 0.123876391153 0.0
0.0 4.198576901 0.123984341387 0.0
0.0 4.199777866 0.124093404516 0.0
0.0 4.200978832 0.124204126949 0.0
0.0 4.202179798 0.124317625563 0.0
0.0 4.203380764 0.12443090354 0.0
0.0 4.20458173 0.124542956793 0.0
0.0 4.205782696 0.124653970568 0.0
0.0 4.206983662 0.124764387576 0.0
0.0 4.208184628 0.124876889541 0.0
0.0 4.209385594 0.124991168823 0.0
0.0 4.21058656 0.125106967811 0.0
0.0 4.211787526 0.125223700244 0.0
0.0 4.212988492 0.125339057785 0.0
0.0 4.214189458 0.125455307916 0.0
0.0 4.215390424 0.125572368341 0.0
0.0 4.216591389 0.125690133747 0.0
0.0 4.217792355 0.125807881253 0.0
0.0 4.218993321 0.125926113695 0.0
0.0 4.220194287 0.126045879026 0.0
0.0 4.221395253 0.126165475558 0.0
0.0 4.222596219 0.126284737606 0.0
0.0 4.223797185 0.126405619835 0.0
0.0 4.224998151 0.126527914758 0.0
0.0 4.226199117 0.126651088153 0.0
0.0 4.227400083 0.126774889746 0.0
0.0 4.228601049 0.126898172916 0.0
0.0 4.229802015 0.127022440325 0.0
0.0 4.231002981 0.12714877117 0.0
0.0 4.232203947 0.127275234015 0.0
0.0 4.233404913 0.127402049848 0.0
0.0 4.234605878 0.127529634567 0.0
0.0 4.235806844 0.127658191938 0.0
0.0 4.23700781 0.127785692067 0.0
0.0 4.238208776 0.127913427086 0.0
0.0 4.239409742 0.128041653418 0.0
0.0 4.240610708 0.128170982835 0.0
0.0 4.241811674 0.128300326646 0.0
0.0 4.24301264 0.128429799168 0.0
0.0 4.244213606 0.128559601404 0.0
0.0 4.245414572 0.128690393 0.0
0.0 4.246615538 0.128823535007 0.0
0.0 4.247816504 0.128956992887 0.0
0.0 4.24901747 0.129090621119 0.0
0.0 4.250218436 0.129225620619 0.0
0.0 4.251419402 0.129360403743 0.0
0.0 4.252620367 0.129494905687 0.0
0.0 4.253821333 0.129630995126 0.0
0.0 4.255022299 0.129768862842 0.0
0.0 4.256223265 0.129906284654 0.0
0.0 4.257424231 0.130044214152 0.0
0.0 4.258625197 0.130185107475 0.0
0.0 4.259826163 0.130326137483 0.0
0.0 4.261027129 0.13046572613 0.0
0.0 4.262228095 0.130606931032 0.0
0.0 4.263429061 0.130748386 0.0
0.0 4.264630027 0.130891678398 0.0
0.0 4.265830993 0.131035495889 0.0
0.0 4.267031959 0.131178080606 0.0
0.0 4.268232925 0.131319109549 0.0
0.0 4.269433891 0.13146190506 0.0
0.0 4.270634856 0.131606142397 0.0
0.0 4.271835822 0.131751913638 0.0
0.0 4.273036788 0.131899297118 0.0
0.0 4.274237754 0.132047362392 0.0
0.0 4.27543872 0.132196577817 0.0
0.0 4.276639686 0.132347533608 0.0
0.0 4.277840652 0.132498729632 0.0
0.0 4.279041618 0.132647154003 0.0
0.0 4.280242584 0.132793572221 0.0
0.0 4.28144355 0.132942829751 0.0
0.0 4.282644516 0.133093697561 0.0
0.0 4.283845482 0.133245243095 0.0
0.0 4.285046448 0.133398749919 0.0
0.0 4.286247414 0.133553439075 0.0
0.0 4.28744838 0.13370864106 0.0
0.0 4.288649345 0.13386385381 0.0
0.0 4.289850311 0.134020522548 0.0
0.0 4.291051277 0.13417708957 0.0
0.0 4.292252243 0.134333490549 0.0
0.0 4.293453209 0.13448971858 0.0
0.0 4.294654175 0.134647814154 0.0
0.0 4.295855141 0.134806289889 0.0
0.0 4.297056107 0.134965752439 0.0
0.0 4.298257073 0.13512334121 0.0
0.0 4.299458039 0.13528127498 0.0
0.0 4.300659005 0.135442130471 0.0
0.0 4.301859971 0.135604162075 0.0
0.0 4.303060937 0.135767362439 0.0
0.0 4.304261903 0.135930482597 0.0
0.0 4.305462869 0.136094344327 0.0
0.0 4.306663834 0.136260673147 0.0
0.0 4.3078648 0.136427452732 0.0
0.0 4.309065766 0.136592241534 0.0
0.0 4.310266732 0.136758511783 0.0
0.0 4.311467698 0.136925689041 0.0
0.0 4.312668664 0.137093691901 0.0
0.0 4.31386963 0.137262175325 0.0
0.0 4.315070596 0.137431393277 0.0
0.0 4.316271562 0.137601579604 0.0
0.0 4.317472528 0.137774086136 0.0
0.0 4.318673494 0.137948222872 0.0
0.0 4.31987446 0.138119891847 0.0
0.0 4.321075426 0.138291128484 0.0
0.0 4.322276392 0.138463454137 0.0
0.0 4.323477357 0.138635980952 0.0
0.0 4.324678323 0.138810082618 0.0
0.0 4.325879289 0.138985137073 0.0
0.0 4.327080255 0.139161272909 0.0
0.0 4.328281221 0.13933917264 0.0
0.0 4.329482187 0.139517616248 0.0
0.0 4.330683153 0.139695019583 0.0
0.0 4.331884119 0.139872427235 0.0
0.0 4.333085085 0.140051369669 0.0
0.0 4.334286051 0.140230464032 0.0
0.0 4.335487017 0.140412064397 0.0
0.0 4.336687983 0.14059524083 0.0
0.0 4.337888949 0.140777779547 0.0
0.0 4.339089915 0.140960018464 0.0
0.0 4.340290881 0.141142350221 0.0
0.0 4.341491846 0.141325597407 0.0
0.0 4.342692812 0.141510314257 0.0
0.0 4.343893778 0.141697018864 0.0
0.0 4.345094744 0.141884557495 0.0
0.0 4.34629571 0.142072551937 0.0
0.0 4.347496676 0.142261160328 0.0
0.0 4.348697642 0.142449062356 0.0
0.0 4.349898608 0.142637250544 0.0
0.0 4.351099574 0.142827042404 0.0
0.0 4.35230054 0.143019578555 0.0
0.0 4.353501506 0.143212938391 0.0
0.0 4.354702472 0.143405633108 0.0
0.0 4.355903438 0.143596573832 0.0
0.0 4.357104404 0.143787865961 0.0
0.0 4.35830537 0.143980348226 0.0
0.0 4.359506335 0.144174327284 0.0
0.0 4.360707301 0.144369365202 0.0
0.0 4.361908267 0.14456481722 0.0
0.0 4.363109233 0.144760713807 0.0
0.0 4.364310199 0.144958690339 0.0
0.0 4.365511165 0.145156392057 0.0
0.0 4.366712131 0.145355934314 0.0
0.0 4.367913097 0.145556361604 0.0
0.0 4.369114063 0.145757622465 0.0
0.0 4.370315029 0.145958443178 0.0
0.0 4.371515995 0.146160252871 0.0
0.0 4.372716961 0.146363652171 0.0
0.0 4.373917927 0.146568381624 0.0
0.0 4.375118893 0.146774343312 0.0
0.0 4.376319859 0.146979798611 0.0
0.0 4.377520824 0.147186127454 0.0
0.0 4.37872179 0.147393545335 0.0
0.0 4.379922756 0.147600505583 0.0
0.0 4.381123722 0.147806787632 0.0
0.0 4.382324688 0.148012170869 0.0
0.0 4.383525654 0.148219040451 0.0
0.0 4.38472662 0.148427329677 0.0
0.0 4.385927586 0.148638805237 0.0
0.0 4.387128552 0.148850769601 0.0
0.0 4.388329518 0.149062926153 0.0
0.0 4.389530484 0.1492743964 0.0
0.0 4.39073145 0.149487282156 0.0
0.0 4.391932416 0.149701994204 0.0
0.0 4.393133382 0.149919232369 0.0
0.0 4.394334348 0.150136940082 0.0
0.0 4.395535313 0.150354760406 0.0
0.0 4.396736279 0.150569230136 0.0
0.0 4.397937245 0.150784901615 0.0
0.0 4.399138211 0.151001879563 0.0
0.0 4.400339177 0.151222030338 0.0
0.0 4.401540143 0.151443580907 0.0
0.0 4.402741109 0.151664920201 0.0
0.0 4.403942075 0.151885622783 0.0
0.0 4.405143041 0.152107525623 0.0
0.0 4.406344007 0.152331256385 0.0
0.0 4.407544973 0.152555676119 0.0
0.0 4.408745939 0.152780505529 0.0
0.0 4.409946905 0.153004682271 0.0
0.0 4.411147871 0.153230326111 0.0
0.0 4.412348837 0.153457531856 0.0
0.0 4.413549802 0.153685557346 0.0
0.0 4.414750768 0.153914748433 0.0
0.0 4.415951734 0.154144275668 0.0
0.0 4.4171527 0.154372844955 0.0
0.0 4.418353666 0.154603176925 0.0
0.0 4.419554632 0.154834365979 0.0
0.0 4.420755598 0.155067219883 0.0
0.0 4.421956564 0.155301192443 0.0
0.0 4.42315753 0.155535665668 0.0
0.0 4.424358496 0.155768638526 0.0
0.0 4.425559462 0.156003927711 0.0
0.0 4.426760428 0.156238152172 0.0
0.0 4.427961394 0.156474060343 0.0
0.0 4.42916236 0.156711089985 0.0
0.0 4.430363326 0.156949133487 0.0
0.0 4.431564291 0.157189423358 0.0
0.0 4.432765257 0.157430978151 0.0
0.0 4.433966223 0.157672504723 0.0
0.0 4.435167189 0.157914538673 0.0
0.0 4.436368155 0.158156496751 0.0
0.0 4.437569121 0.158399186167 0.0
0.0 4.438770087 0.15864250779 0.0
0.0 4.439971053 0.158886758098 0.0
0.0 4.441172019 0.159132348076 0.0
0.0 4.442372985 0.159380042504 0.0
0.0 4.443573951 0.159628226273 0.0
0.0 4.444774917 0.159877385509 0.0
0.0 4.445975883 0.16012591602 0.0
0.0 4.447176849 0.160375266914 0.0
0.0 4.448377814 0.160625521544 0.0
0.0 4.44957878 0.160876013791 0.0
0.0 4.450779746 0.161126764182 0.0
0.0 4.451980712 0.161379305675 0.0
0.0 4.453181678 0.161632626704 0.0
0.0 4.454382644 0.161886882789 0.0
0.0 4.45558361 0.162141081926 0.0
0.0 4.456784576 0.162395949467 0.0
0.0 4.457985542 0.162651628358 0.0
0.0 4.459186508 0.162910069375 0.0
0.0 4.460387474 0.163169294078 0.0
0.0 4.46158844 0.163429546071 0.0
0.0 4.462789406 0.163690642598 0.0
0.0 4.463990372 0.163952874869 0.0
0.0 4.465191338 0.164216070498 0.0
0.0 4.466392303 0.164478585834 0.0
0.0 4.467593269 0.164739843791 0.0
0.0 4.468794235 0.164999585726 0.0
0.0 4.469995201 0.165262851011 0.0
0.0 4.471196167 0.165529114948 0.0
0.0 4.472397133 0.1657973636 0.0
0.0 4.473598099 0.166066252558 0.0
0.0 4.474799065 0.166334222601 0.0
0.0 4.476000031 0.166603401364 0.0
0.0 4.477200997 0.166873589732 0.0
0.0 4.478401963 0.167142935542 0.0
0.0 4.479602929 0.16741248096 0.0
0.0 4.480803895 0.167683062879 0.0
0.0 4.482004861 0.167956000704 0.0
0.0 4.483205827 0.168230558636 0.0
0.0 4.484406792 0.168505020159 0.0
0.0 4.485607758 0.168779820451 0.0
0.0 4.486808724 0.169055186546 0.0
0.0 4.48800969 0.169332399095 0.0
0.0 4.489210656 0.169610548079 0.0
0.0 4.490411622 0.169889441311 0.0
0.0 4.491612588 0.170169165963 0.0
0.0 4.492813554 0.17044937642 0.0
0.0 4.49401452 0.17073013788 0.0
0.0 4.495215486 0.171011027713 0.0
0.0 4.496416452 0.171293512871 0.0
0.0 4.497617418 0.171577236372 0.0
0.0 4.498818384 0.171862094085 0.0
0.0 4.50001935 0.172148932929 0.0
0.0 4.501220316 0.172436332321 0.0
0.0 4.502421281 0.172723681462 0.0
0.0 4.503622247 0.173009969084 0.0
0.0 4.504823213 0.173296998179 0.0
0.0 4.506024179 0.17358558099 0.0
0.0 4.507225145 0.173874949539 0.0
0.0 4.508426111 0.174166718288 0.0
0.0 4.509627077 0.174460148369 0.0
0.0 4.510828043 0.174754600167 0.0
0.0 4.512029009 0.175049535305 0.0
0.0 4.513229975 0.175343661839 0.0
0.0 4.514430941 0.175638175457 0.0
0.0 4.515631907 0.175933974535 0.0
0.0 4.516832873 0.176231949042 0.0
0.0 4.518033839 0.176531588131 0.0
0.0 4.519234805 0.176831370818 0.0
0.0 4.52043577 0.177131621995 0.0
0.0 4.521636736 0.177431754387 0.0
0.0 4.522837702 0.177732364522 0.0
0.0 4.524038668 0.17803528026 0.0
0.0 4.525239634 0.178339696779 0.0
0.0 4.5264406 0.178645224456 0.0
0.0 4.527641566 0.178952190694 0.0
0.0 4.528842532 0.179259085245 0.0
0.0 4.530043498 0.179566706271 0.0
0.0 4.531244464 0.179874763302 0.0
0.0 4.53244543 0.180183738128 0.0
0.0 4.533646396 0.180493105622 0.0
0.0 4.534847362 0.180801652085 0.0
0.0 4.536048328 0.181111163826 0.0
0.0 4.537249294 0.181421716517 0.0
0.0 4.538450259 0.1817342275 0.0
0.0 4.539651225 0.182050033303 0.0
0.0 4.540852191 0.182367420122 0.0
0.0 4.542053157 0.182684724713 0.0
0.0 4.543254123 0.183001886896 0.0
0.0 4.544455089 0.183319601381 0.0
0.0 4.545656055 0.183637691621 0.0
0.0 4.546857021 0.183955005029 0.0
0.0 4.548057987 0.184274274614 0.0
0.0 4.549258953 0.184594738216 0.0
0.0 4.550459919 0.184916837959 0.0
0.0 4.551660885 0.185240280047 0.0
0.0 4.552861851 0.18556376558 0.0
0.0 4.554062817 0.185888572296 0.0
0.0 4.555263782 0.186214186297 0.0
0.0 4.556464748 0.186540459598 0.0
0.0 4.557665714 0.186867518774 0.0
0.0 4.55886668 0.187194530405 0.0
0.0 4.560067646 0.187523012242 0.0
0.0 4.561268612 0.18785312745 0.0
0.0 4.562469578 0.188184843599 0.0
0.0 4.563670544 0.188518554772 0.0
0.0 4.56487151 0.188853451266 0.0
0.0 4.566072476 0.189188963959 0.0
0.0 4.567273442 0.189524745633 0.0
0.0 4.568474408 0.189860253736 0.0
0.0 4.569675374 0.190195414642 0.0
0.0 4.57087634 0.190530718585 0.0
0.0 4.572077306 0.190867539023 0.0
0.0 4.573278271 0.191207322175 0.0
0.0 4.574479237 0.191547835365 0.0
0.0 4.575680203 0.191888973966 0.0
0.0 4.576881169 0.192230105466 0.0
0.0 4.578082135 0.192573039778 0.0
0.0 4.579283101 0.192917890161 0.0
0.0 4.580484067 0.193263236796 0.0
0.0 4.581685033 0.193608950186 0.0
0.0 4.582885999 0.193955393238 0.0
0.0 4.584086965 0.194302342756 0.0
0.0 4.585287931 0.194650581882 0.0
0.0 4.586488897 0.194998974208 0.0
0.0 4.587689863 0.195348546054 0.0
0.0 4.588890829 0.19569792953 0.0
0.0 4.590091795 0.196050053739 0.0
0.0 4.59129276 0.196404167268 0.0
0.0 4.592493726 0.196760474515 0.0
0.0 4.593694692 0.197116656538 0.0
0.0 4.594895658 0.19747409658 0.0
0.0 4.596096624 0.19783203548 0.0
0.0 4.59729759 0.198189501946 0.0
0.0 4.598498556 0.1985470778 0.0
0.0 4.599699522 0.198904427635 0.0
0.0 4.600900488 0.199264544595 0.0
0.0 4.602101454 0.199626714845 0.0
0.0 4.60330242 0.199990970038 0.0
0.0 4.604503386 0.200357089057 0.0
0.0 4.605704352 0.200721778434 0.0
0.0 4.606905318 0.201088035548 0.0
0.0 4.608106284 0.201455582956 0.0
0.0 4.609307249 0.201824276552 0.0
0.0 4.610508215 0.202194089355 0.0
0.0 4.611709181 0.202562521745 0.0
0.0 4.612910147 0.202932581752 0.0
0.0 4.614111113 0.20330403953 0.0
0.0 4.615312079 0.203677000763 0.0
0.0 4.616513045 0.204051812223 0.0
0.0 4.617714011 0.204426184953 0.0
0.0 4.618914977 0.204801238147 0.0
0.0 4.620115943 0.205176560912 0.0
0.0 4.621316909 0.205552578996 0.0
0.0 4.622517875 0.205929674277 0.0
0.0 4.623718841 0.206307881343 0.0
0.0 4.624919807 0.206688119067 0.0
0.0 4.626120773 0.207068686113 0.0
0.0 4.627321738 0.207450089013 0.0
0.0 4.628522704 0.207832809233 0.0
0.0 4.62972367 0.208216753028 0.0
0.0 4.630924636 0.20860190968 0.0
0.0 4.632125602 0.208988813396 0.0
0.0 4.633326568 0.209378290523 0.0
0.0 4.634527534 0.209767719606 0.0
0.0 4.6357285 0.210157813839 0.0
0.0 4.636929466 0.210547992744 0.0
0.0 4.638130432 0.21093871906 0.0
0.0 4.639331398 0.211330617587 0.0
0.0 4.640532364 0.211723067553 0.0
0.0 4.64173333 0.212117238682 0.0
0.0 4.642934296 0.212512073465 0.0
0.0 4.644135262 0.212907574355 0.0
0.0 4.645336227 0.213305279166 0.0
0.0 4.646537193 0.213702996381 0.0
0.0 4.647738159 0.214101617835 0.0
0.0 4.648939125 0.214502108532 0.0
0.0 4.650140091 0.214905285721 0.0
0.0 4.651341057 0.215309869007 0.0
0.0 4.652542023 0.215714026863 0.0
0.0 4.653742989 0.216117752236 0.0
0.0 4.654943955 0.216521385362 0.0
0.0 4.656144921 0.216927579175 0.0
0.0 4.657345887 0.217335230202 0.0
0.0 4.658546853 0.217743828647 0.0
0.0 4.659747819 0.218152863277 0.0
0.0 4.660948785 0.218563078556 0.0
0.0 4.662149751 0.218974846523 0.0
0.0 4.663350716 0.219387809445 0.0
0.0 4.664551682 0.219801860636 0.0
0.0 4.665752648 0.220216848228 0.0
0.0 4.666953614 0.22063294185 0.0
0.0 4.66815458 0.221049799482 0.0
0.0 4.669355546 0.221466261373 0.0
0.0 4.670556512 0.221883790345 0.0
0.0 4.671757478 0.222301798273 0.0
0.0 4.672958444 0.222721003826 0.0
0.0 4.67415941 0.223142382691 0.0
0.0 4.675360376 0.223564626551 0.0
0.0 4.676561342 0.223987772374 0.0
0.0 4.677762308 0.224412581006 0.0
0.0 4.678963274 0.224837497038 0.0
0.0 4.680164239 0.225263297238 0.0
0.0 4.681365205 0.225691876513 0.0
0.0 4.682566171 0.226120891965 0.0
0.0 4.683767137 0.226551060196 0.0
0.0 4.684968103 0.226981723179 0.0
0.0 4.686169069 0.227414044857 0.0
0.0 4.687370035 0.227848536884 0.0
0.0 4.688571001 0.228283448762 0.0
0.0 4.689771967 0.228719192326 0.0
0.0 4.690972933 0.229155350441 0.0
0.0 4.692173899 0.229593317634 0.0
0.0 4.693374865 0.230032535612 0.0
0.0 4.694575831 0.230472737729 0.0
0.0 4.695776797 0.230913633099 0.0
0.0 4.696977763 0.231355453294 0.0
0.0 4.698178728 0.231798573351 0.0
0.0 4.699379694 0.232242021717 0.0
0.0 4.70058066 0.232686873646 0.0
0.0 4.701781626 0.233131783646 0.0
0.0 4.702982592 0.233577879559 0.0
0.0 4.704183558 0.234025614743 0.0
0.0 4.705384524 0.234473240647 0.0
0.0 4.70658549 0.234922730423 0.0
0.0 4.707786456 0.235371139769 0.0
0.0 4.708987422 0.235821405471 0.0
0.0 4.710188388 0.236273949031 0.0
0.0 4.711389354 0.236727780606 0.0
0.0 4.71259032 0.237184423321 0.0
0.0 4.713791286 0.23764364913 0.0
0.0 4.714992252 0.238102602968 0.0
0.0 4.716193217 0.238561845828 0.0
0.0 4.717394183 0.239022525571 0.0
0.0 4.718595149 0.239483361295 0.0
0.0 4.719796115 0.239945377708 0.0
0.0 4.720997081 0.240407692099 0.0
0.0 4.722198047 0.240872493016 0.0
0.0 4.723399013 0.241338570951 0.0
0.0 4.724599979 0.241805492266 0.0
0.0 4.725800945 0.242273782675 0.0
0.0 4.727001911 0.242742633232 0.0
0.0 4.728202877 0.243212632254 0.0
0.0 4.729403843 0.243682952607 0.0
0.0 4.730604809 0.244154637715 0.0
0.0 4.731805775 0.244626197262 0.0
0.0 4.733006741 0.245099682819 0.0
0.0 4.734207706 0.245575121245 0.0
0.0 4.735408672 0.246052890904 0.0
0.0 4.736609638 0.246533076808 0.0
0.0 4.737810604 0.247014252274 0.0
0.0 4.73901157 0.247495806419 0.0
0.0 4.740212536 0.247976744641 0.0
0.0 4.741413502 0.248458905414 0.0
0.0 4.742614468 0.248941849612 0.0
0.0 4.743815434 0.249425532771 0.0
0.0 4.7450164 0.249910089301 0.0
0.0 4.746217366 0.250396433898 0.0
0.0 4.747418332 0.250884446467 0.0
0.0 4.748619298 0.251373635997 0.0
0.0 4.749820264 0.251863975628 0.0
0.0 4.75102123 0.252354512383 0.0
0.0 4.752222195 0.252846259075 0.0
0.0 4.753423161 0.253339373858 0.0
0.0 4.754624127 0.25383350499 0.0
0.0 4.755825093 0.254328495396 0.0
0.0 4.757026059 0.254823613025 0.0
0.0 4.758227025 0.255320930078 0.0
0.0 4.759427991 0.255819978994 0.0
0.0 4.760628957 0.256320582159 0.0
0.0 4.761829923 0.256821515926 0.0
0.0 4.763030889 0.257324603688 0.0
0.0 4.764231855 0.25782770174 0.0
0.0 4.765432821 0.25833307686 0.0
0.0 4.766633787 0.258840589114 0.0
0.0 4.767834753 0.259348961033 0.0
0.0 4.769035719 0.259857264882 0.0
0.0 4.770236684 0.260364684667 0.0
0.0 4.77143765 0.260872926278 0.0
0.0 4.772638616 0.261383544818 0.0
0.0 4.773839582 0.261896788813 0.0
0.0 4.775040548 0.26241156903 0.0
0.0 4.776241514 0.262928831855 0.0
0.0 4.77744248 0.263445721126 0.0
0.0 4.778643446 0.263963930045 0.0
0.0 4.779844412 0.264482603404 0.0
0.0 4.781045378 0.265002651958 0.0
0.0 4.782246344 0.265524067407 0.0
0.0 4.78344731 0.266046617179 0.0
0.0 4.784648276 0.266570545466 0.0
0.0 4.785849242 0.26709538679 0.0
0.0 4.787050207 0.267621311789 0.0
0.0 4.788251173 0.268146822929 0.0
0.0 4.789452139 0.268674146099 0.0
0.0 4.790653105 0.269202703198 0.0
0.0 4.791854071 0.269733284449 0.0
0.0 4.793055037 0.270265958196 0.0
0.0 4.794256003 0.270800812347 0.0
0.0 4.795456969 0.271336817453 0.0
0.0 4.796657935 0.271873931394 0.0
0.0 4.797858901 0.272411571701 0.0
0.0 4.799059867 0.272948481676 0.0
0.0 4.800260833 0.2734870776 0.0
0.0 4.801461799 0.274025378991 0.0
0.0 4.802662765 0.274565405815 0.0
0.0 4.803863731 0.275106137553 0.0
0.0 4.805064696 0.275649601594 0.0
0.0 4.806265662 0.276194603707 0.0
0.0 4.807466628 0.276741290764 0.0
0.0 4.808667594 0.277288716834 0.0
0.0 4.80986856 0.277837923918 0.0
0.0 4.811069526 0.278388447218 0.0
0.0 4.812270492 0.278939947523 0.0
0.0 4.813471458 0.279492199383 0.0
0.0 4.814672424 0.280045348796 0.0
0.0 4.81587339 0.280599658381 0.0
0.0 4.817074356 0.281156034606 0.0
0.0 4.818275322 0.281714124939 0.0
0.0 4.819476288 0.282272800975 0.0
0.0 4.820677254 0.282832613736 0.0
0.0 4.82187822 0.283392559736 0.0
0.0 4.823079185 0.283954376073 0.0
0.0 4.824280151 0.284518448229 0.0
0.0 4.825481117 0.285083955206 0.0
0.0 4.826682083 0.285651087683 0.0
0.0 4.827883049 0.286219020064 0.0
0.0 4.829084015 0.286787478326 0.0
0.0 4.830284981 0.28735682509 0.0
0.0 4.831485947 0.287927499357 0.0
0.0 4.832686913 0.288498917552 0.0
0.0 4.833887879 0.289071811293 0.0
0.0 4.835088845 0.289645914278 0.0
0.0 4.836289811 0.290221856469 0.0
0.0 4.837490777 0.290798973253 0.0
0.0 4.838691743 0.291377729163 0.0
0.0 4.839892709 0.291957361556 0.0
0.0 4.841093674 0.29253879954 0.0
0.0 4.84229464 0.293121176756 0.0
0.0 4.843495606 0.293705243733 0.0
0.0 4.844696572 0.294290447415 0.0
0.0 4.845897538 0.294876178684 0.0
0.0 4.847098504 0.295462639109 0.0
0.0 4.84829947 0.296050270564 0.0
0.0 4.849500436 0.296639262524 0.0
0.0 4.850701402 0.297229911417 0.0
0.0 4.851902368 0.297822775109 0.0
0.0 4.853103334 0.298416795894 0.0
0.0 4.8543043 0.299012146801 0.0
0.0 4.855505266 0.299608554922 0.0
0.0 4.856706232 0.300207041284 0.0
0.0 4.857907198 0.300805833234 0.0
0.0 4.859108163 0.301406254257 0.0
0.0 4.860309129 0.302006859265 0.0
0.0 4.861510095 0.302608995026 0.0
0.0 4.862711061 0.303212273197 0.0
0.0 4.863912027 0.303817054327 0.0
0.0 4.865112993 0.304423445644 0.0
0.0 4.866313959 0.305031012199 0.0
0.0 4.867514925 0.305639318603 0.0
0.0 4.868715891 0.30624890286 0.0
0.0 4.869916857 0.306860013713 0.0
0.0 4.871117823 0.307473447011 0.0
0.0 4.872318789 0.30808902233 0.0
0.0 4.873519755 0.308705692695 0.0
0.0 4.874720721 0.30932351621 0.0
0.0 4.875921687 0.309941492055 0.0
0.0 4.877122652 0.310560780998 0.0
0.0 4.878323618 0.311179189548 0.0
0.0 4.879524584 0.31180028072 0.0
0.0 4.88072555 0.312422642295 0.0
0.0 4.881926516 0.313047418302 0.0
0.0 4.883127482 0.31367444958 0.0
0.0 4.884328448 0.314303684982 0.0
0.0 4.885529414 0.3149334188 0.0
0.0 4.88673038 0.315564286482 0.0
0.0 4.887931346 0.316194679233 0.0
0.0 4.889132312 0.316826183193 0.0
0.0 4.890333278 0.317458635064 0.0
0.0 4.891534244 0.318092699509 0.0
0.0 4.89273521 0.318729032785 0.0
0.0 4.893936175 0.319366727741 0.0
0.0 4.895137141 0.320006255078 0.0
0.0 4.896338107 0.320647208525 0.0
0.0 4.897539073 0.32128973939 0.0
0.0 4.898740039 0.321933461391 0.0
0.0 4.899941005 0.322578088539 0.0
0.0 4.901141971 0.323224503274 0.0
0.0 4.902342937 0.323872293507 0.0
0.0 4.903543903 0.324521244694 0.0
0.0 4.904744869 0.325171489606 0.0
0.0 4.905945835 0.325822397034 0.0
0.0 4.907146801 0.326475028982 0.0
0.0 4.908347767 0.327128827757 0.0
0.0 4.909548733 0.327784671822 0.0
0.0 4.910749699 0.328441329874 0.0
0.0 4.911950664 0.329099293084 0.0
0.0 4.91315163 0.329757584484 0.0
0.0 4.914352596 0.330418206334 0.0
0.0 4.915553562 0.331080354479 0.0
0.0 4.916754528 0.331745288926 0.0
0.0 4.917955494 0.332410792066 0.0
0.0 4.91915646 0.333078605645 0.0
0.0 4.920357426 0.333747726071 0.0
0.0 4.921558392 0.334418541423 0.0
0.0 4.922759358 0.335089329823 0.0
0.0 4.923960324 0.335761059979 0.0
0.0 4.92516129 0.336433218011 0.0
0.0 4.926362256 0.33710689566 0.0
0.0 4.927563222 0.337782069839 0.0
0.0 4.928764188 0.338459088773 0.0
0.0 4.929965153 0.339137879994 0.0
0.0 4.931166119 0.339818008235 0.0
0.0 4.932367085 0.340499590664 0.0
0.0 4.933568051 0.34118240931 0.0
0.0 4.934769017 0.341866895306 0.0
0.0 4.935969983 0.34255286542 0.0
0.0 4.937170949 0.343240185544 0.0
0.0 4.938371915 0.343928714312 0.0
0.0 4.939572881 0.344618526273 0.0
0.0 4.940773847 0.345309948308 0.0
0.0 4.941974813 0.346003022158 0.0
0.0 4.943175779 0.346697768032 0.0
0.0 4.944376745 0.347394105607 0.0
0.0 4.945577711 0.348091646566 0.0
0.0 4.946778677 0.348790407156 0.0
0.0 4.947979642 0.349489871527 0.0
0.0 4.949180608 0.350191043259 0.0
0.0 4.950381574 0.350893875494 0.0
0.0 4.95158254 0.351598806554 0.0
0.0 4.952783506 0.352304434543 0.0
0.0 4.953984472 0.353011189273 0.0
0.0 4.955185438 0.353718618789 0.0
0.0 4.956386404 0.354427980075 0.0
0.0 4.95758737 0.35513880504 0.0
0.0 4.958788336 0.355851793132 0.0
0.0 4.959989302 0.356565916371 0.0
0.0 4.961190268 0.357281511774 0.0
0.0 4.962391234 0.357998176795 0.0
0.0 4.9635922 0.358716420879 0.0
0.0 4.964793166 0.359435531308 0.0
0.0 4.965994131 0.360157509025 0.0
0.0 4.967195097 0.360880150321 0.0
0.0 4.968396063 0.361604193811 0.0
0.0 4.969597029 0.362329694217 0.0
0.0 4.970797995 0.363057421029 0.0
0.0 4.971998961 0.363786035451 0.0
0.0 4.973199927 0.364516099681 0.0
0.0 4.974400893 0.365247060419 0.0
0.0 4.975601859 0.365979602389 0.0
0.0 4.976802825 0.366714333936 0.0
0.0 4.978003791 0.367451039567 0.0
0.0 4.979204757 0.368189106485 0.0
0.0 4.980405723 0.368929026925 0.0
0.0 4.981606689 0.369669210929 0.0
0.0 4.982807655 0.370411142498 0.0
0.0 4.98400862 0.371154499836 0.0
0.0 4.985209586 0.371899300963 0.0
0.0 4.986410552 0.372645136166 0.0
0.0 4.987611518 0.373392519913 0.0
0.0 4.988812484 0.374140979713 0.0
0.0 4.99001345 0.374892226679 0.0
0.0 4.991214416 0.375644312453 0.0
0.0 4.992415382 0.37639789664 0.0
0.0 4.993616348 0.377152539589 0.0
0.0 4.994817314 0.377908885034 0.0
0.0 4.99601828 0.378666662942 0.0
0.0 4.997219246 0.379425940389 0.0
0.0 4.998420212 0.380186638918 0.0
0.0 4.999621178 0.380949523244 0.0
0.0 5.000822144 0.381713321676 0.0
0.0 5.002023109 0.382478899935 0.0
0.0 5.003224075 0.383245192583 0.0
0.0 5.004425041 0.384013752034 0.0
0.0 5.005626007 0.384783855109 0.0
0.0 5.006826973 0.385556177561 0.0
0.0 5.008027939 0.386329160945 0.0
0.0 5.009228905 0.387104184479 0.0
0.0 5.010429871 0.387879430606 0.0
0.0 5.011630837 0.388656861058 0.0
0.0 5.012831803 0.389435194203 0.0
0.0 5.014032769 0.390215918976 0.0
0.0 5.015233735 0.390998446646 0.0
0.0 5.016434701 0.391782749448 0.0
0.0 5.017635667 0.392568261277 0.0
0.0 5.018836632 0.393355567193 0.0
0.0 5.020037598 0.394144226791 0.0
0.0 5.021238564 0.394935630301 0.0
0.0 5.02243953 0.395726137784 0.0
0.0 5.023640496 0.396518541918 0.0
0.0 5.024841462 0.397312078161 0.0
0.0 5.026042428 0.398107974132 0.0
0.0 5.027243394 0.398905734228 0.0
0.0 5.02844436 0.399705289317 0.0
0.0 5.029645326 0.400506471173 0.0
0.0 5.030846292 0.401309162345 0.0
0.0 5.032047258 0.402113138844 0.0
0.0 5.033248224 0.40291885704 0.0
0.0 5.03444919 0.403725795932 0.0
0.0 5.035650156 0.404534226706 0.0
0.0 5.036851121 0.40534393982 0.0
0.0 5.038052087 0.406155167549 0.0
0.0 5.039253053 0.406968251922 0.0
0.0 5.040454019 0.40778304666 0.0
0.0 5.041654985 0.408599257322 0.0
0.0 5.042855951 0.409417389202 0.0
0.0 5.044056917 0.410237262766 0.0
0.0 5.045257883 0.411058080012 0.0
0.0 5.046458849 0.411880747236 0.0
0.0 5.047659815 0.412705760326 0.0
0.0 5.048860781 0.413532932035 0.0
0.0 5.050061747 0.414361507234 0.0
0.0 5.051262713 0.415191323714 0.0
0.0 5.052463679 0.416022087107 0.0
0.0 5.053664645 0.416854487518 0.0
0.0 5.05486561 0.417688607293 0.0
0.0 5.056066576 0.41852445666 0.0
0.0 5.057267542 0.419361889957 0.0
0.0 5.058468508 0.420201070937 0.0
0.0 5.059669474 0.421041967408 0.0
0.0 5.06087044 0.421885120199 0.0
0.0 5.062071406 0.422729413868 0.0
0.0 5.063272372 0.423575294093 0.0
0.0 5.064473338 0.424421703037 0.0
0.0 5.065674304 0.425269734081 0.0
0.0 5.06687527 0.426119335327 0.0
0.0 5.068076236 0.426970736554 0.0
0.0 5.069277202 0.427823493948 0.0
0.0 5.070478168 0.428678290612 0.0
0.0 5.071679134 0.429533868185 0.0
0.0 5.072880099 0.430391145638 0.0
0.0 5.074081065 0.431249986157 0.0
0.0 5.075282031 0.432110550655 0.0
0.0 5.076482997 0.432972861494 0.0
0.0 5.077683963 0.433836875492 0.0
0.0 5.078884929 0.434701814253 0.0
0.0 5.080085895 0.43556854612 0.0
0.0 5.081286861 0.436437101868 0.0
0.0 5.082487827 0.437307831721 0.0
0.0 5.083688793 0.43818016638 0.0
0.0 5.084889759 0.439054273725 0.0
0.0 5.086090725 0.439930125487 0.0
0.0 5.087291691 0.440807444959 0.0
0.0 5.088492657 0.441686929593 0.0
0.0 5.089693623 0.442568908725 0.0
0.0 5.090894588 0.443452512294 0.0
0.0 5.092095554 0.444337190077 0.0
0.0 5.09329652 0.445222331912 0.0
0.0 5.094497486 0.446107674968 0.0
0.0 5.095698452 0.446994965096 0.0
0.0 5.096899418 0.447884005171 0.0
0.0 5.098100384 0.448775318644 0.0
0.0 5.09930135 0.44966893621 0.0
