0.0 2.002074478 0.199473174059 0.0
0.0 2.00368257 0.199814377974 0.0
0.0 2.005290662 0.200154153567 0.0
0.0 2.006898754 0.200492502628 0.0
0.0 2.008506846 0.200829426949 0.0
0.0 2.010114938 0.201164928319 0.0
0.0 2.01172303 0.20149900853 0.0
0.0 2.013331122 0.201831669373 0.0
0.0 2.014939214 0.202162912637 0.0
0.0 2.016547306 0.202492740113 0.0
0.0 2.018155398 0.202821153593 0.0
0.0 2.01976349 0.203148154866 0.0
0.0 2.021371582 0.203473745724 0.0
0.0 2.022979674 0.203797927956 0.0
0.0 2.024587766 0.204120703355 0.0
0.0 2.026195858 0.204442073709 0.0
0.0 2.027803949 0.204762040612 0.0
0.0 2.029412041 0.205080606253 0.0
0.0 2.031020133 0.205397772221 0.0
0.0 2.032628225 0.205713540308 0.0
0.0 2.034236317 0.206027912305 0.0
0.0 2.035844409 0.206340890001 0.0
0.0 2.037452501 0.206652475189 0.0
0.0 2.039060593 0.206962669658 0.0
0.0 2.040668685 0.207271475199 0.0
0.0 2.042276777 0.207578893603 0.0
0.0 2.043884869 0.20788492666 0.0
0.0 2.045492961 0.208189576161 0.0
0.0 2.047101053 0.208492843897 0.0
0.0 2.048709145 0.208794731658 0.0
0.0 2.050317237 0.209095241235 0.0
0.0 2.051925329 0.209394374419 0.0
0.0 2.053533421 0.209692133 0.0
0.0 2.055141513 0.209988518769 0.0
0.0 2.056749605 0.210283533516 0.0
0.0 2.058357697 0.210577179032 0.0
0.0 2.059965788 0.210869456927 0.0
0.0 2.06157388 0.211160369354 0.0
0.0 2.063181972 0.211449917923 0.0
0.0 2.064790064 0.211738104423 0.0
0.0 2.066398156 0.212024930645 0.0
0.0 2.068006248 0.212310398381 0.0
0.0 2.06961434 0.21259450942 0.0
0.0 2.071222432 0.212877265553 0.0
0.0 2.072830524 0.213158668572 0.0
0.0 2.074438616 0.213438720265 0.0
0.0 2.076046708 0.213717422425 0.0
0.0 2.0776548 0.213994776842 0.0
0.0 2.079262892 0.214270785307 0.0
0.0 2.080870984 0.214545449609 0.0
0.0 2.082479076 0.21481877154 0.0
0.0 2.084087168 0.215090752891 0.0
0.0 2.08569526 0.215361395452 0.0
0.0 2.087303352 0.215630701013 0.0
0.0 2.088911444 0.215898671366 0.0
0.0 2.090519536 0.2161653083 0.0
0.0 2.092127627 0.216430613443 0.0
0.0 2.093735719 0.216694588914 0.0
0.0 2.095343811 0.21695723634 0.0
0.0 2.096951903 0.217218557509 0.0
0.0 2.098559995 0.217478554214 0.0
0.0 2.100168087 0.217737228245 0.0
0.0 2.101776179 0.217994581392 0.0
0.0 2.103384271 0.218250615447 0.0
0.0 2.104992363 0.218505332199 0.0
0.0 2.106600455 0.218758733439 0.0
0.0 2.108208547 0.219010820959 0.0
0.0 2.109816639 0.219261596548 0.0
0.0 2.111424731 0.219511061998 0.0
0.0 2.113032823 0.219759219098 0.0
0.0 2.114640915 0.22000606964 0.0
0.0 2.116249007 0.220251615414 0.0
0.0 2.117857099 0.220495858212 0.0
0.0 2.119465191 0.220738799822 0.0
0.0 2.121073283 0.220980442037 0.0
0.0 2.122681375 0.221220786647 0.0
0.0 2.124289466 0.221459835294 0.0
0.0 2.125897558 0.221697590066 0.0
0.0 2.12750565 0.221934052605 0.0
0.0 2.129113742 0.222169224701 0.0
0.0 2.130721834 0.222403108145 0.0
0.0 2.132329926 0.222635704728 0.0
0.0 2.133938018 0.22286701624 0.0
0.0 2.13554611 0.223097044472 0.0
0.0 2.137154202 0.223325791214 0.0
0.0 2.138762294 0.223553258258 0.0
0.0 2.140370386 0.223779447394 0.0
0.0 2.141978478 0.224004360412 0.0
0.0 2.14358657 0.224227999103 0.0
0.0 2.145194662 0.224450365259 0.0
0.0 2.146802754 0.224671460668 0.0
0.0 2.148410846 0.224891287123 0.0
0.0 2.150018938 0.225109846413 0.0
0.0 2.15162703 0.22532714033 0.0
0.0 2.153235122 0.225543170664 0.0
0.0 2.154843214 0.225757939205 0.0
0.0 2.156451305 0.225971447612 0.0
0.0 2.158059397 0.226183697942 0.0
0.0 2.159667489 0.22639469185 0.0
0.0 2.161275581 0.22660443113 0.0
0.0 2.162883673 0.22681291757 0.0
0.0 2.164491765 0.227020152961 0.0
0.0 2.166099857 0.227226139095 0.0
0.0 2.167707949 0.227430877761 0.0
0.0 2.169316041 0.227634370751 0.0
0.0 2.170924133 0.227836619855 0.0
0.0 2.172532225 0.228037626863 0.0
0.0 2.174140317 0.228237393567 0.0
0.0 2.175748409 0.228435921757 0.0
0.0 2.177356501 0.228633213223 0.0
0.0 2.178964593 0.228829269757 0.0
0.0 2.180572685 0.229024093151 0.0
0.0 2.182180777 0.229217685192 0.0
0.0 2.183788869 0.229410047672 0.0
0.0 2.185396961 0.229601182381 0.0
0.0 2.187005053 0.229791091111 0.0
0.0 2.188613145 0.229979775654 0.0
0.0 2.190221236 0.230167237681 0.0
0.0 2.191829328 0.230353479216 0.0
0.0 2.19343742 0.230538501933 0.0
0.0 2.195045512 0.230722307629 0.0
0.0 2.196653604 0.230904898103 0.0
0.0 2.198261696 0.231086275135 0.0
0.0 2.199869788 0.23126644052 0.0
0.0 2.20147788 0.231445396047 0.0
0.0 2.203085972 0.231623143514 0.0
0.0 2.204694064 0.231799684714 0.0
0.0 2.206302156 0.231975021443 0.0
0.0 2.207910248 0.232149155475 0.0
0.0 2.20951834 0.232322088576 0.0
0.0 2.211126432 0.232493822556 0.0
0.0 2.212734524 0.232664359232 0.0
0.0 2.214342616 0.232833700405 0.0
0.0 2.215950708 0.233001847832 0.0
0.0 2.2175588 0.233168803196 0.0
0.0 2.219166892 0.233334568354 0.0
0.0 2.220774984 0.233499145121 0.0
0.0 2.221786975 0.2336021067 0.0
0.0 2.222987941 0.233723685786 0.0
0.0 2.224188907 0.233844604341 0.0
0.0 2.225389873 0.233964863075 0.0
0.0 2.226590839 0.234084462855 0.0
0.0 2.227791805 0.234203404704 0.0
0.0 2.228992771 0.234321689092 0.0
0.0 2.230193737 0.234439316767 0.0
0.0 2.231394703 0.234556288474 0.0
0.0 2.232595669 0.234672604957 0.0
0.0 2.233796635 0.234788266964 0.0
0.0 2.234997601 0.23490327524 0.0
0.0 2.236198567 0.235017630533 0.0
0.0 2.237399533 0.235131333585 0.0
0.0 2.238600498 0.23524438505 0.0
0.0 2.239801464 0.235356785862 0.0
0.0 2.24100243 0.235468536674 0.0
0.0 2.242203396 0.23557963823 0.0
0.0 2.243404362 0.235690091275 0.0
0.0 2.244605328 0.235799896558 0.0
0.0 2.245806294 0.235909054818 0.0
0.0 2.24700726 0.236017566811 0.0
0.0 2.248208226 0.236125433277 0.0
0.0 2.249409192 0.236232654964 0.0
0.0 2.250610158 0.236339232616 0.0
0.0 2.251811124 0.236445166984 0.0
0.0 2.25301209 0.236550459201 0.0
0.0 2.254213056 0.236655109275 0.0
0.0 2.255414021 0.236759118268 0.0
0.0 2.256614987 0.236862486999 0.0
0.0 2.257815953 0.236965216171 0.0
0.0 2.259016919 0.237067306532 0.0
0.0 2.260217885 0.237168758829 0.0
0.0 2.261418851 0.237269573795 0.0
0.0 2.262619817 0.237369751402 0.0
0.0 2.263820783 0.237469294119 0.0
0.0 2.265021749 0.237568201461 0.0
0.0 2.266222715 0.237666474887 0.0
0.0 2.267423681 0.237764115668 0.0
0.0 2.268624647 0.237861125484 0.0
0.0 2.269825613 0.237957503277 0.0
0.0 2.271026579 0.238053246832 0.0
0.0 2.272227545 0.238148362938 0.0
0.0 2.27342851 0.238242848313 0.0
0.0 2.274629476 0.238336703812 0.0
0.0 2.275830442 0.238429931168 0.0
0.0 2.277031408 0.238522530192 0.0
0.0 2.278232374 0.238614499085 0.0
0.0 2.27943334 0.238705840321 0.0
0.0 2.280634306 0.23879656269 0.0
0.0 2.281835272 0.238886660857 0.0
0.0 2.283036238 0.238976130532 0.0
0.0 2.284237204 0.239064977294 0.0
0.0 2.28543817 0.239153206681 0.0
0.0 2.286639136 0.239240812616 0.0
0.0 2.287840102 0.239327797979 0.0
0.0 2.289041068 0.239414172755 0.0
0.0 2.290242034 0.239499929474 0.0
0.0 2.291442999 0.23958505926 0.0
0.0 2.292643965 0.239669576978 0.0
0.0 2.293844931 0.239753491183 0.0
0.0 2.295045897 0.239836787042 0.0
0.0 2.296246863 0.239919459463 0.0
0.0 2.297447829 0.240001521828 0.0
0.0 2.298648795 0.24008297101 0.0
0.0 2.299849761 0.240163798222 0.0
0.0 2.301050727 0.240244039665 0.0
0.0 2.302251693 0.240323674869 0.0
0.0 2.303452659 0.240402697829 0.0
0.0 2.304653625 0.240481098768 0.0
0.0 2.305854591 0.240558922448 0.0
0.0 2.307055557 0.240636135692 0.0
0.0 2.308256523 0.240712735587 0.0
0.0 2.309457488 0.2407887852 0.0
0.0 2.310658454 0.240864210636 0.0
0.0 2.31185942 0.240939069305 0.0
0.0 2.313060386 0.241013304573 0.0
0.0 2.314261352 0.241086957283 0.0
0.0 2.315462318 0.241160089533 0.0
0.0 2.316663284 0.241232718433 0.0
0.0 2.31786425 0.241304721117 0.0
0.0 2.319065216 0.241376060207 0.0
0.0 2.320266182 0.241446830883 0.0
0.0 2.321467148 0.241517199969 0.0
0.0 2.322668114 0.241587074513 0.0
0.0 2.32386908 0.241656442024 0.0
0.0 2.325070046 0.241725179548 0.0
0.0 2.326271012 0.241793194484 0.0
0.0 2.327471977 0.241861166716 0.0
0.0 2.328672943 0.24192872236 0.0
0.0 2.329873909 0.241995899479 0.0
0.0 2.331074875 0.242062037812 0.0
0.0 2.332275841 0.24212791313 0.0
0.0 2.333476807 0.242193676376 0.0
0.0 2.334677773 0.242258851044 0.0
0.0 2.335878739 0.242323702394 0.0
0.0 2.337079705 0.242387605435 0.0
0.0 2.338280671 0.242451552365 0.0
0.0 2.339481637 0.242514994627 0.0
0.0 2.340682603 0.242578418208 0.0
0.0 2.341883569 0.242641108819 0.0
0.0 2.343084535 0.242703106829 0.0
0.0 2.344285501 0.242764876994 0.0
0.0 2.345486466 0.242826356825 0.0
0.0 2.346687432 0.242887641029 0.0
0.0 2.347888398 0.242948046557 0.0
0.0 2.349089364 0.243008665625 0.0
0.0 2.35029033 0.243069100664 0.0
0.0 2.351491296 0.243130315346 0.0
0.0 2.352692262 0.243191952296 0.0
0.0 2.353893228 0.243254435846 0.0
0.0 2.355094194 0.24331879933 0.0
0.0 2.35629516 0.243385313118 0.0
0.0 2.357496126 0.243454515591 0.0
0.0 2.358697092 0.243527214114 0.0
0.0 2.359898058 0.243604940897 0.0
0.0 2.361099024 0.243688359017 0.0
0.0 2.362299989 0.243778752856 0.0
0.0 2.363500955 0.243877013203 0.0
0.0 2.364701921 0.24398448301 0.0
0.0 2.365902887 0.244102966591 0.0
0.0 2.367103853 0.244233532429 0.0
0.0 2.368304819 0.244376910562 0.0
0.0 2.369505785 0.244535785793 0.0
0.0 2.370706751 0.244709248799 0.0
0.0 2.371907717 0.244898568472 0.0
0.0 2.373108683 0.245102207059 0.0
0.0 2.374309649 0.245318773395 0.0
0.0 2.375510615 0.24554430208 0.0
0.0 2.376711581 0.245777923877 0.0
0.0 2.377912547 0.246015980389 0.0
0.0 2.379113513 0.24625251601 0.0
0.0 2.380314478 0.246488402226 0.0
0.0 2.381515444 0.246721165506 0.0
0.0 2.38271641 0.246947990653 0.0
0.0 2.383917376 0.247170515577 0.0
0.0 2.385118342 0.247390492613 0.0
0.0 2.386319308 0.247610933478 0.0
0.0 2.387520274 0.247837349036 0.0
0.0 2.38872124 0.248073687019 0.0
0.0 2.389922206 0.248321285708 0.0
0.0 2.391123172 0.248589594024 0.0
0.0 2.392324138 0.248884905874 0.0
0.0 2.393525104 0.249213961339 0.0
0.0 2.39472607 0.24958781721 0.0
0.0 2.395927036 0.250010810839 0.0
0.0 2.397128002 0.250494643726 0.0
0.0 2.398328967 0.251053049345 0.0
0.0 2.399529933 0.251701160176 0.0
0.0 2.400730899 0.252456765863 0.0
0.0 2.401931865 0.253342724688 0.0
0.0 2.403132831 0.25438783868 0.0
0.0 2.404333797 0.255626274484 0.0
0.0 2.405534763 0.25709905563 0.0
0.0 2.406735729 0.258857655692 0.0
0.0 2.407936695 0.260965191402 0.0
0.0 2.409137661 0.263500109242 0.0
0.0 2.410338627 0.266554948062 0.0
0.0 2.411539593 0.270238945571 0.0
0.0 2.412740559 0.274677057706 0.0
0.0 2.413941525 0.280009267119 0.0
0.0 2.415142491 0.28638027859 0.0
0.0 2.416343456 0.293923359891 0.0
0.0 2.417544422 0.30274404097 0.0
0.0 2.418745388 0.312888497571 0.0
0.0 2.419946354 0.324317682739 0.0
0.0 2.42114732 0.336909318506 0.0
0.0 2.422348286 0.350467608165 0.0
0.0 2.423549252 0.364441696535 0.0
0.0 2.424750218 0.378479884443 0.0
0.0 2.425951184 0.392114243475 0.0
0.0 2.42715215 0.404908343934 0.0
0.0 2.428353116 0.416510660895 0.0
0.0 2.429554082 0.426687659666 0.0
0.0 2.430755048 0.435362494698 0.0
0.0 2.431956014 0.442585823934 0.0
0.0 2.43315698 0.448527886587 0.0
0.0 2.434357945 0.453458323412 0.0
0.0 2.435558911 0.457699124864 0.0
0.0 2.436759877 0.461570388557 0.0
0.0 2.437960843 0.465365333543 0.0
0.0 2.439161809 0.469331028331 0.0
0.0 2.440362775 0.473658228579 0.0
0.0 2.441563741 0.478484202316 0.0
0.0 2.442764707 0.483893738468 0.0
0.0 2.443965673 0.48993189319 0.0
0.0 2.445166639 0.49660424635 0.0
0.0 2.446367605 0.503876954073 0.0
0.0 2.447568571 0.511510569833 0.0
0.0 2.448769537 0.519619556135 0.0
0.0 2.449970503 0.528191123368 0.0
0.0 2.451171469 0.53695699458 0.0
0.0 2.452372434 0.545780243019 0.0
0.0 2.4535734 0.554509585691 0.0
0.0 2.454774366 0.562996725888 0.0
0.0 2.455975332 0.571105769924 0.0
0.0 2.457176298 0.578720513101 0.0
0.0 2.458377264 0.585741192108 0.0
0.0 2.45957823 0.592097093435 0.0
0.0 2.460779196 0.597709123203 0.0
0.0 2.461980162 0.602580192601 0.0
0.0 2.463181128 0.606746264651 0.0
0.0 2.464382094 0.610248085951 0.0
0.0 2.46558306 0.613140483163 0.0
0.0 2.466784026 0.61549158638 0.0
0.0 2.467984992 0.617378595855 0.0
0.0 2.469185958 0.618878325133 0.0
0.0 2.470386923 0.620085547056 0.0
0.0 2.471587889 0.621090046182 0.0
0.0 2.472788855 0.621923990063 0.0
0.0 2.473989821 0.623075151995 0.0
0.0 2.475190787 0.623727882229 0.0
0.0 2.476391753 0.624341004724 0.0
0.0 2.477592719 0.624946767935 0.0
0.0 2.478793685 0.625561227775 0.0
0.0 2.479994651 0.626188737874 0.0
0.0 2.481195617 0.626728325126 0.0
0.0 2.482396583 0.627012769414 0.0
0.0 2.483597549 0.627647817519 0.0
0.0 2.484798515 0.628270663092 0.0
0.0 2.485999481 0.628867143596 0.0
0.0 2.487200446 0.629416202422 0.0
0.0 2.488401412 0.629903549831 0.0
0.0 2.489602378 0.630317568224 0.0
0.0 2.490803344 0.630612460306 0.0
0.0 2.49200431 0.630790336906 0.0
0.0 2.493205276 0.630857402953 0.0
0.0 2.494406242 0.630807900704 0.0
0.0 2.495607208 0.630635149802 0.0
0.0 2.496808174 0.630342672688 0.0
0.0 2.49800914 0.629933724845 0.0
0.0 2.499210106 0.629407314763 0.0
0.0 2.500411072 0.628770246676 0.0
0.0 2.501612038 0.628031876368 0.0
0.0 2.502813004 0.627204584236 0.0
0.0 2.50401397 0.626299383442 0.0
0.0 2.505214935 0.625330073029 0.0
0.0 2.506415901 0.624307366687 0.0
0.0 2.507616867 0.623240915976 0.0
0.0 2.508817833 0.622145640647 0.0
0.0 2.510018799 0.621032654598 0.0
0.0 2.511219765 0.619925143649 0.0
0.0 2.512420731 0.618818347633 0.0
0.0 2.513621697 0.61772464676 0.0
0.0 2.514822663 0.616648234959 0.0
0.0 2.516023629 0.615597647294 0.0
0.0 2.517224595 0.614579676605 0.0
0.0 2.518425561 0.613598954559 0.0
0.0 2.519626527 0.612660826237 0.0
0.0 2.520827493 0.611775355924 0.0
0.0 2.522028459 0.610946037491 0.0
0.0 2.523229424 0.610170275887 0.0
0.0 2.52443039 0.609454547481 0.0
0.0 2.525631356 0.608798598153 0.0
0.0 2.526832322 0.6082059115 0.0
0.0 2.528033288 0.607682105561 0.0
0.0 2.529234254 0.607228542665 0.0
0.0 2.53043522 0.606858911939 0.0
0.0 2.531636186 0.606584632276 0.0
0.0 2.532837152 0.606384499423 0.0
0.0 2.534038118 0.606261132737 0.0
0.0 2.535239084 0.606217066232 0.0
0.0 2.53644005 0.606251198004 0.0
0.0 2.537641016 0.606359902908 0.0
0.0 2.538841982 0.606541387549 0.0
0.0 2.540042948 0.606796343795 0.0
0.0 2.541243913 0.607100473341 0.0
0.0 2.542444879 0.607474738802 0.0
0.0 2.543645845 0.607911650564 0.0
0.0 2.544846811 0.608408366127 0.0
0.0 2.546047777 0.608962558367 0.0
0.0 2.547248743 0.609569480101 0.0
0.0 2.548449709 0.610223487749 0.0
0.0 2.549650675 0.610916348476 0.0
0.0 2.550851641 0.611642515994 0.0
0.0 2.552052607 0.612393116678 0.0
0.0 2.553253573 0.613164960391 0.0
0.0 2.554454539 0.613947188327 0.0
0.0 2.555655505 0.6147307822 0.0
0.0 2.556856471 0.615505212854 0.0
0.0 2.558057437 0.616265445121 0.0
0.0 2.559258402 0.617010309801 0.0
0.0 2.560459368 0.617728948576 0.0
0.0 2.561660334 0.618422471521 0.0
0.0 2.5628613 0.619085363317 0.0
0.0 2.564062266 0.619710778484 0.0
0.0 2.565263232 0.620289883337 0.0
0.0 2.566464198 0.620827982287 0.0
0.0 2.567665164 0.62133285563 0.0
0.0 2.56886613 0.621783218693 0.0
0.0 2.570067096 0.622208948239 0.0
0.0 2.571268062 0.622972617835 0.0
0.0 2.572469028 0.623280115634 0.0
0.0 2.573669994 0.623546657369 0.0
0.0 2.57487096 0.623789871659 0.0
0.0 2.576071926 0.624003749314 0.0
0.0 2.577272891 0.624070061708 0.0
0.0 2.578473857 0.623943146276 0.0
0.0 2.579674823 0.624081309091 0.0
0.0 2.580875789 0.624198466141 0.0
0.0 2.582076755 0.624324508798 0.0
0.0 2.583277721 0.624442053116 0.0
0.0 2.584478687 0.624559775762 0.0
0.0 2.585679653 0.624686490059 0.0
0.0 2.586880619 0.624833395914 0.0
0.0 2.588081585 0.624992828796 0.0
0.0 2.589282551 0.625179489244 0.0
0.0 2.590483517 0.625358394522 0.0
0.0 2.591684483 0.62555146213 0.0
0.0 2.592885449 0.625797441812 0.0
0.0 2.594086414 0.626039717083 0.0
0.0 2.59528738 0.625943824711 0.0
0.0 2.596488346 0.62627232561 0.0
0.0 2.597689312 0.626924272713 0.0
0.0 2.598890278 0.627433951883 0.0
0.0 2.600091244 0.62784429079 0.0
0.0 2.60129221 0.62815575219 0.0
0.0 2.602493176 0.628460554039 0.0
0.0 2.603694142 0.628770982606 0.0
0.0 2.604895108 0.62908486369 0.0
0.0 2.606096074 0.62939704069 0.0
0.0 2.60729704 0.629714105058 0.0
0.0 2.608498006 0.630024281587 0.0
0.0 2.609698972 0.630322974372 0.0
0.0 2.610899938 0.630621716216 0.0
0.0 2.612100903 0.630892797055 0.0
0.0 2.613301869 0.631120954486 0.0
0.0 2.614502835 0.631332725232 0.0
0.0 2.615703801 0.631518223399 0.0
0.0 2.616904767 0.631656654003 0.0
0.0 2.618105733 0.632232022086 0.0
0.0 2.619306699 0.632334935019 0.0
0.0 2.620507665 0.632407478485 0.0
0.0 2.621708631 0.632459711448 0.0
0.0 2.622909597 0.632479965603 0.0
0.0 2.624110563 0.632469662828 0.0
0.0 2.625311529 0.632435052704 0.0
0.0 2.626512495 0.632370389982 0.0
0.0 2.627713461 0.632268526344 0.0
0.0 2.628914427 0.632154586814 0.0
0.0 2.630115392 0.632016087042 0.0
0.0 2.631316358 0.631860406621 0.0
0.0 2.632517324 0.631707397633 0.0
0.0 2.63371829 0.631534433686 0.0
0.0 2.634919256 0.631762211783 0.0
0.0 2.636120222 0.631629220653 0.0
0.0 2.637321188 0.631450515531 0.0
0.0 2.638522154 0.631260128469 0.0
0.0 2.63972312 0.631079127211 0.0
0.0 2.640924086 0.630900837058 0.0
0.0 2.642125052 0.630723439687 0.0
0.0 2.643326018 0.630560141143 0.0
0.0 2.644526984 0.63041234139 0.0
0.0 2.64572795 0.630277715228 0.0
0.0 2.646928916 0.630158494402 0.0
0.0 2.648129881 0.630048850899 0.0
0.0 2.649330847 0.629950847956 0.0
0.0 2.650531813 0.629871017855 0.0
0.0 2.651732779 0.629803337851 0.0
0.0 2.652933745 0.630165464475 0.0
0.0 2.654134711 0.63015438059 0.0
0.0 2.655335677 0.630123066094 0.0
0.0 2.656536643 0.630102224793 0.0
0.0 2.657737609 0.630101544303 0.0
0.0 2.658938575 0.630115420215 0.0
0.0 2.660139541 0.630066520259 0.0
0.0 2.661340507 0.629541290624 0.0
0.0 2.662541473 0.629223565914 0.0
0.0 2.663742439 0.629200857616 0.0
0.0 2.664943405 0.629196333802 0.0
0.0 2.66614437 0.629166199276 0.0
0.0 2.667345336 0.629128975184 0.0
0.0 2.668546302 0.629355156571 0.0
0.0 2.669747268 0.629544405486 0.0
0.0 2.670948234 0.62956861801 0.0
0.0 2.6721492 0.629129073991 0.0
0.0 2.673350166 0.629140009686 0.0
0.0 2.674551132 0.629137055343 0.0
0.0 2.675752098 0.629148698108 0.0
0.0 2.676953064 0.629164414436 0.0
0.0 2.67815403 0.629143770427 0.0
0.0 2.679354996 0.629100482579 0.0
0.0 2.680555962 0.629038895863 0.0
0.0 2.681756928 0.62896998612 0.0
0.0 2.682957894 0.628444085835 0.0
0.0 2.684158859 0.628306749273 0.0
0.0 2.685359825 0.628171528801 0.0
0.0 2.686560791 0.628258248703 0.0
0.0 2.687761757 0.628271994039 0.0
0.0 2.688962723 0.628080141831 0.0
0.0 2.690163689 0.627865580283 0.0
0.0 2.691364655 0.627612915748 0.0
0.0 2.692565621 0.627106363997 0.0
0.0 2.693766587 0.626664896782 0.0
0.0 2.694967553 0.626426181237 0.0
0.0 2.696168519 0.626192338621 0.0
0.0 2.697369485 0.625964955051 0.0
0.0 2.698570451 0.625754081775 0.0
0.0 2.699771417 0.625569104401 0.0
0.0 2.700972383 0.625503181221 0.0
0.0 2.702173348 0.625396963493 0.0
0.0 2.703374314 0.625172277054 0.0
0.0 2.70457528 0.625437855711 0.0
0.0 2.705776246 0.625434744441 0.0
0.0 2.706977212 0.625437383747 0.0
0.0 2.708178178 0.625451559109 0.0
0.0 2.709379144 0.625486742278 0.0
0.0 2.71058011 0.625530282944 0.0
0.0 2.711781076 0.625582562585 0.0
0.0 2.712982042 0.625637445031 0.0
0.0 2.714183008 0.625244543691 0.0
0.0 2.715383974 0.625308811215 0.0
0.0 2.71658494 0.625366177462 0.0
0.0 2.717785906 0.625430936642 0.0
0.0 2.718986871 0.625493809244 0.0
0.0 2.720187837 0.625535438134 0.0
0.0 2.721388803 0.625716224355 0.0
0.0 2.722589769 0.626003809925 0.0
0.0 2.723790735 0.625667236169 0.0
0.0 2.724991701 0.625594622924 0.0
0.0 2.726192667 0.62563010642 0.0
0.0 2.727393633 0.625650478918 0.0
0.0 2.728594599 0.625649974775 0.0
0.0 2.729795565 0.625651440136 0.0
0.0 2.730996531 0.625645924667 0.0
0.0 2.732197497 0.625628274154 0.0
0.0 2.733398463 0.625416821693 0.0
0.0 2.734599429 0.625093783171 0.0
0.0 2.735800395 0.625021963578 0.0
0.0 2.73700136 0.624937033916 0.0
0.0 2.738202326 0.624849696386 0.0
0.0 2.739403292 0.624761599261 0.0
0.0 2.740604258 0.624939773606 0.0
0.0 2.741805224 0.625004796681 0.0
0.0 2.74300619 0.624881185891 0.0
0.0 2.744207156 0.624663995986 0.0
0.0 2.745408122 0.624182608414 0.0
0.0 2.746609088 0.624060486137 0.0
0.0 2.747810054 0.623922399138 0.0
0.0 2.74901102 0.623776616419 0.0
0.0 2.750211986 0.623621133201 0.0
0.0 2.751412952 0.623439496734 0.0
0.0 2.752613918 0.622985555469 0.0
0.0 2.753814884 0.622651352907 0.0
0.0 2.755015849 0.622505217496 0.0
0.0 2.756216815 0.622268052958 0.0
0.0 2.757417781 0.621785375825 0.0
0.0 2.758618747 0.621663390097 0.0
0.0 2.759819713 0.621919911622 0.0
0.0 2.761020679 0.621945357823 0.0
0.0 2.762221645 0.621470994129 0.0
0.0 2.763422611 0.621447365807 0.0
0.0 2.764623577 0.621438380817 0.0
0.0 2.765824543 0.621451827229 0.0
0.0 2.767025509 0.621025868883 0.0
0.0 2.768226475 0.621088840678 0.0
0.0 2.769427441 0.621176918169 0.0
0.0 2.770628407 0.62097468539 0.0
0.0 2.771829373 0.620892832127 0.0
0.0 2.773030338 0.621003230198 0.0
0.0 2.774231304 0.621137947579 0.0
0.0 2.77543227 0.621091478317 0.0
0.0 2.776633236 0.621007047484 0.0
0.0 2.777834202 0.621195884055 0.0
0.0 2.779035168 0.621841354168 0.0
0.0 2.780236134 0.62195465851 0.0
0.0 2.7814371 0.621843929218 0.0
0.0 2.782638066 0.622092210888 0.0
0.0 2.783839032 0.622346374536 0.0
0.0 2.785039998 0.622595710711 0.0
0.0 2.786240964 0.622427312305 0.0
0.0 2.78744193 0.622708088222 0.0
0.0 2.788642896 0.622990317478 0.0
0.0 2.789843862 0.623268764554 0.0
0.0 2.791044827 0.623107439748 0.0
0.0 2.792245793 0.623410920507 0.0
0.0 2.793446759 0.623707135504 0.0
0.0 2.794647725 0.623684409064 0.0
0.0 2.795848691 0.623783484696 0.0
0.0 2.797049657 0.624027417382 0.0
0.0 2.798250623 0.62436070087 0.0
0.0 2.799451589 0.624682270269 0.0
0.0 2.800652555 0.624571021026 0.0
0.0 2.801853521 0.624670773248 0.0
0.0 2.803054487 0.624746513955 0.0
0.0 2.804255453 0.624678193565 0.0
0.0 2.805456419 0.624353121454 0.0
0.0 2.806657385 0.624353854696 0.0
0.0 2.807858351 0.624329607741 0.0
0.0 2.809059316 0.624254786133 0.0
0.0 2.810260282 0.623737126193 0.0
0.0 2.811461248 0.623638602274 0.0
0.0 2.812662214 0.623516213241 0.0
0.0 2.81386318 0.623369194232 0.0
0.0 2.815064146 0.622729323947 0.0
0.0 2.816265112 0.622534663115 0.0
0.0 2.817466078 0.622323819588 0.0
0.0 2.818667044 0.622393694905 0.0
0.0 2.81986801 0.621896514811 0.0
0.0 2.821068976 0.621538462861 0.0
0.0 2.822269942 0.62122546096 0.0
0.0 2.823470908 0.62090429234 0.0
0.0 2.824671874 0.620579404244 0.0
0.0 2.825872839 0.620251223232 0.0
0.0 2.827073805 0.619919834639 0.0
0.0 2.828274771 0.619589174071 0.0
0.0 2.829475737 0.619259034993 0.0
0.0 2.830676703 0.618912392375 0.0
0.0 2.831877669 0.618553013664 0.0
0.0 2.833078635 0.618204362583 0.0
0.0 2.834279601 0.617865044419 0.0
0.0 2.835480567 0.617541308324 0.0
0.0 2.836681533 0.616915551984 0.0
0.0 2.837882499 0.616475856409 0.0
0.0 2.839083465 0.616203767288 0.0
0.0 2.840284431 0.616077896483 0.0
0.0 2.841485397 0.616164234271 0.0
0.0 2.842686363 0.615953820167 0.0
0.0 2.843887328 0.615765286741 0.0
0.0 2.845088294 0.615594698369 0.0
0.0 2.84628926 0.61544717606 0.0
0.0 2.847490226 0.615321518016 0.0
0.0 2.848691192 0.615216411554 0.0
0.0 2.849892158 0.615127915988 0.0
0.0 2.851093124 0.614831779985 0.0
0.0 2.85229409 0.614532542149 0.0
0.0 2.853495056 0.614252794 0.0
0.0 2.854696022 0.613990488955 0.0
0.0 2.855896988 0.61374284135 0.0
0.0 2.857097954 0.613507815352 0.0
0.0 2.85829892 0.613286587509 0.0
0.0 2.859499886 0.613078080978 0.0
0.0 2.860700852 0.612614402093 0.0
0.0 2.861901817 0.612387739267 0.0
0.0 2.863102783 0.612305124766 0.0
0.0 2.864303749 0.612363516029 0.0
0.0 2.865504715 0.612599619675 0.0
0.0 2.866705681 0.612532935912 0.0
0.0 2.867906647 0.612465138481 0.0
0.0 2.869107613 0.612398695265 0.0
0.0 2.870308579 0.61234385101 0.0
0.0 2.871509545 0.612324181342 0.0
0.0 2.872710511 0.612300791781 0.0
0.0 2.873911477 0.612272763015 0.0
0.0 2.875112443 0.6122370974 0.0
0.0 2.876313409 0.612196839852 0.0
0.0 2.877514375 0.612150321829 0.0
0.0 2.878715341 0.612095485715 0.0
0.0 2.879916306 0.612028440457 0.0
0.0 2.881117272 0.611946554803 0.0
0.0 2.882318238 0.611854553605 0.0
0.0 2.883519204 0.61175067523 0.0
0.0 2.88472017 0.611635043529 0.0
0.0 2.885921136 0.611076549944 0.0
0.0 2.887122102 0.610896817116 0.0
0.0 2.888323068 0.61073791045 0.0
0.0 2.889524034 0.610565969004 0.0
0.0 2.890725 0.610442227022 0.0
0.0 2.891925966 0.610345995287 0.0
0.0 2.893126932 0.610673967242 0.0
0.0 2.894327898 0.61054624225 0.0
0.0 2.895528864 0.610401029541 0.0
0.0 2.89672983 0.610239166715 0.0
0.0 2.897930795 0.610060112601 0.0
0.0 2.899131761 0.609864660499 0.0
0.0 2.900332727 0.609625133265 0.0
0.0 2.901533693 0.609300044606 0.0
0.0 2.902734659 0.608955570242 0.0
0.0 2.903935625 0.608593710757 0.0
0.0 2.905136591 0.60821260937 0.0
0.0 2.906337557 0.607813448915 0.0
0.0 2.907538523 0.607395270046 0.0
0.0 2.908739489 0.606958321473 0.0
0.0 2.909940455 0.606502096304 0.0
0.0 2.911141421 0.605614259211 0.0
0.0 2.912342387 0.605174642928 0.0
0.0 2.913543353 0.604717238406 0.0
0.0 2.914744319 0.604241542845 0.0
0.0 2.915945284 0.603749260041 0.0
0.0 2.91714625 0.603240935891 0.0
0.0 2.918347216 0.602718874006 0.0
0.0 2.919548182 0.602184913904 0.0
0.0 2.920749148 0.601548019309 0.0
0.0 2.921950114 0.600846182784 0.0
0.0 2.92315108 0.600134626441 0.0
0.0 2.924352046 0.599415226332 0.0
0.0 2.925553012 0.59868964106 0.0
0.0 2.926753978 0.598283835528 0.0
0.0 2.927954944 0.597655492736 0.0
0.0 2.92915591 0.596918988758 0.0
0.0 2.930356876 0.596153410179 0.0
0.0 2.931557842 0.595318895025 0.0
0.0 2.932758808 0.594486949195 0.0
0.0 2.933959773 0.593660369635 0.0
0.0 2.935160739 0.592841799752 0.0
0.0 2.936361705 0.592032012381 0.0
0.0 2.937562671 0.590979766497 0.0
0.0 2.938763637 0.589996500779 0.0
0.0 2.939964603 0.589223029106 0.0
0.0 2.941165569 0.5885237267 0.0
0.0 2.942366535 0.587842861822 0.0
0.0 2.943567501 0.587433005122 0.0
0.0 2.944768467 0.586981039183 0.0
0.0 2.945969433 0.586355089677 0.0
0.0 2.947170399 0.585750430145 0.0
0.0 2.948371365 0.585166735333 0.0
0.0 2.949572331 0.584603724549 0.0
0.0 2.950773296 0.584271804491 0.0
0.0 2.951974262 0.58370214511 0.0
0.0 2.953175228 0.583067284096 0.0
0.0 2.954376194 0.582453007247 0.0
0.0 2.95557716 0.581859196559 0.0
0.0 2.956778126 0.581286563238 0.0
0.0 2.957979092 0.580732761094 0.0
0.0 2.959180058 0.580198148291 0.0
0.0 2.960381024 0.579679780367 0.0
0.0 2.96158199 0.579175244316 0.0
0.0 2.962782956 0.578686304406 0.0
0.0 2.963983922 0.57821188017 0.0
0.0 2.965184888 0.577750816874 0.0
0.0 2.966385854 0.577298711797 0.0
0.0 2.96758682 0.576855280582 0.0
0.0 2.968787785 0.576419727708 0.0
0.0 2.969988751 0.575989886909 0.0
0.0 2.971189717 0.575596633525 0.0
0.0 2.972390683 0.575206363901 0.0
0.0 2.973591649 0.574816351532 0.0
0.0 2.974792615 0.574427435391 0.0
0.0 2.975993581 0.574877056963 0.0
0.0 2.977194547 0.574491795788 0.0
0.0 2.978395513 0.574097283875 0.0
0.0 2.979596479 0.573699174355 0.0
0.0 2.980797445 0.573173496954 0.0
0.0 2.981998411 0.57258073889 0.0
0.0 2.983199377 0.571982157826 0.0
0.0 2.984400343 0.571376464648 0.0
0.0 2.985601309 0.570761724454 0.0
0.0 2.986802274 0.570140268966 0.0
0.0 2.98800324 0.569511960006 0.0
0.0 2.989204206 0.569247723964 0.0
0.0 2.990405172 0.568651711833 0.0
0.0 2.991606138 0.568147202632 0.0
0.0 2.992807104 0.567634947864 0.0
0.0 2.99400807 0.567118161364 0.0
0.0 2.995209036 0.566595434753 0.0
0.0 2.996410002 0.566068060521 0.0
0.0 2.997610968 0.565536808315 0.0
0.0 2.998811934 0.565005434353 0.0
0.0 3.0000129 0.564469993707 0.0
0.0 3.001213866 0.563776578319 0.0
0.0 3.002414832 0.563295533261 0.0
0.0 3.003615798 0.562525628451 0.0
0.0 3.004816763 0.561757845291 0.0
0.0 3.006017729 0.561001472938 0.0
0.0 3.007218695 0.560656085917 0.0
0.0 3.008419661 0.559898666994 0.0
0.0 3.009620627 0.559146425042 0.0
0.0 3.010821593 0.558563812963 0.0
0.0 3.012022559 0.558062884057 0.0
0.0 3.013223525 0.557565611126 0.0
0.0 3.014424491 0.557075119821 0.0
0.0 3.015625457 0.556587939544 0.0
0.0 3.016826423 0.556104824763 0.0
0.0 3.018027389 0.55562377303 0.0
0.0 3.019228355 0.555145784499 0.0
0.0 3.020429321 0.554614718018 0.0
0.0 3.021630287 0.55398677493 0.0
0.0 3.022831252 0.553356170055 0.0
0.0 3.024032218 0.552723659983 0.0
0.0 3.025233184 0.552085149669 0.0
0.0 3.02643415 0.551441896054 0.0
0.0 3.027635116 0.550791133133 0.0
0.0 3.028836082 0.550131751124 0.0
0.0 3.030037048 0.549470644451 0.0
0.0 3.031238014 0.54909649185 0.0
0.0 3.03243898 0.548710695076 0.0
0.0 3.033639946 0.548310394074 0.0
0.0 3.034840912 0.547895102727 0.0
0.0 3.036041878 0.547478624172 0.0
0.0 3.037242844 0.547420971866 0.0
0.0 3.03844381 0.546949531479 0.0
0.0 3.039644776 0.546459542833 0.0
0.0 3.040845741 0.54609710543 0.0
0.0 3.042046707 0.545776636606 0.0
0.0 3.043247673 0.545432334227 0.0
0.0 3.044448639 0.545068022771 0.0
0.0 3.045649605 0.544682430277 0.0
0.0 3.046850571 0.544277088105 0.0
0.0 3.048051537 0.543869665835 0.0
0.0 3.049252503 0.543761380712 0.0
0.0 3.050453469 0.54325620577 0.0
0.0 3.051654435 0.542662732883 0.0
0.0 3.052855401 0.54205733276 0.0
0.0 3.054056367 0.54143997336 0.0
0.0 3.055257333 0.540815765987 0.0
0.0 3.056458299 0.540183435109 0.0
0.0 3.057659264 0.539548448089 0.0
0.0 3.05886023 0.538911120151 0.0
0.0 3.060061196 0.538295370152 0.0
0.0 3.061262162 0.53802859987 0.0
0.0 3.062463128 0.537770347698 0.0
0.0 3.063664094 0.537522186254 0.0
0.0 3.06486506 0.53728724543 0.0
0.0 3.066066026 0.537471633768 0.0
0.0 3.067266992 0.537271905604 0.0
0.0 3.068467958 0.537272171109 0.0
0.0 3.069668924 0.537318877245 0.0
0.0 3.07086989 0.537038401078 0.0
0.0 3.072070856 0.536726386697 0.0
0.0 3.073271822 0.536445393354 0.0
0.0 3.074472788 0.536192517005 0.0
0.0 3.075673753 0.535970845894 0.0
0.0 3.076874719 0.535778284921 0.0
0.0 3.078075685 0.535617347914 0.0
0.0 3.079276651 0.535486426513 0.0
0.0 3.080477617 0.53550646272 0.0
0.0 3.081678583 0.535739327489 0.0
0.0 3.082879549 0.53599265541 0.0
0.0 3.084080515 0.536266278007 0.0
0.0 3.085281481 0.536553087557 0.0
0.0 3.086482447 0.536850557353 0.0
0.0 3.087683413 0.537148189607 0.0
0.0 3.088884379 0.537440586769 0.0
0.0 3.090085345 0.537722003355 0.0
0.0 3.091286311 0.538068279461 0.0
0.0 3.092487277 0.538378397057 0.0
0.0 3.093688242 0.538919689616 0.0
0.0 3.094889208 0.539243154623 0.0
0.0 3.096090174 0.539357529035 0.0
0.0 3.09729114 0.539375869825 0.0
0.0 3.098492106 0.539274470921 0.0
0.0 3.099693072 0.539038358947 0.0
0.0 3.100894038 0.538521691807 0.0
0.0 3.102095004 0.537778641286 0.0
0.0 3.10329597 0.536825089751 0.0
0.0 3.104496936 0.535638990488 0.0
0.0 3.105697902 0.534190830068 0.0
0.0 3.106898868 0.532447879935 0.0
0.0 3.108099834 0.530388436995 0.0
0.0 3.1093008 0.527984610822 0.0
0.0 3.110501766 0.525246589497 0.0
0.0 3.111702731 0.522166510158 0.0
0.0 3.112903697 0.51866510121 0.0
0.0 3.114104663 0.514713669344 0.0
0.0 3.115305629 0.510294489019 0.0
0.0 3.116506595 0.505399965856 0.0
0.0 3.117707561 0.500021483732 0.0
0.0 3.118908527 0.494145727034 0.0
0.0 3.120109493 0.487842008041 0.0
0.0 3.121310459 0.481527782061 0.0
0.0 3.122511425 0.474425824375 0.0
0.0 3.123712391 0.466872436706 0.0
0.0 3.124913357 0.458901680067 0.0
0.0 3.126114323 0.450550769025 0.0
0.0 3.127315289 0.441854183416 0.0
0.0 3.128516255 0.432865359685 0.0
0.0 3.12971722 0.423639137391 0.0
0.0 3.130918186 0.414171128004 0.0
0.0 3.132119152 0.404561463343 0.0
0.0 3.133320118 0.394890766585 0.0
0.0 3.134521084 0.385216898461 0.0
0.0 3.13572205 0.37559145371 0.0
0.0 3.136923016 0.36606918682 0.0
0.0 3.138123982 0.35670248809 0.0
0.0 3.139324948 0.347531538365 0.0
0.0 3.140525914 0.338616367546 0.0
0.0 3.14172688 0.329994325762 0.0
0.0 3.142927846 0.321665706581 0.0
0.0 3.144128812 0.313649555281 0.0
0.0 3.145329778 0.305963316265 0.0
0.0 3.146530744 0.2986211802 0.0
0.0 3.147731709 0.291718191238 0.0
0.0 3.148932675 0.285102936492 0.0
0.0 3.150133641 0.278803642453 0.0
0.0 3.151334607 0.272850337106 0.0
0.0 3.152535573 0.267235698854 0.0
0.0 3.153736539 0.261951726763 0.0
0.0 3.154937505 0.256986556993 0.0
0.0 3.156138471 0.252326167447 0.0
0.0 3.157339437 0.247957927299 0.0
0.0 3.158540403 0.243866672532 0.0
0.0 3.159741369 0.240040634374 0.0
0.0 3.160942335 0.236457811188 0.0
0.0 3.162143301 0.233108857586 0.0
0.0 3.163344267 0.229979170841 0.0
0.0 3.164545233 0.227054903098 0.0
0.0 3.165746198 0.224324682167 0.0
0.0 3.166947164 0.221773510519 0.0
0.0 3.16814813 0.219390456936 0.0
0.0 3.169349096 0.217161762485 0.0
0.0 3.170550062 0.215086029348 0.0
0.0 3.171751028 0.213152275758 0.0
0.0 3.172951994 0.211371813062 0.0
0.0 3.17415296 0.209675360038 0.0
0.0 3.175353926 0.208081488972 0.0
0.0 3.176554892 0.206586712938 0.0
0.0 3.177755858 0.20518215366 0.0
0.0 3.178956824 0.203861948674 0.0
0.0 3.18015779 0.202618237074 0.0
0.0 3.181358756 0.201441552326 0.0
0.0 3.182559721 0.200332638347 0.0
0.0 3.183760687 0.199285122949 0.0
0.0 3.184961653 0.198296486822 0.0
0.0 3.186162619 0.197360290379 0.0
0.0 3.187363585 0.196473682277 0.0
0.0 3.188564551 0.195632755789 0.0
0.0 3.189765517 0.194833889396 0.0
0.0 3.190966483 0.194075549626 0.0
0.0 3.192167449 0.19335279707 0.0
0.0 3.193368415 0.192664582112 0.0
0.0 3.194569381 0.19200676108 0.0
0.0 3.195770347 0.191378113219 0.0
0.0 3.196971313 0.190776476969 0.0
0.0 3.198172279 0.190209809232 0.0
0.0 3.199373245 0.189655077208 0.0
0.0 3.20057421 0.18911932807 0.0
0.0 3.201775176 0.188603530913 0.0
0.0 3.202976142 0.188105904634 0.0
0.0 3.204177108 0.187625488702 0.0
0.0 3.205378074 0.18716157094 0.0
0.0 3.20657904 0.186711517786 0.0
0.0 3.207780006 0.186275969855 0.0
0.0 3.208980972 0.18585278403 0.0
0.0 3.210181938 0.185442577256 0.0
0.0 3.211382904 0.185042756007 0.0
0.0 3.21258387 0.184648461751 0.0
0.0 3.213784836 0.184265812266 0.0
0.0 3.214985802 0.183893878038 0.0
0.0 3.216186768 0.183530952062 0.0
0.0 3.217387734 0.183174962511 0.0
0.0 3.218588699 0.182826089605 0.0
0.0 3.219789665 0.182484380692 0.0
0.0 3.220990631 0.18214958128 0.0
0.0 3.222191597 0.181826622155 0.0
0.0 3.223392563 0.181502573801 0.0
0.0 3.224593529 0.181183787083 0.0
0.0 3.225794495 0.180869648483 0.0
0.0 3.226995461 0.180560104911 0.0
0.0 3.228196427 0.180255501675 0.0
0.0 3.229397393 0.179953805034 0.0
0.0 3.230598359 0.179655943386 0.0
0.0 3.231799325 0.179360680404 0.0
0.0 3.233000291 0.179069431881 0.0
0.0 3.234201257 0.178782148385 0.0
0.0 3.235402223 0.178497358407 0.0
0.0 3.236603188 0.178216160733 0.0
0.0 3.237804154 0.177937145166 0.0
0.0 3.23900512 0.177661547289 0.0
0.0 3.240206086 0.177388744123 0.0
0.0 3.241407052 0.177118325886 0.0
0.0 3.242608018 0.176851276173 0.0
0.0 3.243808984 0.176585712328 0.0
0.0 3.24500995 0.176325972355 0.0
0.0 3.246210916 0.176067039953 0.0
0.0 3.247411882 0.175811306293 0.0
0.0 3.248612848 0.175558776712 0.0
0.0 3.249813814 0.175307849996 0.0
0.0 3.25101478 0.175060276537 0.0
0.0 3.252215746 0.174815225187 0.0
0.0 3.253416712 0.174573860883 0.0
0.0 3.254617677 0.174335793985 0.0
0.0 3.255818643 0.174099422544 0.0
0.0 3.257019609 0.173866060288 0.0
0.0 3.258220575 0.173634627012 0.0
0.0 3.259421541 0.173406079981 0.0
0.0 3.260622507 0.173180242332 0.0
0.0 3.261823473 0.172956247155 0.0
0.0 3.263024439 0.17273469658 0.0
0.0 3.264225405 0.172514164381 0.0
0.0 3.265426371 0.172296012803 0.0
0.0 3.266627337 0.17208001261 0.0
0.0 3.267828303 0.171866526897 0.0
0.0 3.269029269 0.171655266216 0.0
0.0 3.270230235 0.171445293296 0.0
0.0 3.271431201 0.171237512524 0.0
0.0 3.272632166 0.171031643446 0.0
0.0 3.273833132 0.170827531247 0.0
0.0 3.275034098 0.17062590535 0.0
0.0 3.276235064 0.170425377251 0.0
0.0 3.27743603 0.170227026429 0.0
0.0 3.278636996 0.170029995953 0.0
0.0 3.279837962 0.169833921784 0.0
0.0 3.281038928 0.16963997842 0.0
0.0 3.282239894 0.169446852112 0.0
0.0 3.28344086 0.16925554349 0.0
0.0 3.284641826 0.169065502903 0.0
0.0 3.285842792 0.168877002867 0.0
0.0 3.287043758 0.168690410815 0.0
0.0 3.288244724 0.168504205603 0.0
0.0 3.289445689 0.168319753461 0.0
0.0 3.290646655 0.168135894116 0.0
0.0 3.291847621 0.167952523365 0.0
0.0 3.293048587 0.167770191348 0.0
0.0 3.294249553 0.167587584824 0.0
0.0 3.295450519 0.167405608583 0.0
0.0 3.296651485 0.167224008172 0.0
0.0 3.297852451 0.167042862461 0.0
0.0 3.299053417 0.166862509682 0.0
0.0 3.300254383 0.166682051043 0.0
0.0 3.301455349 0.166502496152 0.0
0.0 3.302656315 0.166323364484 0.0
0.0 3.303857281 0.166144545518 0.0
0.0 3.305058247 0.165967004461 0.0
0.0 3.306259213 0.165789428266 0.0
0.0 3.307460178 0.165612568444 0.0
0.0 3.308661144 0.165436075735 0.0
0.0 3.30986211 0.165259837271 0.0
0.0 3.311063076 0.165084242035 0.0
0.0 3.312264042 0.164908536604 0.0
0.0 3.313465008 0.164733471672 0.0
0.0 3.314665974 0.164558842923 0.0
0.0 3.31586694 0.164384376518 0.0
0.0 3.317067906 0.164211011835 0.0
0.0 3.318268872 0.164037769627 0.0
0.0 3.319469838 0.163864693122 0.0
0.0 3.320670804 0.163691742687 0.0
0.0 3.32187177 0.163519022768 0.0
0.0 3.323072736 0.16334744695 0.0
0.0 3.324273702 0.16317506728 0.0
0.0 3.325474667 0.163002053707 0.0
0.0 3.326675633 0.162829143554 0.0
0.0 3.327876599 0.16265610366 0.0
0.0 3.329077565 0.162483629737 0.0
0.0 3.330278531 0.162311071766 0.0
0.0 3.331479497 0.162137992174 0.0
0.0 3.332680463 0.161964879256 0.0
0.0 3.333881429 0.161791864486 0.0
0.0 3.335082395 0.161619589844 0.0
0.0 3.336283361 0.161447051206 0.0
0.0 3.337484327 0.161274452979 0.0
0.0 3.338685293 0.16110235212 0.0
0.0 3.339886259 0.160930206413 0.0
0.0 3.341087225 0.160758561808 0.0
0.0 3.342288191 0.160586963358 0.0
0.0 3.343489156 0.160414665545 0.0
0.0 3.344690122 0.160242802192 0.0
0.0 3.345891088 0.160071151921 0.0
0.0 3.347092054 0.159899468368 0.0
0.0 3.34829302 0.159727738933 0.0
0.0 3.349493986 0.159555846456 0.0
0.0 3.350694952 0.159384372984 0.0
0.0 3.351895918 0.159213041068 0.0
0.0 3.353096884 0.159041998984 0.0
0.0 3.35429785 0.158871174955 0.0
0.0 3.355498816 0.158700030996 0.0
0.0 3.356699782 0.158528924924 0.0
0.0 3.357900748 0.158357834504 0.0
0.0 3.359101714 0.158186750136 0.0
0.0 3.36030268 0.158016006393 0.0
0.0 3.361503645 0.1578454133 0.0
0.0 3.362704611 0.157675154608 0.0
0.0 3.363905577 0.157505174619 0.0
0.0 3.365106543 0.157335080937 0.0
0.0 3.366307509 0.157165463405 0.0
0.0 3.367508475 0.156996437872 0.0
0.0 3.368709441 0.156827420542 0.0
0.0 3.369910407 0.156658263093 0.0
0.0 3.371111373 0.156488791164 0.0
0.0 3.372312339 0.156319192029 0.0
0.0 3.373513305 0.156149855859 0.0
0.0 3.374714271 0.155981022788 0.0
0.0 3.375915237 0.15581237462 0.0
0.0 3.377116203 0.155643281151 0.0
0.0 3.378317169 0.155474188051 0.0
0.0 3.379518134 0.155305823313 0.0
0.0 3.3807191 0.15513799694 0.0
0.0 3.381920066 0.154970129693 0.0
0.0 3.383121032 0.15480164166 0.0
0.0 3.384321998 0.154632669448 0.0
0.0 3.385522964 0.154463860312 0.0
0.0 3.38672393 0.154295347888 0.0
0.0 3.387924896 0.154127371117 0.0
0.0 3.389125862 0.153959416126 0.0
0.0 3.390326828 0.153790773157 0.0
0.0 3.391527794 0.153621807936 0.0
0.0 3.39272876 0.153453648765 0.0
0.0 3.393929726 0.15328606701 0.0
0.0 3.395130692 0.153118684322 0.0
0.0 3.396331658 0.15295113989 0.0
0.0 3.397532623 0.152783519896 0.0
0.0 3.398733589 0.152616089287 0.0
0.0 3.399934555 0.152449192571 0.0
0.0 3.401135521 0.15228282212 0.0
0.0 3.402336487 0.152116124876 0.0
0.0 3.403537453 0.151949045711 0.0
0.0 3.404738419 0.151782080127 0.0
0.0 3.405939385 0.151615611745 0.0
0.0 3.407140351 0.15144909344 0.0
0.0 3.408341317 0.151282507932 0.0
0.0 3.409542283 0.151116475339 0.0
0.0 3.410743249 0.150950876454 0.0
0.0 3.411944215 0.15078586497 0.0
0.0 3.413145181 0.150621179881 0.0
0.0 3.414346146 0.150456091012 0.0
0.0 3.415547112 0.150290525071 0.0
0.0 3.416748078 0.150125008266 0.0
0.0 3.417949044 0.149959477846 0.0
0.0 3.41915001 0.149793883252 0.0
0.0 3.420350976 0.1496281767 0.0
0.0 3.421551942 0.149462257695 0.0
0.0 3.422752908 0.149296494229 0.0
0.0 3.423953874 0.149131225458 0.0
0.0 3.42515484 0.148966615925 0.0
0.0 3.426355806 0.148801737423 0.0
0.0 3.427556772 0.148636348804 0.0
0.0 3.428757738 0.148471059886 0.0
0.0 3.429958704 0.148305857791 0.0
0.0 3.43115967 0.148141453771 0.0
0.0 3.432360635 0.147977578846 0.0
0.0 3.433561601 0.147812866011 0.0
0.0 3.434762567 0.147647770686 0.0
0.0 3.435963533 0.147483256902 0.0
0.0 3.437164499 0.147318661199 0.0
0.0 3.438365465 0.147154044535 0.0
0.0 3.439566431 0.146989393876 0.0
0.0 3.440767397 0.146823794917 0.0
0.0 3.441968363 0.14665837192 0.0
0.0 3.443169329 0.146493716026 0.0
0.0 3.444370295 0.146329361067 0.0
0.0 3.445571261 0.146165039883 0.0
0.0 3.446772227 0.14600084968 0.0
0.0 3.447973193 0.145837351581 0.0
0.0 3.449174159 0.145674240798 0.0
0.0 3.450375124 0.14551054453 0.0
0.0 3.45157609 0.145346724444 0.0
0.0 3.452777056 0.145182304018 0.0
0.0 3.453978022 0.145017656864 0.0
0.0 3.455178988 0.144853790038 0.0
0.0 3.456379954 0.144689898094 0.0
0.0 3.45758092 0.144525620321 0.0
0.0 3.458781886 0.144361631835 0.0
0.0 3.459982852 0.144197676537 0.0
0.0 3.461183818 0.144034058602 0.0
0.0 3.462384784 0.143871247832 0.0
0.0 3.46358575 0.143708412548 0.0
0.0 3.464786716 0.143545827691 0.0
0.0 3.465987682 0.143383396523 0.0
0.0 3.467188648 0.143220427982 0.0
0.0 3.468389613 0.143057590544 0.0
0.0 3.469590579 0.142894806688 0.0
0.0 3.470791545 0.142731935597 0.0
0.0 3.471992511 0.142569643041 0.0
0.0 3.473193477 0.142407230491 0.0
0.0 3.474394443 0.142244420081 0.0
0.0 3.475595409 0.142081619577 0.0
0.0 3.476796375 0.14191869725 0.0
0.0 3.477997341 0.141756219208 0.0
0.0 3.479198307 0.141594381454 0.0
0.0 3.480399273 0.141432568804 0.0
0.0 3.481600239 0.141270934729 0.0
0.0 3.482801205 0.141109328706 0.0
0.0 3.484002171 0.140947976778 0.0
0.0 3.485203137 0.140787512162 0.0
0.0 3.486404102 0.140626715703 0.0
0.0 3.487605068 0.140465479924 0.0
0.0 3.488806034 0.140304408622 0.0
0.0 3.490007 0.140142700467 0.0
0.0 3.491207966 0.139981314309 0.0
0.0 3.492408932 0.13982062087 0.0
0.0 3.493609898 0.139659236965 0.0
0.0 3.494810864 0.139498162085 0.0
0.0 3.49601183 0.139337992212 0.0
0.0 3.497212796 0.139177767258 0.0
0.0 3.498413762 0.139018283086 0.0
0.0 3.499614728 0.138858948589 0.0
0.0 3.500815694 0.138698556072 0.0
0.0 3.50201666 0.138538768811 0.0
0.0 3.503217626 0.138379369739 0.0
0.0 3.504418591 0.138219482191 0.0
0.0 3.505619557 0.138060324702 0.0
0.0 3.506820523 0.137901216612 0.0
0.0 3.508021489 0.13774235129 0.0
0.0 3.509222455 0.137585136663 0.0
0.0 3.510423421 0.137427986778 0.0
0.0 3.511624387 0.137270165354 0.0
0.0 3.512825353 0.137112694839 0.0
0.0 3.514026319 0.136954680758 0.0
0.0 3.515227285 0.136796513074 0.0
0.0 3.516428251 0.136638930316 0.0
0.0 3.517629217 0.136480283346 0.0
0.0 3.518830183 0.136321018681 0.0
0.0 3.520031149 0.136162547448 0.0
0.0 3.521232114 0.136004231702 0.0
0.0 3.52243308 0.135846424685 0.0
0.0 3.523634046 0.135689223919 0.0
0.0 3.524835012 0.135532008713 0.0
0.0 3.526035978 0.135375528038 0.0
0.0 3.527236944 0.135219433793 0.0
0.0 3.52843791 0.135063045275 0.0
0.0 3.529638876 0.134907017955 0.0
0.0 3.530839842 0.134750787247 0.0
0.0 3.532040808 0.134594281445 0.0
0.0 3.533241774 0.134438631595 0.0
0.0 3.53444274 0.134282911191 0.0
0.0 3.535643706 0.134126660914 0.0
0.0 3.536844672 0.133970696598 0.0
0.0 3.538045638 0.133814582661 0.0
0.0 3.539246603 0.133659009876 0.0
0.0 3.540447569 0.133504835085 0.0
0.0 3.541648535 0.133350499229 0.0
0.0 3.542849501 0.133196175537 0.0
0.0 3.544050467 0.133042560729 0.0
0.0 3.545251433 0.13288883275 0.0
0.0 3.546452399 0.132735849615 0.0
0.0 3.547653365 0.132583594305 0.0
0.0 3.548854331 0.132430279418 0.0
0.0 3.550055297 0.1322767794 0.0
0.0 3.551256263 0.132123678668 0.0
0.0 3.552457229 0.131969926253 0.0
0.0 3.553658195 0.131816572217 0.0
0.0 3.554859161 0.131663797928 0.0
0.0 3.556060127 0.131510772244 0.0
0.0 3.557261092 0.131358871313 0.0
0.0 3.558462058 0.131207263899 0.0
0.0 3.559663024 0.13105468319 0.0
0.0 3.56086399 0.130903033292 0.0
0.0 3.562064956 0.130752121285 0.0
0.0 3.563265922 0.130601037277 0.0
0.0 3.564466888 0.130450508662 0.0
0.0 3.565667854 0.130299372015 0.0
0.0 3.56686882 0.130147615189 0.0
0.0 3.568069786 0.129997446802 0.0
0.0 3.569270752 0.129848122798 0.0
0.0 3.570471718 0.129698498775 0.0
0.0 3.571672684 0.129549395199 0.0
0.0 3.57287365 0.129399757115 0.0
0.0 3.574074616 0.129249999727 0.0
0.0 3.575275581 0.129101403949 0.0
0.0 3.576476547 0.128952262453 0.0
0.0 3.577677513 0.128802481272 0.0
0.0 3.578878479 0.128653282156 0.0
0.0 3.580079445 0.128503723048 0.0
0.0 3.581280411 0.128354041348 0.0
0.0 3.582481377 0.128205086389 0.0
0.0 3.583682343 0.12805571729 0.0
0.0 3.584883309 0.127906517016 0.0
0.0 3.586084275 0.127758489719 0.0
0.0 3.587285241 0.127610349411 0.0
0.0 3.588486207 0.127462106465 0.0
0.0 3.589687173 0.127314503367 0.0
0.0 3.590888139 0.127166441213 0.0
0.0 3.592089105 0.127018540152 0.0
0.0 3.59329007 0.126871874716 0.0
0.0 3.594491036 0.126724920817 0.0
0.0 3.595692002 0.126577969689 0.0
0.0 3.596892968 0.126432065113 0.0
0.0 3.598093934 0.126285514958 0.0
0.0 3.5992949 0.1261390356 0.0
0.0 3.600495866 0.12599408109 0.0
0.0 3.601696832 0.125848743002 0.0
0.0 3.602897798 0.125703102136 0.0
0.0 3.604098764 0.125558198049 0.0
0.0 3.60529973 0.125412577096 0.0
0.0 3.606500696 0.125266896463 0.0
0.0 3.607701662 0.125122588688 0.0
0.0 3.608902628 0.12497793918 0.0
0.0 3.610103594 0.124832719088 0.0
0.0 3.611304559 0.124688227145 0.0
0.0 3.612505525 0.124543421923 0.0
0.0 3.613706491 0.124398989635 0.0
0.0 3.614907457 0.124256165176 0.0
0.0 3.616108423 0.124113278582 0.0
0.0 3.617309389 0.123970307539 0.0
0.0 3.618510355 0.123828336011 0.0
0.0 3.619711321 0.123686128364 0.0
0.0 3.620912287 0.123543928936 0.0
0.0 3.622113253 0.123402812925 0.0
0.0 3.623314219 0.123261096038 0.0
0.0 3.624515185 0.123118955128 0.0
0.0 3.625716151 0.122977887329 0.0
0.0 3.626917117 0.122836302781 0.0
0.0 3.628118082 0.122694630863 0.0
0.0 3.629319048 0.122554452538 0.0
0.0 3.630520014 0.122414465659 0.0
0.0 3.63172098 0.122274108066 0.0
0.0 3.632921946 0.122134641522 0.0
0.0 3.634122912 0.1219948941 0.0
0.0 3.635323878 0.121854388382 0.0
0.0 3.636524844 0.121715279654 0.0
0.0 3.63772581 0.121576563086 0.0
0.0 3.638926776 0.121437426105 0.0
0.0 3.640127742 0.121299505396 0.0
0.0 3.641328708 0.121162039261 0.0
0.0 3.642529674 0.121024364446 0.0
0.0 3.64373064 0.120888033075 0.0
0.0 3.644931606 0.120751886191 0.0
0.0 3.646132571 0.120615044359 0.0
0.0 3.647333537 0.120479277527 0.0
0.0 3.648534503 0.120343680704 0.0
0.0 3.649735469 0.120207183777 0.0
0.0 3.650936435 0.120071237393 0.0
0.0 3.652137401 0.119935988229 0.0
0.0 3.653338367 0.119800176892 0.0
0.0 3.654539333 0.119665035659 0.0
0.0 3.655740299 0.119530559616 0.0
0.0 3.656941265 0.119394721873 0.0
0.0 3.658142231 0.119259107561 0.0
0.0 3.659343197 0.119124643827 0.0
0.0 3.660544163 0.118989692322 0.0
0.0 3.661745129 0.118855253428 0.0
0.0 3.662946095 0.118721789975 0.0
0.0 3.66414706 0.118587227946 0.0
0.0 3.665348026 0.118452527072 0.0
0.0 3.666548992 0.118318722755 0.0
0.0 3.667749958 0.118184616616 0.0
0.0 3.668950924 0.118050140292 0.0
0.0 3.67015189 0.117916358744 0.0
0.0 3.671352856 0.117782200869 0.0
0.0 3.672553822 0.117647908236 0.0
0.0 3.673754788 0.117515676381 0.0
0.0 3.674955754 0.117383888273 0.0
0.0 3.67615672 0.117251581567 0.0
0.0 3.677357686 0.117120418836 0.0
0.0 3.678558652 0.116989516495 0.0
0.0 3.679759618 0.116858327783 0.0
0.0 3.680960584 0.116727823595 0.0
0.0 3.682161549 0.116597081366 0.0
0.0 3.683362515 0.116465599654 0.0
0.0 3.684563481 0.116334846362 0.0
0.0 3.685764447 0.116204819011 0.0
0.0 3.686965413 0.116073855599 0.0
0.0 3.688166379 0.115943035721 0.0
0.0 3.689367345 0.115813199425 0.0
0.0 3.690568311 0.115682996959 0.0
0.0 3.691769277 0.115553574253 0.0
0.0 3.692970243 0.115425179517 0.0
0.0 3.694171209 0.115296206368 0.0
0.0 3.695372175 0.115167702738 0.0
0.0 3.696573141 0.115040508324 0.0
0.0 3.697774107 0.114913535073 0.0
0.0 3.698975073 0.114786698752 0.0
0.0 3.700176038 0.114661054137 0.0
0.0 3.701377004 0.114535456544 0.0
0.0 3.70257797 0.114409108416 0.0
0.0 3.703778936 0.114283714173 0.0
0.0 3.704979902 0.114158021755 0.0
0.0 3.706180868 0.114031560176 0.0
0.0 3.707381834 0.11390627828 0.0
0.0 3.7085828 0.113781047994 0.0
0.0 3.709783766 0.113654792945 0.0
0.0 3.710984732 0.113528794735 0.0
0.0 3.712185698 0.113403905377 0.0
0.0 3.713386664 0.113279227576 0.0
0.0 3.71458763 0.113155332251 0.0
0.0 3.715788596 0.113032539729 0.0
0.0 3.716989562 0.112908419382 0.0
0.0 3.718190527 0.112784198306 0.0
0.0 3.719391493 0.112661305823 0.0
0.0 3.720592459 0.112537847175 0.0
0.0 3.721793425 0.112413786998 0.0
0.0 3.722994391 0.112290348055 0.0
0.0 3.724195357 0.112167566993 0.0
0.0 3.725396323 0.112044999192 0.0
0.0 3.726597289 0.1119238024 0.0
0.0 3.727798255 0.111803275905 0.0
0.0 3.728999221 0.111681838426 0.0
0.0 3.730200187 0.111561641271 0.0
0.0 3.731401153 0.111442241467 0.0
0.0 3.732602119 0.111322124984 0.0
0.0 3.733803085 0.111201952367 0.0
0.0 3.735004051 0.111082322845 0.0
0.0 3.736205016 0.11096272995 0.0
0.0 3.737405982 0.110843292149 0.0
0.0 3.738606948 0.110725595619 0.0
0.0 3.739807914 0.110607961688 0.0
0.0 3.74100888 0.110489917302 0.0
0.0 3.742209846 0.110372939465 0.0
0.0 3.743410812 0.110256048814 0.0
0.0 3.744611778 0.110138971842 0.0
0.0 3.745812744 0.1100225228 0.0
0.0 3.74701371 0.10990641427 0.0
0.0 3.748214676 0.109789148314 0.0
0.0 3.749415642 0.109671678618 0.0
0.0 3.750616608 0.109555614969 0.0
0.0 3.751817574 0.109439516295 0.0
0.0 3.753018539 0.109324367597 0.0
0.0 3.754219505 0.109210326658 0.0
0.0 3.755420471 0.109096018659 0.0
0.0 3.756621437 0.108981505036 0.0
0.0 3.757822403 0.108868082154 0.0
0.0 3.759023369 0.108755585745 0.0
0.0 3.760224335 0.108642454827 0.0
0.0 3.761425301 0.108530026386 0.0
0.0 3.762626267 0.108417295225 0.0
0.0 3.763827233 0.108303199546 0.0
0.0 3.765028199 0.10818959273 0.0
0.0 3.766229165 0.108077289499 0.0
0.0 3.767430131 0.107965600151 0.0
0.0 3.768631097 0.107854013975 0.0
0.0 3.769832063 0.107743417766 0.0
0.0 3.771033028 0.107632158154 0.0
0.0 3.772233994 0.107520574429 0.0
0.0 3.77343496 0.107410974185 0.0
0.0 3.774635926 0.107302340993 0.0
0.0 3.775836892 0.107193483715 0.0
0.0 3.777037858 0.107084547101 0.0
0.0 3.778238824 0.106976061323 0.0
0.0 3.77943979 0.106867198721 0.0
0.0 3.780640756 0.106759030148 0.0
0.0 3.781841722 0.10665210679 0.0
0.0 3.783042688 0.106544344347 0.0
0.0 3.784243654 0.10643617034 0.0
0.0 3.78544462 0.106328554393 0.0
0.0 3.786645586 0.106221304348 0.0
0.0 3.787846552 0.106113478662 0.0
0.0 3.789047517 0.106006554728 0.0
0.0 3.790248483 0.105900676581 0.0
0.0 3.791449449 0.105794434487 0.0
0.0 3.792650415 0.105689142004 0.0
0.0 3.793851381 0.105584695031 0.0
0.0 3.795052347 0.105480168113 0.0
0.0 3.796253313 0.105375457831 0.0
0.0 3.797454279 0.105272258334 0.0
0.0 3.798655245 0.105169256447 0.0
0.0 3.799856211 0.105065137395 0.0
0.0 3.801057177 0.104961927835 0.0
0.0 3.802258143 0.104859326086 0.0
0.0 3.803459109 0.104756753932 0.0
0.0 3.804660075 0.104654531948 0.0
0.0 3.805861041 0.104553514302 0.0
0.0 3.807062006 0.104451735008 0.0
0.0 3.808262972 0.104349598998 0.0
0.0 3.809463938 0.104249143947 0.0
0.0 3.810664904 0.104149107153 0.0
0.0 3.81186587 0.104048856197 0.0
0.0 3.813066836 0.103948960844 0.0
0.0 3.814267802 0.103850177408 0.0
0.0 3.815468768 0.103750696369 0.0
0.0 3.816669734 0.103651835895 0.0
0.0 3.8178707 0.103554304663 0.0
0.0 3.819071666 0.103456448938 0.0
0.0 3.820272632 0.103358228522 0.0
0.0 3.821473598 0.103260592155 0.0
0.0 3.822674564 0.103163888372 0.0
0.0 3.82387553 0.103066418337 0.0
0.0 3.825076495 0.102970243024 0.0
0.0 3.826277461 0.102875214247 0.0
0.0 3.827478427 0.102780070855 0.0
0.0 3.828679393 0.102684980173 0.0
0.0 3.829880359 0.102590805129 0.0
0.0 3.831081325 0.102497102187 0.0
0.0 3.832282291 0.102402572572 0.0
0.0 3.833483257 0.102309170447 0.0
0.0 3.834684223 0.102216058521 0.0
0.0 3.835885189 0.10212252899 0.0
0.0 3.837086155 0.102029159781 0.0
0.0 3.838287121 0.101937175629 0.0
0.0 3.839488087 0.101845257122 0.0
0.0 3.840689053 0.101752746454 0.0
0.0 3.841890019 0.101661195464 0.0
0.0 3.843090984 0.101569862769 0.0
0.0 3.84429195 0.101478524372 0.0
0.0 3.845492916 0.101387791183 0.0
0.0 3.846693882 0.101298388636 0.0
0.0 3.847894848 0.101208296326 0.0
0.0 3.849095814 0.101118475865 0.0
0.0 3.85029678 0.101030006565 0.0
0.0 3.851497746 0.100942142026 0.0
0.0 3.852698712 0.100854100048 0.0
0.0 3.853899678 0.100766617898 0.0
0.0 3.855100644 0.100680132329 0.0
0.0 3.85630161 0.100593149266 0.0
0.0 3.857502576 0.100507072195 0.0
0.0 3.858703542 0.100422036233 0.0
0.0 3.859904507 0.100337266336 0.0
0.0 3.861105473 0.100251715338 0.0
0.0 3.862306439 0.100167112376 0.0
0.0 3.863507405 0.100082981066 0.0
0.0 3.864708371 0.0999980103034 0.0
0.0 3.865909337 0.0999130564539 0.0
0.0 3.867110303 0.0998286597747 0.0
0.0 3.868311269 0.0997445232335 0.0
0.0 3.869512235 0.0996601850744 0.0
0.0 3.870713201 0.0995772915071 0.0
0.0 3.871914167 0.0994944379546 0.0
0.0 3.873115133 0.0994110787707 0.0
0.0 3.874316099 0.0993280000153 0.0
0.0 3.875517065 0.0992465688643 0.0
0.0 3.876718031 0.0991653546245 0.0
0.0 3.877918996 0.099083924464 0.0
0.0 3.879119962 0.0990032507821 0.0
0.0 3.880320928 0.0989227687031 0.0
0.0 3.881521894 0.0988420633899 0.0
0.0 3.88272286 0.0987618460223 0.0
0.0 3.883923826 0.0986830081832 0.0
0.0 3.885124792 0.0986035592565 0.0
0.0 3.886325758 0.0985240597042 0.0
0.0 3.887526724 0.098445255807 0.0
0.0 3.88872769 0.0983672991098 0.0
0.0 3.889928656 0.0982887998866 0.0
0.0 3.891129622 0.0982109832592 0.0
0.0 3.892330588 0.0981340448214 0.0
0.0 3.893531554 0.0980566852412 0.0
0.0 3.89473252 0.0979792145445 0.0
0.0 3.895933485 0.0979025854566 0.0
0.0 3.897134451 0.097826749391 0.0
0.0 3.898335417 0.0977504174146 0.0
0.0 3.899536383 0.097675078848 0.0
0.0 3.900737349 0.0976007852804 0.0
0.0 3.901938315 0.0975271271184 0.0
0.0 3.903139281 0.097453483988 0.0
0.0 3.904340247 0.0973809795331 0.0
0.0 3.905541213 0.0973089123905 0.0
0.0 3.906742179 0.0972367454801 0.0
0.0 3.907943145 0.0971651151789 0.0
0.0 3.909144111 0.0970943789626 0.0
0.0 3.910345077 0.0970236203112 0.0
0.0 3.911546043 0.0969527438655 0.0
0.0 3.912747009 0.0968828824235 0.0
0.0 3.913947974 0.0968136884707 0.0
0.0 3.91514894 0.0967442239422 0.0
0.0 3.916349906 0.0966747697229 0.0
0.0 3.917550872 0.0966064011428 0.0
0.0 3.918751838 0.0965383398137 0.0
0.0 3.919952804 0.0964703743355 0.0
0.0 3.92115377 0.096402651068 0.0
0.0 3.922354736 0.0963354625942 0.0
0.0 3.923555702 0.09626778843 0.0
0.0 3.924756668 0.0962007273561 0.0
0.0 3.925957634 0.0961344495265 0.0
0.0 3.9271586 0.0960686216911 0.0
0.0 3.928359566 0.0960023195157 0.0
0.0 3.929560532 0.0959368713802 0.0
0.0 3.930761498 0.0958725397826 0.0
0.0 3.931962463 0.0958085502623 0.0
0.0 3.933163429 0.0957452691376 0.0
0.0 3.934364395 0.0956832432612 0.0
0.0 3.935565361 0.0956223099122 0.0
0.0 3.936766327 0.0955612652563 0.0
0.0 3.937967293 0.0955010888206 0.0
0.0 3.939168259 0.0954414510918 0.0
0.0 3.940369225 0.0953816784438 0.0
0.0 3.941570191 0.0953215142005 0.0
0.0 3.942771157 0.0952616672137 0.0
0.0 3.943972123 0.0952020511445 0.0
0.0 3.945173089 0.0951418984796 0.0
0.0 3.946374055 0.0950816412139 0.0
0.0 3.947575021 0.0950226125323 0.0
0.0 3.948775987 0.0949640571557 0.0
0.0 3.949976952 0.0949057957446 0.0
0.0 3.951177918 0.0948484656423 0.0
0.0 3.952378884 0.0947923032815 0.0
0.0 3.95357985 0.0947360924792 0.0
0.0 3.954780816 0.0946802133103 0.0
0.0 3.955981782 0.0946252132657 0.0
0.0 3.957182748 0.0945703741742 0.0
0.0 3.958383714 0.0945153584277 0.0
0.0 3.95958468 0.094460911459 0.0
0.0 3.960785646 0.0944072103271 0.0
0.0 3.961986612 0.0943535558229 0.0
0.0 3.963187578 0.0943001760742 0.0
0.0 3.964388544 0.0942476394729 0.0
0.0 3.96558951 0.0941956781349 0.0
0.0 3.966790476 0.094143774536 0.0
0.0 3.967991441 0.0940925838926 0.0
0.0 3.969192407 0.0940427893583 0.0
0.0 3.970393373 0.0939935921948 0.0
0.0 3.971594339 0.093943947176 0.0
0.0 3.972795305 0.0938946672987 0.0
0.0 3.973996271 0.0938457783839 0.0
0.0 3.975197237 0.0937972520013 0.0
0.0 3.976398203 0.093748889555 0.0
0.0 3.977599169 0.0937011879477 0.0
0.0 3.978800135 0.0936534378903 0.0
0.0 3.980001101 0.0936055467098 0.0
0.0 3.981202067 0.09355828845 0.0
0.0 3.982403033 0.0935118699267 0.0
0.0 3.983603999 0.0934657701689 0.0
0.0 3.984804964 0.0934197389929 0.0
0.0 3.98600593 0.0933742075643 0.0
0.0 3.987206896 0.0933295303308 0.0
0.0 3.988407862 0.0932850620652 0.0
0.0 3.989608828 0.0932409965435 0.0
0.0 3.990809794 0.0931976270196 0.0
0.0 3.99201076 0.0931550352592 0.0
0.0 3.993211726 0.0931123993913 0.0
0.0 3.994412692 0.0930704033898 0.0
0.0 3.995613658 0.0930292053125 0.0
0.0 3.996814624 0.0929883577694 0.0
0.0 3.99801559 0.0929473588832 0.0
0.0 3.999216556 0.0929070234969 0.0
0.0 4.000417522 0.0928675475884 0.0
0.0 4.001618488 0.0928283829875 0.0
0.0 4.002819453 0.0927898626421 0.0
0.0 4.004020419 0.0927521147388 0.0
0.0 4.005221385 0.0927148842597 0.0
0.0 4.006422351 0.0926775154418 0.0
0.0 4.007623317 0.0926404981209 0.0
0.0 4.008824283 0.0926044094019 0.0
0.0 4.010025249 0.0925689921957 0.0
0.0 4.011226215 0.0925337989441 0.0
0.0 4.012427181 0.0924992287331 0.0
0.0 4.013628147 0.0924654984446 0.0
0.0 4.014829113 0.0924322347173 0.0
0.0 4.016030079 0.0923991882252 0.0
0.0 4.017231045 0.0923666724471 0.0
0.0 4.018432011 0.092334298982 0.0
0.0 4.019632977 0.0923017078797 0.0
0.0 4.020833942 0.0922690778835 0.0
0.0 4.022034908 0.0922369437301 0.0
0.0 4.023235874 0.0922051582601 0.0
0.0 4.02443684 0.0921732850845 0.0
0.0 4.025637806 0.0921417672641 0.0
0.0 4.026838772 0.0921111906098 0.0
0.0 4.028039738 0.0920816459834 0.0
0.0 4.029240704 0.0920527300159 0.0
0.0 4.03044167 0.0920244925581 0.0
0.0 4.031642636 0.0919969131948 0.0
0.0 4.032843602 0.0919695765351 0.0
0.0 4.034044568 0.0919427568808 0.0
0.0 4.035245534 0.0919167752936 0.0
0.0 4.0364465 0.0918914093236 0.0
0.0 4.037647466 0.0918660726136 0.0
0.0 4.038848431 0.091840943497 0.0
0.0 4.040049397 0.0918167269973 0.0
0.0 4.041250363 0.0917932752491 0.0
0.0 4.042451329 0.0917700971885 0.0
0.0 4.043652295 0.0917470713632 0.0
0.0 4.044853261 0.0917246832342 0.0
0.0 4.046054227 0.0917028354983 0.0
0.0 4.047255193 0.0916812513075 0.0
0.0 4.048456159 0.0916600812766 0.0
0.0 4.049657125 0.0916393316804 0.0
0.0 4.050858091 0.0916189355099 0.0
0.0 4.052059057 0.091599000036 0.0
0.0 4.053260023 0.0915799463275 0.0
0.0 4.054460989 0.0915616614232 0.0
0.0 4.055661955 0.0915437136441 0.0
0.0 4.05686292 0.0915259752588 0.0
0.0 4.058063886 0.0915087178863 0.0
0.0 4.059264852 0.0914918527387 0.0
0.0 4.060465818 0.0914751517397 0.0
0.0 4.061666784 0.0914587340153 0.0
0.0 4.06286775 0.0914428824523 0.0
0.0 4.064068716 0.0914274825356 0.0
0.0 4.065269682 0.0914122254292 0.0
0.0 4.066470648 0.0913973422078 0.0
0.0 4.067671614 0.0913831063254 0.0
0.0 4.06887258 0.0913694589968 0.0
0.0 4.070073546 0.0913562538279 0.0
0.0 4.071274512 0.0913436988777 0.0
0.0 4.072475478 0.0913320210279 0.0
0.0 4.073676444 0.0913210028955 0.0
0.0 4.074877409 0.0913104872129 0.0
0.0 4.076078375 0.0913006360744 0.0
0.0 4.077279341 0.0912915266629 0.0
0.0 4.078480307 0.0912827958332 0.0
0.0 4.079681273 0.0912742005843 0.0
0.0 4.080882239 0.091265860006 0.0
0.0 4.082083205 0.0912578858633 0.0
0.0 4.083284171 0.0912500479549 0.0
0.0 4.084485137 0.0912425067917 0.0
0.0 4.085686103 0.0912355378357 0.0
0.0 4.086887069 0.0912293559247 0.0
0.0 4.088088035 0.0912236697986 0.0
0.0 4.089289001 0.0912184718773 0.0
0.0 4.090489967 0.0912138190967 0.0
0.0 4.091690932 0.0912098536574 0.0
0.0 4.092891898 0.0912065302683 0.0
0.0 4.094092864 0.0912040744474 0.0
0.0 4.09529383 0.0912022519118 0.0
0.0 4.096494796 0.0912010332061 0.0
0.0 4.097695762 0.0912002990914 0.0
0.0 4.098896728 0.0912004750425 0.0
0.0 4.100097694 0.0912012404003 0.0
0.0 4.10129866 0.0912022656356 0.0
0.0 4.102499626 0.0912029093094 0.0
0.0 4.103700592 0.0912038029355 0.0
0.0 4.104901558 0.0912051686868 0.0
0.0 4.106102524 0.0912073102641 0.0
0.0 4.10730349 0.0912098540425 0.0
0.0 4.108504456 0.0912129432256 0.0
0.0 4.109705421 0.09121661453 0.0
0.0 4.110906387 0.0912209378911 0.0
0.0 4.112107353 0.0912258486206 0.0
0.0 4.113308319 0.0912312755104 0.0
0.0 4.114509285 0.0912371201755 0.0
0.0 4.115710251 0.0912431790806 0.0
0.0 4.116911217 0.0912498523958 0.0
0.0 4.118112183 0.0912571879228 0.0
0.0 4.119313149 0.0912654666465 0.0
0.0 4.120514115 0.0912743766419 0.0
0.0 4.121715081 0.0912842561818 0.0
0.0 4.122916047 0.091294885921 0.0
0.0 4.124117013 0.0913064028995 0.0
0.0 4.125317979 0.0913181629701 0.0
0.0 4.126518945 0.0913301073628 0.0
0.0 4.12771991 0.0913421798694 0.0
0.0 4.128920876 0.0913545336273 0.0
0.0 4.130121842 0.0913668720598 0.0
0.0 4.131322808 0.0913794408598 0.0
0.0 4.132523774 0.0913923298583 0.0
0.0 4.13372474 0.091405989535 0.0
0.0 4.134925706 0.0914201672669 0.0
0.0 4.136126672 0.0914347919658 0.0
0.0 4.137327638 0.0914497449416 0.0
0.0 4.138528604 0.0914653644283 0.0
0.0 4.13972957 0.0914818323906 0.0
0.0 4.140930536 0.0914991179504 0.0
0.0 4.142131502 0.0915171887318 0.0
0.0 4.143332468 0.0915356055214 0.0
0.0 4.144533434 0.0915545832342 0.0
0.0 4.145734399 0.0915740758706 0.0
0.0 4.146935365 0.0915945474829 0.0
0.0 4.148136331 0.0916155185781 0.0
0.0 4.149337297 0.0916370543921 0.0
0.0 4.150538263 0.0916587073076 0.0
0.0 4.151739229 0.0916808487915 0.0
0.0 4.152940195 0.0917034085858 0.0
0.0 4.154141161 0.0917267259153 0.0
0.0 4.155342127 0.0917503666339 0.0
0.0 4.156543093 0.0917743675055 0.0
0.0 4.157744059 0.091798650449 0.0
0.0 4.158945025 0.0918234976772 0.0
0.0 4.160145991 0.0918489103899 0.0
0.0 4.161346957 0.0918749070442 0.0
0.0 4.162547923 0.0919014072369 0.0
0.0 4.163748888 0.0919283118756 0.0
0.0 4.164949854 0.0919559743241 0.0
0.0 4.16615082 0.0919842615437 0.0
0.0 4.167351786 0.0920133307742 0.0
0.0 4.168552752 0.0920428282014 0.0
0.0 4.169753718 0.0920731782333 0.0
0.0 4.170954684 0.0921040029717 0.0
0.0 4.17215565 0.0921355750765 0.0
0.0 4.173356616 0.0921675363305 0.0
0.0 4.174557582 0.0921999451817 0.0
0.0 4.175758548 0.092232947934 0.0
0.0 4.176959514 0.0922666060712 0.0
0.0 4.17816048 0.0923008488581 0.0
0.0 4.179361446 0.0923356702228 0.0
0.0 4.180562412 0.0923709857239 0.0
0.0 4.181763377 0.0924068609964 0.0
0.0 4.182964343 0.0924436751379 0.0
0.0 4.184165309 0.0924813686785 0.0
0.0 4.185366275 0.0925197110212 0.0
0.0 4.186567241 0.0925584770859 0.0
0.0 4.187768207 0.0925979484923 0.0
0.0 4.188969173 0.0926376470835 0.0
0.0 4.190170139 0.0926778610462 0.0
0.0 4.191371105 0.0927182480534 0.0
0.0 4.192572071 0.092758982477 0.0
0.0 4.193773037 0.0927998814047 0.0
0.0 4.194974003 0.0928411560985 0.0
0.0 4.196174969 0.0928828651033 0.0
0.0 4.197375935 0.09292528072 0.0
0.0 4.198576901 0.0929687787554 0.0
0.0 4.199777866 0.0930130231043 0.0
0.0 4.200978832 0.0930581022333 0.0
0.0 4.202179798 0.0931036982656 0.0
0.0 4.203380764 0.0931502264563 0.0
0.0 4.20458173 0.093197044395 0.0
0.0 4.205782696 0.0932443779417 0.0
0.0 4.206983662 0.0932917475083 0.0
0.0 4.208184628 0.0933393546507 0.0
0.0 4.209385594 0.0933872240517 0.0
0.0 4.21058656 0.0934356695212 0.0
0.0 4.211787526 0.0934851875411 0.0
0.0 4.212988492 0.0935356174423 0.0
0.0 4.214189458 0.0935869689527 0.0
0.0 4.215390424 0.093639003799 0.0
0.0 4.216591389 0.0936923674875 0.0
0.0 4.217792355 0.0937465315021 0.0
0.0 4.218993321 0.0938013842753 0.0
0.0 4.220194287 0.0938562568961 0.0
0.0 4.221395253 0.0939112092533 0.0
0.0 4.222596219 0.0939662914808 0.0
0.0 4.223797185 0.0940217689455 0.0
0.0 4.224998151 0.0940775728642 0.0
0.0 4.226199117 0.0941336447929 0.0
0.0 4.227400083 0.0941907083014 0.0
0.0 4.228601049 0.0942484770076 0.0
0.0 4.229802015 0.0943072353203 0.0
0.0 4.231002981 0.0943667154136 0.0
0.0 4.232203947 0.0944274108851 0.0
0.0 4.233404913 0.0944883219858 0.0
0.0 4.234605878 0.0945495187706 0.0
0.0 4.235806844 0.0946108359359 0.0
0.0 4.23700781 0.0946726205721 0.0
0.0 4.238208776 0.0947350702069 0.0
0.0 4.239409742 0.0947979798164 0.0
0.0 4.240610708 0.0948616025054 0.0
0.0 4.241811674 0.0949258099347 0.0
0.0 4.24301264 0.0949911362132 0.0
0.0 4.244213606 0.0950570921239 0.0
0.0 4.245414572 0.0951236834866 0.0
0.0 4.246615538 0.0951903990891 0.0
0.0 4.247816504 0.0952575650734 0.0
0.0 4.24901747 0.0953250007743 0.0
0.0 4.250218436 0.0953926969667 0.0
0.0 4.251419402 0.0954609442755 0.0
0.0 4.252620367 0.0955302334691 0.0
0.0 4.253821333 0.0956005040698 0.0
0.0 4.255022299 0.0956713918666 0.0
0.0 4.256223265 0.0957432948332 0.0
0.0 4.257424231 0.0958162159506 0.0
0.0 4.258625197 0.0958899007077 0.0
0.0 4.259826163 0.0959637295633 0.0
0.0 4.261027129 0.0960381280664 0.0
0.0 4.262228095 0.0961132058877 0.0
0.0 4.263429061 0.0961889815942 0.0
0.0 4.264630027 0.0962654918908 0.0
0.0 4.265830993 0.0963426602203 0.0
0.0 4.267031959 0.0964208784266 0.0
0.0 4.268232925 0.0964994838896 0.0
0.0 4.269433891 0.0965785618061 0.0
0.0 4.270634856 0.0966575345801 0.0
0.0 4.271835822 0.0967369033969 0.0
0.0 4.273036788 0.0968166575759 0.0
0.0 4.274237754 0.096896755675 0.0
0.0 4.27543872 0.096977332636 0.0
0.0 4.276639686 0.0970582341209 0.0
0.0 4.277840652 0.0971405699835 0.0
0.0 4.279041618 0.0972237484287 0.0
0.0 4.280242584 0.0973079511754 0.0
0.0 4.28144355 0.0973928506765 0.0
0.0 4.282644516 0.0974788320397 0.0
0.0 4.283845482 0.0975654224611 0.0
0.0 4.285046448 0.0976523297215 0.0
0.0 4.286247414 0.0977397654717 0.0
0.0 4.28744838 0.0978277355657 0.0
0.0 4.288649345 0.0979167008755 0.0
0.0 4.289850311 0.0980058782471 0.0
0.0 4.291051277 0.098095258925 0.0
0.0 4.292252243 0.0981847238103 0.0
0.0 4.293453209 0.0982748897996 0.0
0.0 4.294654175 0.098365697205 0.0
0.0 4.295855141 0.0984569302843 0.0
0.0 4.297056107 0.0985491156013 0.0
0.0 4.298257073 0.098641774697 0.0
0.0 4.299458039 0.0987351052883 0.0
0.0 4.300659005 0.0988288523749 0.0
0.0 4.301859971 0.0989237811919 0.0
0.0 4.303060937 0.099019753912 0.0
0.0 4.304261903 0.0991165476811 0.0
0.0 4.305462869 0.0992136882692 0.0
0.0 4.306663834 0.0993108315245 0.0
0.0 4.3078648 0.0994090092355 0.0
0.0 4.309065766 0.0995080999761 0.0
0.0 4.310266732 0.0996083097271 0.0
0.0 4.311467698 0.0997088882985 0.0
0.0 4.312668664 0.099810049305 0.0
0.0 4.31386963 0.0999118141147 0.0
0.0 4.315070596 0.100014123466 0.0
0.0 4.316271562 0.100116870974 0.0
0.0 4.317472528 0.100219974461 0.0
0.0 4.318673494 0.10032414866 0.0
0.0 4.31987446 0.100428692531 0.0
0.0 4.321075426 0.10053382608 0.0
0.0 4.322276392 0.100639531349 0.0
0.0 4.323477357 0.100745999412 0.0
0.0 4.324678323 0.100853465791 0.0
0.0 4.325879289 0.100961381713 0.0
0.0 4.327080255 0.101070130345 0.0
0.0 4.328281221 0.101179486063 0.0
0.0 4.329482187 0.101289982971 0.0
0.0 4.330683153 0.101400446278 0.0
0.0 4.331884119 0.101511383153 0.0
0.0 4.333085085 0.101623119155 0.0
0.0 4.334286051 0.101735665276 0.0
0.0 4.335487017 0.10184906031 0.0
0.0 4.336687983 0.101962521757 0.0
0.0 4.337888949 0.102076518277 0.0
0.0 4.339089915 0.102191036454 0.0
0.0 4.340290881 0.102306933995 0.0
0.0 4.341491846 0.102423250419 0.0
0.0 4.342692812 0.102539862194 0.0
0.0 4.343893778 0.10265727101 0.0
0.0 4.345094744 0.102775497525 0.0
0.0 4.34629571 0.102894566024 0.0
0.0 4.347496676 0.10301414102 0.0
0.0 4.348697642 0.103134512954 0.0
0.0 4.349898608 0.103255715609 0.0
0.0 4.351099574 0.10337779112 0.0
0.0 4.35230054 0.103500393186 0.0
0.0 4.353501506 0.103623450337 0.0
0.0 4.354702472 0.103747620815 0.0
0.0 4.355903438 0.103872724006 0.0
0.0 4.357104404 0.103998480522 0.0
0.0 4.35830537 0.104124850455 0.0
0.0 4.359506335 0.104251936473 0.0
0.0 4.360707301 0.104379893728 0.0
0.0 4.361908267 0.10450812159 0.0
0.0 4.363109233 0.104636625365 0.0
0.0 4.364310199 0.104765368347 0.0
0.0 4.365511165 0.104894977755 0.0
0.0 4.366712131 0.105025115835 0.0
0.0 4.367913097 0.105155440009 0.0
0.0 4.369114063 0.105285980722 0.0
0.0 4.370315029 0.105416943353 0.0
0.0 4.371515995 0.105549247451 0.0
0.0 4.372716961 0.105682166796 0.0
0.0 4.373917927 0.105815789667 0.0
0.0 4.375118893 0.105950185163 0.0
0.0 4.376319859 0.106085761536 0.0
0.0 4.377520824 0.106222482389 0.0
0.0 4.37872179 0.106359889265 0.0
0.0 4.379922756 0.106497972899 0.0
0.0 4.381123722 0.10663688469 0.0
0.0 4.382324688 0.106776681148 0.0
0.0 4.383525654 0.106916496143 0.0
0.0 4.38472662 0.107056551719 0.0
0.0 4.385927586 0.107197305527 0.0
0.0 4.387128552 0.107338808011 0.0
0.0 4.388329518 0.107481280294 0.0
0.0 4.389530484 0.107624429382 0.0
0.0 4.39073145 0.107768123362 0.0
0.0 4.391932416 0.10791300665 0.0
0.0 4.393133382 0.108059173554 0.0
0.0 4.394334348 0.108205929188 0.0
0.0 4.395535313 0.108352756586 0.0
0.0 4.396736279 0.108500348634 0.0
0.0 4.397937245 0.108649080605 0.0
0.0 4.399138211 0.108798709165 0.0
0.0 4.400339177 0.108948913278 0.0
0.0 4.401540143 0.109099335494 0.0
0.0 4.402741109 0.109250537949 0.0
0.0 4.403942075 0.109401887346 0.0
0.0 4.405143041 0.109554064372 0.0
0.0 4.406344007 0.109706857921 0.0
0.0 4.407544973 0.109860074912 0.0
0.0 4.408745939 0.110014808988 0.0
0.0 4.409946905 0.110169786805 0.0
0.0 4.411147871 0.110325049158 0.0
0.0 4.412348837 0.110480750198 0.0
0.0 4.413549802 0.110637890162 0.0
0.0 4.414750768 0.110795773721 0.0
0.0 4.415951734 0.11095380511 0.0
0.0 4.4171527 0.111112192447 0.0
0.0 4.418353666 0.111270455795 0.0
0.0 4.419554632 0.111430153792 0.0
0.0 4.420755598 0.111590975244 0.0
0.0 4.421956564 0.111752487726 0.0
0.0 4.42315753 0.11191479724 0.0
0.0 4.424358496 0.112078008643 0.0
0.0 4.425559462 0.112242382794 0.0
0.0 4.426760428 0.112407384024 0.0
0.0 4.427961394 0.112572919717 0.0
0.0 4.42916236 0.112739047021 0.0
0.0 4.430363326 0.112906033137 0.0
0.0 4.431564291 0.113074058391 0.0
0.0 4.432765257 0.11324221346 0.0
0.0 4.433966223 0.113410978851 0.0
0.0 4.435167189 0.113580678308 0.0
0.0 4.436368155 0.113751393902 0.0
0.0 4.437569121 0.113923001252 0.0
0.0 4.438770087 0.114095183147 0.0
0.0 4.439971053 0.114268041586 0.0
0.0 4.441172019 0.114441801234 0.0
0.0 4.442372985 0.114616438389 0.0
0.0 4.443573951 0.114791571013 0.0
0.0 4.444774917 0.114966980659 0.0
0.0 4.445975883 0.115143066694 0.0
0.0 4.447176849 0.115319855181 0.0
0.0 4.448377814 0.115497284581 0.0
0.0 4.44957878 0.115675226447 0.0
0.0 4.450779746 0.115853529827 0.0
0.0 4.451980712 0.116033014537 0.0
0.0 4.453181678 0.116213121632 0.0
0.0 4.454382644 0.116393985051 0.0
0.0 4.45558361 0.116575399186 0.0
0.0 4.456784576 0.116757486655 0.0
0.0 4.457985542 0.116940691246 0.0
0.0 4.459186508 0.117124723908 0.0
0.0 4.460387474 0.117309431484 0.0
0.0 4.46158844 0.117494795853 0.0
0.0 4.462789406 0.117681260002 0.0
0.0 4.463990372 0.117868565012 0.0
0.0 4.465191338 0.118056352622 0.0
0.0 4.466392303 0.118244865333 0.0
0.0 4.467593269 0.118434227347 0.0
0.0 4.468794235 0.118624460005 0.0
0.0 4.469995201 0.1188154135 0.0
0.0 4.471196167 0.119006849952 0.0
0.0 4.472397133 0.119199128056 0.0
0.0 4.473598099 0.119392657752 0.0
0.0 4.474799065 0.119587385331 0.0
0.0 4.476000031 0.119782725602 0.0
0.0 4.477200997 0.119978059973 0.0
0.0 4.478401963 0.120174144884 0.0
0.0 4.479602929 0.120371374639 0.0
0.0 4.480803895 0.120569445216 0.0
0.0 4.482004861 0.120767948645 0.0
0.0 4.483205827 0.120966431668 0.0
0.0 4.484406792 0.121166014686 0.0
0.0 4.485607758 0.121366905261 0.0
0.0 4.486808724 0.121568875882 0.0
0.0 4.48800969 0.121771342805 0.0
0.0 4.489210656 0.121974211193 0.0
0.0 4.490411622 0.122178321536 0.0
0.0 4.491612588 0.122383259756 0.0
0.0 4.492813554 0.12258861855 0.0
0.0 4.49401452 0.122793673626 0.0
0.0 4.495215486 0.122998818273 0.0
0.0 4.496416452 0.123205207945 0.0
0.0 4.497617418 0.12341261571 0.0
0.0 4.498818384 0.123620901829 0.0
0.0 4.50001935 0.123829503412 0.0
0.0 4.501220316 0.124038939225 0.0
0.0 4.502421281 0.124249656906 0.0
0.0 4.503622247 0.124461461161 0.0
0.0 4.504823213 0.124674027214 0.0
0.0 4.506024179 0.124886874953 0.0
0.0 4.507225145 0.125100395711 0.0
0.0 4.508426111 0.125314704933 0.0
0.0 4.509627077 0.125529685402 0.0
0.0 4.510828043 0.125745421909 0.0
0.0 4.512029009 0.125962161417 0.0
0.0 4.513229975 0.126180070626 0.0
0.0 4.514430941 0.126399104596 0.0
0.0 4.515631907 0.126618597727 0.0
0.0 4.516832873 0.126838736361 0.0
0.0 4.518033839 0.127060041479 0.0
0.0 4.519234805 0.127282593214 0.0
0.0 4.52043577 0.127506112233 0.0
0.0 4.521636736 0.127729674732 0.0
0.0 4.522837702 0.127953788464 0.0
0.0 4.524038668 0.128178744742 0.0
0.0 4.525239634 0.128404930406 0.0
0.0 4.5264406 0.128632022074 0.0
0.0 4.527641566 0.128858903214 0.0
0.0 4.528842532 0.129085972754 0.0
0.0 4.530043498 0.129313649995 0.0
0.0 4.531244464 0.129542759178 0.0
0.0 4.53244543 0.1297725785 0.0
0.0 4.533646396 0.130002633951 0.0
0.0 4.534847362 0.130233252538 0.0
0.0 4.536048328 0.13046474614 0.0
0.0 4.537249294 0.130697381699 0.0
0.0 4.538450259 0.130930875552 0.0
0.0 4.539651225 0.131165167339 0.0
0.0 4.540852191 0.131400299574 0.0
0.0 4.542053157 0.13163681882 0.0
0.0 4.543254123 0.1318742924 0.0
0.0 4.544455089 0.132112391789 0.0
0.0 4.545656055 0.132351045071 0.0
0.0 4.546857021 0.132590776103 0.0
0.0 4.548057987 0.132831850402 0.0
0.0 4.549258953 0.133073504135 0.0
0.0 4.550459919 0.133315528106 0.0
0.0 4.551660885 0.133557972077 0.0
0.0 4.552861851 0.133801658869 0.0
0.0 4.554062817 0.134046844773 0.0
0.0 4.555263782 0.13429263725 0.0
0.0 4.556464748 0.134538772466 0.0
0.0 4.557665714 0.134785254374 0.0
0.0 4.55886668 0.135032683394 0.0
0.0 4.560067646 0.135281131373 0.0
0.0 4.561268612 0.135529343613 0.0
0.0 4.562469578 0.135777858942 0.0
0.0 4.563670544 0.13602666756 0.0
0.0 4.56487151 0.136276540573 0.0
0.0 4.566072476 0.136527633357 0.0
0.0 4.567273442 0.136779622741 0.0
0.0 4.568474408 0.137032332067 0.0
0.0 4.569675374 0.13728581238 0.0
0.0 4.57087634 0.137540770892 0.0
0.0 4.572077306 0.137796396046 0.0
0.0 4.573278271 0.138052673106 0.0
0.0 4.574479237 0.138309738805 0.0
0.0 4.575680203 0.138568251198 0.0
0.0 4.576881169 0.138828257955 0.0
0.0 4.578082135 0.13908921292 0.0
0.0 4.579283101 0.139350463268 0.0
0.0 4.580484067 0.139612173551 0.0
0.0 4.581685033 0.139875004437 0.0
0.0 4.582885999 0.140138554077 0.0
0.0 4.584086965 0.140402521422 0.0
0.0 4.585287931 0.140666202574 0.0
0.0 4.586488897 0.140929778869 0.0
0.0 4.587689863 0.141194274945 0.0
0.0 4.588890829 0.141460638632 0.0
0.0 4.590091795 0.14172843989 0.0
0.0 4.59129276 0.141997225849 0.0
0.0 4.592493726 0.142267254295 0.0
0.0 4.593694692 0.14253879113 0.0
0.0 4.594895658 0.142811620306 0.0
0.0 4.596096624 0.143084899983 0.0
0.0 4.59729759 0.143358577049 0.0
0.0 4.598498556 0.143632464081 0.0
0.0 4.599699522 0.143907379254 0.0
0.0 4.600900488 0.144183345099 0.0
0.0 4.602101454 0.144459510416 0.0
0.0 4.60330242 0.144736003789 0.0
0.0 4.604503386 0.145013148127 0.0
0.0 4.605704352 0.145291793175 0.0
0.0 4.606905318 0.145571747494 0.0
0.0 4.608106284 0.145852124475 0.0
0.0 4.609307249 0.146132729856 0.0
0.0 4.610508215 0.146413787428 0.0
0.0 4.611709181 0.146696079548 0.0
0.0 4.612910147 0.146979390673 0.0
0.0 4.614111113 0.147263027705 0.0
0.0 4.615312079 0.147547070688 0.0
0.0 4.616513045 0.147831906898 0.0
0.0 4.617714011 0.148118247763 0.0
0.0 4.618914977 0.148405919871 0.0
0.0 4.620115943 0.148694392925 0.0
0.0 4.621316909 0.148983579431 0.0
0.0 4.622517875 0.149273962237 0.0
0.0 4.623718841 0.149565987274 0.0
0.0 4.624919807 0.149858990088 0.0
0.0 4.626120773 0.150152222668 0.0
0.0 4.627321738 0.150445591959 0.0
0.0 4.628522704 0.150739621595 0.0
0.0 4.62972367 0.151034729139 0.0
0.0 4.630924636 0.151330619241 0.0
0.0 4.632125602 0.151626805867 0.0
0.0 4.633326568 0.151923378427 0.0
0.0 4.634527534 0.152221171135 0.0
0.0 4.6357285 0.152520772823 0.0
0.0 4.636929466 0.152821715543 0.0
0.0 4.638130432 0.153123452107 0.0
0.0 4.639331398 0.153425742989 0.0
0.0 4.640532364 0.153729086527 0.0
0.0 4.64173333 0.154033635661 0.0
0.0 4.642934296 0.154338858743 0.0
0.0 4.644135262 0.154644222362 0.0
0.0 4.645336227 0.154949884116 0.0
0.0 4.646537193 0.155256495984 0.0
0.0 4.647738159 0.155564572493 0.0
0.0 4.648939125 0.155873819573 0.0
0.0 4.650140091 0.156183741109 0.0
0.0 4.651341057 0.156494301184 0.0
0.0 4.652542023 0.156806043841 0.0
0.0 4.653742989 0.157119221582 0.0
0.0 4.654943955 0.157433203343 0.0
0.0 4.656144921 0.157747444265 0.0
0.0 4.657345887 0.158061717267 0.0
0.0 4.658546853 0.158376541366 0.0
0.0 4.659747819 0.158692312726 0.0
0.0 4.660948785 0.159008906712 0.0
0.0 4.662149751 0.159325850864 0.0
0.0 4.663350716 0.159643256699 0.0
0.0 4.664551682 0.159961654188 0.0
0.0 4.665752648 0.160281420537 0.0
0.0 4.666953614 0.160602319548 0.0
0.0 4.66815458 0.16092396125 0.0
0.0 4.669355546 0.161246351279 0.0
0.0 4.670556512 0.1615700598 0.0
0.0 4.671757478 0.161895436715 0.0
0.0 4.672958444 0.162221930595 0.0
0.0 4.67415941 0.162549029806 0.0
0.0 4.675360376 0.162876662981 0.0
0.0 4.676561342 0.163205237189 0.0
0.0 4.677762308 0.163535069222 0.0
0.0 4.678963274 0.163865416209 0.0
0.0 4.680164239 0.164195761536 0.0
0.0 4.681365205 0.164526157957 0.0
0.0 4.682566171 0.164857393273 0.0
0.0 4.683767137 0.165190065021 0.0
0.0 4.684968103 0.165523805874 0.0
0.0 4.686169069 0.16585808413 0.0
0.0 4.687370035 0.166192706478 0.0
0.0 4.688571001 0.166528632422 0.0
0.0 4.689771967 0.166866433071 0.0
0.0 4.690972933 0.167205938276 0.0
0.0 4.692173899 0.167546305275 0.0
0.0 4.693374865 0.167886993339 0.0
0.0 4.694575831 0.168228444047 0.0
0.0 4.695776797 0.168571103057 0.0
0.0 4.696977763 0.168915039632 0.0
0.0 4.698178728 0.169259629942 0.0
0.0 4.699379694 0.169604432982 0.0
0.0 4.70058066 0.169949948935 0.0
0.0 4.701781626 0.17029669425 0.0
0.0 4.702982592 0.170645095663 0.0
0.0 4.704183558 0.170994208156 0.0
0.0 4.705384524 0.171343754405 0.0
0.0 4.70658549 0.171693999516 0.0
0.0 4.707786456 0.172045427371 0.0
0.0 4.708987422 0.172397952028 0.0
0.0 4.710188388 0.172751041649 0.0
0.0 4.711389354 0.173104250457 0.0
0.0 4.71259032 0.173457646769 0.0
0.0 4.713791286 0.173812364834 0.0
0.0 4.714992252 0.174168382485 0.0
0.0 4.716193217 0.174525439181 0.0
0.0 4.717394183 0.174883087855 0.0
0.0 4.718595149 0.175241408339 0.0
0.0 4.719796115 0.175601032 0.0
0.0 4.720997081 0.175962042512 0.0
0.0 4.722198047 0.176323860439 0.0
0.0 4.723399013 0.176685892043 0.0
0.0 4.724599979 0.17704811101 0.0
0.0 4.725800945 0.177411199212 0.0
0.0 4.727001911 0.177775613879 0.0
0.0 4.728202877 0.178140924784 0.0
0.0 4.729403843 0.178506756685 0.0
0.0 4.730604809 0.178873178453 0.0
0.0 4.731805775 0.179240707454 0.0
0.0 4.733006741 0.17961007542 0.0
0.0 4.734207706 0.17998109032 0.0
0.0 4.735408672 0.180353047629 0.0
0.0 4.736609638 0.180725871457 0.0
0.0 4.737810604 0.181099898028 0.0
0.0 4.73901157 0.181475439983 0.0
0.0 4.740212536 0.181852330212 0.0
0.0 4.741413502 0.182229579218 0.0
0.0 4.742614468 0.182606777111 0.0
0.0 4.743815434 0.182984112881 0.0
0.0 4.7450164 0.183362128446 0.0
0.0 4.746217366 0.183741141862 0.0
0.0 4.747418332 0.184120420896 0.0
0.0 4.748619298 0.184499889137 0.0
0.0 4.749820264 0.184880200915 0.0
0.0 4.75102123 0.185262104681 0.0
0.0 4.752222195 0.185645993201 0.0
0.0 4.753423161 0.186031580044 0.0
0.0 4.754624127 0.186417972154 0.0
0.0 4.755825093 0.186804922083 0.0
0.0 4.757026059 0.187193137906 0.0
0.0 4.758227025 0.187582546125 0.0
0.0 4.759427991 0.187972979024 0.0
0.0 4.760628957 0.188363552969 0.0
0.0 4.761829923 0.188754309018 0.0
0.0 4.763030889 0.1891460953 0.0
0.0 4.764231855 0.18953937676 0.0
0.0 4.765432821 0.189934088924 0.0
0.0 4.766633787 0.190329752012 0.0
0.0 4.767834753 0.190725877676 0.0
0.0 4.769035719 0.19112257521 0.0
0.0 4.770236684 0.191520740693 0.0
0.0 4.77143765 0.191920189745 0.0
0.0 4.772638616 0.192320406891 0.0
0.0 4.773839582 0.19272103821 0.0
0.0 4.775040548 0.193122132966 0.0
0.0 4.776241514 0.193524349973 0.0
0.0 4.77744248 0.193927900384 0.0
0.0 4.778643446 0.194332255267 0.0
0.0 4.779844412 0.194737202376 0.0
0.0 4.781045378 0.195142554434 0.0
0.0 4.782246344 0.195548744618 0.0
0.0 4.78344731 0.195956299351 0.0
0.0 4.784648276 0.196364804497 0.0
0.0 4.785849242 0.196773999942 0.0
0.0 4.787050207 0.197183783138 0.0
0.0 4.788251173 0.197594508559 0.0
0.0 4.789452139 0.19800664948 0.0
0.0 4.790653105 0.198420066427 0.0
0.0 4.791854071 0.198833977247 0.0
0.0 4.793055037 0.199248300945 0.0
0.0 4.794256003 0.199663446824 0.0
0.0 4.795456969 0.200079827209 0.0
0.0 4.796657935 0.200497947298 0.0
0.0 4.797858901 0.200917220854 0.0
0.0 4.799059867 0.201337166786 0.0
0.0 4.800260833 0.201757939436 0.0
0.0 4.801461799 0.202179926959 0.0
0.0 4.802662765 0.202603346609 0.0
0.0 4.803863731 0.203028397485 0.0
0.0 4.805064696 0.20345397772 0.0
0.0 4.806265662 0.203879954215 0.0
0.0 4.807466628 0.204307002175 0.0
0.0 4.808667594 0.20473530238 0.0
0.0 4.80986856 0.205164876146 0.0
0.0 4.811069526 0.205595123986 0.0
0.0 4.812270492 0.206025671054 0.0
0.0 4.813471458 0.206456505894 0.0
0.0 4.814672424 0.206888447648 0.0
0.0 4.81587339 0.207321470132 0.0
0.0 4.817074356 0.20775574688 0.0
0.0 4.818275322 0.208190226166 0.0
0.0 4.819476288 0.20862515966 0.0
0.0 4.820677254 0.209061515785 0.0
0.0 4.82187822 0.209499293561 0.0
0.0 4.823079185 0.20993806995 0.0
0.0 4.824280151 0.210377565966 0.0
0.0 4.825481117 0.210817572233 0.0
0.0 4.826682083 0.211258127171 0.0
0.0 4.827883049 0.211700526302 0.0
0.0 4.829084015 0.212144315674 0.0
0.0 4.830284981 0.212589013284 0.0
0.0 4.831485947 0.213034382449 0.0
0.0 4.832686913 0.213480586826 0.0
0.0 4.833887879 0.213928406886 0.0
0.0 4.835088845 0.21437822819 0.0
0.0 4.836289811 0.214829113903 0.0
0.0 4.837490777 0.215280720682 0.0
0.0 4.838691743 0.21573298589 0.0
0.0 4.839892709 0.216186169916 0.0
0.0 4.841093674 0.216640932537 0.0
0.0 4.84229464 0.217096655714 0.0
0.0 4.843495606 0.217552503687 0.0
0.0 4.844696572 0.218008051227 0.0
0.0 4.845897538 0.2184638596 0.0
0.0 4.847098504 0.218920446865 0.0
0.0 4.84829947 0.219378272025 0.0
0.0 4.849500436 0.21983678416 0.0
0.0 4.850701402 0.220295562071 0.0
0.0 4.851902368 0.220755315662 0.0
0.0 4.853103334 0.221216339609 0.0
0.0 4.8543043 0.221679403981 0.0
0.0 4.855505266 0.222144542841 0.0
0.0 4.856706232 0.222610842139 0.0
0.0 4.857907198 0.223078108584 0.0
0.0 4.859108163 0.223546744691 0.0
0.0 4.860309129 0.224016884004 0.0
0.0 4.861510095 0.224488659148 0.0
0.0 4.862711061 0.224961839041 0.0
0.0 4.863912027 0.225435415244 0.0
0.0 4.865112993 0.225909388206 0.0
0.0 4.866313959 0.226384304655 0.0
0.0 4.867514925 0.226860398052 0.0
0.0 4.868715891 0.227337732262 0.0
0.0 4.869916857 0.227815604298 0.0
0.0 4.871117823 0.228293673523 0.0
0.0 4.872318789 0.228772380318 0.0
0.0 4.873519755 0.229252165769 0.0
0.0 4.874720721 0.229732793048 0.0
0.0 4.875921687 0.230214178614 0.0
0.0 4.877122652 0.230695665325 0.0
0.0 4.878323618 0.231177322721 0.0
0.0 4.879524584 0.231660471855 0.0
0.0 4.88072555 0.232145338426 0.0
0.0 4.881926516 0.232631333798 0.0
0.0 4.883127482 0.233118194067 0.0
0.0 4.884328448 0.233605647842 0.0
0.0 4.885529414 0.234094006841 0.0
0.0 4.88673038 0.234584147691 0.0
0.0 4.887931346 0.235075823942 0.0
0.0 4.889132312 0.235568354356 0.0
0.0 4.890333278 0.236061500582 0.0
0.0 4.891534244 0.236555423603 0.0
0.0 4.89273521 0.237050482766 0.0
0.0 4.893936175 0.237547219352 0.0
0.0 4.895137141 0.238045075908 0.0
0.0 4.896338107 0.238543499287 0.0
0.0 4.897539073 0.239042542177 0.0
0.0 4.898740039 0.23954225064 0.0
0.0 4.899941005 0.240043136206 0.0
0.0 4.901141971 0.240545549622 0.0
0.0 4.902342937 0.241048863345 0.0
0.0 4.903543903 0.241552866949 0.0
0.0 4.904744869 0.242057746112 0.0
0.0 4.905945835 0.24256369597 0.0
0.0 4.907146801 0.24307120037 0.0
0.0 4.908347767 0.243580326946 0.0
0.0 4.909548733 0.244090419625 0.0
0.0 4.910749699 0.244601311589 0.0
0.0 4.911950664 0.245113517239 0.0
0.0 4.91315163 0.245627157715 0.0
0.0 4.914352596 0.246142293049 0.0
0.0 4.915553562 0.246658942456 0.0
0.0 4.916754528 0.247175761664 0.0
0.0 4.917955494 0.247692845638 0.0
0.0 4.91915646 0.248210803297 0.0
0.0 4.920357426 0.248729739531 0.0
0.0 4.921558392 0.249249835408 0.0
0.0 4.922759358 0.249770769684 0.0
0.0 4.923960324 0.250292023511 0.0
0.0 4.92516129 0.250813763117 0.0
0.0 4.926362256 0.251337001674 0.0
0.0 4.927563222 0.251861597753 0.0
0.0 4.928764188 0.252387303782 0.0
0.0 4.929965153 0.252913754813 0.0
0.0 4.931166119 0.253440781251 0.0
0.0 4.932367085 0.253968898519 0.0
0.0 4.933568051 0.254498787415 0.0
0.0 4.934769017 0.255030084999 0.0
0.0 4.935969983 0.255562502908 0.0
0.0 4.937170949 0.256095733941 0.0
0.0 4.938371915 0.256629596422 0.0
0.0 4.939572881 0.257164622616 0.0
0.0 4.940773847 0.257700918437 0.0
0.0 4.941974813 0.258238175573 0.0
0.0 4.943175779 0.258776116656 0.0
0.0 4.944376745 0.259314686136 0.0
0.0 4.945577711 0.259853966273 0.0
0.0 4.946778677 0.260394558209 0.0
0.0 4.947979642 0.260936691521 0.0
0.0 4.949180608 0.261479960418 0.0
0.0 4.950381574 0.262024313948 0.0
0.0 4.95158254 0.262569681537 0.0
0.0 4.952783506 0.263116055478 0.0
0.0 4.953984472 0.263663977533 0.0
0.0 4.955185438 0.264213575318 0.0
0.0 4.956386404 0.264763696523 0.0
0.0 4.95758737 0.265314268509 0.0
0.0 4.958788336 0.265865037272 0.0
0.0 4.959989302 0.266416353735 0.0
0.0 4.961190268 0.266968695174 0.0
0.0 4.962391234 0.267522183175 0.0
0.0 4.9635922 0.268076173294 0.0
0.0 4.964793166 0.268630623241 0.0
0.0 4.965994131 0.269186548285 0.0
0.0 4.967195097 0.269743957168 0.0
0.0 4.968396063 0.270303438063 0.0
0.0 4.969597029 0.270864695488 0.0
0.0 4.970797995 0.271426872126 0.0
0.0 4.971998961 0.271989938429 0.0
0.0 4.973199927 0.272554303986 0.0
0.0 4.974400893 0.273119934452 0.0
0.0 4.975601859 0.273686744102 0.0
0.0 4.976802825 0.27425469813 0.0
0.0 4.978003791 0.274823285647 0.0
0.0 4.979204757 0.275392395497 0.0
0.0 4.980405723 0.275962959752 0.0
0.0 4.981606689 0.276535014386 0.0
0.0 4.982807655 0.277108336197 0.0
0.0 4.98400862 0.277682851419 0.0
0.0 4.985209586 0.278257744263 0.0
0.0 4.986410552 0.278833128199 0.0
0.0 4.987611518 0.279409413492 0.0
0.0 4.988812484 0.279986700501 0.0
0.0 4.99001345 0.280564781155 0.0
0.0 4.991214416 0.281143612591 0.0
0.0 4.992415382 0.281723185515 0.0
0.0 4.993616348 0.282303550335 0.0
0.0 4.994817314 0.282885522621 0.0
0.0 4.99601828 0.283469432278 0.0
0.0 4.997219246 0.284054612222 0.0
0.0 4.998420212 0.284640926557 0.0
0.0 4.999621178 0.285228075452 0.0
0.0 5.000822144 0.285816187786 0.0
0.0 5.002023109 0.286405856395 0.0
0.0 5.003224075 0.286997243073 0.0
0.0 5.004425041 0.287589674958 0.0
0.0 5.005626007 0.288182713244 0.0
0.0 5.006826973 0.288776418483 0.0
0.0 5.008027939 0.289371063518 0.0
0.0 5.009228905 0.289966998638 0.0
0.0 5.010429871 0.290564148538 0.0
0.0 5.011630837 0.291162008841 0.0
0.0 5.012831803 0.291760409318 0.0
0.0 5.014032769 0.292360011337 0.0
0.0 5.015233735 0.292960838804 0.0
0.0 5.016434701 0.29356354802 0.0
0.0 5.017635667 0.294167951988 0.0
0.0 5.018836632 0.294773101011 0.0
0.0 5.020037598 0.295379098114 0.0
0.0 5.021238564 0.295986013979 0.0
0.0 5.02243953 0.296593884366 0.0
0.0 5.023640496 0.297202747173 0.0
0.0 5.024841462 0.297812660473 0.0
0.0 5.026042428 0.298423236982 0.0
0.0 5.027243394 0.299034334253 0.0
0.0 5.02844436 0.299646745792 0.0
0.0 5.029645326 0.300260301894 0.0
0.0 5.030846292 0.300875046836 0.0
0.0 5.032047258 0.301490961319 0.0
0.0 5.033248224 0.302107653359 0.0
0.0 5.03444919 0.302725124074 0.0
0.0 5.035650156 0.303343745306 0.0
0.0 5.036851121 0.303963642278 0.0
0.0 5.038052087 0.30458485335 0.0
0.0 5.039253053 0.305207412696 0.0
0.0 5.040454019 0.305831148372 0.0
0.0 5.041654985 0.306455964686 0.0
0.0 5.042855951 0.307082152642 0.0
0.0 5.044056917 0.307709669212 0.0
0.0 5.045257883 0.30833834646 0.0
0.0 5.046458849 0.308968154001 0.0
0.0 5.047659815 0.309599230159 0.0
0.0 5.048860781 0.31023119418 0.0
0.0 5.050061747 0.31086430357 0.0
0.0 5.051262713 0.311498885904 0.0
0.0 5.052463679 0.312134805879 0.0
0.0 5.053664645 0.312771747118 0.0
0.0 5.05486561 0.313409518608 0.0
0.0 5.056066576 0.314047859188 0.0
0.0 5.057267542 0.314686838638 0.0
0.0 5.058468508 0.315327078025 0.0
0.0 5.059669474 0.315968410124 0.0
0.0 5.06087044 0.316610432027 0.0
0.0 5.062071406 0.317253140454 0.0
0.0 5.063272372 0.317896747693 0.0
0.0 5.064473338 0.318541623168 0.0
0.0 5.065674304 0.319188246055 0.0
0.0 5.06687527 0.319836450238 0.0
0.0 5.068076236 0.320485601248 0.0
0.0 5.069277202 0.321135721931 0.0
0.0 5.070478168 0.321786793028 0.0
0.0 5.071679134 0.32243897631 0.0
0.0 5.072880099 0.32309256048 0.0
0.0 5.074081065 0.323747509234 0.0
0.0 5.075282031 0.324403276625 0.0
0.0 5.076482997 0.325059790658 0.0
0.0 5.077683963 0.32571734607 0.0
0.0 5.078884929 0.326375916634 0.0
0.0 5.080085895 0.327035841527 0.0
0.0 5.081286861 0.327697154095 0.0
0.0 5.082487827 0.328359570293 0.0
0.0 5.083688793 0.329022937688 0.0
0.0 5.084889759 0.329687560307 0.0
0.0 5.086090725 0.330353395232 0.0
0.0 5.087291691 0.33102051482 0.0
0.0 5.088492657 0.331688976101 0.0
0.0 5.089693623 0.332358648022 0.0
0.0 5.090894588 0.333029174963 0.0
0.0 5.092095554 0.333700680761 0.0
0.0 5.09329652 0.334373312538 0.0
0.0 5.094497486 0.335047087439 0.0
0.0 5.095698452 0.335722108793 0.0
0.0 5.096899418 0.336398354437 0.0
0.0 5.098100384 0.337075336572 0.0
0.0 5.09930135 0.337753108069 0.0
