0.0 2.002074478 0.199473174059 0.0
0.0 2.00368257 0.199814377974 0.0
0.0 2.005290662 0.200154153567 0.0
0.0 2.006898754 0.200492502628 0.0
0.0 2.008506846 0.200829426949 0.0
0.0 2.010114938 0.201164928319 0.0
0.0 2.01172303 0.20149900853 0.0
0.0 2.013331122 0.201831669373 0.0
0.0 2.014939214 0.202162912637 0.0
0.0 2.016547306 0.202492740113 0.0
0.0 2.018155398 0.202821153593 0.0
0.0 2.01976349 0.203148154866 0.0
0.0 2.021371582 0.203473745724 0.0
0.0 2.022979674 0.203797927956 0.0
0.0 2.024587766 0.204120703355 0.0
0.0 2.026195858 0.204442073709 0.0
0.0 2.027803949 0.204762040612 0.0
0.0 2.029412041 0.205080606253 0.0
0.0 2.031020133 0.205397772221 0.0
0.0 2.032628225 0.205713540308 0.0
0.0 2.034236317 0.206027912305 0.0
0.0 2.035844409 0.206340890001 0.0
0.0 2.037452501 0.206652475189 0.0
0.0 2.039060593 0.206962669658 0.0
0.0 2.040668685 0.207271475199 0.0
0.0 2.042276777 0.207578893603 0.0
0.0 2.043884869 0.20788492666 0.0
0.0 2.045492961 0.208189576161 0.0
0.0 2.047101053 0.208492843897 0.0
0.0 2.048709145 0.208794731658 0.0
0.0 2.050317237 0.209095241235 0.0
0.0 2.051925329 0.209394374419 0.0
0.0 2.053533421 0.209692133 0.0
0.0 2.055141513 0.209988518769 0.0
0.0 2.056749605 0.210283533516 0.0
0.0 2.058357697 0.210577179032 0.0
0.0 2.059965788 0.210869456927 0.0
0.0 2.06157388 0.211160369354 0.0
0.0 2.063181972 0.211449917923 0.0
0.0 2.064790064 0.211738104423 0.0
0.0 2.066398156 0.212024930645 0.0
0.0 2.068006248 0.212310398381 0.0
0.0 2.06961434 0.21259450942 0.0
0.0 2.071222432 0.212877265553 0.0
0.0 2.072830524 0.213158668572 0.0
0.0 2.074438616 0.213438720265 0.0
0.0 2.076046708 0.213717422425 0.0
0.0 2.0776548 0.213994776842 0.0
0.0 2.079262892 0.214270785307 0.0
0.0 2.080870984 0.214545449609 0.0
0.0 2.082479076 0.21481877154 0.0
0.0 2.084087168 0.215090752891 0.0
0.0 2.08569526 0.215361395452 0.0
0.0 2.087303352 0.215630701013 0.0
0.0 2.088911444 0.215898671366 0.0
0.0 2.090519536 0.2161653083 0.0
0.0 2.092127627 0.216430613443 0.0
0.0 2.093735719 0.216694588914 0.0
0.0 2.095343811 0.21695723634 0.0
0.0 2.096951903 0.217218557509 0.0
0.0 2.098559995 0.217478554214 0.0
0.0 2.100168087 0.217737228245 0.0
0.0 2.101776179 0.217994581392 0.0
0.0 2.103384271 0.218250615447 0.0
0.0 2.104992363 0.218505332199 0.0
0.0 2.106600455 0.218758733439 0.0
0.0 2.108208547 0.219010820959 0.0
0.0 2.109816639 0.219261596548 0.0
0.0 2.111424731 0.219511061998 0.0
0.0 2.113032823 0.219759219098 0.0
0.0 2.114640915 0.22000606964 0.0
0.0 2.116249007 0.220251615414 0.0
0.0 2.117857099 0.220495858212 0.0
0.0 2.119465191 0.220738799822 0.0
0.0 2.121073283 0.220980442037 0.0
0.0 2.122681375 0.221220786647 0.0
0.0 2.124289466 0.221459835294 0.0
0.0 2.125897558 0.221697590066 0.0
0.0 2.12750565 0.221934052605 0.0
0.0 2.129113742 0.222169224701 0.0
0.0 2.130721834 0.222403108145 0.0
0.0 2.132329926 0.222635704728 0.0
0.0 2.133938018 0.22286701624 0.0
0.0 2.13554611 0.223097044472 0.0
0.0 2.137154202 0.223325791214 0.0
0.0 2.138762294 0.223553258258 0.0
0.0 2.140370386 0.223779447394 0.0
0.0 2.141978478 0.224004360412 0.0
0.0 2.14358657 0.224227999103 0.0
0.0 2.145194662 0.224450365259 0.0
0.0 2.146802754 0.224671460668 0.0
0.0 2.148410846 0.224891287123 0.0
0.0 2.150018938 0.225109846413 0.0
0.0 2.15162703 0.22532714033 0.0
0.0 2.153235122 0.225543170664 0.0
0.0 2.154843214 0.225757939205 0.0
0.0 2.156451305 0.225971447612 0.0
0.0 2.158059397 0.226183697942 0.0
0.0 2.159667489 0.22639469185 0.0
0.0 2.161275581 0.22660443113 0.0
0.0 2.162883673 0.22681291757 0.0
0.0 2.164491765 0.227020152961 0.0
0.0 2.166099857 0.227226139095 0.0
0.0 2.167707949 0.227430877761 0.0
0.0 2.169316041 0.227634370751 0.0
0.0 2.170924133 0.227836619855 0.0
0.0 2.172532225 0.228037626863 0.0
0.0 2.174140317 0.228237393567 0.0
0.0 2.175748409 0.228435921757 0.0
0.0 2.177356501 0.228633213223 0.0
0.0 2.178964593 0.228829269757 0.0
0.0 2.180572685 0.229024093149 0.0
0.0 2.182180777 0.229217685189 0.0
0.0 2.183788869 0.229410047669 0.0
0.0 2.185396961 0.229601182378 0.0
0.0 2.187005053 0.229791091107 0.0
0.0 2.188613145 0.229979775648 0.0
0.0 2.190221236 0.230167237675 0.0
0.0 2.191829328 0.23035347921 0.0
0.0 2.19343742 0.230538501929 0.0
0.0 2.195045512 0.230722307622 0.0
0.0 2.196653604 0.230904898079 0.0
0.0 2.198261696 0.23108627509 0.0
0.0 2.199869788 0.231266440448 0.0
0.0 2.20147788 0.231445395941 0.0
0.0 2.203085972 0.231623143362 0.0
0.0 2.204694064 0.2317996845 0.0
0.0 2.206302156 0.231975021146 0.0
0.0 2.207910248 0.232149155091 0.0
0.0 2.20951834 0.232322088126 0.0
0.0 2.211126432 0.23249382204 0.0
0.0 2.212734524 0.232664358626 0.0
0.0 2.214342616 0.232833699672 0.0
0.0 2.215950708 0.233001846971 0.0
0.0 2.2175588 0.233168802313 0.0
0.0 2.219166892 0.233334567487 0.0
0.0 2.220774984 0.233499144286 0.0
0.0 2.222383075 0.233662534398 0.0
0.0 2.223991167 0.233824739818 0.0
0.0 2.225599259 0.233985762233 0.0
0.0 2.227207351 0.234145603434 0.0
0.0 2.228815443 0.234304265213 0.0
0.0 2.230423535 0.23446174936 0.0
0.0 2.232031627 0.234618057665 0.0
0.0 2.233639719 0.234773191919 0.0
0.0 2.235247811 0.234927153913 0.0
0.0 2.236855903 0.235079945437 0.0
0.0 2.238463995 0.235231568282 0.0
0.0 2.240072087 0.235382024239 0.0
0.0 2.241680179 0.235531315099 0.0
0.0 2.243288271 0.235679442651 0.0
0.0 2.244896363 0.235826408686 0.0
0.0 2.246504455 0.235972214996 0.0
0.0 2.248112547 0.236116863371 0.0
0.0 2.249720639 0.236260355602 0.0
0.0 2.251328731 0.236402693478 0.0
0.0 2.252936823 0.236543878791 0.0
0.0 2.254544914 0.236683913245 0.0
0.0 2.256153006 0.236822798805 0.0
0.0 2.257761098 0.236960537173 0.0
0.0 2.25936919 0.23709713014 0.0
0.0 2.260977282 0.237232579498 0.0
0.0 2.262585374 0.237366887036 0.0
0.0 2.264193466 0.237500054545 0.0
0.0 2.265801558 0.237632083818 0.0
0.0 2.26740965 0.237762976641 0.0
0.0 2.269017742 0.237892734808 0.0
0.0 2.270625834 0.238021360109 0.0
0.0 2.272233926 0.238148854334 0.0
0.0 2.273842018 0.238275219275 0.0
0.0 2.27545011 0.238400456721 0.0
0.0 2.277058202 0.238524568464 0.0
0.0 2.278666294 0.238647556294 0.0
0.0 2.280274386 0.238769422001 0.0
0.0 2.281882478 0.238890167377 0.0
0.0 2.28349057 0.239009794212 0.0
0.0 2.285098662 0.239128304296 0.0
0.0 2.286706753 0.239245699348 0.0
0.0 2.288314845 0.239361981305 0.0
0.0 2.289922937 0.239477151883 0.0
0.0 2.291531029 0.239591212873 0.0
0.0 2.293139121 0.239704166066 0.0
0.0 2.294747213 0.239816013253 0.0
0.0 2.296355305 0.239926756222 0.0
0.0 2.297963397 0.240036396768 0.0
0.0 2.299571489 0.240144936678 0.0
0.0 2.301179581 0.240252377745 0.0
0.0 2.302787673 0.240358721758 0.0
0.0 2.304395765 0.240463970509 0.0
0.0 2.306003857 0.240568125789 0.0
0.0 2.307611949 0.240671189385 0.0
0.0 2.309220041 0.240773163091 0.0
0.0 2.310828133 0.240874048698 0.0
0.0 2.312436225 0.240973847996 0.0
0.0 2.314044317 0.241072562786 0.0
0.0 2.315652409 0.24117019483 0.0
0.0 2.317260501 0.241266745936 0.0
0.0 2.318868592 0.241362217841 0.0
0.0 2.320476684 0.241456612454 0.0
0.0 2.322084776 0.241549931548 0.0
0.0 2.323692868 0.241642176815 0.0
0.0 2.32530096 0.241733350054 0.0
0.0 2.326909052 0.241823453141 0.0
0.0 2.328517144 0.241912487831 0.0
0.0 2.330125236 0.242000455916 0.0
0.0 2.331733328 0.242087359222 0.0
0.0 2.33334142 0.242173199573 0.0
0.0 2.334949512 0.242257979214 0.0
0.0 2.336557604 0.242341698118 0.0
0.0 2.338165696 0.242424359787 0.0
0.0 2.339773788 0.242505965777 0.0
0.0 2.34138188 0.242586517749 0.0
0.0 2.342989972 0.24266601825 0.0
0.0 2.344598064 0.242744467578 0.0
0.0 2.346206156 0.242821866989 0.0
0.0 2.347814248 0.242898220447 0.0
0.0 2.34942234 0.242973528868 0.0
0.0 2.351030431 0.243047794299 0.0
0.0 2.352638523 0.243121019966 0.0
0.0 2.354246615 0.243193201341 0.0
0.0 2.355854707 0.243264346964 0.0
0.0 2.357462799 0.243334456596 0.0
0.0 2.359070891 0.243403531981 0.0
0.0 2.360678983 0.243471576302 0.0
0.0 2.362287075 0.243538588545 0.0
0.0 2.363895167 0.243604571664 0.0
0.0 2.365503259 0.243669528707 0.0
0.0 2.367111351 0.243733455514 0.0
0.0 2.368719443 0.243796361688 0.0
0.0 2.370327535 0.243858246445 0.0
0.0 2.371935627 0.243919112692 0.0
0.0 2.373543719 0.243978988209 0.0
0.0 2.375151811 0.244037794994 0.0
0.0 2.376759903 0.244095603228 0.0
0.0 2.378367995 0.244152405035 0.0
0.0 2.379976087 0.244208197343 0.0
0.0 2.381584179 0.244262996173 0.0
0.0 2.383192271 0.244316796286 0.0
0.0 2.384800362 0.244369525264 0.0
0.0 2.386408454 0.244421286373 0.0
0.0 2.388016546 0.244472049535 0.0
0.0 2.389624638 0.244521824314 0.0
0.0 2.39123273 0.244570769629 0.0
0.0 2.392840822 0.24461846973 0.0
0.0 2.394448914 0.244665270978 0.0
0.0 2.396057006 0.244711064341 0.0
0.0 2.397665098 0.244755695785 0.0
0.0 2.39927319 0.244799478915 0.0
0.0 2.400881282 0.244842288899 0.0
0.0 2.402489374 0.244884142102 0.0
0.0 2.404097466 0.24492543461 0.0
0.0 2.405705558 0.244965094863 0.0
0.0 2.40731365 0.245003707941 0.0
0.0 2.408921742 0.245041583528 0.0
0.0 2.410529834 0.245078517153 0.0
0.0 2.412137926 0.245114708879 0.0
0.0 2.413746018 0.245152845357 0.0
0.0 2.41535411 0.245183658512 0.0
0.0 2.416962201 0.245216466355 0.0
0.0 2.418570293 0.245248515613 0.0
0.0 2.420178385 0.2452796645 0.0
0.0 2.421786477 0.245310581678 0.0
0.0 2.423394569 0.24534012016 0.0
0.0 2.425002661 0.2453672072 0.0
0.0 2.426610753 0.245394369961 0.0
0.0 2.428218845 0.245420656109 0.0
0.0 2.429826937 0.245445991423 0.0
0.0 2.431435029 0.245470372935 0.0
0.0 2.433043121 0.245493827447 0.0
0.0 2.434651213 0.245516664749 0.0
0.0 2.436259305 0.245543026046 0.0
0.0 2.437867397 0.245558906866 0.0
0.0 2.439475489 0.245578070961 0.0
0.0 2.441083581 0.245596733156 0.0
0.0 2.442691673 0.24561455717 0.0
0.0 2.444299765 0.245632411987 0.0
0.0 2.445907857 0.245651981783 0.0
0.0 2.447515949 0.245662440193 0.0
0.0 2.44912404 0.245676147791 0.0
0.0 2.450732132 0.245689211422 0.0
0.0 2.452340224 0.24570148615 0.0
0.0 2.453948316 0.245714547654 0.0
0.0 2.455556408 0.245726787408 0.0
0.0 2.4571645 0.245733977949 0.0
0.0 2.458772592 0.245741792422 0.0
0.0 2.460380684 0.245748439258 0.0
0.0 2.461988776 0.245754805096 0.0
0.0 2.463596868 0.245760462408 0.0
0.0 2.46520496 0.245765242452 0.0
0.0 2.466813052 0.24576931171 0.0
0.0 2.468421144 0.245774838485 0.0
0.0 2.470029236 0.245774877127 0.0
0.0 2.471637328 0.24577522871 0.0
0.0 2.47324542 0.245775374265 0.0
0.0 2.474853512 0.245774706316 0.0
0.0 2.476461604 0.245773511775 0.0
0.0 2.478069696 0.245776485771 0.0
0.0 2.479677788 0.245768011873 0.0
0.0 2.481285879 0.245762940493 0.0
0.0 2.482893971 0.245757687599 0.0
0.0 2.484502063 0.245751633921 0.0
0.0 2.486110155 0.245745141324 0.0
0.0 2.487718247 0.245743933085 0.0
0.0 2.489326339 0.245728630581 0.0
0.0 2.490934431 0.245718374636 0.0
0.0 2.492542523 0.245707792002 0.0
0.0 2.494150615 0.245696395896 0.0
0.0 2.495758707 0.245684347216 0.0
0.0 2.497366799 0.245673807043 0.0
0.0 2.498974891 0.245658922308 0.0
0.0 2.499778162 0.245653877862 0.0
0.0 2.501129393 0.245638635801 0.0
0.0 2.502480624 0.245625542141 0.0
0.0 2.503831856 0.245611720497 0.0
0.0 2.505183087 0.245595065462 0.0
0.0 2.506534319 0.245579915316 0.0
0.0 2.50788555 0.245563411847 0.0
0.0 2.509236782 0.245546519611 0.0
0.0 2.510588013 0.245529519629 0.0
0.0 2.511939244 0.245511590191 0.0
0.0 2.513290476 0.245494323669 0.0
0.0 2.514641707 0.245474262966 0.0
0.0 2.515992939 0.24545463509 0.0
0.0 2.51734417 0.24543443101 0.0
0.0 2.518695402 0.245415188337 0.0
0.0 2.520046633 0.245393196304 0.0
0.0 2.521397865 0.245370556397 0.0
0.0 2.522749096 0.245347781544 0.0
0.0 2.524100327 0.245327151229 0.0
0.0 2.525451559 0.245302968507 0.0
0.0 2.52680279 0.245277981446 0.0
0.0 2.528154022 0.245251182623 0.0
0.0 2.529505253 0.245225648914 0.0
0.0 2.530856485 0.245200991035 0.0
0.0 2.532207716 0.245172570541 0.0
0.0 2.533558948 0.245147616623 0.0
0.0 2.534910179 0.245118054151 0.0
0.0 2.53626141 0.245089844656 0.0
0.0 2.537612642 0.245060714986 0.0
0.0 2.538963873 0.245030850053 0.0
0.0 2.540315105 0.245002060804 0.0
0.0 2.541666336 0.244973793286 0.0
0.0 2.543017568 0.24494077118 0.0
0.0 2.544368799 0.244907921111 0.0
0.0 2.54572003 0.244873442765 0.0
0.0 2.547071262 0.244839816952 0.0
0.0 2.548422493 0.244805933803 0.0
0.0 2.549773725 0.244772235664 0.0
0.0 2.551124956 0.244737520483 0.0
0.0 2.552476188 0.244700219685 0.0
0.0 2.553827419 0.244663986348 0.0
0.0 2.555178651 0.244628390525 0.0
0.0 2.556529882 0.244592388321 0.0
0.0 2.557881113 0.244552596741 0.0
0.0 2.559232345 0.244515392256 0.0
0.0 2.560583576 0.244475009756 0.0
0.0 2.561934808 0.244435591603 0.0
0.0 2.563286039 0.244394856755 0.0
0.0 2.564637271 0.244356119528 0.0
0.0 2.565988502 0.244313885982 0.0
0.0 2.567339733 0.244271888659 0.0
0.0 2.568690965 0.244228539831 0.0
0.0 2.570042196 0.24418647443 0.0
0.0 2.571393428 0.24414203731 0.0
0.0 2.572744659 0.244098785041 0.0
0.0 2.574095891 0.244053658641 0.0
0.0 2.575447122 0.244008708923 0.0
0.0 2.576798354 0.243964218308 0.0
0.0 2.578149585 0.243917641924 0.0
0.0 2.579500816 0.243871632105 0.0
0.0 2.580852048 0.243824056908 0.0
0.0 2.582203279 0.243773755791 0.0
0.0 2.583554511 0.243724852718 0.0
0.0 2.584905742 0.243679417013 0.0
0.0 2.586256974 0.243631954729 0.0
0.0 2.587608205 0.243576382229 0.0
0.0 2.588959437 0.243525365913 0.0
0.0 2.590310668 0.243477198129 0.0
0.0 2.591661899 0.243425262272 0.0
0.0 2.593013131 0.243371326999 0.0
0.0 2.594364362 0.243317894732 0.0
0.0 2.595715594 0.243266106526 0.0
0.0 2.597066825 0.243211043687 0.0
0.0 2.598418057 0.243156986063 0.0
0.0 2.599769288 0.243102326133 0.0
0.0 2.601120519 0.243045091412 0.0
0.0 2.602471751 0.242988830884 0.0
0.0 2.603822982 0.24293222296 0.0
0.0 2.605174214 0.242876566938 0.0
0.0 2.606525445 0.242817159073 0.0
0.0 2.607876677 0.242759172492 0.0
0.0 2.609227908 0.242700565551 0.0
0.0 2.61057914 0.242646725227 0.0
0.0 2.611930371 0.242581896298 0.0
0.0 2.613281602 0.242518991941 0.0
0.0 2.614632834 0.242457197203 0.0
0.0 2.615984065 0.242395736437 0.0
0.0 2.617335297 0.242333596809 0.0
0.0 2.618686528 0.242273337555 0.0
0.0 2.62003776 0.242207865865 0.0
0.0 2.621388991 0.242145620575 0.0
0.0 2.622740222 0.242080040645 0.0
0.0 2.624091454 0.242015348809 0.0
0.0 2.625442685 0.241950136317 0.0
0.0 2.626793917 0.241884463763 0.0
0.0 2.628145148 0.241818224806 0.0
0.0 2.62949638 0.241752235187 0.0
0.0 2.630847611 0.241684104705 0.0
0.0 2.632198843 0.241616300353 0.0
0.0 2.633550074 0.241547985952 0.0
0.0 2.634901305 0.24148047705 0.0
0.0 2.636252537 0.24140981837 0.0
0.0 2.637603768 0.241340111589 0.0
0.0 2.638955 0.241269614146 0.0
0.0 2.640306231 0.241198893968 0.0
0.0 2.641657463 0.241127357989 0.0
0.0 2.643008694 0.241058063238 0.0
0.0 2.644359925 0.240984797161 0.0
0.0 2.645711157 0.240910757121 0.0
0.0 2.647062388 0.240836791544 0.0
0.0 2.64841362 0.240763812498 0.0
0.0 2.649764851 0.240688485517 0.0
0.0 2.651116083 0.240613800715 0.0
0.0 2.652467314 0.240539162237 0.0
0.0 2.653818546 0.240463950971 0.0
0.0 2.655169777 0.240390324833 0.0
0.0 2.656521008 0.240308982356 0.0
0.0 2.65787224 0.240235289977 0.0
0.0 2.659223471 0.240154445115 0.0
0.0 2.660574703 0.240075422594 0.0
0.0 2.661925934 0.239998632262 0.0
0.0 2.663277166 0.239918922609 0.0
0.0 2.664628397 0.239837396674 0.0
0.0 2.665979629 0.239756959072 0.0
0.0 2.66733086 0.239677179079 0.0
0.0 2.668682091 0.239595664357 0.0
0.0 2.670033323 0.239514154956 0.0
0.0 2.671384554 0.239431598388 0.0
0.0 2.672735786 0.239348452871 0.0
0.0 2.674087017 0.239264697808 0.0
0.0 2.675438249 0.239182797091 0.0
0.0 2.67678948 0.239100386944 0.0
0.0 2.678140711 0.239014156903 0.0
0.0 2.679491943 0.238927317856 0.0
0.0 2.680843174 0.238842049686 0.0
0.0 2.682194406 0.238757686228 0.0
0.0 2.683545637 0.238671227124 0.0
0.0 2.684896869 0.238583273634 0.0
0.0 2.6862481 0.238496617679 0.0
0.0 2.687599332 0.238407668948 0.0
0.0 2.688950563 0.238318118066 0.0
0.0 2.690301794 0.238228687757 0.0
0.0 2.691653026 0.238140995636 0.0
0.0 2.693004257 0.238049834261 0.0
0.0 2.694355489 0.23795989836 0.0
0.0 2.69570672 0.237867933942 0.0
0.0 2.697057952 0.237776628016 0.0
0.0 2.698409183 0.237685729917 0.0
0.0 2.699760414 0.237595136056 0.0
0.0 2.701111646 0.237500992718 0.0
0.0 2.702462877 0.237406835787 0.0
0.0 2.703814109 0.237314050519 0.0
0.0 2.70516534 0.237220874211 0.0
0.0 2.706516572 0.237124851375 0.0
0.0 2.707867803 0.237031501578 0.0
0.0 2.709219035 0.236934292702 0.0
0.0 2.710570266 0.236838426285 0.0
0.0 2.711921497 0.236742707708 0.0
0.0 2.713272729 0.23664670722 0.0
0.0 2.71462396 0.236549886901 0.0
0.0 2.715975192 0.236452177931 0.0
0.0 2.717326423 0.236353910898 0.0
0.0 2.718677655 0.236256470255 0.0
0.0 2.720028886 0.236154802114 0.0
0.0 2.721380117 0.236055869562 0.0
0.0 2.722731349 0.23595645268 0.0
0.0 2.72408258 0.235856412734 0.0
0.0 2.725433812 0.235754380375 0.0
0.0 2.726785043 0.235657192819 0.0
0.0 2.728136275 0.235552336184 0.0
0.0 2.729487506 0.235449282218 0.0
0.0 2.730838738 0.235347681428 0.0
0.0 2.732189969 0.235247792774 0.0
0.0 2.7335412 0.235145410772 0.0
0.0 2.734892432 0.23504077824 0.0
0.0 2.736243663 0.234935269588 0.0
0.0 2.737594895 0.234827415864 0.0
0.0 2.738946126 0.234722113483 0.0
0.0 2.740297358 0.234616584218 0.0
0.0 2.741648589 0.234513794308 0.0
0.0 2.742999821 0.234408722028 0.0
0.0 2.744351052 0.234299107989 0.0
0.0 2.745702283 0.234191096112 0.0
0.0 2.747053515 0.23408219772 0.0
0.0 2.748404746 0.233973988279 0.0
0.0 2.749755978 0.233865415688 0.0
0.0 2.751107209 0.233756989991 0.0
0.0 2.752458441 0.233647008173 0.0
0.0 2.753809672 0.233537170886 0.0
0.0 2.755160903 0.233426917127 0.0
0.0 2.756512135 0.233316245633 0.0
0.0 2.757863366 0.233205157625 0.0
0.0 2.759214598 0.233093654005 0.0
0.0 2.760565829 0.232981736003 0.0
0.0 2.761917061 0.232869479489 0.0
0.0 2.763268292 0.232757819209 0.0
0.0 2.764619524 0.232646289094 0.0
0.0 2.765970755 0.232531986078 0.0
0.0 2.767321986 0.232415966172 0.0
0.0 2.768673218 0.232301865577 0.0
0.0 2.770024449 0.232187906009 0.0
0.0 2.771375681 0.232073194639 0.0
0.0 2.772726912 0.231958981782 0.0
0.0 2.774078144 0.231842104663 0.0
0.0 2.775429375 0.231723586857 0.0
0.0 2.776780606 0.231607305424 0.0
0.0 2.778131838 0.231492853096 0.0
0.0 2.779483069 0.231375147594 0.0
0.0 2.780834301 0.231256241179 0.0
0.0 2.782185532 0.231137834214 0.0
0.0 2.783536764 0.231019848244 0.0
0.0 2.784887995 0.230902270261 0.0
0.0 2.786239227 0.230782435782 0.0
0.0 2.787590458 0.230661449309 0.0
0.0 2.788941689 0.230540615029 0.0
0.0 2.790292921 0.23042131399 0.0
0.0 2.791644152 0.230297598017 0.0
0.0 2.792995384 0.230176561056 0.0
0.0 2.794346615 0.230054160513 0.0
0.0 2.795697847 0.229931922137 0.0
0.0 2.797049078 0.229808438329 0.0
0.0 2.798400309 0.229685303482 0.0
0.0 2.799751541 0.229560900965 0.0
0.0 2.801102772 0.229436906746 0.0
0.0 2.802454004 0.229312496105 0.0
0.0 2.803805235 0.229187876003 0.0
0.0 2.805156467 0.229063754971 0.0
0.0 2.806507698 0.228940391706 0.0
0.0 2.80785893 0.228812685368 0.0
0.0 2.809210161 0.228685748603 0.0
0.0 2.810561392 0.228560210651 0.0
0.0 2.811912624 0.228432290654 0.0
0.0 2.813263855 0.228305628149 0.0
0.0 2.814615087 0.228178318556 0.0
0.0 2.815966318 0.228049348636 0.0
0.0 2.81731755 0.227920982125 0.0
0.0 2.818668781 0.227792847366 0.0
0.0 2.820020013 0.227663807555 0.0
0.0 2.821371244 0.227533677008 0.0
0.0 2.822722475 0.227403891257 0.0
0.0 2.824073707 0.227275643918 0.0
0.0 2.825424938 0.227144676128 0.0
0.0 2.82677617 0.227012152341 0.0
0.0 2.828127401 0.226880863355 0.0
0.0 2.829478633 0.226751426565 0.0
0.0 2.830829864 0.226619237426 0.0
0.0 2.832181095 0.226486561479 0.0
0.0 2.833532327 0.226353405069 0.0
0.0 2.834883558 0.226219056272 0.0
0.0 2.83623479 0.226088727335 0.0
0.0 2.837586021 0.225952445825 0.0
0.0 2.838937253 0.225818850631 0.0
0.0 2.840288484 0.225684919415 0.0
0.0 2.841639716 0.225550677973 0.0
0.0 2.842990947 0.225417263307 0.0
0.0 2.844342178 0.225280714372 0.0
0.0 2.84569341 0.225145524969 0.0
0.0 2.847044641 0.225013453705 0.0
0.0 2.848395873 0.224876074226 0.0
0.0 2.849747104 0.224736390803 0.0
0.0 2.851098336 0.224597506389 0.0
0.0 2.852449567 0.224463535745 0.0
0.0 2.853800798 0.224324373111 0.0
0.0 2.85515203 0.22418442231 0.0
0.0 2.856503261 0.224051335236 0.0
0.0 2.857854493 0.223914086786 0.0
0.0 2.859205724 0.223772658824 0.0
0.0 2.860556956 0.223633644313 0.0
0.0 2.861908187 0.223493074396 0.0
0.0 2.863259419 0.223355692317 0.0
0.0 2.86461065 0.223212373954 0.0
0.0 2.865961881 0.223068457542 0.0
0.0 2.867313113 0.222927579356 0.0
0.0 2.868664344 0.22278840307 0.0
0.0 2.870015576 0.222647960043 0.0
0.0 2.871366807 0.222502537181 0.0
0.0 2.872718039 0.222356652207 0.0
0.0 2.87406927 0.222213855748 0.0
0.0 2.875420501 0.22207417184 0.0
0.0 2.876771733 0.221931545534 0.0
0.0 2.878122964 0.221788680882 0.0
0.0 2.879474196 0.221645024274 0.0
0.0 2.880825427 0.221495048583 0.0
0.0 2.882176659 0.221351933368 0.0
0.0 2.88352789 0.221206917657 0.0
0.0 2.884879122 0.221060461495 0.0
0.0 2.886230353 0.220915249372 0.0
0.0 2.887581584 0.220764876719 0.0
0.0 2.888932816 0.22062146184 0.0
0.0 2.890284047 0.220475039631 0.0
0.0 2.891635279 0.220327035811 0.0
0.0 2.89298651 0.220179840217 0.0
0.0 2.894337742 0.220029752942 0.0
0.0 2.895688973 0.219881922177 0.0
0.0 2.897040205 0.219733843378 0.0
0.0 2.898391436 0.219586316128 0.0
0.0 2.899742667 0.219437826221 0.0
0.0 2.901093899 0.219286441936 0.0
0.0 2.90244513 0.219139445711 0.0
0.0 2.903796362 0.218989687695 0.0
0.0 2.905147593 0.218839158654 0.0
0.0 2.906498825 0.218688935255 0.0
0.0 2.907850056 0.218537766158 0.0
0.0 2.909201287 0.218387278794 0.0
0.0 2.910552519 0.218237296755 0.0
0.0 2.91190375 0.218084976168 0.0
0.0 2.913254982 0.217930316733 0.0
0.0 2.914606213 0.217784117715 0.0
0.0 2.915957445 0.217634340158 0.0
0.0 2.917308676 0.217481559824 0.0
0.0 2.918659908 0.217327159652 0.0
0.0 2.920011139 0.217172575827 0.0
0.0 2.92136237 0.217020562565 0.0
0.0 2.922713602 0.216863216652 0.0
0.0 2.924064833 0.216707294311 0.0
0.0 2.925416065 0.216555110998 0.0
0.0 2.926767296 0.21640040085 0.0
0.0 2.928118528 0.216244979586 0.0
0.0 2.929469759 0.216089189205 0.0
0.0 2.93082099 0.215935999908 0.0
0.0 2.932172222 0.215778399963 0.0
0.0 2.933523453 0.215623866271 0.0
0.0 2.934874685 0.215467950751 0.0
0.0 2.936225916 0.215307499998 0.0
0.0 2.937577148 0.215152359523 0.0
0.0 2.938928379 0.214997421069 0.0
0.0 2.940279611 0.214842050411 0.0
0.0 2.941630842 0.214679113638 0.0
0.0 2.942982073 0.214525200421 0.0
0.0 2.944333305 0.21436550952 0.0
0.0 2.945684536 0.21420253656 0.0
0.0 2.947035768 0.214044570102 0.0
0.0 2.948386999 0.213885077739 0.0
0.0 2.949738231 0.213724523188 0.0
0.0 2.951089462 0.213562141509 0.0
0.0 2.952440694 0.213407771344 0.0
0.0 2.953791925 0.213245502637 0.0
0.0 2.955143156 0.213084391911 0.0
0.0 2.956494388 0.212920737214 0.0
0.0 2.957845619 0.21275836022 0.0
0.0 2.959196851 0.212599070696 0.0
0.0 2.960548082 0.212438722492 0.0
0.0 2.961899314 0.212275571743 0.0
0.0 2.963250545 0.212113311952 0.0
0.0 2.964601776 0.211952137983 0.0
0.0 2.965953008 0.211789186487 0.0
0.0 2.967304239 0.2116267382 0.0
0.0 2.968655471 0.211461912124 0.0
0.0 2.970006702 0.211295669001 0.0
0.0 2.971357934 0.211132112192 0.0
0.0 2.972709165 0.210969848234 0.0
0.0 2.974060397 0.210805831571 0.0
0.0 2.975411628 0.2106405683 0.0
0.0 2.976762859 0.210475374354 0.0
0.0 2.978114091 0.210310577577 0.0
0.0 2.979465322 0.210147272888 0.0
0.0 2.980816554 0.209980791545 0.0
0.0 2.982167785 0.209816294799 0.0
0.0 2.983519017 0.209651156979 0.0
0.0 2.984870248 0.209487008315 0.0
0.0 2.986221479 0.20931934067 0.0
0.0 2.987572711 0.209150415058 0.0
0.0 2.988923942 0.208984034512 0.0
0.0 2.990275174 0.208818337294 0.0
0.0 2.991626405 0.208652696516 0.0
0.0 2.992977637 0.20848334418 0.0
0.0 2.994328868 0.208315185723 0.0
0.0 2.9956801 0.208146586706 0.0
0.0 2.997031331 0.207978496687 0.0
0.0 2.998382562 0.207810179172 0.0
0.0 2.999733794 0.207642614464 0.0
0.0 3.001085025 0.207474978727 0.0
0.0 3.002436257 0.207306441341 0.0
0.0 3.003787488 0.207136532492 0.0
0.0 3.00513872 0.206965239602 0.0
0.0 3.006489951 0.206795951174 0.0
0.0 3.007841182 0.206626587099 0.0
0.0 3.009192414 0.206460342791 0.0
0.0 3.010543645 0.206289124259 0.0
0.0 3.011894877 0.206123056536 0.0
0.0 3.013246108 0.205953150792 0.0
0.0 3.01459734 0.205781682467 0.0
0.0 3.015948571 0.205608282694 0.0
0.0 3.017299803 0.205437327871 0.0
0.0 3.018651034 0.205264134305 0.0
0.0 3.020002265 0.205090989751 0.0
0.0 3.021353497 0.204919811451 0.0
0.0 3.022704728 0.204746943877 0.0
0.0 3.02405596 0.204577523651 0.0
0.0 3.025407191 0.204402624149 0.0
0.0 3.026758423 0.204231339571 0.0
0.0 3.028109654 0.20405572376 0.0
0.0 3.029460886 0.203885215445 0.0
0.0 3.030812117 0.203713143652 0.0
0.0 3.032163348 0.203537592038 0.0
0.0 3.03351458 0.203360410208 0.0
0.0 3.034865811 0.203188420713 0.0
0.0 3.036217043 0.203013803652 0.0
0.0 3.037568274 0.202841232177 0.0
0.0 3.038919506 0.202668615341 0.0
0.0 3.040270737 0.202492559247 0.0
0.0 3.041621968 0.202317894088 0.0
0.0 3.0429732 0.202139985898 0.0
0.0 3.044324431 0.20196419993 0.0
0.0 3.045675663 0.201789103817 0.0
0.0 3.047026894 0.201616460423 0.0
0.0 3.048378126 0.201436739882 0.0
0.0 3.049729357 0.201260241999 0.0
0.0 3.051080589 0.201082774839 0.0
0.0 3.05243182 0.200907854444 0.0
0.0 3.053783051 0.200731905779 0.0
0.0 3.055134283 0.200557582446 0.0
0.0 3.056485514 0.200378202632 0.0
0.0 3.057836746 0.200208459287 0.0
0.0 3.059187977 0.200027623292 0.0
0.0 3.060539209 0.199852187811 0.0
0.0 3.06189044 0.199673710794 0.0
0.0 3.063241671 0.199497490419 0.0
0.0 3.064592903 0.199319495152 0.0
0.0 3.065944134 0.199144043982 0.0
0.0 3.067295366 0.198962136362 0.0
0.0 3.068646597 0.198783173497 0.0
0.0 3.069997829 0.198599442068 0.0
0.0 3.07134906 0.198419773242 0.0
0.0 3.072700292 0.198241718795 0.0
0.0 3.074051523 0.198067519382 0.0
0.0 3.075402754 0.197889049728 0.0
0.0 3.076753986 0.197706789017 0.0
0.0 3.078105217 0.197525299382 0.0
0.0 3.079456449 0.197343823927 0.0
0.0 3.08080768 0.197163167574 0.0
0.0 3.082158912 0.196980151925 0.0
0.0 3.083510143 0.196802946915 0.0
0.0 3.084861374 0.196621544462 0.0
0.0 3.086212606 0.196441313717 0.0
0.0 3.087563837 0.196256509718 0.0
0.0 3.088915069 0.196076866201 0.0
0.0 3.0902663 0.195891914341 0.0
0.0 3.091617532 0.195712424271 0.0
0.0 3.092968763 0.195529883764 0.0
0.0 3.094319995 0.195348185341 0.0
0.0 3.095671226 0.19516399909 0.0
0.0 3.097022457 0.194983348326 0.0
0.0 3.098373689 0.194799168304 0.0
0.0 3.09972492 0.194617805954 0.0
0.0 3.101076152 0.194433240814 0.0
0.0 3.102427383 0.194250743237 0.0
0.0 3.103778615 0.194067777691 0.0
0.0 3.105129846 0.193886928087 0.0
0.0 3.106481078 0.19370176536 0.0
0.0 3.107832309 0.193518600023 0.0
0.0 3.10918354 0.193335191728 0.0
0.0 3.110534772 0.193153471188 0.0
0.0 3.111886003 0.192968061452 0.0
0.0 3.113237235 0.192784288398 0.0
0.0 3.114588466 0.192600380405 0.0
0.0 3.115939698 0.192416375402 0.0
0.0 3.117290929 0.192232160128 0.0
0.0 3.11864216 0.192047850105 0.0
0.0 3.119993392 0.19186340806 0.0
0.0 3.121344623 0.191678835335 0.0
0.0 3.122695855 0.191494148206 0.0
0.0 3.124047086 0.191311403997 0.0
0.0 3.125398318 0.191124342557 0.0
0.0 3.126749549 0.190939257157 0.0
0.0 3.128100781 0.190754049417 0.0
0.0 3.129452012 0.190571444562 0.0
0.0 3.130803243 0.190384416186 0.0
0.0 3.132154475 0.190205939547 0.0
0.0 3.133505706 0.190018492082 0.0
0.0 3.134856938 0.189840001994 0.0
0.0 3.136208169 0.18965684313 0.0
0.0 3.137559401 0.189485924794 0.0
0.0 3.138910632 0.189308076907 0.0
0.0 3.140261863 0.189137336562 0.0
0.0 3.141613095 0.1889413508 0.0
0.0 3.142964326 0.188751985521 0.0
0.0 3.144315558 0.188547174113 0.0
0.0 3.145666789 0.188354884073 0.0
0.0 3.147018021 0.188156604037 0.0
0.0 3.148369252 0.187970454188 0.0
0.0 3.149720484 0.187780552648 0.0
0.0 3.151071715 0.187594786627 0.0
0.0 3.152422946 0.187405236341 0.0
0.0 3.153774178 0.187216991957 0.0
0.0 3.155125409 0.187025141863 0.0
0.0 3.156476641 0.186837928957 0.0
0.0 3.157827872 0.186649800569 0.0
0.0 3.159179104 0.186462404789 0.0
0.0 3.160530335 0.186274685303 0.0
0.0 3.161881566 0.186086229619 0.0
0.0 3.163232798 0.185900516985 0.0
0.0 3.164584029 0.185713085714 0.0
0.0 3.165935261 0.18552802 0.0
0.0 3.167286492 0.185338568675 0.0
0.0 3.168637724 0.185157940997 0.0
0.0 3.169988955 0.184974021072 0.0
0.0 3.171340187 0.184799072921 0.0
0.0 3.172691418 0.184607970082 0.0
0.0 3.174042649 0.184427852811 0.0
0.0 3.175393881 0.184234316722 0.0
0.0 3.176745112 0.184059922417 0.0
0.0 3.178096344 0.183859438517 0.0
0.0 3.179447575 0.18368170085 0.0
0.0 3.180798807 0.183479349693 0.0
0.0 3.182150038 0.183308355268 0.0
0.0 3.18350127 0.183114956948 0.0
0.0 3.184852501 0.18295327762 0.0
0.0 3.186203732 0.182771838054 0.0
0.0 3.187554964 0.182623872911 0.0
0.0 3.188906195 0.182452592707 0.0
0.0 3.190257427 0.18230998476 0.0
0.0 3.191608658 0.182148662398 0.0
0.0 3.19295989 0.182014194949 0.0
0.0 3.194311121 0.181880054359 0.0
0.0 3.195662352 0.181779367334 0.0
0.0 3.197013584 0.181704452845 0.0
0.0 3.198364815 0.181673335899 0.0
0.0 3.199716047 0.181717485134 0.0
0.0 3.201067278 0.181838541007 0.0
0.0 3.20241851 0.182123532213 0.0
0.0 3.203769741 0.182583837545 0.0
0.0 3.205120973 0.183410750431 0.0
0.0 3.206472204 0.184733506063 0.0
0.0 3.207823435 0.187026415468 0.0
0.0 3.209174667 0.190810884177 0.0
0.0 3.210525898 0.197487351732 0.0
0.0 3.21187713 0.2090416001 0.0
0.0 3.213228361 0.228968600639 0.0
0.0 3.214579593 0.26101204744 0.0
0.0 3.215930824 0.306798569173 0.0
0.0 3.217282055 0.360281919859 0.0
0.0 3.218633287 0.404200402988 0.0
0.0 3.219984518 0.430851220717 0.0
0.0 3.22133575 0.439352722103 0.0
0.0 3.222686981 0.43807635886 0.0
0.0 3.224038213 0.435385847323 0.0
0.0 3.225389444 0.435860583563 0.0
0.0 3.226740676 0.440891970565 0.0
0.0 3.228091907 0.449909803702 0.0
0.0 3.229443138 0.461644692426 0.0
0.0 3.23079437 0.473932222636 0.0
0.0 3.232145601 0.48473907328 0.0
0.0 3.233496833 0.492283727576 0.0
0.0 3.234848064 0.496120350282 0.0
0.0 3.236199296 0.496732522521 0.0
0.0 3.237550527 0.494834609375 0.0
0.0 3.238901759 0.491801946166 0.0
0.0 3.24025299 0.488835074074 0.0
0.0 3.241604221 0.486608945071 0.0
0.0 3.242955453 0.485487572395 0.0
0.0 3.244306684 0.485024377735 0.0
0.0 3.245657916 0.484308763381 0.0
0.0 3.247009147 0.481024070027 0.0
0.0 3.248360379 0.473847600399 0.0
0.0 3.24971161 0.460116967449 0.0
0.0 3.251062841 0.439564284367 0.0
0.0 3.252414073 0.413170535248 0.0
0.0 3.253765304 0.381719104429 0.0
0.0 3.255116536 0.348543640304 0.0
0.0 3.256467767 0.316486911557 0.0
0.0 3.257818999 0.287367918028 0.0
0.0 3.25917023 0.262304335524 0.0
0.0 3.260521462 0.241818274962 0.0
0.0 3.261872693 0.225426316117 0.0
0.0 3.263223924 0.212617115538 0.0
0.0 3.264575156 0.202741709691 0.0
0.0 3.265926387 0.195137687388 0.0
0.0 3.267277619 0.189368035678 0.0
0.0 3.26862885 0.184915716162 0.0
0.0 3.269980082 0.18153173111 0.0
0.0 3.271331313 0.178875004442 0.0
0.0 3.272682544 0.176847038512 0.0
0.0 3.274033776 0.175225631168 0.0
0.0 3.275385007 0.17397019715 0.0
0.0 3.276736239 0.172958279139 0.0
0.0 3.27808747 0.172131559301 0.0
0.0 3.279438702 0.171460843392 0.0
0.0 3.280789933 0.17087316789 0.0
0.0 3.282141165 0.170395616766 0.0
0.0 3.283492396 0.169946534651 0.0
0.0 3.284843627 0.169583417938 0.0
0.0 3.286194859 0.169228359144 0.0
0.0 3.28754609 0.168928793824 0.0
0.0 3.288897322 0.168632416348 0.0
0.0 3.290248553 0.168360791112 0.0
0.0 3.291599785 0.168104517344 0.0
0.0 3.292951016 0.167849108726 0.0
0.0 3.294302247 0.167624332709 0.0
0.0 3.295653479 0.167386520987 0.0
0.0 3.29700471 0.167184914856 0.0
0.0 3.298355942 0.166955930086 0.0
0.0 3.299707173 0.166754746539 0.0
0.0 3.301058405 0.166540745054 0.0
0.0 3.302409636 0.166339323422 0.0
0.0 3.303760868 0.166142226394 0.0
0.0 3.305112099 0.165936203363 0.0
0.0 3.30646333 0.16574414946 0.0
0.0 3.307814562 0.165529252751 0.0
0.0 3.309165793 0.165336758957 0.0
0.0 3.310517025 0.16512801619 0.0
0.0 3.311868256 0.164942257964 0.0
0.0 3.313219488 0.164740588695 0.0
0.0 3.314570719 0.164542027751 0.0
0.0 3.315921951 0.164344954677 0.0
0.0 3.317273182 0.164143190454 0.0
0.0 3.318624413 0.163954060085 0.0
0.0 3.319975645 0.163749384951 0.0
0.0 3.321326876 0.163563352335 0.0
0.0 3.322678108 0.16335921659 0.0
0.0 3.324029339 0.16316927726 0.0
0.0 3.325380571 0.162969308765 0.0
0.0 3.326731802 0.162776386191 0.0
0.0 3.328083033 0.162586686782 0.0
0.0 3.329434265 0.162390150745 0.0
0.0 3.330785496 0.16220366878 0.0
0.0 3.332136728 0.161998420473 0.0
0.0 3.333487959 0.16181306315 0.0
0.0 3.334839191 0.16161618402 0.0
0.0 3.336190422 0.16142866144 0.0
0.0 3.337541654 0.161237193912 0.0
0.0 3.338892885 0.16104238085 0.0
0.0 3.340244116 0.16085969699 0.0
0.0 3.341595348 0.160664150046 0.0
0.0 3.342946579 0.160480446606 0.0
0.0 3.344297811 0.160276685554 0.0
0.0 3.345649042 0.160084952906 0.0
0.0 3.347000274 0.159889562901 0.0
0.0 3.348351505 0.159696696654 0.0
0.0 3.349702736 0.159505832803 0.0
0.0 3.351053968 0.159305866138 0.0
0.0 3.352405199 0.15911773344 0.0
0.0 3.353756431 0.158915816133 0.0
0.0 3.355107662 0.158727713584 0.0
0.0 3.356458894 0.15853214639 0.0
0.0 3.357810125 0.1583385334 0.0
0.0 3.359161357 0.158146067074 0.0
0.0 3.360512588 0.157952166385 0.0
0.0 3.361863819 0.157765798006 0.0
0.0 3.363215051 0.157567126367 0.0
0.0 3.364566282 0.157377986678 0.0
0.0 3.365917514 0.157183850518 0.0
0.0 3.367268745 0.156993201923 0.0
0.0 3.368619977 0.156804604173 0.0
0.0 3.369971208 0.156611856683 0.0
0.0 3.371322439 0.156422520331 0.0
0.0 3.372673671 0.156232574292 0.0
0.0 3.374024902 0.156045862573 0.0
0.0 3.375376134 0.155856025283 0.0
0.0 3.376727365 0.155666027494 0.0
0.0 3.378078597 0.155479858729 0.0
0.0 3.379429828 0.155289999984 0.0
0.0 3.38078106 0.155105374882 0.0
0.0 3.382132291 0.154909788736 0.0
0.0 3.383483522 0.154720958245 0.0
0.0 3.384834754 0.154528622674 0.0
0.0 3.386185985 0.154338397031 0.0
0.0 3.387537217 0.154150224634 0.0
0.0 3.388888448 0.153957077817 0.0
0.0 3.39023968 0.153770755639 0.0
0.0 3.391590911 0.153577739471 0.0
0.0 3.392942143 0.153391769818 0.0
0.0 3.394293374 0.153204187517 0.0
0.0 3.395644605 0.153014486473 0.0
0.0 3.396995837 0.152824980498 0.0
0.0 3.398347068 0.152634177234 0.0
0.0 3.3996983 0.152447082427 0.0
0.0 3.401049531 0.152255751321 0.0
0.0 3.402400763 0.152067066098 0.0
0.0 3.403751994 0.151878420897 0.0
0.0 3.405103225 0.151688236543 0.0
0.0 3.406454457 0.151501243197 0.0
0.0 3.407805688 0.151312732501 0.0
0.0 3.40915692 0.151126635632 0.0
0.0 3.410508151 0.150937771273 0.0
0.0 3.411859383 0.150748954397 0.0
0.0 3.413210614 0.150560703405 0.0
0.0 3.414561846 0.150372910463 0.0
0.0 3.415913077 0.15018820667 0.0
0.0 3.417264308 0.149998921917 0.0
0.0 3.41861554 0.149811100981 0.0
0.0 3.419966771 0.149621515645 0.0
0.0 3.421318003 0.149433513005 0.0
0.0 3.422669234 0.149248556707 0.0
0.0 3.424020466 0.149059662275 0.0
0.0 3.425371697 0.148873805931 0.0
0.0 3.426722928 0.148684504461 0.0
0.0 3.42807416 0.148495958573 0.0
0.0 3.429425391 0.148309712125 0.0
0.0 3.430776623 0.148122507235 0.0
0.0 3.432127854 0.147938495385 0.0
0.0 3.433479086 0.14775167554 0.0
0.0 3.434830317 0.147565827303 0.0
0.0 3.436181549 0.147378826377 0.0
0.0 3.43753278 0.147191401007 0.0
0.0 3.438884011 0.147010570082 0.0
0.0 3.440235243 0.146825362109 0.0
0.0 3.441586474 0.146645265821 0.0
0.0 3.442937706 0.146461594804 0.0
0.0 3.444288937 0.146274585715 0.0
0.0 3.445640169 0.146090352085 0.0
0.0 3.4469914 0.145903191738 0.0
0.0 3.448342631 0.14571995384 0.0
0.0 3.449693863 0.145531692135 0.0
0.0 3.451045094 0.145345199279 0.0
0.0 3.452396326 0.145160929565 0.0
0.0 3.453747557 0.144974913864 0.0
0.0 3.455098789 0.144792450643 0.0
0.0 3.45645002 0.144604445933 0.0
0.0 3.457801252 0.144421394837 0.0
0.0 3.459152483 0.144238280673 0.0
0.0 3.460503714 0.14405444755 0.0
0.0 3.461854946 0.143877372932 0.0
0.0 3.463206177 0.143692565706 0.0
0.0 3.464557409 0.143510223248 0.0
0.0 3.46590864 0.143328767394 0.0
0.0 3.467259872 0.143145117124 0.0
0.0 3.468611103 0.142965714303 0.0
0.0 3.469962335 0.14277879585 0.0
0.0 3.471313566 0.142600669886 0.0
0.0 3.472664797 0.14242063159 0.0
0.0 3.474016029 0.142233319037 0.0
0.0 3.47536726 0.142054695308 0.0
0.0 3.476718492 0.141872477445 0.0
0.0 3.478069723 0.141692981858 0.0
0.0 3.479420955 0.141509772631 0.0
0.0 3.480772186 0.141324951599 0.0
0.0 3.482123417 0.141147094398 0.0
0.0 3.483474649 0.140961356723 0.0
0.0 3.48482588 0.140779207884 0.0
0.0 3.486177112 0.140595336609 0.0
0.0 3.487528343 0.140412099782 0.0
0.0 3.488879575 0.1402329254 0.0
0.0 3.490230806 0.140047671458 0.0
0.0 3.491582038 0.139872286418 0.0
0.0 3.492933269 0.139696528867 0.0
0.0 3.4942845 0.139515228819 0.0
0.0 3.495635732 0.139337052824 0.0
0.0 3.496986963 0.139156435482 0.0
0.0 3.498338195 0.13898165778 0.0
0.0 3.499689426 0.138807986362 0.0
0.0 3.501040658 0.138629838915 0.0
0.0 3.502391889 0.138457654668 0.0
0.0 3.50374312 0.138276409074 0.0
0.0 3.505094352 0.138097087849 0.0
0.0 3.506445583 0.137919292411 0.0
0.0 3.507796815 0.13773893 0.0
0.0 3.509148046 0.137564125804 0.0
0.0 3.510499278 0.137383234773 0.0
0.0 3.511850509 0.137207462399 0.0
0.0 3.513201741 0.137033548152 0.0
0.0 3.514552972 0.136854943771 0.0
0.0 3.515904203 0.136679466236 0.0
0.0 3.517255435 0.13649769841 0.0
0.0 3.518606666 0.136319795918 0.0
0.0 3.519957898 0.136143580861 0.0
0.0 3.521309129 0.135962818513 0.0
0.0 3.522660361 0.135788876992 0.0
0.0 3.524011592 0.135613777559 0.0
0.0 3.525362824 0.135437627498 0.0
0.0 3.526714055 0.135260974456 0.0
0.0 3.528065286 0.135081309296 0.0
0.0 3.529416518 0.134909366474 0.0
0.0 3.530767749 0.134733107528 0.0
0.0 3.532118981 0.134556785551 0.0
0.0 3.533470212 0.134382846557 0.0
0.0 3.534821444 0.134206137017 0.0
0.0 3.536172675 0.13403596295 0.0
0.0 3.537523906 0.133862895975 0.0
0.0 3.538875138 0.133685577172 0.0
0.0 3.540226369 0.133512452392 0.0
0.0 3.541577601 0.133332672049 0.0
0.0 3.542928832 0.133157306184 0.0
0.0 3.544280064 0.132984229522 0.0
0.0 3.545631295 0.132809912986 0.0
0.0 3.546982527 0.132638918784 0.0
0.0 3.548333758 0.132462923149 0.0
0.0 3.549684989 0.13228951061 0.0
0.0 3.551036221 0.132117916475 0.0
0.0 3.552387452 0.1319435845 0.0
0.0 3.553738684 0.131775285197 0.0
0.0 3.555089915 0.131600212471 0.0
0.0 3.556441147 0.13142350532 0.0
0.0 3.557792378 0.131252442963 0.0
0.0 3.559143609 0.131082084767 0.0
0.0 3.560494841 0.13091415551 0.0
0.0 3.561846072 0.13074317176 0.0
0.0 3.563197304 0.130570264502 0.0
0.0 3.564548535 0.130402908529 0.0
0.0 3.565899767 0.130230287291 0.0
0.0 3.567250998 0.130059527012 0.0
0.0 3.56860223 0.129892635595 0.0
0.0 3.569953461 0.129721788547 0.0
0.0 3.571304692 0.129550692682 0.0
0.0 3.572655924 0.129378829618 0.0
0.0 3.574007155 0.12920969606 0.0
0.0 3.575358387 0.129043858358 0.0
0.0 3.576709618 0.12887313132 0.0
0.0 3.57806085 0.128705175029 0.0
0.0 3.579412081 0.128536713358 0.0
0.0 3.580763312 0.128364151452 0.0
0.0 3.582114544 0.128196142125 0.0
0.0 3.583465775 0.128028006187 0.0
0.0 3.584817007 0.127861741637 0.0
0.0 3.586168238 0.127694402765 0.0
0.0 3.58751947 0.127526999932 0.0
0.0 3.588870701 0.127360926284 0.0
0.0 3.590221933 0.127195445626 0.0
0.0 3.591573164 0.127030220653 0.0
0.0 3.592924395 0.126865131551 0.0
0.0 3.594275627 0.126699234139 0.0
0.0 3.595626858 0.126534194197 0.0
0.0 3.59697809 0.126369572823 0.0
0.0 3.598329321 0.126205195755 0.0
0.0 3.599680553 0.126041074231 0.0
0.0 3.601031784 0.125877190459 0.0
0.0 3.602383016 0.125713540035 0.0
0.0 3.603734247 0.12555030364 0.0
0.0 3.605085478 0.125387596771 0.0
0.0 3.60643671 0.125225047705 0.0
0.0 3.607787941 0.125063202204 0.0
0.0 3.609139173 0.12489930087 0.0
0.0 3.610490404 0.124737432241 0.0
0.0 3.611841636 0.124576807225 0.0
0.0 3.613192867 0.124416007076 0.0
0.0 3.614544098 0.124255784321 0.0
0.0 3.61589533 0.124093592535 0.0
0.0 3.617246561 0.123932147212 0.0
0.0 3.618597793 0.123771673536 0.0
0.0 3.619949024 0.123611215375 0.0
0.0 3.621300256 0.123452832156 0.0
0.0 3.622651487 0.123293627087 0.0
0.0 3.624002719 0.123132115724 0.0
0.0 3.62535395 0.12297344758 0.0
0.0 3.626705181 0.122813622201 0.0
0.0 3.628056413 0.12265326186 0.0
0.0 3.629407644 0.122495216111 0.0
0.0 3.630758876 0.122336162103 0.0
0.0 3.632110107 0.122178234896 0.0
0.0 3.633461339 0.122020579378 0.0
0.0 3.63481257 0.121863196845 0.0
0.0 3.636163801 0.121706112213 0.0
0.0 3.637515033 0.121549372985 0.0
0.0 3.638866264 0.121392696954 0.0
0.0 3.640217496 0.121236525618 0.0
0.0 3.641568727 0.121082642221 0.0
0.0 3.642919959 0.120926809148 0.0
0.0 3.64427119 0.120770710021 0.0
0.0 3.645622422 0.120614098694 0.0
0.0 3.646973653 0.120459639914 0.0
0.0 3.648324884 0.120306993488 0.0
0.0 3.649676116 0.120150793372 0.0
0.0 3.651027347 0.119997979594 0.0
0.0 3.652378579 0.119844803278 0.0
0.0 3.65372981 0.11969104655 0.0
0.0 3.655081042 0.119541846345 0.0
0.0 3.656432273 0.119388159095 0.0
0.0 3.657783504 0.119232501304 0.0
0.0 3.659134736 0.119080896501 0.0
0.0 3.660485967 0.118926478106 0.0
0.0 3.661837199 0.118774492624 0.0
0.0 3.66318843 0.118623558615 0.0
0.0 3.664539662 0.118472013996 0.0
0.0 3.665890893 0.118321152218 0.0
0.0 3.667242125 0.118170637093 0.0
0.0 3.668593356 0.118020421504 0.0
0.0 3.669944587 0.117870626838 0.0
0.0 3.671295819 0.11772119626 0.0
0.0 3.67264705 0.117571586838 0.0
0.0 3.673998282 0.117422574442 0.0
0.0 3.675349513 0.117273871918 0.0
0.0 3.676700745 0.117125475085 0.0
0.0 3.678051976 0.116977385225 0.0
0.0 3.679403208 0.11682960318 0.0
0.0 3.680754439 0.116682130231 0.0
0.0 3.68210567 0.116534967331 0.0
0.0 3.683456902 0.116388115434 0.0
0.0 3.684808133 0.11624157582 0.0
0.0 3.686159365 0.116095349334 0.0
0.0 3.687510596 0.115949437255 0.0
0.0 3.688861828 0.115803840429 0.0
0.0 3.690213059 0.115658560135 0.0
0.0 3.69156429 0.115513597324 0.0
0.0 3.692915522 0.115368952956 0.0
0.0 3.694266753 0.115224628309 0.0
0.0 3.695617985 0.115080624225 0.0
0.0 3.696969216 0.114936941981 0.0
0.0 3.698320448 0.11479358243 0.0
0.0 3.699671679 0.114650546843 0.0
0.0 3.701022911 0.114507836074 0.0
0.0 3.702374142 0.114365451394 0.0
0.0 3.703725373 0.114223393761 0.0
0.0 3.705076605 0.114081664132 0.0
0.0 3.706427836 0.113940263781 0.0
0.0 3.707779068 0.113799193558 0.0
0.0 3.709130299 0.113658454737 0.0
0.0 3.710481531 0.11351804817 0.0
0.0 3.711832762 0.113377975128 0.0
0.0 3.713183993 0.11323823657 0.0
0.0 3.714535225 0.113098833454 0.0
0.0 3.715886456 0.112959767049 0.0
0.0 3.717237688 0.112821038212 0.0
0.0 3.718588919 0.11268264821 0.0
0.0 3.719940151 0.112544597902 0.0
0.0 3.721291382 0.112406888552 0.0
0.0 3.722642614 0.112269521021 0.0
0.0 3.723993845 0.112132496574 0.0
0.0 3.725345076 0.11199581617 0.0
0.0 3.726696308 0.111859480773 0.0
0.0 3.728047539 0.111723491645 0.0
0.0 3.729398771 0.11158784965 0.0
0.0 3.730750002 0.111452556047 0.0
0.0 3.732101234 0.1113176117 0.0
0.0 3.733452465 0.111183017873 0.0
0.0 3.734803696 0.111048775526 0.0
0.0 3.736154928 0.110914885629 0.0
0.0 3.737506159 0.110781349431 0.0
0.0 3.738857391 0.110648167802 0.0
0.0 3.740208622 0.110515342003 0.0
0.0 3.741559854 0.110382970252 0.0
0.0 3.742911085 0.110250863517 0.0
0.0 3.744262317 0.11011901256 0.0
0.0 3.745613548 0.109987830367 0.0
0.0 3.746964779 0.109859586169 0.0
0.0 3.748316011 0.109728528541 0.0
0.0 3.749667242 0.109597145023 0.0
0.0 3.751018474 0.109466305189 0.0
0.0 3.752369705 0.109337349998 0.0
0.0 3.753720937 0.109210208043 0.0
0.0 3.755072168 0.109080837479 0.0
0.0 3.7564234 0.108951405452 0.0
0.0 3.757774631 0.108824368533 0.0
0.0 3.759125862 0.108698103371 0.0
0.0 3.760477094 0.108570960911 0.0
0.0 3.761828325 0.108443077585 0.0
0.0 3.763179557 0.108312793502 0.0
0.0 3.764530788 0.10818655845 0.0
0.0 3.76588202 0.10806203845 0.0
0.0 3.767233251 0.107938598832 0.0
0.0 3.768584482 0.107813303834 0.0
0.0 3.769935714 0.107688157304 0.0
0.0 3.771286945 0.107563031571 0.0
0.0 3.772638177 0.107439320266 0.0
0.0 3.773989408 0.107317561714 0.0
0.0 3.77534064 0.107194170258 0.0
0.0 3.776691871 0.107071421229 0.0
0.0 3.778043103 0.106951225426 0.0
0.0 3.779394334 0.106829651711 0.0
0.0 3.780745565 0.106709036554 0.0
0.0 3.782096797 0.106591535895 0.0
0.0 3.783448028 0.106469864582 0.0
0.0 3.78479926 0.10634843305 0.0
0.0 3.786150491 0.106227944636 0.0
0.0 3.787501723 0.106106171161 0.0
0.0 3.788852954 0.10598608758 0.0
0.0 3.790204185 0.105865673831 0.0
0.0 3.791555417 0.105746389849 0.0
0.0 3.792906648 0.105629613019 0.0
0.0 3.79425788 0.105513793157 0.0
0.0 3.795609111 0.105394752259 0.0
0.0 3.796960343 0.105278202673 0.0
0.0 3.798311574 0.105163226045 0.0
0.0 3.799662806 0.105046076877 0.0
0.0 3.801014037 0.104930166184 0.0
0.0 3.802365268 0.104812460728 0.0
0.0 3.8037165 0.104693732688 0.0
0.0 3.805067731 0.104580740678 0.0
0.0 3.806418963 0.104471846945 0.0
0.0 3.807770194 0.104361129865 0.0
0.0 3.809121426 0.104248246199 0.0
0.0 3.810472657 0.104130962273 0.0
0.0 3.811823889 0.104013175007 0.0
0.0 3.81317512 0.103901640391 0.0
0.0 3.814526351 0.103791213911 0.0
0.0 3.815877583 0.103680407328 0.0
0.0 3.817228814 0.10357044525 0.0
0.0 3.818580046 0.103460176377 0.0
0.0 3.819931277 0.103349089297 0.0
0.0 3.821282509 0.103239458185 0.0
0.0 3.82263374 0.103130947219 0.0
0.0 3.823984971 0.1030229164 0.0
0.0 3.825336203 0.102915280406 0.0
0.0 3.826687434 0.102808627214 0.0
0.0 3.828038666 0.102701143256 0.0
0.0 3.829389897 0.102595083462 0.0
0.0 3.830741129 0.102487520587 0.0
0.0 3.83209236 0.102378755077 0.0
0.0 3.833443592 0.102274852839 0.0
0.0 3.834794823 0.10217289897 0.0
0.0 3.836146054 0.10206734521 0.0
0.0 3.837497286 0.101964474219 0.0
0.0 3.838848517 0.101859262019 0.0
0.0 3.840199749 0.101750362508 0.0
0.0 3.84155098 0.101646718588 0.0
0.0 3.842902212 0.101543827223 0.0
0.0 3.844253443 0.101443397227 0.0
0.0 3.845604674 0.101343273696 0.0
0.0 3.846955906 0.101242367408 0.0
0.0 3.848307137 0.101140806481 0.0
0.0 3.849658369 0.101039736498 0.0
0.0 3.8510096 0.100937399964 0.0
0.0 3.852360832 0.100835882789 0.0
0.0 3.853712063 0.100736950224 0.0
0.0 3.855063295 0.100640119291 0.0
0.0 3.856414526 0.100540217208 0.0
0.0 3.857765757 0.10044195862 0.0
0.0 3.859116989 0.100345700324 0.0
0.0 3.86046822 0.100248287247 0.0
0.0 3.861819452 0.100151407938 0.0
0.0 3.863170683 0.100056598137 0.0
0.0 3.864521915 0.0999602834495 0.0
0.0 3.865873146 0.099864516533 0.0
0.0 3.867224377 0.0997708876579 0.0
0.0 3.868575609 0.0996785784389 0.0
0.0 3.86992684 0.0995841926898 0.0
0.0 3.871278072 0.0994896933422 0.0
0.0 3.872629303 0.0993958756025 0.0
0.0 3.873980535 0.0993034878567 0.0
0.0 3.875331766 0.0992116301808 0.0
0.0 3.876682998 0.0991231301381 0.0
0.0 3.878034229 0.0990324728014 0.0
0.0 3.87938546 0.0989420651861 0.0
0.0 3.880736692 0.098852000699 0.0
0.0 3.882087923 0.0987636949609 0.0
0.0 3.883439155 0.0986779306285 0.0
0.0 3.884790386 0.098587487237 0.0
0.0 3.886141618 0.0984973628475 0.0
0.0 3.887492849 0.098410121482 0.0
0.0 3.888844081 0.0983223353629 0.0
0.0 3.890195312 0.0982352979917 0.0
0.0 3.891546543 0.098149779233 0.0
0.0 3.892897775 0.0980666071399 0.0
0.0 3.894249006 0.0979809870056 0.0
0.0 3.895600238 0.0978968927723 0.0
0.0 3.896951469 0.0978140271118 0.0
0.0 3.898302701 0.0977285782957 0.0
0.0 3.899653932 0.0976456904304 0.0
0.0 3.901005163 0.097564290745 0.0
0.0 3.902356395 0.097480524567 0.0
0.0 3.903707626 0.0973993040608 0.0
0.0 3.905058858 0.0973172100475 0.0
0.0 3.906410089 0.0972348021479 0.0
0.0 3.907761321 0.0971527109996 0.0
0.0 3.909112552 0.097074483988 0.0
0.0 3.910463784 0.0969956554441 0.0
0.0 3.911815015 0.0969166200309 0.0
0.0 3.913166246 0.0968399547747 0.0
0.0 3.914517478 0.0967616930022 0.0
0.0 3.915868709 0.0966831828834 0.0
0.0 3.917219941 0.0966078076678 0.0
0.0 3.918571172 0.0965299249418 0.0
0.0 3.919922404 0.0964549397824 0.0
0.0 3.921273635 0.0963831386526 0.0
0.0 3.922624866 0.0963085725091 0.0
0.0 3.923976098 0.0962305526605 0.0
0.0 3.925327329 0.0961550319383 0.0
0.0 3.926678561 0.0960806177003 0.0
0.0 3.928029792 0.0960053968827 0.0
0.0 3.929381024 0.0959347475597 0.0
0.0 3.930732255 0.0958673482491 0.0
0.0 3.932083487 0.0957944757766 0.0
0.0 3.933434718 0.0957219117254 0.0
0.0 3.934785949 0.0956514786916 0.0
0.0 3.936137181 0.0955794261511 0.0
0.0 3.937488412 0.0955097450408 0.0
0.0 3.938839644 0.0954415220472 0.0
0.0 3.940190875 0.0953727580357 0.0
0.0 3.941542107 0.0953036772093 0.0
0.0 3.942893338 0.0952366551369 0.0
0.0 3.944244569 0.0951699603815 0.0
0.0 3.945595801 0.0951015485124 0.0
0.0 3.946947032 0.0950340725792 0.0
0.0 3.948298264 0.0949679915318 0.0
0.0 3.949649495 0.0949020603562 0.0
0.0 3.951000727 0.0948370499208 0.0
0.0 3.952351958 0.0947765045603 0.0
0.0 3.95370319 0.0947134842654 0.0
0.0 3.955054421 0.0946499984271 0.0
0.0 3.956405652 0.0945877774599 0.0
0.0 3.957756884 0.0945239720986 0.0
0.0 3.959108115 0.0944610251398 0.0
0.0 3.960459347 0.0944009244924 0.0
0.0 3.961810578 0.0943427555904 0.0
0.0 3.96316181 0.0942841531143 0.0
0.0 3.964513041 0.0942262047035 0.0
0.0 3.965864273 0.094168869493 0.0
0.0 3.967215504 0.0941096173097 0.0
0.0 3.968566735 0.0940509228586 0.0
0.0 3.969917967 0.093993005611 0.0
0.0 3.971269198 0.0939345940255 0.0
0.0 3.97262043 0.0938787385329 0.0
0.0 3.973971661 0.0938238780374 0.0
0.0 3.975322893 0.0937701264814 0.0
0.0 3.976674124 0.0937173591832 0.0
0.0 3.978025355 0.0936645320836 0.0
0.0 3.979376587 0.0936098752337 0.0
0.0 3.980727818 0.0935557966564 0.0
0.0 3.98207905 0.0935032550385 0.0
0.0 3.983430281 0.0934523706591 0.0
0.0 3.984781513 0.0934023189814 0.0
0.0 3.986132744 0.0933524757112 0.0
0.0 3.987483976 0.0933022857612 0.0
0.0 3.988835207 0.0932522332565 0.0
0.0 3.990186438 0.0932033831415 0.0
0.0 3.99153767 0.0931563690169 0.0
0.0 3.992888901 0.0931079696894 0.0
0.0 3.994240133 0.093059555958 0.0
0.0 3.995591364 0.0930129838126 0.0
0.0 3.996942596 0.0929679661616 0.0
0.0 3.998293827 0.0929244885566 0.0
0.0 3.999645058 0.0928814169025 0.0
0.0 4.00099629 0.0928373510703 0.0
0.0 4.002347521 0.0927926189417 0.0
0.0 4.003698753 0.0927488115793 0.0
0.0 4.005049984 0.0927056573266 0.0
0.0 4.006401216 0.0926621176526 0.0
0.0 4.007752447 0.092620730742 0.0
0.0 4.009103679 0.0925801433107 0.0
0.0 4.01045491 0.0925396032967 0.0
0.0 4.011806141 0.0925003069728 0.0
0.0 4.013157373 0.0924622266245 0.0
0.0 4.014508604 0.0924233417212 0.0
0.0 4.015859836 0.092383627777 0.0
0.0 4.017211067 0.0923464047107 0.0
0.0 4.018562299 0.0923103766462 0.0
0.0 4.01991353 0.0922752313032 0.0
0.0 4.021264761 0.0922399127508 0.0
0.0 4.022615993 0.0922043880524 0.0
0.0 4.023967224 0.0921683693345 0.0
0.0 4.025318456 0.0921333441441 0.0
0.0 4.026669687 0.0921002499489 0.0
0.0 4.028020919 0.0920671417169 0.0
0.0 4.02937215 0.0920347560429 0.0
0.0 4.030723382 0.0920034309807 0.0
0.0 4.032074613 0.0919728270253 0.0
0.0 4.033425844 0.0919423954385 0.0
0.0 4.034777076 0.0919125424247 0.0
0.0 4.036128307 0.0918836386566 0.0
0.0 4.037479539 0.091854183591 0.0
0.0 4.03883077 0.0918252181479 0.0
0.0 4.040182002 0.0917978401779 0.0
0.0 4.041533233 0.0917713551031 0.0
0.0 4.042884465 0.0917451300351 0.0
0.0 4.044235696 0.0917190677321 0.0
0.0 4.045586927 0.0916935859348 0.0
0.0 4.046938159 0.0916686201846 0.0
0.0 4.04828939 0.0916446606251 0.0
0.0 4.049640622 0.0916214633633 0.0
0.0 4.050991853 0.091598946421 0.0
0.0 4.052343085 0.0915766817499 0.0
0.0 4.053694316 0.0915550993213 0.0
0.0 4.055045547 0.0915341048137 0.0
0.0 4.056396779 0.0915134079676 0.0
0.0 4.05774801 0.0914934960717 0.0
0.0 4.059099242 0.0914742180419 0.0
0.0 4.060450473 0.091455585027 0.0
0.0 4.061801705 0.0914376459318 0.0
0.0 4.063152936 0.0914206216063 0.0
0.0 4.064504168 0.0914038204661 0.0
0.0 4.065855399 0.0913875745813 0.0
0.0 4.06720663 0.0913720844467 0.0
0.0 4.068557862 0.0913571771529 0.0
0.0 4.069909093 0.0913427844411 0.0
0.0 4.071260325 0.0913290480647 0.0
0.0 4.072611556 0.0913161444692 0.0
0.0 4.073962788 0.0913037294005 0.0
0.0 4.075314019 0.0912918577046 0.0
0.0 4.07666525 0.0912806475872 0.0
0.0 4.078016482 0.0912700806732 0.0
0.0 4.079367713 0.0912601063945 0.0
0.0 4.080718945 0.0912507712297 0.0
0.0 4.082070176 0.091242089157 0.0
0.0 4.083421408 0.0912339326849 0.0
0.0 4.084772639 0.0912263993486 0.0
0.0 4.086123871 0.0912195399215 0.0
0.0 4.087475102 0.091213351935 0.0
0.0 4.088826333 0.0912077811561 0.0
0.0 4.090177565 0.0912028520749 0.0
0.0 4.091528796 0.0911985521479 0.0
0.0 4.092880028 0.0911949101822 0.0
0.0 4.094231259 0.0911919180784 0.0
0.0 4.095582491 0.0911895670275 0.0
0.0 4.096933722 0.0911877841813 0.0
0.0 4.098284953 0.0911866047552 0.0
0.0 4.099636185 0.0911861321284 0.0
0.0 4.100987416 0.0911862995239 0.0
0.0 4.102338648 0.0911871068574 0.0
0.0 4.103689879 0.091188555968 0.0
0.0 4.105041111 0.0911906772282 0.0
0.0 4.106392342 0.0911933996672 0.0
0.0 4.107743574 0.0911967461914 0.0
0.0 4.109094805 0.0912007654552 0.0
0.0 4.110446036 0.0912054226911 0.0
0.0 4.111797268 0.0912107171137 0.0
0.0 4.113148499 0.0912166691615 0.0
0.0 4.114499731 0.0912232848097 0.0
0.0 4.115850962 0.0912305461857 0.0
0.0 4.117202194 0.0912384641777 0.0
0.0 4.118553425 0.0912470354243 0.0
0.0 4.119904657 0.0912562609276 0.0
0.0 4.121255888 0.0912661417352 0.0
0.0 4.122607119 0.091276680456 0.0
0.0 4.123958351 0.091287883829 0.0
0.0 4.125309582 0.0912997411449 0.0
0.0 4.126660814 0.0913122522946 0.0
0.0 4.128012045 0.0913254310619 0.0
0.0 4.129363277 0.0913392672687 0.0
0.0 4.130714508 0.0913537545518 0.0
0.0 4.132065739 0.0913689170696 0.0
0.0 4.133416971 0.0913847502543 0.0
0.0 4.134768202 0.0914012371409 0.0
0.0 4.136119434 0.0914183901312 0.0
0.0 4.137470665 0.091436222158 0.0
0.0 4.138821897 0.0914547259812 0.0
0.0 4.140173128 0.0914738807337 0.0
0.0 4.14152436 0.0914937140761 0.0
0.0 4.142875591 0.0915142280436 0.0
0.0 4.144226822 0.0915354114818 0.0
0.0 4.145578054 0.0915572696285 0.0
0.0 4.146929285 0.0915798008187 0.0
0.0 4.148280517 0.0916030175252 0.0
0.0 4.149631748 0.0916269106758 0.0
0.0 4.15098298 0.0916514792844 0.0
0.0 4.152334211 0.0916767251569 0.0
0.0 4.153685442 0.0917026483205 0.0
0.0 4.155036674 0.0917292555726 0.0
0.0 4.156387905 0.0917565490211 0.0
0.0 4.157739137 0.0917845263477 0.0
0.0 4.159090368 0.0918131828654 0.0
0.0 4.1604416 0.091842526581 0.0
0.0 4.161792831 0.0918725602263 0.0
0.0 4.163144063 0.0919032820472 0.0
0.0 4.164495294 0.0919346938485 0.0
0.0 4.165846525 0.0919667986601 0.0
0.0 4.167197757 0.0919995916878 0.0
0.0 4.168548988 0.0920330761024 0.0
0.0 4.16990022 0.0920672554079 0.0
0.0 4.171251451 0.0921021311519 0.0
0.0 4.172602683 0.0921377031915 0.0
0.0 4.173953914 0.0921739700494 0.0
0.0 4.175305146 0.0922109346035 0.0
0.0 4.176656377 0.0922485970346 0.0
0.0 4.178007608 0.0922869585559 0.0
0.0 4.17935884 0.0923260229632 0.0
0.0 4.180710071 0.0923657921228 0.0
0.0 4.182061303 0.092406262222 0.0
0.0 4.183412534 0.0924474356133 0.0
0.0 4.184763766 0.0924893136098 0.0
0.0 4.186114997 0.0925318994651 0.0
0.0 4.187466228 0.092575189317 0.0
0.0 4.18881746 0.092619188667 0.0
0.0 4.190168691 0.092663898913 0.0
0.0 4.191519923 0.0927093202697 0.0
0.0 4.192871154 0.0927554508692 0.0
0.0 4.194222386 0.0928022958511 0.0
0.0 4.195573617 0.0928498557803 0.0
0.0 4.196924849 0.0928981295538 0.0
0.0 4.19827608 0.0929471184653 0.0
0.0 4.199627311 0.0929968259446 0.0
0.0 4.200978543 0.0930472521357 0.0
0.0 4.202329774 0.0930983945182 0.0
0.0 4.203681006 0.0931502566473 0.0
0.0 4.205032237 0.0932028410615 0.0
0.0 4.206383469 0.093256148975 0.0
0.0 4.2077347 0.0933101785132 0.0
0.0 4.209085931 0.0933649332746 0.0
0.0 4.210437163 0.0934204138969 0.0
0.0 4.211788394 0.0934766204464 0.0
0.0 4.213139626 0.0935335532096 0.0
0.0 4.214490857 0.0935912162566 0.0
0.0 4.215842089 0.093649608972 0.0
0.0 4.21719332 0.0937087316317 0.0
0.0 4.218544552 0.0937685857787 0.0
0.0 4.219895783 0.0938291740166 0.0
0.0 4.221247014 0.0938904950349 0.0
0.0 4.222598246 0.0939525512891 0.0
0.0 4.223949477 0.0940153439146 0.0
0.0 4.225300709 0.0940788746478 0.0
0.0 4.22665194 0.094143143083 0.0
0.0 4.228003172 0.0942081505906 0.0
0.0 4.229354403 0.0942738987008 0.0
0.0 4.230705634 0.0943403884597 0.0
0.0 4.232056866 0.0944076189567 0.0
0.0 4.233408097 0.0944755934017 0.0
0.0 4.234759329 0.0945443129656 0.0
0.0 4.23611056 0.0946137786471 0.0
0.0 4.237461792 0.0946839902002 0.0
0.0 4.238813023 0.0947549500805 0.0
0.0 4.240164255 0.0948266590112 0.0
0.0 4.241515486 0.0948991168287 0.0
0.0 4.242866717 0.094972324772 0.0
0.0 4.244217949 0.0950462855184 0.0
0.0 4.24556918 0.095120999498 0.0
0.0 4.246920412 0.0951964676125 0.0
0.0 4.248271643 0.0952726909697 0.0
0.0 4.249622875 0.0953496706787 0.0
0.0 4.250974106 0.0954274077089 0.0
0.0 4.252325338 0.0955059033587 0.0
0.0 4.253676569 0.0955851581403 0.0
0.0 4.2550278 0.0956651735838 0.0
0.0 4.256379032 0.0957459505497 0.0
0.0 4.257730263 0.0958274897417 0.0
0.0 4.259081495 0.0959097927348 0.0
0.0 4.260432726 0.0959928603406 0.0
0.0 4.261783958 0.0960766938544 0.0
0.0 4.263135189 0.0961612942584 0.0
0.0 4.26448642 0.0962466627587 0.0
0.0 4.265837652 0.0963328004697 0.0
0.0 4.267188883 0.0964197076893 0.0
0.0 4.268540115 0.0965073860015 0.0
0.0 4.269891346 0.0965958366857 0.0
0.0 4.271242578 0.0966850605503 0.0
0.0 4.272593809 0.0967750584896 0.0
0.0 4.273945041 0.096865832023 0.0
0.0 4.275296272 0.0969573819797 0.0
0.0 4.276647503 0.0970497095728 0.0
0.0 4.277998735 0.0971428156138 0.0
0.0 4.279349966 0.0972367011564 0.0
0.0 4.280701198 0.0973313675897 0.0
0.0 4.282052429 0.0974268157111 0.0
0.0 4.283403661 0.0975230466561 0.0
0.0 4.284754892 0.0976200614827 0.0
0.0 4.286106123 0.0977178609651 0.0
0.0 4.287457355 0.0978164461339 0.0
0.0 4.288808586 0.0979158185086 0.0
0.0 4.290159818 0.0980159792016 0.0
0.0 4.291511049 0.0981169291449 0.0
0.0 4.292862281 0.0982186693864 0.0
0.0 4.294213512 0.0983212009107 0.0
0.0 4.295564744 0.0984245250081 0.0
0.0 4.296915975 0.0985286420618 0.0
0.0 4.298267206 0.0986335531475 0.0
0.0 4.299618438 0.098739260297 0.0
0.0 4.300969669 0.0988457640381 0.0
0.0 4.302320901 0.0989530654629 0.0
0.0 4.303672132 0.0990611655569 0.0
0.0 4.305023364 0.0991700655934 0.0
0.0 4.306374595 0.0992797665236 0.0
0.0 4.307725826 0.0993902692621 0.0
0.0 4.309077058 0.099501574977 0.0
0.0 4.310428289 0.0996136847278 0.0
0.0 4.311779521 0.0997265997498 0.0
0.0 4.313130752 0.0998403204773 0.0
0.0 4.314481984 0.0999548486359 0.0
0.0 4.315833215 0.1000701851 0.0
0.0 4.317184447 0.100186331028 0.0
0.0 4.318535678 0.100303287227 0.0
0.0 4.319886909 0.10042105498 0.0
0.0 4.321238141 0.100539635449 0.0
0.0 4.322589372 0.100659029473 0.0
0.0 4.323940604 0.100779237927 0.0
0.0 4.325291835 0.100900262169 0.0
0.0 4.326643067 0.101022103309 0.0
0.0 4.327994298 0.101144762059 0.0
0.0 4.32934553 0.101268239854 0.0
0.0 4.330696761 0.101392537635 0.0
0.0 4.332047992 0.101517656434 0.0
0.0 4.333399224 0.10164359744 0.0
0.0 4.334750455 0.101770361501 0.0
0.0 4.336101687 0.101897949889 0.0
0.0 4.337452918 0.102026363475 0.0
0.0 4.33880415 0.102155603915 0.0
0.0 4.340155381 0.102285671377 0.0
0.0 4.341506612 0.102416567436 0.0
0.0 4.342857844 0.102548292897 0.0
0.0 4.344209075 0.102680848483 0.0
0.0 4.345560307 0.102814235939 0.0
0.0 4.346911538 0.102948456343 0.0
0.0 4.34826277 0.103083510664 0.0
0.0 4.349614001 0.103219399635 0.0
0.0 4.350965233 0.10335612451 0.0
0.0 4.352316464 0.103493686425 0.0
0.0 4.353667695 0.103632086338 0.0
0.0 4.355018927 0.103771325245 0.0
0.0 4.356370158 0.1039114042 0.0
0.0 4.35772139 0.104052324625 0.0
0.0 4.359072621 0.104194087316 0.0
0.0 4.360423853 0.104336693404 0.0
0.0 4.361775084 0.104480143804 0.0
0.0 4.363126315 0.104624439692 0.0
0.0 4.364477547 0.104769582419 0.0
0.0 4.365828778 0.104915572313 0.0
0.0 4.36718001 0.105062411103 0.0
0.0 4.368531241 0.105210099585 0.0
0.0 4.369882473 0.105358638728 0.0
0.0 4.371233704 0.105508029479 0.0
0.0 4.372584936 0.105658273488 0.0
0.0 4.373936167 0.105809371439 0.0
0.0 4.375287398 0.105961324515 0.0
0.0 4.37663863 0.106114133495 0.0
0.0 4.377989861 0.10626779967 0.0
0.0 4.379341093 0.106422324373 0.0
0.0 4.380692324 0.10657770841 0.0
0.0 4.382043556 0.106733952076 0.0
0.0 4.383394787 0.106891057436 0.0
0.0 4.384746018 0.107049025439 0.0
0.0 4.38609725 0.10720785709 0.0
0.0 4.387448481 0.107367552822 0.0
0.0 4.388799713 0.107528114585 0.0
0.0 4.390150944 0.107689543228 0.0
0.0 4.391502176 0.107851839301 0.0
0.0 4.392853407 0.108015004063 0.0
0.0 4.394204639 0.108179039076 0.0
0.0 4.39555587 0.108343945323 0.0
0.0 4.396907101 0.108509723187 0.0
0.0 4.398258333 0.108676374148 0.0
0.0 4.399609564 0.10884389921 0.0
0.0 4.400960796 0.10901229991 0.0
0.0 4.402312027 0.109181576355 0.0
0.0 4.403663259 0.109351730286 0.0
0.0 4.40501449 0.109522762607 0.0
0.0 4.406365722 0.109694674794 0.0
0.0 4.407716953 0.109867467152 0.0
0.0 4.409068184 0.110041141064 0.0
0.0 4.410419416 0.110215697789 0.0
0.0 4.411770647 0.110391138144 0.0
0.0 4.413121879 0.110567463322 0.0
0.0 4.41447311 0.110744674185 0.0
0.0 4.415824342 0.110922772212 0.0
0.0 4.417175573 0.111101758183 0.0
0.0 4.418526804 0.111281632995 0.0
0.0 4.419878036 0.111462397839 0.0
0.0 4.421229267 0.111644053988 0.0
0.0 4.422580499 0.111826602443 0.0
0.0 4.42393173 0.112010044103 0.0
0.0 4.425282962 0.112194380067 0.0
0.0 4.426634193 0.112379611453 0.0
0.0 4.427985425 0.112565739463 0.0
0.0 4.429336656 0.112752764764 0.0
0.0 4.430687887 0.112940688362 0.0
0.0 4.432039119 0.113129512065 0.0
0.0 4.43339035 0.113319236532 0.0
0.0 4.434741582 0.113509862566 0.0
0.0 4.436092813 0.113701391233 0.0
0.0 4.437444045 0.113893824136 0.0
0.0 4.438795276 0.114087161875 0.0
0.0 4.440146507 0.1142814056 0.0
0.0 4.441497739 0.114476556575 0.0
0.0 4.44284897 0.114672615556 0.0
0.0 4.444200202 0.114869583909 0.0
0.0 4.445551433 0.115067462424 0.0
0.0 4.446902665 0.115266252363 0.0
0.0 4.448253896 0.115465954539 0.0
0.0 4.449605128 0.11566657039 0.0
0.0 4.450956359 0.115868100608 0.0
0.0 4.45230759 0.116070546317 0.0
0.0 4.453658822 0.116273908875 0.0
0.0 4.455010053 0.116478189027 0.0
0.0 4.456361285 0.116683388076 0.0
0.0 4.457712516 0.116889506784 0.0
0.0 4.459063748 0.117096546615 0.0
0.0 4.460414979 0.117304508313 0.0
0.0 4.461766211 0.117513393223 0.0
0.0 4.463117442 0.117723201634 0.0
0.0 4.464468673 0.117933935441 0.0
0.0 4.465819905 0.118145595647 0.0
0.0 4.467171136 0.118358182971 0.0
0.0 4.468522368 0.118571698786 0.0
0.0 4.469873599 0.118786143839 0.0
0.0 4.471224831 0.11900151955 0.0
0.0 4.472576062 0.11921782667 0.0
0.0 4.473927293 0.119435066263 0.0
0.0 4.475278525 0.119653239631 0.0
0.0 4.476629756 0.119872347701 0.0
0.0 4.477980988 0.120092391682 0.0
0.0 4.479332219 0.120313372228 0.0
0.0 4.480683451 0.120535290705 0.0
0.0 4.482034682 0.12075814809 0.0
0.0 4.483385914 0.120981945678 0.0
0.0 4.484737145 0.12120668419 0.0
0.0 4.486088376 0.121432364856 0.0
0.0 4.487439608 0.121658988897 0.0
0.0 4.488790839 0.1218865574 0.0
0.0 4.490142071 0.122115071041 0.0
0.0 4.491493302 0.122344530826 0.0
0.0 4.492844534 0.122574938235 0.0
0.0 4.494195765 0.122806294156 0.0
0.0 4.495546996 0.123038599588 0.0
0.0 4.496898228 0.123271855799 0.0
0.0 4.498249459 0.123506063506 0.0
0.0 4.499600691 0.123741224254 0.0
0.0 4.500951922 0.123977338749 0.0
0.0 4.502303154 0.124214408077 0.0
0.0 4.503654385 0.124452433255 0.0
0.0 4.505005617 0.124691415732 0.0
0.0 4.506356848 0.124931356085 0.0
0.0 4.507708079 0.12517225526 0.0
0.0 4.509059311 0.125414115097 0.0
0.0 4.510410542 0.125656936135 0.0
0.0 4.511761774 0.125900719711 0.0
0.0 4.513113005 0.126145466279 0.0
0.0 4.514464237 0.126391177475 0.0
0.0 4.515815468 0.126637854249 0.0
0.0 4.517166699 0.126885497445 0.0
0.0 4.518517931 0.127134108262 0.0
0.0 4.519869162 0.127383687603 0.0
0.0 4.521220394 0.12763423707 0.0
0.0 4.522571625 0.127885757378 0.0
0.0 4.523922857 0.128138249783 0.0
0.0 4.525274088 0.128391714632 0.0
0.0 4.52662532 0.128646153774 0.0
0.0 4.527976551 0.128901568033 0.0
0.0 4.529327782 0.129157958138 0.0
0.0 4.530679014 0.129415325587 0.0
0.0 4.532030245 0.129673671206 0.0
0.0 4.533381477 0.129932996714 0.0
0.0 4.534732708 0.130193302275 0.0
0.0 4.53608394 0.13045458916 0.0
0.0 4.537435171 0.130716858225 0.0
0.0 4.538786403 0.130980111378 0.0
0.0 4.540137634 0.131244349093 0.0
0.0 4.541488865 0.13150957227 0.0
0.0 4.542840097 0.131775782459 0.0
0.0 4.544191328 0.132042980226 0.0
0.0 4.54554256 0.132311167312 0.0
0.0 4.546893791 0.132580343812 0.0
0.0 4.548245023 0.132850511566 0.0
0.0 4.549596254 0.133121671295 0.0
0.0 4.550947485 0.133393824278 0.0
0.0 4.552298717 0.133666971628 0.0
0.0 4.553649948 0.133941113842 0.0
0.0 4.55500118 0.134216252793 0.0
0.0 4.556352411 0.134492389025 0.0
0.0 4.557703643 0.134769524198 0.0
0.0 4.559054874 0.135047657974 0.0
0.0 4.560406106 0.135326792567 0.0
0.0 4.561757337 0.135606928741 0.0
0.0 4.563108568 0.135888067634 0.0
0.0 4.5644598 0.136170210404 0.0
0.0 4.565811031 0.13645335777 0.0
0.0 4.567162263 0.136737511404 0.0
0.0 4.568513494 0.137022671734 0.0
0.0 4.569864726 0.137308840239 0.0
0.0 4.571215957 0.137596017576 0.0
0.0 4.572567188 0.137884205288 0.0
0.0 4.57391842 0.138173404819 0.0
0.0 4.575269651 0.138463615384 0.0
0.0 4.576620883 0.138754839805 0.0
0.0 4.577972114 0.139047078492 0.0
0.0 4.579323346 0.139340333135 0.0
0.0 4.580674577 0.139634604097 0.0
0.0 4.582025809 0.139929892669 0.0
0.0 4.58337704 0.140226199413 0.0
0.0 4.584728271 0.140523526142 0.0
0.0 4.586079503 0.140821874117 0.0
0.0 4.587430734 0.141121242684 0.0
0.0 4.588781966 0.141421634278 0.0
0.0 4.590133197 0.141723050212 0.0
0.0 4.591484429 0.142025491415 0.0
0.0 4.59283566 0.142328958462 0.0
0.0 4.594186891 0.142633452639 0.0
0.0 4.595538123 0.142938975238 0.0
0.0 4.596889354 0.143245526869 0.0
0.0 4.598240586 0.143553109315 0.0
0.0 4.599591817 0.143861722628 0.0
0.0 4.600943049 0.144171368616 0.0
0.0 4.60229428 0.144482047906 0.0
0.0 4.603645512 0.144793762059 0.0
0.0 4.604996743 0.145106511429 0.0
0.0 4.606347974 0.145420297462 0.0
0.0 4.607699206 0.145735121579 0.0
0.0 4.609050437 0.146050984269 0.0
0.0 4.610401669 0.146367887114 0.0
0.0 4.6117529 0.146685830674 0.0
0.0 4.613104132 0.147004816476 0.0
0.0 4.614455363 0.147324845109 0.0
0.0 4.615806595 0.147645918108 0.0
0.0 4.617157826 0.147968036061 0.0
0.0 4.618509057 0.148291200266 0.0
0.0 4.619860289 0.148615412038 0.0
0.0 4.62121152 0.148940672269 0.0
0.0 4.622562752 0.149266982075 0.0
0.0 4.623913983 0.149594341755 0.0
0.0 4.625265215 0.149922753089 0.0
0.0 4.626616446 0.150252217048 0.0
0.0 4.627967677 0.150582734775 0.0
0.0 4.629318909 0.150914307501 0.0
0.0 4.63067014 0.151246935794 0.0
0.0 4.632021372 0.151580621215 0.0
0.0 4.633372603 0.151915364408 0.0
0.0 4.634723835 0.152251166773 0.0
0.0 4.636075066 0.152588028881 0.0
0.0 4.637426298 0.15292595242 0.0
0.0 4.638777529 0.153264937911 0.0
0.0 4.64012876 0.153604986655 0.0
0.0 4.641479992 0.153946099965 0.0
0.0 4.642831223 0.154288278398 0.0
0.0 4.644182455 0.154631523524 0.0
0.0 4.645533686 0.154975835897 0.0
0.0 4.646884918 0.15532121709 0.0
0.0 4.648236149 0.15566766767 0.0
0.0 4.64958738 0.15601518896 0.0
0.0 4.650938612 0.156363782153 0.0
0.0 4.652289843 0.156713447961 0.0
0.0 4.653641075 0.157064187905 0.0
0.0 4.654992306 0.157416002527 0.0
0.0 4.656343538 0.157768893414 0.0
0.0 4.657694769 0.158122861092 0.0
0.0 4.659046001 0.158477907161 0.0
0.0 4.660397232 0.158834032154 0.0
0.0 4.661748463 0.159191237395 0.0
0.0 4.663099695 0.159549524213 0.0
0.0 4.664450926 0.159908893139 0.0
0.0 4.665802158 0.160269345768 0.0
0.0 4.667153389 0.160630882628 0.0
0.0 4.668504621 0.160993505316 0.0
0.0 4.669855852 0.161357214359 0.0
0.0 4.671207083 0.161722011087 0.0
0.0 4.672558315 0.162087896833 0.0
0.0 4.673909546 0.162454872119 0.0
0.0 4.675260778 0.162822938548 0.0
0.0 4.676612009 0.16319209664 0.0
0.0 4.677963241 0.163562348003 0.0
0.0 4.679314472 0.163933693151 0.0
0.0 4.680665704 0.164306133696 0.0
0.0 4.682016935 0.16467967015 0.0
0.0 4.683368166 0.165054303849 0.0
0.0 4.684719398 0.165430036135 0.0
0.0 4.686070629 0.165806867513 0.0
0.0 4.687421861 0.166184799605 0.0
0.0 4.688773092 0.166563832913 0.0
0.0 4.690124324 0.16694396906 0.0
0.0 4.691475555 0.167325208546 0.0
0.0 4.692826787 0.167707552997 0.0
0.0 4.694178018 0.168091002911 0.0
0.0 4.695529249 0.168475559631 0.0
0.0 4.696880481 0.168861224507 0.0
0.0 4.698231712 0.169247998029 0.0
0.0 4.699582944 0.169635881844 0.0
0.0 4.700934175 0.170024876565 0.0
0.0 4.702285407 0.170414983486 0.0
0.0 4.703636638 0.170806203318 0.0
0.0 4.704987869 0.171198537512 0.0
0.0 4.706339101 0.171591987301 0.0
0.0 4.707690332 0.171986553001 0.0
0.0 4.709041564 0.172382236442 0.0
0.0 4.710392795 0.172779038129 0.0
0.0 4.711744027 0.173176959693 0.0
0.0 4.713095258 0.173576001605 0.0
0.0 4.71444649 0.173976165441 0.0
0.0 4.715797721 0.174377451746 0.0
0.0 4.717148952 0.17477986186 0.0
0.0 4.718500184 0.175183397142 0.0
0.0 4.719851415 0.175588058054 0.0
0.0 4.721202647 0.175993846259 0.0
0.0 4.722553878 0.176400762217 0.0
0.0 4.72390511 0.176808807595 0.0
0.0 4.725256341 0.177217982849 0.0
0.0 4.726607572 0.177628289344 0.0
0.0 4.727958804 0.17803972845 0.0
0.0 4.729310035 0.17845230063 0.0
0.0 4.730661267 0.178866007539 0.0
0.0 4.732012498 0.179280849594 0.0
0.0 4.73336373 0.179696828537 0.0
0.0 4.734714961 0.180113944788 0.0
0.0 4.736066193 0.180532200034 0.0
0.0 4.737417424 0.180951594722 0.0
0.0 4.738768655 0.181372130168 0.0
0.0 4.740119887 0.181793807815 0.0
0.0 4.741471118 0.182216628078 0.0
0.0 4.74282235 0.182640592644 0.0
0.0 4.744173581 0.183065701948 0.0
0.0 4.745524813 0.183491957681 0.0
0.0 4.746876044 0.183919360276 0.0
0.0 4.748227276 0.184347911427 0.0
0.0 4.749578507 0.184777611581 0.0
0.0 4.750929738 0.185208462061 0.0
0.0 4.75228097 0.1856404643 0.0
0.0 4.753632201 0.186073618711 0.0
0.0 4.754983433 0.186507926994 0.0
0.0 4.756334664 0.186943389569 0.0
0.0 4.757685896 0.187380008146 0.0
0.0 4.759037127 0.187817783201 0.0
0.0 4.760388358 0.188256716119 0.0
0.0 4.76173959 0.188696808203 0.0
0.0 4.763090821 0.189138059728 0.0
0.0 4.764442053 0.189580472352 0.0
0.0 4.765793284 0.190024046959 0.0
0.0 4.767144516 0.190468785009 0.0
0.0 4.768495747 0.190914686905 0.0
0.0 4.769846979 0.191361754368 0.0
0.0 4.77119821 0.191809987796 0.0
0.0 4.772549441 0.192259388586 0.0
0.0 4.773900673 0.192709958133 0.0
0.0 4.775251904 0.193161696832 0.0
0.0 4.776603136 0.193614606415 0.0
0.0 4.777954367 0.194068687277 0.0
0.0 4.779305599 0.194523941195 0.0
0.0 4.78065683 0.194980368765 0.0
0.0 4.782008061 0.195437970659 0.0
0.0 4.783359293 0.195896748738 0.0
0.0 4.784710524 0.19635670357 0.0
0.0 4.786061756 0.196817836739 0.0
0.0 4.787412987 0.197280148614 0.0
0.0 4.788764219 0.19774364094 0.0
0.0 4.79011545 0.198208314096 0.0
0.0 4.791466682 0.198674169829 0.0
0.0 4.792817913 0.199141208516 0.0
0.0 4.794169144 0.199609431594 0.0
0.0 4.795520376 0.200078840395 0.0
0.0 4.796871607 0.200549435337 0.0
0.0 4.798222839 0.201021218175 0.0
0.0 4.79957407 0.201494189276 0.0
0.0 4.800925302 0.201968350387 0.0
0.0 4.802276533 0.202443701882 0.0
0.0 4.803627764 0.202920245179 0.0
0.0 4.804978996 0.203397981687 0.0
0.0 4.806330227 0.203876911767 0.0
0.0 4.807681459 0.204357037267 0.0
0.0 4.80903269 0.204838358359 0.0
0.0 4.810383922 0.205320876914 0.0
0.0 4.811735153 0.205804593275 0.0
0.0 4.813086385 0.206289509192 0.0
0.0 4.814437616 0.206775625081 0.0
0.0 4.815788847 0.207262942335 0.0
0.0 4.817140079 0.20775146237 0.0
0.0 4.81849131 0.208241185525 0.0
0.0 4.819842542 0.208732113587 0.0
0.0 4.821193773 0.20922424689 0.0
0.0 4.822545005 0.209717587228 0.0
0.0 4.823896236 0.210212134947 0.0
0.0 4.825247468 0.210707891953 0.0
0.0 4.826598699 0.211204858327 0.0
0.0 4.82794993 0.211703035484 0.0
0.0 4.829301162 0.212202425043 0.0
0.0 4.830652393 0.2127030273 0.0
0.0 4.832003625 0.21320484406 0.0
0.0 4.833354856 0.213707875616 0.0
0.0 4.834706088 0.214212123774 0.0
0.0 4.836057319 0.21471758885 0.0
0.0 4.83740855 0.215224272279 0.0
0.0 4.838759782 0.2157321755 0.0
0.0 4.840111013 0.216241298823 0.0
0.0 4.841462245 0.216751644064 0.0
0.0 4.842813476 0.217263211534 0.0
0.0 4.844164708 0.217776003063 0.0
0.0 4.845515939 0.218290018976 0.0
0.0 4.846867171 0.218805260939 0.0
0.0 4.848218402 0.219321729432 0.0
0.0 4.849569633 0.219839425846 0.0
0.0 4.850920865 0.220358351623 0.0
0.0 4.852272096 0.220878507062 0.0
0.0 4.853623328 0.221399893993 0.0
0.0 4.854974559 0.221922512676 0.0
0.0 4.856325791 0.222446364979 0.0
0.0 4.857677022 0.222971451192 0.0
0.0 4.859028253 0.223497772788 0.0
0.0 4.860379485 0.224025331141 0.0
0.0 4.861730716 0.224554126582 0.0
0.0 4.863081948 0.22508416097 0.0
0.0 4.864433179 0.22561543462 0.0
0.0 4.865784411 0.226147949308 0.0
0.0 4.867135642 0.226681705191 0.0
0.0 4.868486874 0.227216704337 0.0
0.0 4.869838105 0.227752946968 0.0
0.0 4.871189336 0.228290434513 0.0
0.0 4.872540568 0.228829168437 0.0
0.0 4.873891799 0.229369148903 0.0
0.0 4.875243031 0.229910377946 0.0
0.0 4.876594262 0.230452855733 0.0
0.0 4.877945494 0.230996584157 0.0
0.0 4.879296725 0.231541563495 0.0
0.0 4.880647956 0.23208779512 0.0
0.0 4.881999188 0.232635280589 0.0
0.0 4.883350419 0.233184020128 0.0
0.0 4.884701651 0.23373401561 0.0
0.0 4.886052882 0.234285267282 0.0
0.0 4.887404114 0.234837777024 0.0
0.0 4.888755345 0.235391545079 0.0
0.0 4.890106577 0.23594657333 0.0
0.0 4.891457808 0.236502862017 0.0
0.0 4.892809039 0.237060412616 0.0
0.0 4.894160271 0.237619226604 0.0
0.0 4.895511502 0.238179304207 0.0
0.0 4.896862734 0.238740647314 0.0
0.0 4.898213965 0.239303256236 0.0
0.0 4.899565197 0.239867132712 0.0
0.0 4.900916428 0.240432277037 0.0
0.0 4.90226766 0.240998691156 0.0
0.0 4.903618891 0.241566375273 0.0
0.0 4.904970122 0.242135330862 0.0
0.0 4.906321354 0.242705559403 0.0
0.0 4.907672585 0.243277061118 0.0
0.0 4.909023817 0.243849837915 0.0
0.0 4.910375048 0.24442389001 0.0
0.0 4.91172628 0.244999219327 0.0
0.0 4.913077511 0.245575826032 0.0
0.0 4.914428742 0.246153711657 0.0
0.0 4.915779974 0.246732877682 0.0
0.0 4.917131205 0.24731332431 0.0
0.0 4.918482437 0.247895053475 0.0
0.0 4.919833668 0.248478065366 0.0
0.0 4.9211849 0.249062361883 0.0
0.0 4.922536131 0.24964794325 0.0
0.0 4.923887363 0.250234811405 0.0
0.0 4.925238594 0.250822966533 0.0
0.0 4.926589825 0.251412410129 0.0
0.0 4.927941057 0.252003143692 0.0
0.0 4.929292288 0.252595167411 0.0
0.0 4.93064352 0.253188483249 0.0
0.0 4.931994751 0.253783091355 0.0
0.0 4.933345983 0.254378993643 0.0
0.0 4.934697214 0.254976190341 0.0
0.0 4.936048445 0.255574682958 0.0
0.0 4.937399677 0.256174472986 0.0
0.0 4.938750908 0.256775560603 0.0
0.0 4.94010214 0.257377947832 0.0
0.0 4.941453371 0.257981634664 0.0
0.0 4.942804603 0.258586623176 0.0
0.0 4.944155834 0.259192913549 0.0
0.0 4.945507066 0.259800507696 0.0
0.0 4.946858297 0.260409405744 0.0
0.0 4.948209528 0.261019609295 0.0
0.0 4.94956076 0.261631119838 0.0
0.0 4.950911991 0.26224393752 0.0
0.0 4.952263223 0.262858064309 0.0
0.0 4.953614454 0.263473500359 0.0
0.0 4.954965686 0.264090247642 0.0
0.0 4.956316917 0.264708306309 0.0
0.0 4.957668148 0.265327677877 0.0
0.0 4.95901938 0.265948363869 0.0
0.0 4.960370611 0.266570364428 0.0
0.0 4.961721843 0.267193681538 0.0
0.0 4.963073074 0.267818315338 0.0
0.0 4.964424306 0.268444267816 0.0
0.0 4.965775537 0.269071539139 0.0
0.0 4.967126769 0.269700131201 0.0
0.0 4.968478 0.270330044229 0.0
0.0 4.969829231 0.270961279731 0.0
0.0 4.971180463 0.271593839255 0.0
0.0 4.972531694 0.272227722913 0.0
0.0 4.973882926 0.272862932618 0.0
0.0 4.975234157 0.273499468595 0.0
0.0 4.976585389 0.274137332846 0.0
0.0 4.97793662 0.274776525485 0.0
0.0 4.979287852 0.2754170485 0.0
0.0 4.980639083 0.276058901948 0.0
0.0 4.981990314 0.276702087267 0.0
0.0 4.983341546 0.2773466062 0.0
0.0 4.984692777 0.277992458887 0.0
0.0 4.986044009 0.278639647278 0.0
0.0 4.98739524 0.279288171463 0.0
0.0 4.988746472 0.279938033466 0.0
0.0 4.990097703 0.280589233386 0.0
0.0 4.991448934 0.28124177277 0.0
0.0 4.992800166 0.281895653195 0.0
0.0 4.994151397 0.282550874688 0.0
0.0 4.995502629 0.283207439292 0.0
0.0 4.99685386 0.283865347121 0.0
0.0 4.998205092 0.284524600244 0.0
0.0 4.999556323 0.285185199071 0.0
0.0 5.000907555 0.285847144945 0.0
0.0 5.002258786 0.286510438274 0.0
0.0 5.003610017 0.287175080479 0.0
0.0 5.004961249 0.287841073362 0.0
0.0 5.00631248 0.288508417016 0.0
0.0 5.007663712 0.289177113164 0.0
0.0 5.009014943 0.289847162068 0.0
0.0 5.010366175 0.290518565801 0.0
0.0 5.011717406 0.291191324568 0.0
0.0 5.013068637 0.291865439796 0.0
0.0 5.014419869 0.292540913045 0.0
0.0 5.0157711 0.293217744376 0.0
0.0 5.017122332 0.293895935855 0.0
0.0 5.018473563 0.294575487539 0.0
0.0 5.019824795 0.295256401498 0.0
0.0 5.021176026 0.295938677784 0.0
0.0 5.022527258 0.296622318473 0.0
0.0 5.023878489 0.297307323623 0.0
0.0 5.02522972 0.297993694795 0.0
0.0 5.026580952 0.298681433572 0.0
0.0 5.027932183 0.299370540019 0.0
0.0 5.029283415 0.300061016169 0.0
0.0 5.030634646 0.300752862005 0.0
0.0 5.031985878 0.301446079675 0.0
0.0 5.033337109 0.302140669229 0.0
0.0 5.034688341 0.302836632708 0.0
0.0 5.036039572 0.303533970309 0.0
0.0 5.037390803 0.304232683378 0.0
0.0 5.038742035 0.304932773673 0.0
0.0 5.040093266 0.305634241156 0.0
0.0 5.041444498 0.306337087927 0.0
0.0 5.042795729 0.307041314026 0.0
0.0 5.044146961 0.307746921572 0.0
0.0 5.045498192 0.308453910493 0.0
0.0 5.046849423 0.309162282373 0.0
0.0 5.048200655 0.309872038916 0.0
0.0 5.049551886 0.310583180079 0.0
0.0 5.050903118 0.311295707973 0.0
0.0 5.052254349 0.312009622606 0.0
0.0 5.053605581 0.312724926097 0.0
0.0 5.054956812 0.31344161845 0.0
0.0 5.056308044 0.314159701787 0.0
0.0 5.057659275 0.314879176108 0.0
0.0 5.059010506 0.315600043007 0.0
0.0 5.060361738 0.316322304114 0.0
0.0 5.061712969 0.317045959395 0.0
0.0 5.063064201 0.317771011037 0.0
0.0 5.064415432 0.318497458775 0.0
0.0 5.065766664 0.319225305019 0.0
0.0 5.067117895 0.319954549661 0.0
0.0 5.068469126 0.320685194341 0.0
0.0 5.069820358 0.321417240658 0.0
0.0 5.071171589 0.322150688564 0.0
0.0 5.072522821 0.322885540199 0.0
0.0 5.073874052 0.323621795552 0.0
0.0 5.075225284 0.324359456791 0.0
0.0 5.076576515 0.325098523875 0.0
0.0 5.077927747 0.32583899899 0.0
0.0 5.079278978 0.326580882022 0.0
0.0 5.080630209 0.327324174633 0.0
0.0 5.081981441 0.328068878436 0.0
0.0 5.083332672 0.328814993395 0.0
0.0 5.084683904 0.32956252167 0.0
0.0 5.086035135 0.330311463217 0.0
0.0 5.087386367 0.331061820206 0.0
0.0 5.088737598 0.331813592589 0.0
0.0 5.090088829 0.332566781983 0.0
0.0 5.091440061 0.33332139001 0.0
0.0 5.092791292 0.334077416615 0.0
0.0 5.094142524 0.33483486398 0.0
0.0 5.095493755 0.335593732045 0.0
0.0 5.096844987 0.336354022996 0.0
0.0 5.098196218 0.33711573677 0.0
0.0 5.09954745 0.337878875564 0.0
