0.0 2.002074478 0.199473174241 0.0
0.0 2.00368257 0.199814378126 0.0
0.0 2.005290662 0.200154153694 0.0
0.0 2.006898754 0.200492502734 0.0
0.0 2.008506846 0.200829427038 0.0
0.0 2.010114938 0.201164928393 0.0
0.0 2.01172303 0.201499008592 0.0
0.0 2.013331122 0.201831669426 0.0
0.0 2.014939214 0.202162912682 0.0
0.0 2.016547306 0.20249274015 0.0
0.0 2.018155398 0.202821153625 0.0
0.0 2.01976349 0.203148154893 0.0
0.0 2.021371582 0.203473745747 0.0
0.0 2.022979674 0.203797927975 0.0
0.0 2.024587766 0.204120703372 0.0
0.0 2.026195858 0.204442073723 0.0
0.0 2.027803949 0.204762040625 0.0
0.0 2.029412041 0.205080606264 0.0
0.0 2.031020133 0.205397772231 0.0
0.0 2.032628225 0.205713540317 0.0
0.0 2.034236317 0.206027912313 0.0
0.0 2.035844409 0.206340890009 0.0
0.0 2.037452501 0.206652475196 0.0
0.0 2.039060593 0.206962669664 0.0
0.0 2.040668685 0.207271475205 0.0
0.0 2.042276777 0.207578893608 0.0
0.0 2.043884869 0.207884926665 0.0
0.0 2.045492961 0.208189576166 0.0
0.0 2.047101053 0.208492843901 0.0
0.0 2.048709145 0.208794731662 0.0
0.0 2.050317237 0.209095241239 0.0
0.0 2.051925329 0.209394374423 0.0
0.0 2.053533421 0.209692133004 0.0
0.0 2.055141513 0.209988518773 0.0
0.0 2.056749605 0.21028353352 0.0
0.0 2.058357697 0.210577179037 0.0
0.0 2.059965788 0.210869456933 0.0
0.0 2.06157388 0.21116036936 0.0
0.0 2.063181972 0.211449917929 0.0
0.0 2.064790064 0.211738104429 0.0
0.0 2.066398156 0.212024930651 0.0
0.0 2.068006248 0.212310398387 0.0
0.0 2.06961434 0.212594509426 0.0
0.0 2.071222432 0.212877265558 0.0
0.0 2.072830524 0.213158668578 0.0
0.0 2.074438616 0.213438720271 0.0
0.0 2.076046708 0.213717422432 0.0
0.0 2.0776548 0.213994776849 0.0
0.0 2.079262892 0.214270785316 0.0
0.0 2.080870984 0.21454544962 0.0
0.0 2.082479076 0.214818771552 0.0
0.0 2.084087168 0.215090752905 0.0
0.0 2.08569526 0.215361395467 0.0
0.0 2.087303352 0.215630701031 0.0
0.0 2.088911444 0.215898671388 0.0
0.0 2.090519536 0.216165308326 0.0
0.0 2.092127627 0.216430613473 0.0
0.0 2.093735719 0.21669458895 0.0
0.0 2.095343811 0.216957236385 0.0
0.0 2.096951903 0.21721855756 0.0
0.0 2.098559995 0.217478554271 0.0
0.0 2.100168087 0.217737228308 0.0
0.0 2.101776179 0.21799458146 0.0
0.0 2.103384271 0.218250615523 0.0
0.0 2.104992363 0.218505332286 0.0
0.0 2.106600455 0.218758733536 0.0
0.0 2.108208547 0.219010821061 0.0
0.0 2.109816639 0.219261596663 0.0
0.0 2.111424731 0.219511062134 0.0
0.0 2.113032823 0.219759219255 0.0
0.0 2.114640915 0.220006069808 0.0
0.0 2.116249007 0.220251615583 0.0
0.0 2.117857099 0.220495858376 0.0
0.0 2.119465191 0.220738799981 0.0
0.0 2.121073283 0.220980442186 0.0
0.0 2.122681375 0.221220786783 0.0
0.0 2.124289466 0.221459835415 0.0
0.0 2.125897558 0.221697590174 0.0
0.0 2.12750565 0.221934052703 0.0
0.0 2.129113742 0.222169224789 0.0
0.0 2.130721834 0.222403108224 0.0
0.0 2.132329926 0.222635704799 0.0
0.0 2.133938018 0.222867016315 0.0
0.0 2.13554611 0.223097044555 0.0
0.0 2.137154202 0.223325791306 0.0
0.0 2.138762294 0.223553258356 0.0
0.0 2.140370386 0.223779447496 0.0
0.0 2.141978478 0.22400436052 0.0
0.0 2.14358657 0.224227999218 0.0
0.0 2.145194662 0.224450365379 0.0
0.0 2.146802754 0.224671460782 0.0
0.0 2.148410846 0.224891287229 0.0
0.0 2.150018938 0.225109846514 0.0
0.0 2.15162703 0.225327140434 0.0
0.0 2.153235122 0.225543170774 0.0
0.0 2.154843214 0.22575793932 0.0
0.0 2.156451305 0.225971447729 0.0
0.0 2.158059397 0.226183698063 0.0
0.0 2.159667489 0.226394691977 0.0
0.0 2.161275581 0.226604431261 0.0
0.0 2.162883673 0.226812917698 0.0
0.0 2.164491765 0.227020153075 0.0
0.0 2.166099857 0.227226139194 0.0
0.0 2.167707949 0.227430877845 0.0
0.0 2.169316041 0.227634370823 0.0
0.0 2.170924133 0.227836619913 0.0
0.0 2.172532225 0.228037626908 0.0
0.0 2.174140317 0.228237393604 0.0
0.0 2.175748409 0.228435921795 0.0
0.0 2.177356501 0.228633213275 0.0
0.0 2.178964593 0.228829269819 0.0
0.0 2.180572685 0.229024093217 0.0
0.0 2.182180777 0.229217685264 0.0
0.0 2.183788869 0.229410047761 0.0
0.0 2.185396961 0.229601182494 0.0
0.0 2.187005053 0.229791091245 0.0
0.0 2.188613145 0.229979775804 0.0
0.0 2.190221236 0.230167237837 0.0
0.0 2.191829328 0.230353479389 0.0
0.0 2.19343742 0.230538502135 0.0
0.0 2.195045512 0.23072230786 0.0
0.0 2.196653604 0.23090489834 0.0
0.0 2.198261696 0.231086275364 0.0
0.0 2.199869788 0.23126644074 0.0
0.0 2.20147788 0.231445396279 0.0
0.0 2.203085972 0.231623143788 0.0
0.0 2.204694064 0.231799685029 0.0
0.0 2.206302156 0.231975021784 0.0
0.0 2.207910248 0.232149155855 0.0
0.0 2.20951834 0.232322089063 0.0
0.0 2.211126432 0.232493823214 0.0
0.0 2.212734524 0.23266436006 0.0
0.0 2.214342616 0.232833701351 0.0
0.0 2.215950708 0.233001848851 0.0
0.0 2.2175588 0.233168804449 0.0
0.0 2.219166892 0.233334569966 0.0
0.0 2.220774984 0.233499147193 0.0
0.0 2.222383075 0.233662537787 0.0
0.0 2.223991167 0.233824743652 0.0
0.0 2.225599259 0.233985766543 0.0
0.0 2.227207351 0.234145608301 0.0
0.0 2.228815443 0.234304270661 0.0
0.0 2.230423535 0.234461755283 0.0
0.0 2.232031627 0.234618063746 0.0
0.0 2.233639719 0.234773197942 0.0
0.0 2.235247811 0.234927159921 0.0
0.0 2.236855903 0.235079951642 0.0
0.0 2.238463995 0.235231574844 0.0
0.0 2.240072087 0.235382031111 0.0
0.0 2.241680179 0.235531322188 0.0
0.0 2.243288271 0.235679450155 0.0
0.0 2.244896363 0.235826417324 0.0
0.0 2.246504455 0.235972225428 0.0
0.0 2.248112547 0.23611687585 0.0
0.0 2.249720639 0.236260370342 0.0
0.0 2.251328731 0.236402710779 0.0
0.0 2.252936823 0.236543899092 0.0
0.0 2.254544914 0.236683937435 0.0
0.0 2.256153006 0.236822827566 0.0
0.0 2.257761098 0.236960570808 0.0
0.0 2.25936919 0.237097168312 0.0
0.0 2.260977282 0.237232621963 0.0
0.0 2.262585374 0.237366934288 0.0
0.0 2.264193466 0.237500107634 0.0
0.0 2.265801558 0.237632142692 0.0
0.0 2.26740965 0.237763038307 0.0
0.0 2.269017742 0.237892796083 0.0
0.0 2.270625834 0.238021420435 0.0
0.0 2.272233926 0.238148915292 0.0
0.0 2.273842018 0.238275281777 0.0
0.0 2.27545011 0.238400518828 0.0
0.0 2.277058202 0.238524628018 0.0
0.0 2.278666294 0.238647614053 0.0
0.0 2.280274386 0.238769481455 0.0
0.0 2.281882478 0.238890231816 0.0
0.0 2.28349057 0.239009864772 0.0
0.0 2.285098662 0.239128383377 0.0
0.0 2.286706753 0.239245782863 0.0
0.0 2.288314845 0.239362068326 0.0
0.0 2.289922937 0.239477243434 0.0
0.0 2.291531029 0.23959131072 0.0
0.0 2.293139121 0.239704272622 0.0
0.0 2.294747213 0.23981612634 0.0
0.0 2.296355305 0.239926871806 0.0
0.0 2.297963397 0.240036508956 0.0
0.0 2.299571489 0.240145057146 0.0
0.0 2.301179581 0.240252518426 0.0
0.0 2.302787673 0.240358885551 0.0
0.0 2.304395765 0.240464154196 0.0
0.0 2.306003857 0.240568325346 0.0
0.0 2.307611949 0.240671413225 0.0
0.0 2.309220041 0.240773423815 0.0
0.0 2.310828133 0.240874362647 0.0
0.0 2.312436225 0.240974227118 0.0
0.0 2.314044317 0.241073012519 0.0
0.0 2.315652409 0.241170717766 0.0
0.0 2.317260501 0.241267359961 0.0
0.0 2.318868592 0.241362949725 0.0
0.0 2.320476684 0.241457495851 0.0
0.0 2.322084776 0.24155101406 0.0
0.0 2.323692868 0.241643358785 0.0
0.0 2.32530096 0.241734552697 0.0
0.0 2.326909052 0.241824613925 0.0
0.0 2.328517144 0.241913677343 0.0
0.0 2.330125236 0.242001809085 0.0
0.0 2.331733328 0.242088825496 0.0
0.0 2.33334142 0.242174668409 0.0
0.0 2.334949512 0.242259303876 0.0
0.0 2.336557604 0.242343073699 0.0
0.0 2.338165696 0.242425840558 0.0
0.0 2.339773788 0.242507583696 0.0
0.0 2.34138188 0.24258822212 0.0
0.0 2.342989972 0.242667631528 0.0
0.0 2.344598064 0.242746036591 0.0
0.0 2.346206156 0.242823457162 0.0
0.0 2.347814248 0.24289991864 0.0
0.0 2.34942234 0.242975464113 0.0
0.0 2.351030431 0.243050164667 0.0
0.0 2.352638523 0.243123643353 0.0
0.0 2.354246615 0.243195838508 0.0
0.0 2.355854707 0.24326686796 0.0
0.0 2.357462799 0.243336942716 0.0
0.0 2.359070891 0.243406113106 0.0
0.0 2.360678983 0.243474299181 0.0
0.0 2.362287075 0.24354114896 0.0
0.0 2.363895167 0.243606658232 0.0
0.0 2.365503259 0.24367129244 0.0
0.0 2.367111351 0.243735216943 0.0
0.0 2.368719443 0.243798295952 0.0
0.0 2.370327535 0.243860305861 0.0
0.0 2.371935627 0.243921153962 0.0
0.0 2.373543719 0.243980888211 0.0
0.0 2.375151811 0.244039847378 0.0
0.0 2.376759903 0.244097893375 0.0
0.0 2.378367995 0.244154987297 0.0
0.0 2.379976087 0.244211119601 0.0
0.0 2.381584179 0.244266331126 0.0
0.0 2.383192271 0.2443202693 0.0
0.0 2.384800362 0.244372994509 0.0
0.0 2.386408454 0.244424596974 0.0
0.0 2.388016546 0.244475207154 0.0
0.0 2.389624638 0.244524896102 0.0
0.0 2.39123273 0.244574109335 0.0
0.0 2.392840822 0.24462207848 0.0
0.0 2.394448914 0.24466879008 0.0
0.0 2.396057006 0.244714744731 0.0
0.0 2.397665098 0.244760025689 0.0
0.0 2.39927319 0.244804561805 0.0
0.0 2.400881282 0.244847943328 0.0
0.0 2.402489374 0.244890061639 0.0
0.0 2.404097466 0.24493051278 0.0
0.0 2.405705558 0.244970094311 0.0
0.0 2.40731365 0.245008795855 0.0
0.0 2.408921742 0.245046560801 0.0
0.0 2.410529834 0.245083290382 0.0
0.0 2.412137926 0.245118992261 0.0
0.0 2.413746018 0.245153857412 0.0
0.0 2.41535411 0.245187640508 0.0
0.0 2.416962201 0.245220413172 0.0
0.0 2.418570293 0.245252237478 0.0
0.0 2.420178385 0.245283230276 0.0
0.0 2.421786477 0.245313487295 0.0
0.0 2.423394569 0.245342603399 0.0
0.0 2.425002661 0.245370435642 0.0
0.0 2.426610753 0.245397183585 0.0
0.0 2.428218845 0.245423295969 0.0
0.0 2.429826937 0.245448766522 0.0
0.0 2.431435029 0.245473894846 0.0
0.0 2.433043121 0.245497678302 0.0
0.0 2.434651213 0.245520053779 0.0
0.0 2.436259305 0.245541488665 0.0
0.0 2.437867397 0.245562229334 0.0
0.0 2.439475489 0.245582176311 0.0
0.0 2.441083581 0.245601171733 0.0
0.0 2.442691673 0.245619102199 0.0
0.0 2.444299765 0.245635592564 0.0
0.0 2.445907857 0.245651486635 0.0
0.0 2.447515949 0.245666568741 0.0
0.0 2.44912404 0.245680768487 0.0
0.0 2.450732132 0.245694077665 0.0
0.0 2.452340224 0.24570667986 0.0
0.0 2.453948316 0.245718699329 0.0
0.0 2.455556408 0.245729678515 0.0
0.0 2.4571645 0.24573927144 0.0
0.0 2.458772592 0.245747617982 0.0
0.0 2.460380684 0.245755127803 0.0
0.0 2.461988776 0.245761919875 0.0
0.0 2.463596868 0.245767933149 0.0
0.0 2.46520496 0.245772361593 0.0
0.0 2.466813052 0.24577529439 0.0
0.0 2.468421144 0.245777302789 0.0
0.0 2.470029236 0.245778780793 0.0
0.0 2.471637328 0.245779645896 0.0
0.0 2.47324542 0.245779773454 0.0
0.0 2.474853512 0.245778905103 0.0
0.0 2.476461604 0.245776931444 0.0
0.0 2.478069696 0.245774486686 0.0
0.0 2.479677788 0.245771173707 0.0
0.0 2.481285879 0.245766916464 0.0
0.0 2.482893971 0.245761658436 0.0
0.0 2.484502063 0.245755532775 0.0
0.0 2.486110155 0.245748464493 0.0
0.0 2.487718247 0.245740664884 0.0
0.0 2.489326339 0.24573146953 0.0
0.0 2.490934431 0.245721253674 0.0
0.0 2.492542523 0.245710271578 0.0
0.0 2.494150615 0.245698591644 0.0
0.0 2.495758707 0.245686280577 0.0
0.0 2.497366799 0.245673212044 0.0
0.0 2.498974891 0.245659147284 0.0
0.0 2.499778162 0.245651644902 0.0
0.0 2.501129393 0.245639377748 0.0
0.0 2.502480624 0.245626554812 0.0
0.0 2.503831856 0.245613265312 0.0
0.0 2.505183087 0.24559926928 0.0
0.0 2.506534319 0.245584311169 0.0
0.0 2.50788555 0.245568640745 0.0
0.0 2.509236782 0.245552076327 0.0
0.0 2.510588013 0.245534756125 0.0
0.0 2.511939244 0.245516776346 0.0
0.0 2.513290476 0.245498165962 0.0
0.0 2.514641707 0.245478527255 0.0
0.0 2.515992939 0.245458559711 0.0
0.0 2.51734417 0.245438494892 0.0
0.0 2.518695402 0.245417748339 0.0
0.0 2.520046633 0.245396512532 0.0
0.0 2.521397865 0.245374441679 0.0
0.0 2.522749096 0.245351655407 0.0
0.0 2.524100327 0.245328467211 0.0
0.0 2.525451559 0.245304816068 0.0
0.0 2.52680279 0.245280165149 0.0
0.0 2.528154022 0.245254879049 0.0
0.0 2.529505253 0.245228990756 0.0
0.0 2.530856485 0.245202607947 0.0
0.0 2.532207716 0.245176036126 0.0
0.0 2.533558948 0.245149162845 0.0
0.0 2.534910179 0.245121347096 0.0
0.0 2.53626141 0.245092989918 0.0
0.0 2.537612642 0.245064049019 0.0
0.0 2.538963873 0.24503431234 0.0
0.0 2.540315105 0.24500394422 0.0
0.0 2.541666336 0.244973186641 0.0
0.0 2.543017568 0.244942107315 0.0
0.0 2.544368799 0.244910144588 0.0
0.0 2.54572003 0.24487756514 0.0
0.0 2.547071262 0.244844160846 0.0
0.0 2.548422493 0.244810413117 0.0
0.0 2.549773725 0.244776449168 0.0
0.0 2.551124956 0.2447420507 0.0
0.0 2.552476188 0.24470721347 0.0
0.0 2.553827419 0.244671324418 0.0
0.0 2.555178651 0.244634633287 0.0
0.0 2.556529882 0.244597405602 0.0
0.0 2.557881113 0.244559592854 0.0
0.0 2.559232345 0.244521490164 0.0
0.0 2.560583576 0.244482024713 0.0
0.0 2.561934808 0.244441773772 0.0
0.0 2.563286039 0.244400749448 0.0
0.0 2.564637271 0.244359189849 0.0
0.0 2.565988502 0.244317099441 0.0
0.0 2.567339733 0.244274594057 0.0
0.0 2.568690965 0.244232201127 0.0
0.0 2.570042196 0.244188412488 0.0
0.0 2.571393428 0.244144536866 0.0
0.0 2.572744659 0.244100357323 0.0
0.0 2.574095891 0.244055194902 0.0
0.0 2.575447122 0.244009968689 0.0
0.0 2.576798354 0.243964025678 0.0
0.0 2.578149585 0.243917584533 0.0
0.0 2.579500816 0.243870398751 0.0
0.0 2.580852048 0.243823149257 0.0
0.0 2.582203279 0.243775124887 0.0
0.0 2.583554511 0.2437265705 0.0
0.0 2.584905742 0.243677470683 0.0
0.0 2.586256974 0.243627477287 0.0
0.0 2.587608205 0.243577285048 0.0
0.0 2.588959437 0.243526586426 0.0
0.0 2.590310668 0.243475067086 0.0
0.0 2.591661899 0.243423111042 0.0
0.0 2.593013131 0.243370793066 0.0
0.0 2.594364362 0.243317467972 0.0
0.0 2.595715594 0.243263927111 0.0
0.0 2.597066825 0.243209941158 0.0
0.0 2.598418057 0.243155518972 0.0
0.0 2.599769288 0.243100169148 0.0
0.0 2.601120519 0.243044606777 0.0
0.0 2.602471751 0.242988421306 0.0
0.0 2.603822982 0.242931936926 0.0
0.0 2.605174214 0.242874908769 0.0
0.0 2.606525445 0.242817085132 0.0
0.0 2.607876677 0.242758701947 0.0
0.0 2.609227908 0.242699577961 0.0
0.0 2.61057914 0.242640353751 0.0
0.0 2.611930371 0.242580482567 0.0
0.0 2.613281602 0.242519764403 0.0
0.0 2.614632834 0.242458191239 0.0
0.0 2.615984065 0.242396375525 0.0
0.0 2.617335297 0.242334302099 0.0
0.0 2.618686528 0.242271659879 0.0
0.0 2.62003776 0.242208605465 0.0
0.0 2.621388991 0.242144760172 0.0
0.0 2.622740222 0.242080370263 0.0
0.0 2.624091454 0.242015678601 0.0
0.0 2.625442685 0.241950472278 0.0
0.0 2.626793917 0.241884834253 0.0
0.0 2.628145148 0.241818646031 0.0
0.0 2.62949638 0.24175188609 0.0
0.0 2.630847611 0.241684413791 0.0
0.0 2.632198843 0.241616720209 0.0
0.0 2.633550074 0.241548369772 0.0
0.0 2.634901305 0.241479542616 0.0
0.0 2.636252537 0.241410196805 0.0
0.0 2.637603768 0.241340251515 0.0
0.0 2.638955 0.241269827906 0.0
0.0 2.640306231 0.241198848675 0.0
0.0 2.641657463 0.241127602328 0.0
0.0 2.643008694 0.241055613692 0.0
0.0 2.644359925 0.24098322197 0.0
0.0 2.645711157 0.240910326345 0.0
0.0 2.647062388 0.240836927453 0.0
0.0 2.64841362 0.240763025834 0.0
0.0 2.649764851 0.240688622312 0.0
0.0 2.651116083 0.240613796704 0.0
0.0 2.652467314 0.240538261603 0.0
0.0 2.653818546 0.240462352117 0.0
0.0 2.655169777 0.240385952889 0.0
0.0 2.656521008 0.240309066766 0.0
0.0 2.65787224 0.240231675604 0.0
0.0 2.659223471 0.240153790371 0.0
0.0 2.660574703 0.240075412311 0.0
0.0 2.661925934 0.23999646406 0.0
0.0 2.663277166 0.239917103115 0.0
0.0 2.664628397 0.239837252335 0.0
0.0 2.665979629 0.239756912661 0.0
0.0 2.66733086 0.239676075962 0.0
0.0 2.668682091 0.239594761878 0.0
0.0 2.670033323 0.239512962086 0.0
0.0 2.671384554 0.239430677767 0.0
0.0 2.672735786 0.239347909864 0.0
0.0 2.674087017 0.239264659567 0.0
0.0 2.675438249 0.239180927812 0.0
0.0 2.67678948 0.239096715783 0.0
0.0 2.678140711 0.239012024483 0.0
0.0 2.679491943 0.23892685491 0.0
0.0 2.680843174 0.238841208253 0.0
0.0 2.682194406 0.238755085446 0.0
0.0 2.683545637 0.238668487676 0.0
0.0 2.684896869 0.238581415887 0.0
0.0 2.6862481 0.238493871266 0.0
0.0 2.687599332 0.238405855854 0.0
0.0 2.688950563 0.238317368623 0.0
0.0 2.690301794 0.23822841168 0.0
0.0 2.691653026 0.238138986023 0.0
0.0 2.693004257 0.238049092839 0.0
0.0 2.694355489 0.237958733071 0.0
0.0 2.69570672 0.237867907907 0.0
0.0 2.697057952 0.237776618278 0.0
0.0 2.698409183 0.237684864271 0.0
0.0 2.699760414 0.237592649097 0.0
0.0 2.701111646 0.237499972644 0.0
0.0 2.702462877 0.237406836108 0.0
0.0 2.703814109 0.237313240418 0.0
0.0 2.70516534 0.237219186772 0.0
0.0 2.706516572 0.237124676093 0.0
0.0 2.707867803 0.237029709583 0.0
0.0 2.709219035 0.236934288163 0.0
0.0 2.710570266 0.236838413038 0.0
0.0 2.711921497 0.2367420852 0.0
0.0 2.713272729 0.236645305638 0.0
0.0 2.71462396 0.236548075556 0.0
0.0 2.715975192 0.236450395879 0.0
0.0 2.717326423 0.23635226781 0.0
0.0 2.718677655 0.236253692265 0.0
0.0 2.720028886 0.236154670454 0.0
0.0 2.721380117 0.236055203368 0.0
0.0 2.722731349 0.235955291993 0.0
0.0 2.72408258 0.235854937533 0.0
0.0 2.725433812 0.235754140912 0.0
0.0 2.726785043 0.235652903338 0.0
0.0 2.728136275 0.235551225723 0.0
0.0 2.729487506 0.235449109279 0.0
0.0 2.730838738 0.23534655492 0.0
0.0 2.732189969 0.235243563858 0.0
0.0 2.7335412 0.235140137076 0.0
0.0 2.734892432 0.235036275564 0.0
0.0 2.736243663 0.234931980541 0.0
0.0 2.737594895 0.234827252911 0.0
0.0 2.738946126 0.234722093891 0.0
0.0 2.740297358 0.23461650439 0.0
0.0 2.741648589 0.234510485627 0.0
0.0 2.742999821 0.234404038501 0.0
0.0 2.744351052 0.234297164236 0.0
0.0 2.745702283 0.234189863814 0.0
0.0 2.747053515 0.234082138224 0.0
0.0 2.748404746 0.233973988682 0.0
0.0 2.749755978 0.233865416092 0.0
0.0 2.751107209 0.233756421678 0.0
0.0 2.752458441 0.233647006336 0.0
0.0 2.753809672 0.233537171294 0.0
0.0 2.755160903 0.233426917537 0.0
0.0 2.756512135 0.233316246039 0.0
0.0 2.757863366 0.233205158029 0.0
0.0 2.759214598 0.233093654408 0.0
0.0 2.760565829 0.232981736404 0.0
0.0 2.761917061 0.232869404903 0.0
0.0 2.763268292 0.232756661144 0.0
0.0 2.764619524 0.23264350602 0.0
0.0 2.765970755 0.23252994076 0.0
0.0 2.767321986 0.232415966337 0.0
0.0 2.768673218 0.23230158374 0.0
0.0 2.770024449 0.232186794195 0.0
0.0 2.771375681 0.232071598589 0.0
0.0 2.772726912 0.231955998165 0.0
0.0 2.774078144 0.23183999381 0.0
0.0 2.775429375 0.231723586755 0.0
0.0 2.776780606 0.231606777979 0.0
0.0 2.778131838 0.231489568461 0.0
0.0 2.779483069 0.231371959437 0.0
0.0 2.780834301 0.231253951784 0.0
0.0 2.782185532 0.23113554675 0.0
0.0 2.783536764 0.231016745219 0.0
0.0 2.784887995 0.230897548429 0.0
0.0 2.786239227 0.230777957262 0.0
0.0 2.787590458 0.230657972965 0.0
0.0 2.788941689 0.23053759651 0.0
0.0 2.790292921 0.230416828865 0.0
0.0 2.791644152 0.230295671273 0.0
0.0 2.792995384 0.230174124622 0.0
0.0 2.794346615 0.230052190147 0.0
0.0 2.795697847 0.229929868734 0.0
0.0 2.797049078 0.229807161627 0.0
0.0 2.798400309 0.229684069799 0.0
0.0 2.799751541 0.229560594216 0.0
0.0 2.801102772 0.229436736124 0.0
0.0 2.802454004 0.229312496405 0.0
0.0 2.803805235 0.229187876302 0.0
0.0 2.805156467 0.229062876692 0.0
0.0 2.806507698 0.228937498829 0.0
0.0 2.80785893 0.228811743585 0.0
0.0 2.809210161 0.228685612208 0.0
0.0 2.810561392 0.228559105666 0.0
0.0 2.811912624 0.228432224934 0.0
0.0 2.813263855 0.228304971257 0.0
0.0 2.814615087 0.228177345509 0.0
0.0 2.815966318 0.228049348942 0.0
0.0 2.81731755 0.227920982431 0.0
0.0 2.818668781 0.22779224723 0.0
0.0 2.820020013 0.2276631442 0.0
0.0 2.821371244 0.227533674604 0.0
0.0 2.822722475 0.227403839407 0.0
0.0 2.824073707 0.227273639575 0.0
0.0 2.825424938 0.227143076363 0.0
0.0 2.82677617 0.227012150639 0.0
0.0 2.828127401 0.22688086366 0.0
0.0 2.829478633 0.226749216294 0.0
0.0 2.830829864 0.226617209797 0.0
0.0 2.832181095 0.226484845135 0.0
0.0 2.833532327 0.226352123272 0.0
0.0 2.834883558 0.226219045467 0.0
0.0 2.83623479 0.226085612585 0.0
0.0 2.837586021 0.225951825882 0.0
0.0 2.838937253 0.225817686231 0.0
0.0 2.840288484 0.225683194889 0.0
0.0 2.841639716 0.225548352722 0.0
0.0 2.842990947 0.225413160985 0.0
0.0 2.844342178 0.225277620644 0.0
0.0 2.84569341 0.225141732661 0.0
0.0 2.847044641 0.2250054983 0.0
0.0 2.848395873 0.22486891842 0.0
0.0 2.849747104 0.224731994287 0.0
0.0 2.851098336 0.224594726759 0.0
0.0 2.852449567 0.2244571171 0.0
0.0 2.853800798 0.224319166275 0.0
0.0 2.85515203 0.224180875244 0.0
0.0 2.856503261 0.224042245271 0.0
0.0 2.857854493 0.223903277215 0.0
0.0 2.859205724 0.223763972345 0.0
0.0 2.860556956 0.223624331513 0.0
0.0 2.861908187 0.223484355993 0.0
0.0 2.863259419 0.223344046639 0.0
0.0 2.86461065 0.223203404724 0.0
0.0 2.865961881 0.223062431202 0.0
0.0 2.867313113 0.22292112703 0.0
0.0 2.868664344 0.22277949348 0.0
0.0 2.870015576 0.222637531407 0.0
0.0 2.871366807 0.222495242082 0.0
0.0 2.872718039 0.222352626357 0.0
0.0 2.87406927 0.222209685504 0.0
0.0 2.875420501 0.222066420483 0.0
0.0 2.876771733 0.221922832248 0.0
0.0 2.878122964 0.221778922073 0.0
0.0 2.879474196 0.22163469081 0.0
0.0 2.880825427 0.221490139732 0.0
0.0 2.882176659 0.221345269688 0.0
0.0 2.88352789 0.221200081956 0.0
0.0 2.884879122 0.221054577383 0.0
0.0 2.886230353 0.220908757241 0.0
0.0 2.887581584 0.220762622495 0.0
0.0 2.888932816 0.220616174095 0.0
0.0 2.890284047 0.220469413318 0.0
0.0 2.891635279 0.220322341013 0.0
0.0 2.89298651 0.220174958461 0.0
0.0 2.894337742 0.220027268557 0.0
0.0 2.895688973 0.219879268468 0.0
0.0 2.897040205 0.219730961097 0.0
0.0 2.898391436 0.219582350362 0.0
0.0 2.899742667 0.219433605612 0.0
0.0 2.901093899 0.219284383393 0.0
0.0 2.90244513 0.219134861027 0.0
0.0 2.903796362 0.218985329474 0.0
0.0 2.905147593 0.218835372578 0.0
0.0 2.906498825 0.218685093995 0.0
0.0 2.907850056 0.218534366973 0.0
0.0 2.909201287 0.218383352922 0.0
0.0 2.910552519 0.21823214469 0.0
0.0 2.91190375 0.218080926309 0.0
0.0 2.913254982 0.21792962019 0.0
0.0 2.914606213 0.21777757908 0.0
0.0 2.915957445 0.217625332336 0.0
0.0 2.917308676 0.217472805167 0.0
0.0 2.918659908 0.21732019032 0.0
0.0 2.920011139 0.21716736491 0.0
0.0 2.92136237 0.217013965324 0.0
0.0 2.922713602 0.216860355245 0.0
0.0 2.924064833 0.216706105895 0.0
0.0 2.925416065 0.216551834348 0.0
0.0 2.926767296 0.216397267814 0.0
0.0 2.928118528 0.21624243554 0.0
0.0 2.929469759 0.216087330861 0.0
0.0 2.93082099 0.215932029433 0.0
0.0 2.932172222 0.21577641253 0.0
0.0 2.933523453 0.215620481153 0.0
0.0 2.934874685 0.215464210696 0.0
0.0 2.936225916 0.215307478896 0.0
0.0 2.937577148 0.215150876854 0.0
0.0 2.938928379 0.214993851739 0.0
0.0 2.940279611 0.214836464728 0.0
0.0 2.941630842 0.214678826745 0.0
0.0 2.942982073 0.214520859051 0.0
0.0 2.944333305 0.214362673374 0.0
0.0 2.945684536 0.214204546081 0.0
0.0 2.947035768 0.214046303793 0.0
0.0 2.948386999 0.213887693336 0.0
0.0 2.949738231 0.213729599173 0.0
0.0 2.951089462 0.213571463087 0.0
0.0 2.952440694 0.213412918473 0.0
0.0 2.953791925 0.213254119385 0.0
0.0 2.955143156 0.213095142271 0.0
0.0 2.956494388 0.2129362528 0.0
0.0 2.957845619 0.212776942672 0.0
0.0 2.959196851 0.212617498915 0.0
0.0 2.960548082 0.212457583961 0.0
0.0 2.961899314 0.21229798996 0.0
0.0 2.963250545 0.212138388663 0.0
0.0 2.964601776 0.21197889606 0.0
0.0 2.965953008 0.211819194527 0.0
0.0 2.967304239 0.21165945691 0.0
0.0 2.968655471 0.211500067768 0.0
0.0 2.970006702 0.211340344325 0.0
0.0 2.971357934 0.21118102063 0.0
0.0 2.972709165 0.211020889461 0.0
0.0 2.974060397 0.21086053477 0.0
0.0 2.975411628 0.210700039263 0.0
0.0 2.976762859 0.210539620141 0.0
0.0 2.978114091 0.210378957839 0.0
0.0 2.979465322 0.210218504641 0.0
0.0 2.980816554 0.210058426088 0.0
0.0 2.982167785 0.20989768286 0.0
0.0 2.983519017 0.209737350008 0.0
0.0 2.984870248 0.209577503817 0.0
0.0 2.986221479 0.209418314974 0.0
0.0 2.987572711 0.209259181781 0.0
0.0 2.988923942 0.209100476693 0.0
0.0 2.990275174 0.2089418084 0.0
0.0 2.991626405 0.208783211627 0.0
0.0 2.992977637 0.208625496802 0.0
0.0 2.994328868 0.208468479306 0.0
0.0 2.9956801 0.208311879081 0.0
0.0 2.997031331 0.208155087763 0.0
0.0 2.998382562 0.20799916178 0.0
0.0 2.999733794 0.207843874166 0.0
0.0 3.001085025 0.207688790237 0.0
0.0 3.002436257 0.207534437051 0.0
0.0 3.003787488 0.207380219828 0.0
0.0 3.00513872 0.207226023478 0.0
0.0 3.006489951 0.207073102095 0.0
0.0 3.007841182 0.206921877543 0.0
0.0 3.009192414 0.206771145048 0.0
0.0 3.010543645 0.206621004638 0.0
0.0 3.011894877 0.206472323609 0.0
0.0 3.013246108 0.206325271749 0.0
0.0 3.01459734 0.206179595606 0.0
0.0 3.015948571 0.206036413421 0.0
0.0 3.017299803 0.2058938742 0.0
0.0 3.018651034 0.205752702735 0.0
0.0 3.020002265 0.205613656644 0.0
0.0 3.021353497 0.205476648935 0.0
0.0 3.022704728 0.205341390446 0.0
0.0 3.02405596 0.205208044445 0.0
0.0 3.025407191 0.205076729478 0.0
0.0 3.026758423 0.204947459208 0.0
0.0 3.028109654 0.204821902207 0.0
0.0 3.029460886 0.204699985752 0.0
0.0 3.030812117 0.204581953029 0.0
0.0 3.032163348 0.204467679122 0.0
0.0 3.03351458 0.20435773964 0.0
0.0 3.034865811 0.204252292604 0.0
0.0 3.036217043 0.20415236731 0.0
0.0 3.037568274 0.204059164756 0.0
0.0 3.038919506 0.20397101743 0.0
0.0 3.040270737 0.203889305303 0.0
0.0 3.041621968 0.203816124567 0.0
0.0 3.0429732 0.203751359598 0.0
0.0 3.044324431 0.203695816728 0.0
0.0 3.045675663 0.203650274818 0.0
0.0 3.047026894 0.203615810396 0.0
0.0 3.048378126 0.203593382282 0.0
0.0 3.049729357 0.203584561967 0.0
0.0 3.051080589 0.203587390311 0.0
0.0 3.05243182 0.203605554583 0.0
0.0 3.053783051 0.203640580191 0.0
0.0 3.055134283 0.203694408284 0.0
0.0 3.056485514 0.203768692265 0.0
0.0 3.057836746 0.203865412834 0.0
0.0 3.059187977 0.20398708228 0.0
0.0 3.060539209 0.204137747148 0.0
0.0 3.06189044 0.204321827396 0.0
0.0 3.063241671 0.204538875958 0.0
0.0 3.064592903 0.20479296384 0.0
0.0 3.065944134 0.205094141838 0.0
0.0 3.067295366 0.205434540788 0.0
0.0 3.068646597 0.205828961134 0.0
0.0 3.069997829 0.206275876545 0.0
0.0 3.07134906 0.206773968366 0.0
0.0 3.072700292 0.207337445585 0.0
0.0 3.074051523 0.207971718277 0.0
0.0 3.075402754 0.208683907284 0.0
0.0 3.076753986 0.209480547998 0.0
0.0 3.078105217 0.210370495443 0.0
0.0 3.079456449 0.211362351586 0.0
0.0 3.08080768 0.212475108251 0.0
0.0 3.082158912 0.213717576521 0.0
0.0 3.083510143 0.21509557478 0.0
0.0 3.084861374 0.216621521141 0.0
0.0 3.086212606 0.218308331947 0.0
0.0 3.087563837 0.220169803654 0.0
0.0 3.088915069 0.222220047565 0.0
0.0 3.0902663 0.224476859272 0.0
0.0 3.091617532 0.226964022489 0.0
0.0 3.092968763 0.229691780652 0.0
0.0 3.094319995 0.232721358775 0.0
0.0 3.095671226 0.235986953251 0.0
0.0 3.097022457 0.2395486047 0.0
0.0 3.098373689 0.243426182065 0.0
0.0 3.09972492 0.247638159316 0.0
0.0 3.101076152 0.25217810184 0.0
0.0 3.102427383 0.257077729628 0.0
0.0 3.103778615 0.26235856693 0.0
0.0 3.105129846 0.268038376519 0.0
0.0 3.106481078 0.274127707141 0.0
0.0 3.107832309 0.280638400816 0.0
0.0 3.10918354 0.287576183081 0.0
0.0 3.110534772 0.294960212342 0.0
0.0 3.111886003 0.302799745787 0.0
0.0 3.113237235 0.311067237519 0.0
0.0 3.114588466 0.319751515812 0.0
0.0 3.115939698 0.32882601697 0.0
0.0 3.117290929 0.338268665885 0.0
0.0 3.11864216 0.348033013379 0.0
0.0 3.119993392 0.358081291915 0.0
0.0 3.121344623 0.368710209347 0.0
0.0 3.122695855 0.379325108964 0.0
0.0 3.124047086 0.390055946427 0.0
0.0 3.125398318 0.400826062154 0.0
0.0 3.126749549 0.411569504969 0.0
0.0 3.128100781 0.42219472386 0.0
0.0 3.129452012 0.432642396795 0.0
0.0 3.130803243 0.442769652616 0.0
0.0 3.132154475 0.452528985259 0.0
0.0 3.133505706 0.461893239501 0.0
0.0 3.134856938 0.470805385372 0.0
0.0 3.136208169 0.479230085571 0.0
0.0 3.137559401 0.487118359346 0.0
0.0 3.138910632 0.494463349072 0.0
0.0 3.140261863 0.501259605712 0.0
0.0 3.141613095 0.507584396606 0.0
0.0 3.142964326 0.513351829687 0.0
0.0 3.144315558 0.518568841806 0.0
0.0 3.145666789 0.523264918847 0.0
0.0 3.147018021 0.527460368675 0.0
0.0 3.148369252 0.531582713945 0.0
0.0 3.149720484 0.534868647319 0.0
0.0 3.151071715 0.537744247445 0.0
0.0 3.152422946 0.540251494994 0.0
0.0 3.153774178 0.542425438908 0.0
0.0 3.155125409 0.544306152102 0.0
0.0 3.156476641 0.5459252256 0.0
0.0 3.157827872 0.547319801896 0.0
0.0 3.159179104 0.548520445112 0.0
0.0 3.160530335 0.549533880612 0.0
0.0 3.161881566 0.550376812024 0.0
0.0 3.163232798 0.551102794883 0.0
0.0 3.164584029 0.551737655612 0.0
0.0 3.165935261 0.552298463222 0.0
0.0 3.167286492 0.552802954379 0.0
0.0 3.168637724 0.55326688798 0.0
0.0 3.169988955 0.553700573349 0.0
0.0 3.171340187 0.554347471315 0.0
0.0 3.172691418 0.555290991032 0.0
0.0 3.174042649 0.556067218471 0.0
0.0 3.175393881 0.556711614831 0.0
0.0 3.176745112 0.55736694875 0.0
0.0 3.178096344 0.558034454233 0.0
0.0 3.179447575 0.558718063175 0.0
0.0 3.180798807 0.559345080267 0.0
0.0 3.182150038 0.559938561798 0.0
0.0 3.18350127 0.560547688697 0.0
0.0 3.184852501 0.561174678114 0.0
0.0 3.186203732 0.5618168034 0.0
0.0 3.187554964 0.562473647664 0.0
0.0 3.188906195 0.563140701137 0.0
0.0 3.190257427 0.563819564035 0.0
0.0 3.191608658 0.564512655692 0.0
0.0 3.19295989 0.56521553146 0.0
0.0 3.194311121 0.565923736295 0.0
0.0 3.195662352 0.566635080506 0.0
0.0 3.197013584 0.567353303354 0.0
0.0 3.198364815 0.568518889366 0.0
0.0 3.199716047 0.569232508138 0.0
0.0 3.201067278 0.569904276597 0.0
0.0 3.20241851 0.570559672176 0.0
0.0 3.203769741 0.571208080828 0.0
0.0 3.205120973 0.571850689067 0.0
0.0 3.206472204 0.572485584956 0.0
0.0 3.207823435 0.573114250624 0.0
0.0 3.209174667 0.573733261945 0.0
0.0 3.210525898 0.574340715152 0.0
0.0 3.21187713 0.57493332407 0.0
0.0 3.213228361 0.575074883337 0.0
0.0 3.214579593 0.575651284015 0.0
0.0 3.215930824 0.576221110447 0.0
0.0 3.217282055 0.576782205659 0.0
0.0 3.218633287 0.577336640599 0.0
0.0 3.219984518 0.577882253064 0.0
0.0 3.22133575 0.578692899113 0.0
0.0 3.222686981 0.57965303507 0.0
0.0 3.224038213 0.580292291971 0.0
0.0 3.225389444 0.580926170269 0.0
0.0 3.226740676 0.581554692568 0.0
0.0 3.228091907 0.582178937271 0.0
0.0 3.229443138 0.582797447532 0.0
0.0 3.23079437 0.583281066711 0.0
0.0 3.232145601 0.583665839813 0.0
0.0 3.233496833 0.584048677838 0.0
0.0 3.234848064 0.58442594279 0.0
0.0 3.236199296 0.584800743354 0.0
0.0 3.237550527 0.585170398567 0.0
0.0 3.238901759 0.585537500623 0.0
0.0 3.24025299 0.585887650432 0.0
0.0 3.241604221 0.58618568594 0.0
0.0 3.242955453 0.586481402601 0.0
0.0 3.244306684 0.586922772895 0.0
0.0 3.245657916 0.587548653102 0.0
0.0 3.247009147 0.587831430832 0.0
0.0 3.248360379 0.588110279665 0.0
0.0 3.24971161 0.588384572697 0.0
0.0 3.251062841 0.588749306949 0.0
0.0 3.252414073 0.58913219955 0.0
0.0 3.253765304 0.589512425597 0.0
0.0 3.255116536 0.589887780779 0.0
0.0 3.256467767 0.5902634056 0.0
0.0 3.257818999 0.590637417008 0.0
0.0 3.25917023 0.591011438 0.0
0.0 3.260521462 0.591355687263 0.0
0.0 3.261872693 0.591655582309 0.0
0.0 3.263223924 0.591956719351 0.0
0.0 3.264575156 0.592257933743 0.0
0.0 3.265926387 0.592562174917 0.0
0.0 3.267277619 0.593004824956 0.0
0.0 3.26862885 0.593673189411 0.0
0.0 3.269980082 0.593982369792 0.0
0.0 3.271331313 0.594185402426 0.0
0.0 3.272682544 0.59439186597 0.0
0.0 3.274033776 0.594605404445 0.0
0.0 3.275385007 0.594824170235 0.0
0.0 3.276736239 0.595048521108 0.0
0.0 3.27808747 0.5952811016 0.0
0.0 3.279438702 0.595522648411 0.0
0.0 3.280789933 0.595776799997 0.0
0.0 3.282141165 0.596039325059 0.0
0.0 3.283492396 0.596313333854 0.0
0.0 3.284843627 0.596593635334 0.0
0.0 3.286194859 0.596886454365 0.0
0.0 3.28754609 0.597190088981 0.0
0.0 3.288897322 0.597507019248 0.0
0.0 3.290248553 0.598342875506 0.0
0.0 3.291599785 0.598684206667 0.0
0.0 3.292951016 0.59903811126 0.0
0.0 3.294302247 0.599401907701 0.0
0.0 3.295653479 0.599780438037 0.0
0.0 3.29700471 0.600169960164 0.0
0.0 3.298355942 0.600575173675 0.0
0.0 3.299707173 0.600989290388 0.0
0.0 3.301058405 0.601313308603 0.0
0.0 3.302409636 0.601619030969 0.0
0.0 3.303760868 0.601933835709 0.0
0.0 3.305112099 0.602260005138 0.0
0.0 3.30646333 0.60259509799 0.0
0.0 3.307814562 0.602941106923 0.0
0.0 3.309165793 0.603292841082 0.0
0.0 3.310517025 0.603630376143 0.0
0.0 3.311868256 0.604383655703 0.0
0.0 3.313219488 0.604765873873 0.0
0.0 3.314570719 0.605084816763 0.0
0.0 3.315921951 0.60540687153 0.0
0.0 3.317273182 0.605732523175 0.0
0.0 3.318624413 0.606056885451 0.0
0.0 3.319975645 0.606383787504 0.0
0.0 3.321326876 0.606664879473 0.0
0.0 3.322678108 0.606947259869 0.0
0.0 3.324029339 0.60722529992 0.0
0.0 3.325380571 0.607502682484 0.0
0.0 3.326731802 0.607777062806 0.0
0.0 3.328083033 0.608047160744 0.0
0.0 3.329434265 0.60831490213 0.0
0.0 3.330785496 0.608246427346 0.0
0.0 3.332136728 0.607937900362 0.0
0.0 3.333487959 0.607619883642 0.0
0.0 3.334839191 0.60773699576 0.0
0.0 3.336190422 0.607491450486 0.0
0.0 3.337541654 0.607156685741 0.0
0.0 3.338892885 0.606816901264 0.0
0.0 3.340244116 0.606256688047 0.0
0.0 3.341595348 0.604721453945 0.0
0.0 3.342946579 0.603174811462 0.0
0.0 3.344297811 0.601624169402 0.0
0.0 3.345649042 0.600065008042 0.0
0.0 3.347000274 0.598499226294 0.0
0.0 3.348351505 0.596923926311 0.0
0.0 3.349702736 0.595339611588 0.0
0.0 3.351053968 0.592191851471 0.0
0.0 3.352405199 0.588592967936 0.0
0.0 3.353756431 0.584987573818 0.0
0.0 3.355107662 0.581369693169 0.0
0.0 3.356458894 0.577744075287 0.0
0.0 3.357810125 0.574110325478 0.0
0.0 3.359161357 0.570468955184 0.0
0.0 3.360512588 0.568323843989 0.0
0.0 3.361863819 0.568630880583 0.0
0.0 3.363215051 0.568938583038 0.0
0.0 3.364566282 0.569242453159 0.0
0.0 3.365917514 0.569547670242 0.0
0.0 3.367268745 0.569851584953 0.0
0.0 3.368619977 0.570156098283 0.0
0.0 3.369971208 0.570463479945 0.0
0.0 3.371322439 0.574171901233 0.0
0.0 3.372673671 0.578281735099 0.0
0.0 3.374024902 0.582733425329 0.0
0.0 3.375376134 0.586540547178 0.0
0.0 3.376727365 0.590351809315 0.0
0.0 3.378078597 0.594168276795 0.0
0.0 3.379429828 0.597991371067 0.0
0.0 3.38078106 0.6002371862 0.0
0.0 3.382132291 0.60133527595 0.0
0.0 3.383483522 0.602433085761 0.0
0.0 3.384834754 0.603535584226 0.0
0.0 3.386185985 0.60463977366 0.0
0.0 3.387537217 0.605744514961 0.0
0.0 3.388888448 0.606849998808 0.0
0.0 3.39023968 0.607688198823 0.0
0.0 3.391590911 0.607312971409 0.0
0.0 3.392942143 0.606928143904 0.0
0.0 3.394293374 0.606537466136 0.0
0.0 3.395644605 0.606139014034 0.0
0.0 3.396995837 0.605731216239 0.0
0.0 3.398347068 0.605316225736 0.0
0.0 3.3996983 0.604890078137 0.0
0.0 3.401049531 0.604412436363 0.0
0.0 3.402400763 0.603912115061 0.0
0.0 3.403751994 0.603403747023 0.0
0.0 3.405103225 0.602888397891 0.0
0.0 3.406454457 0.60236443723 0.0
0.0 3.407805688 0.6018362247 0.0
0.0 3.40915692 0.601381184281 0.0
0.0 3.410508151 0.601355540389 0.0
0.0 3.411859383 0.600995543254 0.0
0.0 3.413210614 0.600628129686 0.0
0.0 3.414561846 0.600256998574 0.0
0.0 3.415913077 0.600339414666 0.0
0.0 3.417264308 0.600001525075 0.0
0.0 3.41861554 0.599613604761 0.0
0.0 3.419966771 0.599222824141 0.0
0.0 3.421318003 0.599195388683 0.0
0.0 3.422669234 0.599170377584 0.0
0.0 3.424020466 0.599144853773 0.0
0.0 3.425371697 0.599115696333 0.0
0.0 3.426722928 0.599087574437 0.0
0.0 3.42807416 0.599058381061 0.0
0.0 3.429425391 0.599028013972 0.0
0.0 3.430776623 0.598897652406 0.0
0.0 3.432127854 0.598686194236 0.0
0.0 3.433479086 0.598471330215 0.0
0.0 3.434830317 0.598249860586 0.0
0.0 3.436181549 0.5980246105 0.0
0.0 3.43753278 0.59779648503 0.0
0.0 3.438884011 0.597562833797 0.0
0.0 3.440235243 0.597294395983 0.0
0.0 3.441586474 0.596859622312 0.0
0.0 3.442937706 0.596428798121 0.0
0.0 3.444288937 0.59653044691 0.0
0.0 3.445640169 0.596106914057 0.0
0.0 3.4469914 0.59568798833 0.0
0.0 3.448342631 0.595441410831 0.0
0.0 3.449693863 0.595356456617 0.0
0.0 3.451045094 0.595145193591 0.0
0.0 3.452396326 0.594995193797 0.0
0.0 3.453747557 0.594849193198 0.0
0.0 3.455098789 0.594704407541 0.0
0.0 3.45645002 0.594565339339 0.0
0.0 3.457801252 0.594428882803 0.0
0.0 3.459152483 0.594296456309 0.0
0.0 3.460503714 0.594311410724 0.0
0.0 3.461854946 0.594566706545 0.0
0.0 3.463206177 0.594827707692 0.0
0.0 3.464557409 0.595090922944 0.0
0.0 3.46590864 0.59535708978 0.0
0.0 3.467259872 0.595626649375 0.0
0.0 3.468611103 0.595895547898 0.0
0.0 3.469962335 0.596167567468 0.0
0.0 3.471313566 0.59613322848 0.0
0.0 3.472664797 0.596092425787 0.0
0.0 3.474016029 0.596054679686 0.0
0.0 3.47536726 0.596018934343 0.0
0.0 3.476718492 0.59637081412 0.0
0.0 3.478069723 0.596492465379 0.0
0.0 3.479420955 0.59668402073 0.0
0.0 3.480772186 0.597142785258 0.0
0.0 3.482123417 0.597444900003 0.0
0.0 3.483474649 0.597751292306 0.0
0.0 3.48482588 0.598058051445 0.0
0.0 3.486177112 0.59836682451 0.0
0.0 3.487528343 0.598677190444 0.0
0.0 3.488879575 0.598987277392 0.0
0.0 3.490230806 0.599322749766 0.0
0.0 3.491582038 0.599770680885 0.0
0.0 3.492933269 0.600218525548 0.0
0.0 3.4942845 0.600666083068 0.0
0.0 3.495635732 0.601111145903 0.0
0.0 3.496986963 0.601557529523 0.0
0.0 3.498338195 0.602002575192 0.0
0.0 3.499689426 0.602449112001 0.0
0.0 3.501040658 0.602840824888 0.0
0.0 3.502391889 0.603213903958 0.0
0.0 3.50374312 0.603586680715 0.0
0.0 3.505094352 0.603956036296 0.0
0.0 3.506445583 0.604324728535 0.0
0.0 3.507796815 0.60512839216 0.0
0.0 3.509148046 0.605607342277 0.0
0.0 3.510499278 0.606265744843 0.0
0.0 3.511850509 0.606967730418 0.0
0.0 3.513201741 0.60740401855 0.0
0.0 3.514552972 0.607836643651 0.0
0.0 3.515904203 0.608264539383 0.0
0.0 3.517255435 0.608691836684 0.0
0.0 3.518606666 0.609117644781 0.0
0.0 3.519957898 0.609540197544 0.0
0.0 3.521309129 0.609887055981 0.0
0.0 3.522660361 0.610223079226 0.0
0.0 3.524011592 0.610558602492 0.0
0.0 3.525362824 0.610894913627 0.0
0.0 3.526714055 0.611231935624 0.0
0.0 3.528065286 0.611569105293 0.0
0.0 3.529416518 0.611901811661 0.0
0.0 3.530767749 0.612196152374 0.0
0.0 3.532118981 0.612461070643 0.0
0.0 3.533470212 0.612724826057 0.0
0.0 3.534821444 0.613450143568 0.0
0.0 3.536172675 0.613815305587 0.0
0.0 3.537523906 0.614080056069 0.0
0.0 3.538875138 0.614344401086 0.0
0.0 3.540226369 0.614582732444 0.0
0.0 3.541577601 0.614698024207 0.0
0.0 3.542928832 0.615312753414 0.0
0.0 3.544280064 0.615464984623 0.0
0.0 3.545631295 0.615578243304 0.0
0.0 3.546982527 0.615689641159 0.0
0.0 3.548333758 0.615802423209 0.0
0.0 3.549684989 0.615916687356 0.0
0.0 3.551036221 0.616014346156 0.0
0.0 3.552387452 0.61662779516 0.0
0.0 3.553738684 0.616699981658 0.0
0.0 3.555089915 0.616775542361 0.0
0.0 3.556441147 0.616853318326 0.0
0.0 3.557792378 0.616933315312 0.0
0.0 3.559143609 0.617017528742 0.0
0.0 3.560494841 0.617128155714 0.0
0.0 3.561846072 0.617282946337 0.0
0.0 3.563197304 0.617441338138 0.0
0.0 3.564548535 0.617602780641 0.0
0.0 3.565899767 0.617767959791 0.0
0.0 3.567250998 0.617936146673 0.0
0.0 3.56860223 0.618450273061 0.0
0.0 3.569953461 0.618851465398 0.0
0.0 3.571304692 0.618961243497 0.0
0.0 3.572655924 0.619069960269 0.0
0.0 3.574007155 0.619181875196 0.0
0.0 3.575358387 0.619296259432 0.0
0.0 3.576709618 0.619413349835 0.0
0.0 3.57806085 0.620081766937 0.0
0.0 3.579412081 0.620204922632 0.0
0.0 3.580763312 0.620294669333 0.0
0.0 3.582114544 0.620359358069 0.0
0.0 3.583465775 0.620427366933 0.0
0.0 3.584817007 0.620964115023 0.0
0.0 3.586168238 0.621137817052 0.0
0.0 3.58751947 0.621208040476 0.0
0.0 3.588870701 0.621278541446 0.0
0.0 3.590221933 0.621338625461 0.0
0.0 3.591573164 0.621344756394 0.0
0.0 3.592924395 0.621353006734 0.0
0.0 3.594275627 0.621362471114 0.0
0.0 3.595626858 0.621372453674 0.0
0.0 3.59697809 0.621383746953 0.0
0.0 3.598329321 0.621397164598 0.0
0.0 3.599680553 0.62141205227 0.0
0.0 3.601031784 0.621429842079 0.0
0.0 3.602383016 0.621449916906 0.0
0.0 3.603734247 0.621895153782 0.0
0.0 3.605085478 0.622072299925 0.0
0.0 3.60643671 0.622099386443 0.0
0.0 3.607787941 0.622127549615 0.0
0.0 3.609139173 0.622156130623 0.0
0.0 3.610490404 0.622163732695 0.0
0.0 3.611841636 0.622132658958 0.0
0.0 3.613192867 0.622100243076 0.0
0.0 3.614544098 0.622068189712 0.0
0.0 3.61589533 0.622037644254 0.0
0.0 3.617246561 0.62200807015 0.0
0.0 3.618597793 0.621980715495 0.0
0.0 3.619949024 0.622483119931 0.0
0.0 3.621300256 0.62247823112 0.0
0.0 3.622651487 0.622445450131 0.0
0.0 3.624002719 0.622413665859 0.0
0.0 3.62535395 0.622381588417 0.0
0.0 3.626705181 0.622347601384 0.0
0.0 3.628056413 0.622313109928 0.0
0.0 3.629407644 0.622277750432 0.0
0.0 3.630758876 0.622280415229 0.0
0.0 3.632110107 0.622313730357 0.0
0.0 3.633461339 0.622346987842 0.0
0.0 3.63481257 0.622379420181 0.0
0.0 3.636163801 0.622412672918 0.0
0.0 3.637515033 0.622446087627 0.0
0.0 3.638866264 0.622477667158 0.0
0.0 3.640217496 0.622518591556 0.0
0.0 3.641568727 0.622613960503 0.0
0.0 3.642919959 0.622709353896 0.0
0.0 3.64427119 0.622804519697 0.0
0.0 3.645622422 0.622898995367 0.0
0.0 3.646973653 0.622993759549 0.0
0.0 3.648324884 0.623086350243 0.0
0.0 3.649676116 0.623573542333 0.0
0.0 3.651027347 0.623910160398 0.0
0.0 3.652378579 0.624070212149 0.0
0.0 3.65372981 0.624226263505 0.0
0.0 3.655081042 0.62438042006 0.0
0.0 3.656432273 0.624530797645 0.0
0.0 3.657783504 0.624679080083 0.0
0.0 3.659134736 0.624826821401 0.0
0.0 3.660485967 0.624944891316 0.0
0.0 3.661837199 0.625015488675 0.0
0.0 3.66318843 0.625085254823 0.0
0.0 3.664539662 0.625151753376 0.0
0.0 3.665890893 0.625214674587 0.0
0.0 3.667242125 0.625272869521 0.0
0.0 3.668593356 0.625326990302 0.0
0.0 3.669944587 0.625912978926 0.0
0.0 3.671295819 0.626060998774 0.0
0.0 3.67264705 0.626178973419 0.0
0.0 3.673998282 0.62629428806 0.0
0.0 3.675349513 0.626406773952 0.0
0.0 3.676700745 0.626519533686 0.0
0.0 3.678051976 0.626628683452 0.0
0.0 3.679403208 0.626733939073 0.0
0.0 3.680754439 0.626836140245 0.0
0.0 3.68210567 0.626931715866 0.0
0.0 3.683456902 0.627024932962 0.0
0.0 3.684808133 0.627119596893 0.0
0.0 3.686159365 0.627210689543 0.0
0.0 3.687510596 0.627300236418 0.0
0.0 3.688861828 0.627392504627 0.0
0.0 3.690213059 0.627461153378 0.0
0.0 3.69156429 0.627412491056 0.0
0.0 3.692915522 0.627364486752 0.0
0.0 3.694266753 0.627906671355 0.0
0.0 3.695617985 0.62785446463 0.0
0.0 3.696969216 0.627803456725 0.0
0.0 3.698320448 0.627750707493 0.0
0.0 3.699671679 0.627698602599 0.0
0.0 3.701022911 0.627649076434 0.0
0.0 3.702374142 0.627600326459 0.0
0.0 3.703725373 0.627554606495 0.0
0.0 3.705076605 0.627510069105 0.0
0.0 3.706427836 0.627465881077 0.0
0.0 3.707779068 0.627422779973 0.0
0.0 3.709130299 0.627378167173 0.0
0.0 3.710481531 0.627357031352 0.0
0.0 3.711832762 0.6273799371 0.0
0.0 3.713183993 0.627403094078 0.0
0.0 3.714535225 0.627428652409 0.0
0.0 3.715886456 0.627455970201 0.0
0.0 3.717237688 0.627483566854 0.0
0.0 3.718588919 0.627513426911 0.0
0.0 3.719940151 0.627544569856 0.0
0.0 3.721291382 0.62757836321 0.0
0.0 3.722642614 0.627615041941 0.0
0.0 3.723993845 0.627651107083 0.0
0.0 3.725345076 0.627686254901 0.0
0.0 3.726696308 0.627722222894 0.0
0.0 3.728047539 0.627757245932 0.0
0.0 3.729398771 0.627793480879 0.0
0.0 3.730750002 0.62783452541 0.0
0.0 3.732101234 0.627876386251 0.0
0.0 3.733452465 0.627918476097 0.0
0.0 3.734803696 0.627960145457 0.0
0.0 3.736154928 0.628597531659 0.0
0.0 3.737506159 0.628634552896 0.0
0.0 3.738857391 0.628668462483 0.0
0.0 3.740208622 0.628805959868 0.0
0.0 3.741559854 0.629216070496 0.0
0.0 3.742911085 0.629165900083 0.0
0.0 3.744262317 0.629110231357 0.0
0.0 3.745613548 0.629052930572 0.0
0.0 3.746964779 0.628991925734 0.0
0.0 3.748316011 0.628926124219 0.0
0.0 3.749667242 0.628858135986 0.0
0.0 3.751018474 0.628782554158 0.0
0.0 3.752369705 0.628699100008 0.0
0.0 3.753720937 0.628610899492 0.0
0.0 3.755072168 0.628514895436 0.0
0.0 3.7564234 0.628412594257 0.0
0.0 3.757774631 0.6283070171 0.0
0.0 3.759125862 0.628194384559 0.0
0.0 3.760477094 0.628076977255 0.0
0.0 3.761828325 0.627958239989 0.0
0.0 3.763179557 0.627833026161 0.0
0.0 3.764530788 0.627702590062 0.0
0.0 3.76588202 0.627568451238 0.0
0.0 3.767233251 0.627426543525 0.0
0.0 3.768584482 0.627279018118 0.0
0.0 3.769935714 0.627127202728 0.0
0.0 3.771286945 0.626960705984 0.0
0.0 3.772638177 0.626789362393 0.0
0.0 3.773989408 0.62661528906 0.0
0.0 3.77534064 0.626435858704 0.0
0.0 3.776691871 0.62667033168 0.0
0.0 3.778043103 0.626672646099 0.0
0.0 3.779394334 0.626484719967 0.0
0.0 3.780745565 0.626340094763 0.0
0.0 3.782096797 0.626230271944 0.0
0.0 3.783448028 0.626116553214 0.0
0.0 3.78479926 0.626004345902 0.0
0.0 3.786150491 0.625893292465 0.0
0.0 3.787501723 0.625780086095 0.0
0.0 3.788852954 0.625669818128 0.0
0.0 3.790204185 0.625540314329 0.0
0.0 3.791555417 0.625289645099 0.0
0.0 3.792906648 0.625045390558 0.0
0.0 3.79425788 0.624805357746 0.0
0.0 3.795609111 0.624566360951 0.0
0.0 3.796960343 0.624334706889 0.0
0.0 3.798311574 0.624106937817 0.0
0.0 3.799662806 0.623881267794 0.0
0.0 3.801014037 0.623773753414 0.0
0.0 3.802365268 0.623707729863 0.0
0.0 3.8037165 0.623646132481 0.0
0.0 3.805067731 0.62359583877 0.0
0.0 3.806418963 0.623553083224 0.0
0.0 3.807770194 0.62351609376 0.0
0.0 3.809121426 0.623491896961 0.0
0.0 3.810472657 0.623449276105 0.0
0.0 3.811823889 0.623362785756 0.0
0.0 3.81317512 0.623288822932 0.0
0.0 3.814526351 0.623223227096 0.0
0.0 3.815877583 0.623164058205 0.0
0.0 3.817228814 0.623253790663 0.0
0.0 3.818580046 0.623676926716 0.0
0.0 3.819931277 0.623642866588 0.0
0.0 3.821282509 0.623627557421 0.0
0.0 3.82263374 0.623620346818 0.0
0.0 3.823984971 0.623618650868 0.0
0.0 3.825336203 0.62362602558 0.0
0.0 3.826687434 0.623637781572 0.0
0.0 3.828038666 0.623651259348 0.0
0.0 3.829389897 0.623672072516 0.0
0.0 3.830741129 0.623695260483 0.0
0.0 3.83209236 0.623718737227 0.0
0.0 3.833443592 0.623748624972 0.0
0.0 3.834794823 0.623778854853 0.0
0.0 3.836146054 0.623805601987 0.0
0.0 3.837497286 0.623833725326 0.0
0.0 3.838848517 0.624352536879 0.0
0.0 3.840199749 0.624460113511 0.0
0.0 3.84155098 0.624473998441 0.0
0.0 3.842902212 0.624481475537 0.0
0.0 3.844253443 0.624477826138 0.0
0.0 3.845604674 0.624469984121 0.0
0.0 3.846955906 0.624456080803 0.0
0.0 3.848307137 0.624430631821 0.0
0.0 3.849658369 0.624397988954 0.0
0.0 3.8510096 0.624350984047 0.0
0.0 3.852360832 0.624288010853 0.0
0.0 3.853712063 0.624215330823 0.0
0.0 3.855063295 0.624129622789 0.0
0.0 3.856414526 0.624025545081 0.0
0.0 3.857765757 0.624371661528 0.0
0.0 3.859116989 0.624380735363 0.0
0.0 3.86046822 0.624230152222 0.0
0.0 3.861819452 0.624068227232 0.0
0.0 3.863170683 0.623889949662 0.0
0.0 3.864521915 0.623691011449 0.0
0.0 3.865873146 0.623475749844 0.0
0.0 3.867224377 0.623245496413 0.0
0.0 3.868575609 0.622994325333 0.0
0.0 3.86992684 0.622727679223 0.0
0.0 3.871278072 0.622435241574 0.0
0.0 3.872629303 0.622121912309 0.0
0.0 3.873980535 0.621791802744 0.0
0.0 3.875331766 0.621447537816 0.0
0.0 3.876682998 0.621082793449 0.0
0.0 3.878034229 0.620702926133 0.0
0.0 3.87938546 0.620312345631 0.0
0.0 3.880736692 0.619913495672 0.0
0.0 3.882087923 0.619508476298 0.0
0.0 3.883439155 0.619094926039 0.0
0.0 3.884790386 0.618669797347 0.0
0.0 3.886141618 0.618235198378 0.0
0.0 3.887492849 0.617797159442 0.0
0.0 3.888844081 0.617350708533 0.0
0.0 3.890195312 0.616894313557 0.0
0.0 3.891546543 0.616430877509 0.0
0.0 3.892897775 0.615962247497 0.0
0.0 3.894249006 0.615488947673 0.0
0.0 3.895600238 0.615019012213 0.0
0.0 3.896951469 0.614547278402 0.0
0.0 3.898302701 0.614667803324 0.0
0.0 3.899653932 0.614195307584 0.0
0.0 3.901005163 0.613718489153 0.0
0.0 3.902356395 0.613238756147 0.0
0.0 3.903707626 0.612762202082 0.0
0.0 3.905058858 0.61228824529 0.0
0.0 3.906410089 0.61181036759 0.0
0.0 3.907761321 0.61133335847 0.0
0.0 3.909112552 0.610858372323 0.0
0.0 3.910463784 0.610381518062 0.0
0.0 3.911815015 0.609909937262 0.0
0.0 3.913166246 0.609434250711 0.0
0.0 3.914517478 0.609238841714 0.0
0.0 3.915868709 0.60900893579 0.0
0.0 3.917219941 0.608490021524 0.0
0.0 3.918571172 0.607949207738 0.0
0.0 3.919922404 0.607382365786 0.0
0.0 3.921273635 0.606791474812 0.0
0.0 3.922624866 0.606163878896 0.0
0.0 3.923976098 0.60549160474 0.0
0.0 3.925327329 0.604777806987 0.0
0.0 3.926678561 0.604010073404 0.0
0.0 3.928029792 0.603175050945 0.0
0.0 3.929381024 0.602269296212 0.0
0.0 3.930732255 0.601275760958 0.0
0.0 3.932083487 0.600184484104 0.0
0.0 3.933434718 0.598993919931 0.0
0.0 3.934785949 0.597692487493 0.0
0.0 3.936137181 0.596263166423 0.0
0.0 3.937488412 0.594978990854 0.0
0.0 3.938839644 0.593564089715 0.0
0.0 3.940190875 0.591703925039 0.0
0.0 3.941542107 0.589733354965 0.0
0.0 3.942893338 0.587578354819 0.0
0.0 3.944244569 0.585218116089 0.0
0.0 3.945595801 0.582640853111 0.0
0.0 3.946947032 0.579836470172 0.0
0.0 3.948298264 0.576788373829 0.0
0.0 3.949649495 0.573480907424 0.0
0.0 3.951000727 0.56984995634 0.0
0.0 3.952351958 0.56592026963 0.0
0.0 3.95370319 0.561699021508 0.0
0.0 3.955054421 0.557183366349 0.0
0.0 3.956405652 0.55235958915 0.0
0.0 3.957756884 0.547215326583 0.0
0.0 3.959108115 0.541748444631 0.0
0.0 3.960459347 0.535957928985 0.0
0.0 3.961810578 0.529839443247 0.0
0.0 3.96316181 0.523388839809 0.0
0.0 3.964513041 0.516612919823 0.0
0.0 3.965864273 0.509512503686 0.0
0.0 3.967215504 0.502095587867 0.0
0.0 3.968566735 0.49437178319 0.0
0.0 3.969917967 0.486748129238 0.0
0.0 3.971269198 0.478474579361 0.0
0.0 3.97262043 0.469898405186 0.0
0.0 3.973971661 0.461072890481 0.0
0.0 3.975322893 0.452014438274 0.0
0.0 3.976674124 0.442747120695 0.0
0.0 3.978025355 0.433689602809 0.0
0.0 3.979376587 0.424070734199 0.0
0.0 3.980727818 0.414313438813 0.0
0.0 3.98207905 0.404448437186 0.0
0.0 3.983430281 0.394504649766 0.0
0.0 3.984781513 0.384510659019 0.0
0.0 3.986132744 0.374497209986 0.0
0.0 3.987483976 0.364491465543 0.0
0.0 3.988835207 0.354517680144 0.0
0.0 3.990186438 0.344609318896 0.0
0.0 3.99153767 0.33479013086 0.0
0.0 3.992888901 0.325081206957 0.0
0.0 3.994240133 0.315507532461 0.0
0.0 3.995591364 0.306090864217 0.0
0.0 3.996942596 0.296849164948 0.0
0.0 3.998293827 0.287799909981 0.0
0.0 3.999645058 0.278961445951 0.0
0.0 4.00099629 0.270343977861 0.0
0.0 4.002347521 0.261962528672 0.0
0.0 4.003698753 0.253830712054 0.0
0.0 4.005049984 0.245954706164 0.0
0.0 4.006401216 0.238339099139 0.0
0.0 4.007752447 0.230989019136 0.0
0.0 4.009103679 0.223908288031 0.0
0.0 4.01045491 0.217102518384 0.0
0.0 4.011806141 0.210575537171 0.0
0.0 4.013157373 0.204317498923 0.0
0.0 4.014508604 0.198324336108 0.0
0.0 4.015859836 0.192592736936 0.0
0.0 4.017211067 0.187119145258 0.0
0.0 4.018562299 0.181955888334 0.0
0.0 4.01991353 0.177019434045 0.0
0.0 4.021264761 0.172356601563 0.0
0.0 4.022615993 0.167834513315 0.0
0.0 4.023967224 0.163539623252 0.0
0.0 4.025318456 0.159464171313 0.0
0.0 4.026669687 0.155600332069 0.0
0.0 4.028020919 0.151939465999 0.0
0.0 4.02937215 0.148473065998 0.0
0.0 4.030723382 0.14519345671 0.0
0.0 4.032074613 0.142093045464 0.0
0.0 4.033425844 0.13916257943 0.0
0.0 4.034777076 0.13639478902 0.0
0.0 4.036128307 0.13378269208 0.0
0.0 4.037479539 0.13131862303 0.0
0.0 4.03883077 0.128994987749 0.0
0.0 4.040182002 0.126805486682 0.0
0.0 4.041533233 0.124746378842 0.0
0.0 4.042884465 0.122805641284 0.0
0.0 4.044235696 0.120977708856 0.0
0.0 4.045586927 0.11925653729 0.0
0.0 4.046938159 0.117635644967 0.0
0.0 4.04828939 0.116109311679 0.0
0.0 4.049640622 0.114672883265 0.0
0.0 4.050991853 0.113319124591 0.0
0.0 4.052343085 0.112043965036 0.0
0.0 4.053694316 0.110844425701 0.0
0.0 4.055045547 0.109716466804 0.0
0.0 4.056396779 0.108655690097 0.0
0.0 4.05774801 0.10765778034 0.0
0.0 4.059099242 0.106719088703 0.0
0.0 4.060450473 0.105843429918 0.0
0.0 4.061801705 0.105020812225 0.0
0.0 4.063152936 0.1042392648 0.0
0.0 4.064504168 0.103504298751 0.0
0.0 4.065855399 0.102812345171 0.0
0.0 4.06720663 0.102160776613 0.0
0.0 4.068557862 0.101548163019 0.0
0.0 4.069909093 0.100971937467 0.0
0.0 4.071260325 0.100430423785 0.0
0.0 4.072611556 0.0999262754942 0.0
0.0 4.073962788 0.0994490479355 0.0
0.0 4.075314019 0.0989963456466 0.0
0.0 4.07666525 0.0985709725332 0.0
0.0 4.078016482 0.0981715722042 0.0
0.0 4.079367713 0.0977950291735 0.0
0.0 4.080718945 0.0974393965727 0.0
0.0 4.082070176 0.097104141768 0.0
0.0 4.083421408 0.0967887111179 0.0
0.0 4.084772639 0.0964917435306 0.0
0.0 4.086123871 0.0962122665515 0.0
0.0 4.087475102 0.095948742382 0.0
0.0 4.088826333 0.0956996875571 0.0
0.0 4.090177565 0.0954654034609 0.0
0.0 4.091528796 0.0952457366819 0.0
0.0 4.092880028 0.0950396020312 0.0
0.0 4.094231259 0.0948449073324 0.0
0.0 4.095582491 0.0946612901865 0.0
0.0 4.096933722 0.0944881943023 0.0
0.0 4.098284953 0.0943252044122 0.0
0.0 4.099636185 0.0941721245214 0.0
0.0 4.100987416 0.0940280109589 0.0
0.0 4.102338648 0.0938916697624 0.0
0.0 4.103689879 0.09376451374 0.0
0.0 4.105041111 0.0936442713052 0.0
0.0 4.106392342 0.0935307381322 0.0
0.0 4.107743574 0.0934239167754 0.0
0.0 4.109094805 0.0933233241662 0.0
0.0 4.110446036 0.0932293679141 0.0
0.0 4.111797268 0.0931412118817 0.0
0.0 4.113148499 0.0930583985035 0.0
0.0 4.114499731 0.0929809185557 0.0
0.0 4.115850962 0.0929082823477 0.0
0.0 4.117202194 0.0928400864007 0.0
0.0 4.118553425 0.0927776542023 0.0
0.0 4.119904657 0.0927199113196 0.0
0.0 4.121255888 0.0926651038142 0.0
0.0 4.122607119 0.092613961662 0.0
0.0 4.123958351 0.092566869088 0.0
0.0 4.125309582 0.0925240981069 0.0
0.0 4.126660814 0.0924847777516 0.0
0.0 4.128012045 0.0924487848119 0.0
0.0 4.129363277 0.0924156483287 0.0
0.0 4.130714508 0.0923849973448 0.0
0.0 4.132065739 0.0923571383546 0.0
0.0 4.133416971 0.0923326393003 0.0
0.0 4.134768202 0.0923107261109 0.0
0.0 4.136119434 0.0922903653512 0.0
0.0 4.137470665 0.092272022456 0.0
0.0 4.138821897 0.0922560500662 0.0
0.0 4.140173128 0.0922421478157 0.0
0.0 4.14152436 0.0922299087661 0.0
0.0 4.142875591 0.0922196744346 0.0
0.0 4.144226822 0.0922113480298 0.0
0.0 4.145578054 0.0922054204725 0.0
0.0 4.146929285 0.0922022993867 0.0
0.0 4.148280517 0.0922028188242 0.0
0.0 4.149631748 0.0922043798578 0.0
0.0 4.15098298 0.0922074710854 0.0
0.0 4.152334211 0.0922126137299 0.0
0.0 4.153685442 0.0922195466505 0.0
0.0 4.155036674 0.0922272800786 0.0
0.0 4.156387905 0.0922359772761 0.0
0.0 4.157739137 0.0922462475917 0.0
0.0 4.159090368 0.0922577274054 0.0
0.0 4.1604416 0.092270656036 0.0
0.0 4.161792831 0.0922846909083 0.0
0.0 4.163144063 0.0922998010712 0.0
0.0 4.164495294 0.0923158139065 0.0
0.0 4.165846525 0.0923335727031 0.0
0.0 4.167197757 0.0923531702798 0.0
0.0 4.168548988 0.0923741619034 0.0
0.0 4.16990022 0.0923957153569 0.0
0.0 4.171251451 0.0924186030059 0.0
0.0 4.172602683 0.0924433924055 0.0
0.0 4.173953914 0.0924696529794 0.0
0.0 4.175305146 0.0924971047225 0.0
0.0 4.176656377 0.0925260092296 0.0
0.0 4.178007608 0.0925560503949 0.0
0.0 4.17935884 0.0925866975392 0.0
0.0 4.180710071 0.0926184937198 0.0
0.0 4.182061303 0.092651378406 0.0
0.0 4.183412534 0.0926850139083 0.0
0.0 4.184763766 0.0927194287638 0.0
0.0 4.186114997 0.0927552789661 0.0
0.0 4.187466228 0.092792235997 0.0
0.0 4.18881746 0.092829674897 0.0
0.0 4.190168691 0.092867605702 0.0
0.0 4.191519923 0.0929068533337 0.0
0.0 4.192871154 0.0929472690742 0.0
0.0 4.194222386 0.0929888034001 0.0
0.0 4.195573617 0.0930306960203 0.0
0.0 4.196924849 0.0930734692628 0.0
0.0 4.19827608 0.0931167488613 0.0
0.0 4.199627311 0.0931609375056 0.0
0.0 4.200978543 0.0932063259907 0.0
0.0 4.202329774 0.0932526689552 0.0
0.0 4.203681006 0.0932997039183 0.0
0.0 4.205032237 0.0933476948625 0.0
0.0 4.206383469 0.09339703867 0.0
0.0 4.2077347 0.0934472701492 0.0
0.0 4.209085931 0.0934981552776 0.0
0.0 4.210437163 0.0935502398219 0.0
0.0 4.211788394 0.0936036954454 0.0
0.0 4.213139626 0.0936580493536 0.0
0.0 4.214490857 0.0937131226476 0.0
0.0 4.215842089 0.093768887187 0.0
0.0 4.21719332 0.0938253450477 0.0
0.0 4.218544552 0.0938823664467 0.0
0.0 4.219895783 0.0939404235556 0.0
0.0 4.221247014 0.0939994378909 0.0
0.0 4.222598246 0.0940589299281 0.0
0.0 4.223949477 0.0941187328856 0.0
0.0 4.225300709 0.0941795074378 0.0
0.0 4.22665194 0.094241496301 0.0
0.0 4.228003172 0.0943045909436 0.0
0.0 4.229354403 0.0943686580468 0.0
0.0 4.230705634 0.0944335215497 0.0
0.0 4.232056866 0.0944986048887 0.0
0.0 4.233408097 0.0945637611217 0.0
0.0 4.234759329 0.0946298935446 0.0
0.0 4.23611056 0.0946974027481 0.0
0.0 4.237461792 0.0947657937592 0.0
0.0 4.238813023 0.0948345367915 0.0
0.0 4.240164255 0.0949038517972 0.0
0.0 4.241515486 0.0949743386647 0.0
0.0 4.242866717 0.09504608617 0.0
0.0 4.244217949 0.0951192669374 0.0
0.0 4.24556918 0.095193640981 0.0
0.0 4.246920412 0.0952689312595 0.0
0.0 4.248271643 0.0953445753717 0.0
0.0 4.249622875 0.0954206151657 0.0
0.0 4.250974106 0.0954971933329 0.0
0.0 4.252325338 0.0955742862437 0.0
0.0 4.253676569 0.0956518830753 0.0
0.0 4.2550278 0.0957302815558 0.0
0.0 4.256379032 0.0958093519667 0.0
0.0 4.257730263 0.0958888275017 0.0
0.0 4.259081495 0.0959690603098 0.0
0.0 4.260432726 0.0960505955136 0.0
0.0 4.261783958 0.0961334167674 0.0
0.0 4.263135189 0.0962171524404 0.0
0.0 4.26448642 0.0963018986927 0.0
0.0 4.265837652 0.0963879749837 0.0
0.0 4.267188883 0.0964752456263 0.0
0.0 4.268540115 0.0965635103385 0.0
0.0 4.269891346 0.0966527370577 0.0
0.0 4.271242578 0.0967426315433 0.0
0.0 4.272593809 0.0968327802416 0.0
0.0 4.273945041 0.096922997172 0.0
0.0 4.275296272 0.0970135220687 0.0
0.0 4.276647503 0.0971044895538 0.0
0.0 4.277998735 0.0971956408418 0.0
0.0 4.279349966 0.0972871299004 0.0
0.0 4.280701198 0.0973797353657 0.0
0.0 4.282052429 0.0974738762501 0.0
0.0 4.283403661 0.0975693193041 0.0
0.0 4.284754892 0.0976662586047 0.0
0.0 4.286106123 0.0977647074331 0.0
0.0 4.287457355 0.0978642037249 0.0
0.0 4.288808586 0.0979643610046 0.0
0.0 4.290159818 0.0980650664856 0.0
0.0 4.291511049 0.0981660771069 0.0
0.0 4.292862281 0.0982670642334 0.0
0.0 4.294213512 0.0983683651527 0.0
0.0 4.295564744 0.0984701821591 0.0
0.0 4.296915975 0.0985727021378 0.0
0.0 4.298267206 0.0986758206825 0.0
0.0 4.299618438 0.098779820343 0.0
0.0 4.300969669 0.0988849896941 0.0
0.0 4.302320901 0.0989914117959 0.0
0.0 4.303672132 0.0990991489359 0.0
0.0 4.305023364 0.0992079696484 0.0
0.0 4.306374595 0.0993178649186 0.0
0.0 4.307725826 0.0994285599791 0.0
0.0 4.309077058 0.099539746396 0.0
0.0 4.310428289 0.0996517038878 0.0
0.0 4.311779521 0.0997646628928 0.0
0.0 4.313130752 0.0998785902173 0.0
0.0 4.314481984 0.0999930937769 0.0
0.0 4.315833215 0.100108501806 0.0
0.0 4.317184447 0.100224865098 0.0
0.0 4.318535678 0.100342223818 0.0
0.0 4.319886909 0.100460371895 0.0
0.0 4.321238141 0.100579327186 0.0
0.0 4.322589372 0.100698953133 0.0
0.0 4.323940604 0.100818874008 0.0
0.0 4.325291835 0.100939292999 0.0
0.0 4.326643067 0.101060388689 0.0
0.0 4.327994298 0.1011820327 0.0
0.0 4.32934553 0.101304198184 0.0
0.0 4.330696761 0.101427113944 0.0
0.0 4.332047992 0.10155103229 0.0
0.0 4.333399224 0.101675901446 0.0
0.0 4.334750455 0.101802081471 0.0
0.0 4.336101687 0.101929412316 0.0
0.0 4.337452918 0.102058081925 0.0
0.0 4.33880415 0.102187980737 0.0
0.0 4.340155381 0.102318664581 0.0
0.0 4.341506612 0.102449887377 0.0
0.0 4.342857844 0.102581896586 0.0
0.0 4.344209075 0.102714694936 0.0
0.0 4.345560307 0.102848228519 0.0
0.0 4.346911538 0.102982240136 0.0
0.0 4.34826277 0.103116469787 0.0
0.0 4.349614001 0.103250960455 0.0
0.0 4.350965233 0.103386509013 0.0
0.0 4.352316464 0.103523393133 0.0
0.0 4.353667695 0.103661387978 0.0
0.0 4.355018927 0.103800405397 0.0
0.0 4.356370158 0.103940204125 0.0
0.0 4.35772139 0.104081084396 0.0
0.0 4.359072621 0.104223146437 0.0
0.0 4.360423853 0.104366548298 0.0
0.0 4.361775084 0.104510413444 0.0
0.0 4.363126315 0.104654791711 0.0
0.0 4.364477547 0.104799636585 0.0
0.0 4.365828778 0.104945306569 0.0
0.0 4.36718001 0.105091772732 0.0
0.0 4.368531241 0.105239532276 0.0
0.0 4.369882473 0.105388581954 0.0
0.0 4.371233704 0.105538741081 0.0
0.0 4.372584936 0.105689351543 0.0
0.0 4.373936167 0.105840660477 0.0
0.0 4.375287398 0.105992889487 0.0
0.0 4.37663863 0.106146183853 0.0
0.0 4.377989861 0.106300226364 0.0
0.0 4.379341093 0.106454805913 0.0
0.0 4.380692324 0.106609684349 0.0
0.0 4.382043556 0.106764896736 0.0
0.0 4.383394787 0.10692144305 0.0
0.0 4.384746018 0.107079410488 0.0
0.0 4.38609725 0.107238450602 0.0
0.0 4.387448481 0.107397973257 0.0
0.0 4.388799713 0.107558324511 0.0
0.0 4.390150944 0.107719470591 0.0
0.0 4.391502176 0.107881612959 0.0
0.0 4.392853407 0.108044484719 0.0
0.0 4.394204639 0.10820804264 0.0
0.0 4.39555587 0.108372282228 0.0
0.0 4.396907101 0.1085375577 0.0
0.0 4.398258333 0.108703947204 0.0
0.0 4.399609564 0.108871493003 0.0
0.0 4.400960796 0.109039890709 0.0
0.0 4.402312027 0.1092090722 0.0
0.0 4.403663259 0.109379349408 0.0
0.0 4.40501449 0.109550335551 0.0
0.0 4.406365722 0.109721925514 0.0
0.0 4.407716953 0.10989418526 0.0
0.0 4.409068184 0.110067112156 0.0
0.0 4.410419416 0.110240925332 0.0
0.0 4.411770647 0.110415982741 0.0
0.0 4.413121879 0.110592356816 0.0
0.0 4.41447311 0.110769689101 0.0
0.0 4.415824342 0.11094805399 0.0
0.0 4.417175573 0.111127562991 0.0
0.0 4.418526804 0.111307883174 0.0
0.0 4.419878036 0.111489188418 0.0
0.0 4.421229267 0.111670956636 0.0
0.0 4.422580499 0.111853135247 0.0
0.0 4.42393173 0.11203574154 0.0
0.0 4.425282962 0.112219275054 0.0
0.0 4.426634193 0.112403932853 0.0
0.0 4.427985425 0.112589881965 0.0
0.0 4.429336656 0.112777037127 0.0
0.0 4.430687887 0.112965318318 0.0
0.0 4.432039119 0.113154941165 0.0
0.0 4.43339035 0.113345850328 0.0
0.0 4.434741582 0.113537941294 0.0
0.0 4.436092813 0.113730713341 0.0
0.0 4.437444045 0.11392438754 0.0
0.0 4.438795276 0.114118761038 0.0
0.0 4.440146507 0.114313931996 0.0
0.0 4.441497739 0.114509291085 0.0
0.0 4.44284897 0.114704895153 0.0
0.0 4.444200202 0.114900635599 0.0
0.0 4.445551433 0.115097270773 0.0
0.0 4.446902665 0.115295011092 0.0
0.0 4.448253896 0.11549379715 0.0
0.0 4.449605128 0.115693491701 0.0
0.0 4.450956359 0.115894233484 0.0
0.0 4.45230759 0.116096704201 0.0
0.0 4.453658822 0.116300886006 0.0
0.0 4.455010053 0.116506786206 0.0
0.0 4.456361285 0.116713639968 0.0
0.0 4.457712516 0.116921556305 0.0
0.0 4.459063748 0.117129940468 0.0
0.0 4.460414979 0.117338992345 0.0
0.0 4.461766211 0.117548473255 0.0
0.0 4.463117442 0.11775870573 0.0
0.0 4.464468673 0.117969611388 0.0
0.0 4.465819905 0.118181206351 0.0
0.0 4.467171136 0.118393465381 0.0
0.0 4.468522368 0.11860658974 0.0
0.0 4.469873599 0.118821198193 0.0
0.0 4.471224831 0.119037132067 0.0
0.0 4.472576062 0.119254352299 0.0
0.0 4.473927293 0.11947215586 0.0
0.0 4.475278525 0.119690690274 0.0
0.0 4.476629756 0.119909789542 0.0
0.0 4.477980988 0.120130073029 0.0
0.0 4.479332219 0.120351441961 0.0
0.0 4.480683451 0.120573883066 0.0
0.0 4.482034682 0.120796617824 0.0
0.0 4.483385914 0.121019667169 0.0
0.0 4.484737145 0.121243581414 0.0
0.0 4.486088376 0.121468797832 0.0
0.0 4.487439608 0.121695456067 0.0
0.0 4.488790839 0.121922764289 0.0
0.0 4.490142071 0.122150637337 0.0
0.0 4.491493302 0.122378977234 0.0
0.0 4.492844534 0.122608546632 0.0
0.0 4.494195765 0.122839227769 0.0
0.0 4.495546996 0.123071197356 0.0
0.0 4.496898228 0.123304188402 0.0
0.0 4.498249459 0.123538181323 0.0
0.0 4.499600691 0.123773080206 0.0
0.0 4.500951922 0.124008781181 0.0
0.0 4.502303154 0.124245502437 0.0
0.0 4.503654385 0.124483125707 0.0
0.0 4.505005617 0.124721932082 0.0
0.0 4.506356848 0.124961727536 0.0
0.0 4.507708079 0.125202591163 0.0
0.0 4.509059311 0.125444384397 0.0
0.0 4.510410542 0.125687232644 0.0
0.0 4.511761774 0.125931600287 0.0
0.0 4.513113005 0.126177427347 0.0
0.0 4.514464237 0.126424652893 0.0
0.0 4.515815468 0.126672383544 0.0
0.0 4.517166699 0.126920872905 0.0
0.0 4.518517931 0.127170177274 0.0
0.0 4.519869162 0.127420702706 0.0
0.0 4.521220394 0.127671687914 0.0
0.0 4.522571625 0.127922793984 0.0
0.0 4.523922857 0.128174228182 0.0
0.0 4.525274088 0.128426501225 0.0
0.0 4.52662532 0.128680117772 0.0
0.0 4.527976551 0.128934530042 0.0
0.0 4.529327782 0.129190003432 0.0
0.0 4.530679014 0.129446305926 0.0
0.0 4.532030245 0.129704114469 0.0
0.0 4.533381477 0.129963000285 0.0
0.0 4.534732708 0.130223100743 0.0
0.0 4.53608394 0.13048430972 0.0
0.0 4.537435171 0.13074647504 0.0
0.0 4.538786403 0.131009580703 0.0
0.0 4.540137634 0.131273289849 0.0
0.0 4.541488865 0.131538089507 0.0
0.0 4.542840097 0.131803779256 0.0
0.0 4.544191328 0.132070623263 0.0
0.0 4.54554256 0.132338374213 0.0
0.0 4.546893791 0.13260725391 0.0
0.0 4.548245023 0.132877414866 0.0
0.0 4.549596254 0.13314849483 0.0
0.0 4.550947485 0.13342049337 0.0
0.0 4.552298717 0.133693240269 0.0
0.0 4.553649948 0.133967330744 0.0
0.0 4.55500118 0.134242283215 0.0
0.0 4.556352411 0.134518124018 0.0
0.0 4.557703643 0.134794727174 0.0
0.0 4.559054874 0.135072479688 0.0
0.0 4.560406106 0.135351514739 0.0
0.0 4.561757337 0.135631453182 0.0
0.0 4.563108568 0.135912290362 0.0
0.0 4.5644598 0.136193895809 0.0
0.0 4.565811031 0.136476902895 0.0
0.0 4.567162263 0.136760907964 0.0
0.0 4.568513494 0.13704593131 0.0
0.0 4.569864726 0.137331782086 0.0
0.0 4.571215957 0.137618567147 0.0
0.0 4.572567188 0.137906382141 0.0
0.0 4.57391842 0.138194835684 0.0
0.0 4.575269651 0.138484103627 0.0
0.0 4.576620883 0.138774368229 0.0
0.0 4.577972114 0.139065873006 0.0
0.0 4.579323346 0.139358305285 0.0
0.0 4.580674577 0.139651884415 0.0
0.0 4.582025809 0.139947131565 0.0
0.0 4.58337704 0.14024342524 0.0
0.0 4.584728271 0.140540595448 0.0
0.0 4.586079503 0.140838326501 0.0
0.0 4.587430734 0.141137222975 0.0
0.0 4.588781966 0.141437508964 0.0
0.0 4.590133197 0.141739288612 0.0
0.0 4.591484429 0.142041960709 0.0
0.0 4.59283566 0.142345309343 0.0
0.0 4.594186891 0.142650358398 0.0
0.0 4.595538123 0.142956890246 0.0
0.0 4.596889354 0.143264976217 0.0
0.0 4.598240586 0.143573739653 0.0
0.0 4.599591817 0.143883335304 0.0
0.0 4.600943049 0.144193562267 0.0
0.0 4.60229428 0.144504465091 0.0
0.0 4.603645512 0.144816362421 0.0
0.0 4.604996743 0.145129238159 0.0
0.0 4.606347974 0.145443799504 0.0
0.0 4.607699206 0.145759159657 0.0
0.0 4.609050437 0.146075296116 0.0
0.0 4.610401669 0.146392011557 0.0
0.0 4.6117529 0.146709661547 0.0
0.0 4.613104132 0.147028296751 0.0
0.0 4.614455363 0.147347262939 0.0
0.0 4.615806595 0.147666916491 0.0
0.0 4.617157826 0.147987218312 0.0
0.0 4.618509057 0.148309195585 0.0
0.0 4.619860289 0.148632487115 0.0
0.0 4.62121152 0.148956970518 0.0
0.0 4.622562752 0.149282769551 0.0
0.0 4.623913983 0.149609786845 0.0
0.0 4.625265215 0.149938054559 0.0
0.0 4.626616446 0.150266903071 0.0
0.0 4.627967677 0.150596785278 0.0
0.0 4.629318909 0.15092795577 0.0
0.0 4.63067014 0.151260712904 0.0
0.0 4.632021372 0.151594753257 0.0
0.0 4.633372603 0.151929563658 0.0
0.0 4.634723835 0.152265789919 0.0
0.0 4.636075066 0.152603525011 0.0
0.0 4.637426298 0.152942757136 0.0
0.0 4.638777529 0.153282593381 0.0
0.0 4.64012876 0.15362292148 0.0
0.0 4.641479992 0.15396404453 0.0
0.0 4.642831223 0.154305862286 0.0
0.0 4.644182455 0.154648647501 0.0
0.0 4.645533686 0.154992066091 0.0
0.0 4.646884918 0.155336675188 0.0
0.0 4.648236149 0.155682733396 0.0
0.0 4.64958738 0.156030108232 0.0
0.0 4.650938612 0.156378604443 0.0
0.0 4.652289843 0.156728156214 0.0
0.0 4.653641075 0.157079583378 0.0
0.0 4.654992306 0.157432428288 0.0
0.0 4.656343538 0.157786422043 0.0
0.0 4.657694769 0.158141127193 0.0
0.0 4.659046001 0.158496609484 0.0
0.0 4.660397232 0.158853438057 0.0
0.0 4.661748463 0.159210801629 0.0
0.0 4.663099695 0.159568924099 0.0
0.0 4.664450926 0.159927472571 0.0
0.0 4.665802158 0.160287076575 0.0
0.0 4.667153389 0.160647962777 0.0
0.0 4.668504621 0.161009774187 0.0
0.0 4.669855852 0.161372767798 0.0
0.0 4.671207083 0.161736964652 0.0
0.0 4.672558315 0.16210316144 0.0
0.0 4.673909546 0.162470516802 0.0
0.0 4.675260778 0.162838735878 0.0
0.0 4.676612009 0.163207785686 0.0
0.0 4.677963241 0.1635778416 0.0
0.0 4.679314472 0.163949383233 0.0
0.0 4.680665704 0.164322105063 0.0
0.0 4.682016935 0.164696055281 0.0
0.0 4.683368166 0.165071389914 0.0
0.0 4.684719398 0.165447935085 0.0
0.0 4.686070629 0.165825655821 0.0
0.0 4.687421861 0.166204171007 0.0
0.0 4.688773092 0.166583901505 0.0
0.0 4.690124324 0.166964997025 0.0
0.0 4.691475555 0.16734719001 0.0
0.0 4.692826787 0.167730217687 0.0
0.0 4.694178018 0.168113715037 0.0
0.0 4.695529249 0.168498416995 0.0
0.0 4.696880481 0.168884254584 0.0
0.0 4.698231712 0.169271092582 0.0
0.0 4.699582944 0.16965824303 0.0
0.0 4.700934175 0.170045821936 0.0
0.0 4.702285407 0.170434522624 0.0
0.0 4.703636638 0.17082443711 0.0
0.0 4.704987869 0.17121578612 0.0
0.0 4.706339101 0.171608575925 0.0
0.0 4.707690332 0.172003072263 0.0
0.0 4.709041564 0.172399472064 0.0
0.0 4.710392795 0.172797074412 0.0
0.0 4.711744027 0.173195751884 0.0
0.0 4.713095258 0.173595382781 0.0
0.0 4.71444649 0.173996307621 0.0
0.0 4.715797721 0.174398537937 0.0
0.0 4.717148952 0.174801408338 0.0
0.0 4.718500184 0.175205023948 0.0
0.0 4.719851415 0.175609611436 0.0
0.0 4.721202647 0.176016013607 0.0
0.0 4.722553878 0.176423946728 0.0
0.0 4.72390511 0.176832908727 0.0
0.0 4.725256341 0.177242877451 0.0
0.0 4.726607572 0.177653838437 0.0
0.0 4.727958804 0.178066051759 0.0
0.0 4.729310035 0.178479197531 0.0
0.0 4.730661267 0.178893078041 0.0
0.0 4.732012498 0.179308158277 0.0
0.0 4.73336373 0.17972442564 0.0
0.0 4.734714961 0.180141856379 0.0
0.0 4.736066193 0.180559773688 0.0
0.0 4.737417424 0.180978162248 0.0
0.0 4.738768655 0.181397730484 0.0
0.0 4.740119887 0.181818594587 0.0
0.0 4.741471118 0.182240831222 0.0
0.0 4.74282235 0.182663760345 0.0
0.0 4.744173581 0.183087625766 0.0
0.0 4.745524813 0.183512865086 0.0
0.0 4.746876044 0.183939606341 0.0
0.0 4.748227276 0.184367771201 0.0
0.0 4.749578507 0.184797186051 0.0
0.0 4.750929738 0.185228161116 0.0
0.0 4.75228097 0.18566093964 0.0
0.0 4.753632201 0.186095010971 0.0
0.0 4.754983433 0.18653023194 0.0
0.0 4.756334664 0.186966426693 0.0
0.0 4.757685896 0.187403843111 0.0
0.0 4.759037127 0.187842505457 0.0
0.0 4.760388358 0.188281369317 0.0
0.0 4.76173959 0.188720664572 0.0
0.0 4.763090821 0.189160476909 0.0
0.0 4.764442053 0.189601933449 0.0
0.0 4.765793284 0.190045114088 0.0
0.0 4.767144516 0.190489310693 0.0
0.0 4.768495747 0.190934428656 0.0
0.0 4.769846979 0.191380478365 0.0
0.0 4.77119821 0.191828234905 0.0
0.0 4.772549441 0.192277210882 0.0
0.0 4.773900673 0.192727015743 0.0
0.0 4.775251904 0.193177744276 0.0
0.0 4.776603136 0.193629601301 0.0
0.0 4.777954367 0.194083253445 0.0
0.0 4.779305599 0.194538556592 0.0
0.0 4.78065683 0.194995105739 0.0
0.0 4.782008061 0.19545301096 0.0
0.0 4.783359293 0.195912299222 0.0
0.0 4.784710524 0.196372708648 0.0
0.0 4.786061756 0.196833631986 0.0
0.0 4.787412987 0.197294907365 0.0
0.0 4.788764219 0.197757158944 0.0
0.0 4.79011545 0.198220784411 0.0
0.0 4.791466682 0.198685681493 0.0
0.0 4.792817913 0.199151269499 0.0
0.0 4.794169144 0.199617922282 0.0
0.0 4.795520376 0.200086378684 0.0
0.0 4.796871607 0.200556702683 0.0
0.0 4.798222839 0.201028717382 0.0
0.0 4.79957407 0.201501558774 0.0
0.0 4.800925302 0.201974977722 0.0
0.0 4.802276533 0.202449680242 0.0
0.0 4.803627764 0.202926455499 0.0
0.0 4.804978996 0.203404529825 0.0
0.0 4.806330227 0.203883494036 0.0
0.0 4.807681459 0.204363497331 0.0
0.0 4.80903269 0.204844693526 0.0
0.0 4.810383922 0.205327342838 0.0
0.0 4.811735153 0.205811175831 0.0
0.0 4.813086385 0.206296097161 0.0
0.0 4.814437616 0.206781931431 0.0
0.0 4.815788847 0.20726933445 0.0
0.0 4.817140079 0.207758412181 0.0
0.0 4.81849131 0.208248648907 0.0
0.0 4.819842542 0.208739942685 0.0
0.0 4.821193773 0.209232188254 0.0
0.0 4.822545005 0.209725692518 0.0
0.0 4.823896236 0.210220132206 0.0
0.0 4.825247468 0.210715544322 0.0
0.0 4.826598699 0.211211956775 0.0
0.0 4.82794993 0.211709376722 0.0
0.0 4.829301162 0.212208053277 0.0
0.0 4.830652393 0.212707931857 0.0
0.0 4.832003625 0.213209145516 0.0
0.0 4.833354856 0.21371204369 0.0
0.0 4.834706088 0.214217073615 0.0
0.0 4.836057319 0.214723835016 0.0
0.0 4.83740855 0.21523203367 0.0
0.0 4.838759782 0.215741330068 0.0
0.0 4.840111013 0.216252056975 0.0
0.0 4.841462245 0.216764327733 0.0
0.0 4.842813476 0.217277814029 0.0
0.0 4.844164708 0.217792097052 0.0
0.0 4.845515939 0.218306840154 0.0
0.0 4.846867171 0.218822470683 0.0
0.0 4.848218402 0.219339164509 0.0
0.0 4.849569633 0.219856808509 0.0
0.0 4.850920865 0.220375335359 0.0
0.0 4.852272096 0.220894892993 0.0
0.0 4.853623328 0.221416098955 0.0
0.0 4.854974559 0.221939329977 0.0
0.0 4.856325791 0.222463924712 0.0
0.0 4.857677022 0.222989649052 0.0
0.0 4.859028253 0.223516274995 0.0
0.0 4.860379485 0.224044384884 0.0
0.0 4.861730716 0.224573922832 0.0
0.0 4.863081948 0.225104284323 0.0
0.0 4.864433179 0.22563521442 0.0
0.0 4.865784411 0.22616667434 0.0
0.0 4.867135642 0.226699550272 0.0
0.0 4.868486874 0.227234056906 0.0
0.0 4.869838105 0.227769697547 0.0
0.0 4.871189336 0.22830634272 0.0
0.0 4.872540568 0.228844154291 0.0
0.0 4.873891799 0.2293837364 0.0
0.0 4.875243031 0.229925081971 0.0
0.0 4.876594262 0.230467345885 0.0
0.0 4.877945494 0.231010388159 0.0
0.0 4.879296725 0.231554098274 0.0
0.0 4.880647956 0.23209925832 0.0
0.0 4.881999188 0.232645964036 0.0
0.0 4.883350419 0.233193962733 0.0
0.0 4.884701651 0.23374302478 0.0
0.0 4.886052882 0.234293321258 0.0
0.0 4.887404114 0.234845418144 0.0
0.0 4.888755345 0.235399020916 0.0
0.0 4.890106577 0.235953761164 0.0
0.0 4.891457808 0.236509828384 0.0
0.0 4.892809039 0.237067322858 0.0
0.0 4.894160271 0.237626281518 0.0
0.0 4.895511502 0.238186326819 0.0
0.0 4.896862734 0.238746936926 0.0
0.0 4.898213965 0.239308477451 0.0
0.0 4.899565197 0.239871408122 0.0
0.0 4.900916428 0.240436520886 0.0
0.0 4.90226766 0.241002869597 0.0
0.0 4.903618891 0.241570210662 0.0
0.0 4.904970122 0.242138624367 0.0
0.0 4.906321354 0.242708670401 0.0
0.0 4.907672585 0.243280921145 0.0
0.0 4.909023817 0.243854262441 0.0
0.0 4.910375048 0.244428397073 0.0
0.0 4.91172628 0.245003045979 0.0
0.0 4.913077511 0.245579094543 0.0
0.0 4.914428742 0.246156564795 0.0
0.0 4.915779974 0.246735342242 0.0
0.0 4.917131205 0.247315275165 0.0
0.0 4.918482437 0.247896016058 0.0
0.0 4.919833668 0.248478340767 0.0
0.0 4.9211849 0.24906239779 0.0
0.0 4.922536131 0.249648172626 0.0
0.0 4.923887363 0.250235234895 0.0
0.0 4.925238594 0.250823633047 0.0
0.0 4.926589825 0.251413405137 0.0
0.0 4.927941057 0.252004532455 0.0
0.0 4.929292288 0.252596736808 0.0
0.0 4.93064352 0.25319011075 0.0
0.0 4.931994751 0.253784778317 0.0
0.0 4.933345983 0.254380708785 0.0
0.0 4.934697214 0.254978175636 0.0
0.0 4.936048445 0.255577462249 0.0
0.0 4.937399677 0.256177769897 0.0
0.0 4.938750908 0.25677919249 0.0
0.0 4.94010214 0.25738222645 0.0
0.0 4.941453371 0.257986625528 0.0
0.0 4.942804603 0.258592126911 0.0
0.0 4.944155834 0.259198202782 0.0
0.0 4.945507066 0.259805329628 0.0
0.0 4.946858297 0.260413218353 0.0
0.0 4.948209528 0.26102294223 0.0
0.0 4.94956076 0.261634217166 0.0
0.0 4.950911991 0.262246447407 0.0
0.0 4.952263223 0.262859903022 0.0
0.0 4.953614454 0.263474784272 0.0
0.0 4.954965686 0.26409152987 0.0
0.0 4.956316917 0.264709590997 0.0
0.0 4.957668148 0.265328945118 0.0
0.0 4.95901938 0.265949269139 0.0
0.0 4.960370611 0.266570783405 0.0
0.0 4.961721843 0.267193981029 0.0
0.0 4.963073074 0.267818766247 0.0
0.0 4.964424306 0.268444932897 0.0
0.0 4.965775537 0.269072339301 0.0
0.0 4.967126769 0.26970099428 0.0
0.0 4.968478 0.27033091105 0.0
0.0 4.969829231 0.270962147293 0.0
0.0 4.971180463 0.271594703922 0.0
0.0 4.972531694 0.272228468266 0.0
0.0 4.973882926 0.272863429022 0.0
0.0 4.975234157 0.273499708387 0.0
0.0 4.976585389 0.274137421146 0.0
0.0 4.97793662 0.274776546038 0.0
0.0 4.979287852 0.275417055853 0.0
0.0 4.980639083 0.276058922477 0.0
0.0 4.981990314 0.276702196782 0.0
0.0 4.983341546 0.277346981169 0.0
0.0 4.984692777 0.277992996087 0.0
0.0 4.986044009 0.278640242823 0.0
0.0 4.98739524 0.279288767793 0.0
0.0 4.988746472 0.279938628932 0.0
0.0 4.990097703 0.280589827441 0.0
0.0 4.991448934 0.281242350573 0.0
0.0 4.992800166 0.281896142146 0.0
0.0 4.994151397 0.282551104273 0.0
0.0 4.995502629 0.28320770611 0.0
0.0 4.99685386 0.283865714818 0.0
0.0 4.998205092 0.284525026723 0.0
0.0 4.999556323 0.285185635229 0.0
0.0 5.000907555 0.285847662385 0.0
0.0 5.002258786 0.286511121356 0.0
0.0 5.003610017 0.287175781606 0.0
0.0 5.004961249 0.287841854498 0.0
0.0 5.00631248 0.288509073981 0.0
0.0 5.007663712 0.289177639724 0.0
0.0 5.009014943 0.289847641868 0.0
0.0 5.010366175 0.29051927596 0.0
0.0 5.011717406 0.291192238826 0.0
0.0 5.013068637 0.291866232585 0.0
0.0 5.014419869 0.292541686629 0.0
0.0 5.0157711 0.293218433039 0.0
0.0 5.017122332 0.293896551092 0.0
0.0 5.018473563 0.294576073907 0.0
0.0 5.019824795 0.295256973649 0.0
0.0 5.021176026 0.295939019113 0.0
0.0 5.022527258 0.296622536409 0.0
0.0 5.023878489 0.297307886055 0.0
0.0 5.02522972 0.297994718181 0.0
0.0 5.026580952 0.298682699363 0.0
0.0 5.027932183 0.299371818957 0.0
0.0 5.029283415 0.300062293394 0.0
0.0 5.030634646 0.300754137393 0.0
0.0 5.031985878 0.301447344604 0.0
0.0 5.033337109 0.302141774042 0.0
0.0 5.034688341 0.302837351539 0.0
0.0 5.036039572 0.303534230995 0.0
0.0 5.037390803 0.304232702851 0.0
0.0 5.038742035 0.304932780595 0.0
0.0 5.040093266 0.305634258224 0.0
0.0 5.041444498 0.30633713893 0.0
0.0 5.042795729 0.30704136874 0.0
0.0 5.044146961 0.30774697617 0.0
0.0 5.045498192 0.308453966888 0.0
0.0 5.046849423 0.309162350295 0.0
0.0 5.048200655 0.309872107305 0.0
0.0 5.049551886 0.3105832461 0.0
0.0 5.050903118 0.311295763725 0.0
0.0 5.052254349 0.312009644711 0.0
0.0 5.053605581 0.312724944409 0.0
0.0 5.054956812 0.31344163672 0.0
0.0 5.056308044 0.31415971818 0.0
0.0 5.057659275 0.314879181066 0.0
0.0 5.059010506 0.315600047195 0.0
0.0 5.060361738 0.316322308261 0.0
0.0 5.061712969 0.317045963496 0.0
0.0 5.063064201 0.317771015033 0.0
0.0 5.064415432 0.318497462861 0.0
0.0 5.065766664 0.319225309117 0.0
0.0 5.067117895 0.319954553786 0.0
0.0 5.068469126 0.32068519847 0.0
0.0 5.069820358 0.321417244772 0.0
0.0 5.071171589 0.322150692671 0.0
0.0 5.072522821 0.322885544315 0.0
0.0 5.073874052 0.323621799678 0.0
0.0 5.075225284 0.324359460914 0.0
0.0 5.076576515 0.325098527992 0.0
0.0 5.077927747 0.325839003073 0.0
0.0 5.079278978 0.326580886518 0.0
0.0 5.080630209 0.327324200592 0.0
0.0 5.081981441 0.328069052545 0.0
0.0 5.083332672 0.328815338466 0.0
0.0 5.084683904 0.329562987342 0.0
0.0 5.086035135 0.33031199335 0.0
0.0 5.087386367 0.331062435304 0.0
0.0 5.088737598 0.331814349196 0.0
0.0 5.090088829 0.332567541676 0.0
0.0 5.091440061 0.333322127438 0.0
0.0 5.092791292 0.334078006438 0.0
0.0 5.094142524 0.334835283641 0.0
0.0 5.095493755 0.335594031376 0.0
0.0 5.096844987 0.336354257537 0.0
0.0 5.098196218 0.337115886245 0.0
0.0 5.09954745 0.337878884905 0.0
