0.0 2.002610509 0.219832440313 0.0
0.0 2.004754632 0.219704135639 0.0
0.0 2.006898754 0.219575525974 0.0
0.0 2.009042877 0.219446612439 0.0
0.0 2.011186999 0.219317396398 0.0
0.0 2.013331122 0.219187878971 0.0
0.0 2.015475245 0.219058061464 0.0
0.0 2.017619367 0.218927945179 0.0
0.0 2.01976349 0.218797531241 0.0
0.0 2.021907612 0.218666821013 0.0
0.0 2.024051735 0.21853581562 0.0
0.0 2.026195858 0.218404516365 0.0
0.0 2.02833998 0.218272924557 0.0
0.0 2.030484103 0.218141041318 0.0
0.0 2.032628225 0.218008868016 0.0
0.0 2.034772348 0.217876405772 0.0
0.0 2.036916471 0.217743655896 0.0
0.0 2.039060593 0.217610619695 0.0
0.0 2.041204716 0.217477298292 0.0
0.0 2.043348838 0.217343693058 0.0
0.0 2.045492961 0.217209805115 0.0
0.0 2.047637084 0.217075635773 0.0
0.0 2.049781206 0.216941186341 0.0
0.0 2.051925329 0.216806457943 0.0
0.0 2.054069451 0.216671451948 0.0
0.0 2.056213574 0.216536169482 0.0
0.0 2.058357697 0.216400611853 0.0
0.0 2.060501819 0.216264780373 0.0
0.0 2.062645942 0.216128676165 0.0
0.0 2.064790064 0.215992300601 0.0
0.0 2.066934187 0.215855654804 0.0
0.0 2.06907831 0.215718740086 0.0
0.0 2.071222432 0.215581557758 0.0
0.0 2.073366555 0.215444108942 0.0
0.0 2.075510677 0.215306395013 0.0
0.0 2.0776548 0.215168417093 0.0
0.0 2.079798923 0.215030176493 0.0
0.0 2.081943045 0.214891674528 0.0
0.0 2.084087168 0.214752912316 0.0
0.0 2.08623129 0.214613891234 0.0
0.0 2.088375413 0.214474612402 0.0
0.0 2.090519536 0.214335077131 0.0
0.0 2.092663658 0.214195286738 0.0
0.0 2.094807781 0.214055242337 0.0
0.0 2.096951903 0.213914945314 0.0
0.0 2.099096026 0.213774396785 0.0
0.0 2.101240149 0.213633598064 0.0
0.0 2.103384271 0.21349255047 0.0
0.0 2.105528394 0.213351255119 0.0
0.0 2.107672516 0.21320971339 0.0
0.0 2.109816639 0.213067926399 0.0
0.0 2.111960762 0.212925895449 0.0
0.0 2.114104884 0.212783621847 0.0
0.0 2.116249007 0.2126411067 0.0
0.0 2.118393129 0.212498351386 0.0
0.0 2.120537252 0.212355357033 0.0
0.0 2.122681375 0.212212124959 0.0
0.0 2.124825497 0.212068656483 0.0
0.0 2.12696962 0.211924952717 0.0
0.0 2.129113742 0.211781015042 0.0
0.0 2.131257865 0.211636844568 0.0
0.0 2.133401988 0.21149244261 0.0
0.0 2.13554611 0.21134781048 0.0
0.0 2.137690233 0.21120294928 0.0
0.0 2.139834355 0.211057860393 0.0
0.0 2.141978478 0.210912544931 0.0
0.0 2.144122601 0.21076700421 0.0
0.0 2.146266723 0.210621239545 0.0
0.0 2.148410846 0.210475252052 0.0
0.0 2.150554968 0.21032904311 0.0
0.0 2.152699091 0.210182613819 0.0
0.0 2.154843214 0.210035965491 0.0
0.0 2.156987336 0.209889099442 0.0
0.0 2.159131459 0.209742016778 0.0
0.0 2.161275581 0.209594718878 0.0
0.0 2.163419704 0.209447206835 0.0
0.0 2.165563827 0.209299481954 0.0
0.0 2.167707949 0.209151545545 0.0
0.0 2.169852072 0.209003398727 0.0
0.0 2.171996194 0.208855042891 0.0
0.0 2.174140317 0.208706479126 0.0
0.0 2.17628444 0.208557708739 0.0
0.0 2.178428562 0.208408733037 0.0
0.0 2.180572685 0.208259553133 0.0
0.0 2.182716807 0.208110170402 0.0
0.0 2.18486093 0.207960585942 0.0
0.0 2.187005053 0.207810801058 0.0
0.0 2.189149175 0.207660817049 0.0
0.0 2.191293298 0.207510635026 0.0
0.0 2.19343742 0.20736025637 0.0
0.0 2.195581543 0.207209682168 0.0
0.0 2.197725666 0.207058913725 0.0
0.0 2.199869788 0.206907952346 0.0
0.0 2.202013911 0.206756799149 0.0
0.0 2.204158033 0.206605455519 0.0
0.0 2.206302156 0.206453922549 0.0
0.0 2.208446279 0.206302201529 0.0
0.0 2.210590401 0.206150293727 0.0
0.0 2.212734524 0.205998200279 0.0
0.0 2.214878646 0.205845922576 0.0
0.0 2.217022769 0.205693461772 0.0
0.0 2.219166892 0.205540819143 0.0
0.0 2.221311014 0.205387996167 0.0
0.0 2.223455137 0.205234993835 0.0
0.0 2.225599259 0.205081813266 0.0
0.0 2.227743382 0.204928455683 0.0
0.0 2.229887505 0.204774922146 0.0
0.0 2.232031627 0.204621214149 0.0
0.0 2.23417575 0.204467332829 0.0
0.0 2.236319872 0.204313279687 0.0
0.0 2.238463995 0.204159055338 0.0
0.0 2.240608118 0.204004661298 0.0
0.0 2.24275224 0.203850099316 0.0
0.0 2.244896363 0.203695370737 0.0
0.0 2.247040485 0.203540476913 0.0
0.0 2.249184608 0.20338541863 0.0
0.0 2.251328731 0.203230197579 0.0
0.0 2.253472853 0.203074814356 0.0
0.0 2.255616976 0.202919269859 0.0
0.0 2.257761098 0.20276356462 0.0
0.0 2.259905221 0.202607700832 0.0
0.0 2.262049344 0.202451678989 0.0
0.0 2.264193466 0.202295501301 0.0
0.0 2.266337589 0.202139168264 0.0
0.0 2.268481711 0.201982679875 0.0
0.0 2.270625834 0.201826039749 0.0
0.0 2.272769957 0.201669250735 0.0
0.0 2.274914079 0.201512315305 0.0
0.0 2.277058202 0.201355230703 0.0
0.0 2.279202324 0.201197997076 0.0
0.0 2.281346447 0.201040612752 0.0
0.0 2.28349057 0.200883081263 0.0
0.0 2.285634692 0.200725405491 0.0
0.0 2.287778815 0.200567586595 0.0
0.0 2.289922937 0.200409624949 0.0
0.0 2.29206706 0.200251524697 0.0
0.0 2.294211183 0.200093286473 0.0
0.0 2.296355305 0.199934911172 0.0
0.0 2.298499428 0.199776404488 0.0
0.0 2.30064355 0.199617767191 0.0
0.0 2.302787673 0.199459001008 0.0
0.0 2.304931796 0.199300114692 0.0
0.0 2.307075918 0.199141107731 0.0
0.0 2.309220041 0.198981977888 0.0
0.0 2.311364163 0.198822737644 0.0
0.0 2.313508286 0.198663385267 0.0
0.0 2.315652409 0.198503930286 0.0
0.0 2.317796531 0.198344389762 0.0
0.0 2.319940654 0.198184782346 0.0
0.0 2.322084776 0.198025101048 0.0
0.0 2.324228899 0.197865380105 0.0
0.0 2.326373022 0.197705576274 0.0
0.0 2.328517144 0.197545654226 0.0
0.0 2.330661267 0.197385609875 0.0
0.0 2.332805389 0.197225430928 0.0
0.0 2.334949512 0.197065059403 0.0
0.0 2.337093635 0.196904410038 0.0
0.0 2.339237757 0.196743426463 0.0
0.0 2.34138188 0.196582171234 0.0
0.0 2.343526002 0.19642078881 0.0
0.0 2.345670125 0.196259356 0.0
0.0 2.347814248 0.196097934767 0.0
0.0 2.34995837 0.195936578793 0.0
0.0 2.352102493 0.195775227105 0.0
0.0 2.354246615 0.195613921516 0.0
0.0 2.356390738 0.195452473745 0.0
0.0 2.358534861 0.195290828075 0.0
0.0 2.360678983 0.195128938401 0.0
0.0 2.362823106 0.194966830363 0.0
0.0 2.364967228 0.194804568782 0.0
0.0 2.367111351 0.194642093195 0.0
0.0 2.369255474 0.194479523206 0.0
0.0 2.371399596 0.194316808227 0.0
0.0 2.373543719 0.194154178936 0.0
0.0 2.375687841 0.193991531935 0.0
0.0 2.377831964 0.19382898017 0.0
0.0 2.379976087 0.19366653338 0.0
0.0 2.382120209 0.193504109806 0.0
0.0 2.384264332 0.193341659134 0.0
0.0 2.386408454 0.193178947785 0.0
0.0 2.388552577 0.193015927684 0.0
0.0 2.3906967 0.192852732709 0.0
0.0 2.392840822 0.192689415206 0.0
0.0 2.394984945 0.19252596133 0.0
0.0 2.397129067 0.192362302035 0.0
0.0 2.39927319 0.192198471764 0.0
0.0 2.401417313 0.192034466631 0.0
0.0 2.403561435 0.191870528864 0.0
0.0 2.405705558 0.19170669049 0.0
0.0 2.40784968 0.191542864241 0.0
0.0 2.409993803 0.191378972412 0.0
0.0 2.412137926 0.191214889123 0.0
0.0 2.414282048 0.191050589326 0.0
0.0 2.416426171 0.190886232838 0.0
0.0 2.418570293 0.190721707322 0.0
0.0 2.420714416 0.190557306311 0.0
0.0 2.422858539 0.190392909776 0.0
0.0 2.425002661 0.190228515944 0.0
0.0 2.427146784 0.190064068713 0.0
0.0 2.429290906 0.189899801709 0.0
0.0 2.431435029 0.189735617106 0.0
0.0 2.433579152 0.189571350643 0.0
0.0 2.435723274 0.18940699873 0.0
0.0 2.437867397 0.189242194038 0.0
0.0 2.440011519 0.189076891901 0.0
0.0 2.442155642 0.188911338931 0.0
0.0 2.444299765 0.188745792184 0.0
0.0 2.446443887 0.188580118128 0.0
0.0 2.44858801 0.188414479087 0.0
0.0 2.450732132 0.188248889521 0.0
0.0 2.452876255 0.188083519923 0.0
0.0 2.455020378 0.187918245917 0.0
0.0 2.4571645 0.187753376337 0.0
0.0 2.459308623 0.187588728732 0.0
0.0 2.461452745 0.187424098386 0.0
0.0 2.463596868 0.187259414937 0.0
0.0 2.465740991 0.187094521138 0.0
0.0 2.467885113 0.186929462462 0.0
0.0 2.470029236 0.186763977078 0.0
0.0 2.472173358 0.186598259617 0.0
0.0 2.474317481 0.186432336652 0.0
0.0 2.476461604 0.186266263931 0.0
0.0 2.478605726 0.186100087568 0.0
0.0 2.480749849 0.185933959217 0.0
0.0 2.482893971 0.185767894969 0.0
0.0 2.485038094 0.1856018217 0.0
0.0 2.487182217 0.185435818379 0.0
0.0 2.489326339 0.18526982225 0.0
0.0 2.491470462 0.185103733314 0.0
0.0 2.493614584 0.184937467922 0.0
0.0 2.495758707 0.184771129729 0.0
0.0 2.49790283 0.184606889991 0.0
0.0 2.500046952 0.184442534985 0.0
0.0 2.502191075 0.184278129222 0.0
0.0 2.503831856 0.184153529231 0.0
0.0 2.505183087 0.184050937639 0.0
0.0 2.506534319 0.183948340353 0.0
0.0 2.50788555 0.183844984632 0.0
0.0 2.509236782 0.183742675007 0.0
0.0 2.510588013 0.183638188553 0.0
0.0 2.511939244 0.183533584698 0.0
0.0 2.513290476 0.183429380887 0.0
0.0 2.514641707 0.183325462067 0.0
0.0 2.515992939 0.183220921099 0.0
0.0 2.51734417 0.183115660097 0.0
0.0 2.518695402 0.183011911953 0.0
0.0 2.520046633 0.1829073179 0.0
0.0 2.521397865 0.182802408489 0.0
0.0 2.522749096 0.182697472933 0.0
0.0 2.524100327 0.182593201443 0.0
0.0 2.525451559 0.182487461739 0.0
0.0 2.52680279 0.182382338814 0.0
0.0 2.528154022 0.18227867216 0.0
0.0 2.529505253 0.182174640508 0.0
0.0 2.530856485 0.182069829414 0.0
0.0 2.532207716 0.181965423642 0.0
0.0 2.533558948 0.181861515413 0.0
0.0 2.534910179 0.181756157178 0.0
0.0 2.53626141 0.18165090637 0.0
0.0 2.537612642 0.181546635648 0.0
0.0 2.538963873 0.181442227954 0.0
0.0 2.540315105 0.181337958914 0.0
0.0 2.541666336 0.181233556551 0.0
0.0 2.543017568 0.181128976167 0.0
0.0 2.544368799 0.18102427735 0.0
0.0 2.54572003 0.180919832308 0.0
0.0 2.547071262 0.180816655291 0.0
0.0 2.548422493 0.180712780248 0.0
0.0 2.549773725 0.180607124349 0.0
0.0 2.551124956 0.180501680001 0.0
0.0 2.552476188 0.180396886875 0.0
0.0 2.553827419 0.180291401443 0.0
0.0 2.555178651 0.18018578666 0.0
0.0 2.556529882 0.180080295526 0.0
0.0 2.557881113 0.179973712799 0.0
0.0 2.559232345 0.179868083543 0.0
0.0 2.560583576 0.17976371034 0.0
0.0 2.561934808 0.179658668706 0.0
0.0 2.563286039 0.179553733877 0.0
0.0 2.564637271 0.179449155016 0.0
0.0 2.565988502 0.179345417622 0.0
0.0 2.567339733 0.179242109359 0.0
0.0 2.568690965 0.179138315305 0.0
0.0 2.570042196 0.179034136193 0.0
0.0 2.571393428 0.178930284145 0.0
0.0 2.572744659 0.178826635986 0.0
0.0 2.574095891 0.178722880585 0.0
0.0 2.575447122 0.178619254182 0.0
0.0 2.576798354 0.178514163218 0.0
0.0 2.578149585 0.178408893216 0.0
0.0 2.579500816 0.178305092114 0.0
0.0 2.580852048 0.178200907255 0.0
0.0 2.582203279 0.178096509549 0.0
0.0 2.583554511 0.177991524778 0.0
0.0 2.584905742 0.177886712405 0.0
0.0 2.586256974 0.177781097994 0.0
0.0 2.587608205 0.177675965285 0.0
0.0 2.588959437 0.177570756023 0.0
0.0 2.590310668 0.177464936527 0.0
0.0 2.591661899 0.177359410239 0.0
0.0 2.593013131 0.17725292203 0.0
0.0 2.594364362 0.17714607988 0.0
0.0 2.595715594 0.177038503134 0.0
0.0 2.597066825 0.176932821868 0.0
0.0 2.598418057 0.176827202013 0.0
0.0 2.599769288 0.176721236371 0.0
0.0 2.601120519 0.176615110426 0.0
0.0 2.602471751 0.176508569819 0.0
0.0 2.603822982 0.176403069025 0.0
0.0 2.605174214 0.176298038551 0.0
0.0 2.606525445 0.176193965449 0.0
0.0 2.607876677 0.176088809446 0.0
0.0 2.609227908 0.175983545341 0.0
0.0 2.61057914 0.175879149697 0.0
0.0 2.611930371 0.175774308513 0.0
0.0 2.613281602 0.175669259357 0.0
0.0 2.614632834 0.175564363776 0.0
0.0 2.615984065 0.175460051914 0.0
0.0 2.617335297 0.175355107699 0.0
0.0 2.618686528 0.175251651792 0.0
0.0 2.62003776 0.175148126708 0.0
0.0 2.621388991 0.17504359904 0.0
0.0 2.622740222 0.174939507468 0.0
0.0 2.624091454 0.174836506094 0.0
0.0 2.625442685 0.174732995291 0.0
0.0 2.626793917 0.174628750315 0.0
0.0 2.628145148 0.174525054985 0.0
0.0 2.62949638 0.174420502273 0.0
0.0 2.630847611 0.174315945178 0.0
0.0 2.632198843 0.174211321681 0.0
0.0 2.633550074 0.174106691209 0.0
0.0 2.634901305 0.17400169092 0.0
0.0 2.636252537 0.17389705144 0.0
0.0 2.637603768 0.173792853777 0.0
0.0 2.638955 0.173688520593 0.0
0.0 2.640306231 0.17358375834 0.0
0.0 2.641657463 0.173478981661 0.0
0.0 2.643008694 0.173374612857 0.0
0.0 2.644359925 0.173270277838 0.0
0.0 2.645711157 0.173166022065 0.0
0.0 2.647062388 0.173061727544 0.0
0.0 2.64841362 0.172957306895 0.0
0.0 2.649764851 0.172853112146 0.0
0.0 2.651116083 0.172748827659 0.0
0.0 2.652467314 0.172644581969 0.0
0.0 2.653818546 0.17254035908 0.0
0.0 2.655169777 0.172436192221 0.0
0.0 2.656521008 0.172331163813 0.0
0.0 2.65787224 0.172226808571 0.0
0.0 2.659223471 0.172123894582 0.0
0.0 2.660574703 0.172020249838 0.0
0.0 2.661925934 0.171916603626 0.0
0.0 2.663277166 0.171813525544 0.0
0.0 2.664628397 0.171710399247 0.0
0.0 2.665979629 0.171607043851 0.0
0.0 2.66733086 0.171504458306 0.0
0.0 2.668682091 0.171401320508 0.0
0.0 2.670033323 0.17129608022 0.0
0.0 2.671384554 0.171191382906 0.0
0.0 2.672735786 0.171087652609 0.0
0.0 2.674087017 0.170983109986 0.0
0.0 2.675438249 0.170878288896 0.0
0.0 2.67678948 0.170773667642 0.0
0.0 2.678140711 0.170669424728 0.0
0.0 2.679491943 0.170564750963 0.0
0.0 2.680843174 0.170460841253 0.0
0.0 2.682194406 0.170357159585 0.0
0.0 2.683545637 0.170252905359 0.0
0.0 2.684896869 0.170149339467 0.0
0.0 2.6862481 0.170046247466 0.0
0.0 2.687599332 0.169943243439 0.0
0.0 2.688950563 0.169839660746 0.0
0.0 2.690301794 0.169736080086 0.0
0.0 2.691653026 0.1696326755 0.0
0.0 2.693004257 0.169529808323 0.0
0.0 2.694355489 0.169426336831 0.0
0.0 2.69570672 0.16932263907 0.0
0.0 2.697057952 0.16921939043 0.0
0.0 2.698409183 0.169115977729 0.0
0.0 2.699760414 0.169012803429 0.0
0.0 2.701111646 0.168910231021 0.0
0.0 2.702462877 0.168807194075 0.0
0.0 2.703814109 0.168703577565 0.0
0.0 2.70516534 0.168600531095 0.0
0.0 2.706516572 0.168497591946 0.0
0.0 2.707867803 0.16839424867 0.0
0.0 2.709219035 0.168291174964 0.0
0.0 2.710570266 0.168188042387 0.0
0.0 2.711921497 0.168084804374 0.0
0.0 2.713272729 0.167982049313 0.0
0.0 2.71462396 0.167879324718 0.0
0.0 2.715975192 0.167777209231 0.0
0.0 2.717326423 0.16767454864 0.0
0.0 2.718677655 0.167572041933 0.0
0.0 2.720028886 0.167469458488 0.0
0.0 2.721380117 0.167366942734 0.0
0.0 2.722731349 0.167264433422 0.0
0.0 2.72408258 0.16716195678 0.0
0.0 2.725433812 0.167059344453 0.0
0.0 2.726785043 0.166956237971 0.0
0.0 2.728136275 0.166853870925 0.0
0.0 2.729487506 0.166751435898 0.0
0.0 2.730838738 0.166649296977 0.0
0.0 2.732189969 0.166547366222 0.0
0.0 2.7335412 0.166445125831 0.0
0.0 2.734892432 0.166342961891 0.0
0.0 2.736243663 0.166240821368 0.0
0.0 2.737594895 0.166138794812 0.0
0.0 2.738946126 0.166036961878 0.0
0.0 2.740297358 0.165934931735 0.0
0.0 2.741648589 0.165833065816 0.0
0.0 2.742999821 0.165730767785 0.0
0.0 2.744351052 0.16562885873 0.0
0.0 2.745702283 0.165526978566 0.0
0.0 2.747053515 0.165425354836 0.0
0.0 2.748404746 0.165323569156 0.0
0.0 2.749755978 0.165222114254 0.0
0.0 2.751107209 0.165120861248 0.0
0.0 2.752458441 0.165019061555 0.0
0.0 2.753809672 0.16491743832 0.0
0.0 2.755160903 0.164816007024 0.0
0.0 2.756512135 0.164714765995 0.0
0.0 2.757863366 0.164613277694 0.0
0.0 2.759214598 0.164511995275 0.0
0.0 2.760565829 0.164410147138 0.0
0.0 2.761917061 0.164308766302 0.0
0.0 2.763268292 0.164208163769 0.0
0.0 2.764619524 0.164107292015 0.0
0.0 2.765970755 0.164006245604 0.0
0.0 2.767321986 0.163905320407 0.0
0.0 2.768673218 0.163804460613 0.0
0.0 2.770024449 0.163703619593 0.0
0.0 2.771375681 0.163602498194 0.0
0.0 2.772726912 0.163501081823 0.0
0.0 2.774078144 0.163399467074 0.0
0.0 2.775429375 0.163298572583 0.0
0.0 2.776780606 0.16319798937 0.0
0.0 2.778131838 0.163096952117 0.0
0.0 2.779483069 0.162996287338 0.0
0.0 2.780834301 0.162895424014 0.0
0.0 2.782185532 0.162795083946 0.0
0.0 2.783536764 0.162695248472 0.0
0.0 2.784887995 0.162595140201 0.0
0.0 2.786239227 0.162494545812 0.0
0.0 2.787590458 0.162394024966 0.0
0.0 2.788941689 0.162293725774 0.0
0.0 2.790292921 0.162193352074 0.0
0.0 2.791644152 0.162093514266 0.0
0.0 2.792995384 0.161993733977 0.0
0.0 2.794346615 0.161893470426 0.0
0.0 2.795697847 0.161793543056 0.0
0.0 2.797049078 0.161693876882 0.0
0.0 2.798400309 0.16159439492 0.0
0.0 2.799751541 0.161494853286 0.0
0.0 2.801102772 0.16139475246 0.0
0.0 2.802454004 0.161294254987 0.0
0.0 2.803805235 0.161193961185 0.0
0.0 2.805156467 0.161093991936 0.0
0.0 2.806507698 0.160993828458 0.0
0.0 2.80785893 0.160894031579 0.0
0.0 2.809210161 0.160793702027 0.0
0.0 2.810561392 0.160693884902 0.0
0.0 2.811912624 0.160594678909 0.0
0.0 2.813263855 0.160495564297 0.0
0.0 2.814615087 0.160396546782 0.0
0.0 2.815966318 0.160297078277 0.0
0.0 2.81731755 0.160197560615 0.0
0.0 2.818668781 0.160098014322 0.0
0.0 2.820020013 0.1599993519 0.0
0.0 2.821371244 0.159900254629 0.0
0.0 2.822722475 0.159801257141 0.0
0.0 2.824073707 0.15970205375 0.0
0.0 2.825424938 0.159603130313 0.0
0.0 2.82677617 0.159504764255 0.0
0.0 2.828127401 0.159406166357 0.0
0.0 2.829478633 0.159307641207 0.0
0.0 2.830829864 0.159208589459 0.0
0.0 2.832181095 0.159109550379 0.0
0.0 2.833532327 0.1590104739 0.0
0.0 2.834883558 0.158911700078 0.0
0.0 2.83623479 0.158812532311 0.0
0.0 2.837586021 0.158713796024 0.0
0.0 2.838937253 0.15861548258 0.0
0.0 2.840288484 0.158517318741 0.0
0.0 2.841639716 0.158419147336 0.0
0.0 2.842990947 0.158321542965 0.0
0.0 2.844342178 0.158223856829 0.0
0.0 2.84569341 0.15812626029 0.0
0.0 2.847044641 0.158028704609 0.0
0.0 2.848395873 0.157929832942 0.0
0.0 2.849747104 0.157831578395 0.0
0.0 2.851098336 0.157733997102 0.0
0.0 2.852449567 0.15763636299 0.0
0.0 2.853800798 0.157537848974 0.0
0.0 2.85515203 0.157439501483 0.0
0.0 2.856503261 0.15734164887 0.0
0.0 2.857854493 0.157243754503 0.0
0.0 2.859205724 0.157146544479 0.0
0.0 2.860556956 0.157049359564 0.0
0.0 2.861908187 0.156951261704 0.0
0.0 2.863259419 0.156852983656 0.0
0.0 2.86461065 0.156755499222 0.0
0.0 2.865961881 0.156658896149 0.0
0.0 2.867313113 0.156561656061 0.0
0.0 2.868664344 0.156464370925 0.0
0.0 2.870015576 0.156367513796 0.0
0.0 2.871366807 0.156270177873 0.0
0.0 2.872718039 0.156172974082 0.0
0.0 2.87406927 0.156076563881 0.0
0.0 2.875420501 0.155979842127 0.0
0.0 2.876771733 0.155882595001 0.0
0.0 2.878122964 0.155785779968 0.0
0.0 2.879474196 0.155689614302 0.0
0.0 2.880825427 0.155593419438 0.0
0.0 2.882176659 0.155497270873 0.0
0.0 2.88352789 0.15540122726 0.0
0.0 2.884879122 0.155305213793 0.0
0.0 2.886230353 0.155209719063 0.0
0.0 2.887581584 0.155113978076 0.0
0.0 2.888932816 0.155017909888 0.0
0.0 2.890284047 0.154922229622 0.0
0.0 2.891635279 0.154826286148 0.0
0.0 2.89298651 0.154730311587 0.0
0.0 2.894337742 0.154634192318 0.0
0.0 2.895688973 0.154538278874 0.0
0.0 2.897040205 0.15444271328 0.0
0.0 2.898391436 0.154347242029 0.0
0.0 2.899742667 0.154253226333 0.0
0.0 2.901093899 0.154158665183 0.0
0.0 2.90244513 0.154063533619 0.0
0.0 2.903796362 0.153968797052 0.0
0.0 2.905147593 0.153874514582 0.0
0.0 2.906498825 0.153780099318 0.0
0.0 2.907850056 0.153685299364 0.0
0.0 2.909201287 0.153590456825 0.0
0.0 2.910552519 0.153494771661 0.0
0.0 2.91190375 0.153399466247 0.0
0.0 2.913254982 0.153305525914 0.0
0.0 2.914606213 0.153211793695 0.0
0.0 2.915957445 0.153117836548 0.0
0.0 2.917308676 0.153023665377 0.0
0.0 2.918659908 0.152929774811 0.0
0.0 2.920011139 0.152835680371 0.0
0.0 2.92136237 0.152741722971 0.0
0.0 2.922713602 0.152647729794 0.0
0.0 2.924064833 0.152553494595 0.0
0.0 2.925416065 0.15245949651 0.0
0.0 2.926767296 0.152365841412 0.0
0.0 2.928118528 0.152272386949 0.0
0.0 2.929469759 0.152178560646 0.0
0.0 2.93082099 0.152085318386 0.0
0.0 2.932172222 0.151992102327 0.0
0.0 2.933523453 0.151898663451 0.0
0.0 2.934874685 0.151804707235 0.0
0.0 2.936225916 0.151710819763 0.0
0.0 2.937577148 0.151616990424 0.0
0.0 2.938928379 0.15152316148 0.0
0.0 2.940279611 0.15143026446 0.0
0.0 2.941630842 0.151337545376 0.0
0.0 2.942982073 0.151244551798 0.0
0.0 2.944333305 0.151151609678 0.0
0.0 2.945684536 0.151058956867 0.0
0.0 2.947035768 0.150966024317 0.0
0.0 2.948386999 0.150873181214 0.0
0.0 2.949738231 0.150781087465 0.0
0.0 2.951089462 0.150688561725 0.0
0.0 2.952440694 0.150596046675 0.0
0.0 2.953791925 0.150503532515 0.0
0.0 2.955143156 0.150411209122 0.0
0.0 2.956494388 0.150318897196 0.0
0.0 2.957845619 0.150226711751 0.0
0.0 2.959196851 0.150135199904 0.0
0.0 2.960548082 0.150043279889 0.0
0.0 2.961899314 0.149951516751 0.0
0.0 2.963250545 0.149859904846 0.0
0.0 2.964601776 0.1497687569 0.0
0.0 2.965953008 0.149677648607 0.0
0.0 2.967304239 0.149587607371 0.0
0.0 2.968655471 0.149497405114 0.0
0.0 2.970006702 0.149406404009 0.0
0.0 2.971357934 0.149315756398 0.0
0.0 2.972709165 0.149225541687 0.0
0.0 2.974060397 0.149135128451 0.0
0.0 2.975411628 0.149045105708 0.0
0.0 2.976762859 0.148955236695 0.0
0.0 2.978114091 0.148865108681 0.0
0.0 2.979465322 0.148776003666 0.0
0.0 2.980816554 0.148687328617 0.0
0.0 2.982167785 0.148598391425 0.0
0.0 2.983519017 0.148509840653 0.0
0.0 2.984870248 0.14842279977 0.0
0.0 2.986221479 0.148335589123 0.0
0.0 2.987572711 0.148248874824 0.0
0.0 2.988923942 0.148162716918 0.0
0.0 2.990275174 0.148075951352 0.0
0.0 2.991626405 0.147989835927 0.0
0.0 2.992977637 0.14790446601 0.0
0.0 2.994328868 0.147819218985 0.0
0.0 2.9956801 0.147733255176 0.0
0.0 2.997031331 0.147647616048 0.0
0.0 2.998382562 0.147563126617 0.0
0.0 2.999733794 0.147479008703 0.0
0.0 3.001085025 0.147396239142 0.0
0.0 3.002436257 0.147313894586 0.0
0.0 3.003787488 0.147231620289 0.0
0.0 3.00513872 0.147150218282 0.0
0.0 3.006489951 0.147070121776 0.0
0.0 3.007841182 0.146990685521 0.0
0.0 3.009192414 0.146911697932 0.0
0.0 3.010543645 0.146833421422 0.0
0.0 3.011894877 0.14675581132 0.0
0.0 3.013246108 0.146678739546 0.0
0.0 3.01459734 0.146602728851 0.0
0.0 3.015948571 0.146527471292 0.0
0.0 3.017299803 0.146452782681 0.0
0.0 3.018651034 0.146379170419 0.0
0.0 3.020002265 0.146306009202 0.0
0.0 3.021353497 0.14623383963 0.0
0.0 3.022704728 0.146162347481 0.0
0.0 3.02405596 0.14609244631 0.0
0.0 3.025407191 0.146024372168 0.0
0.0 3.026758423 0.145956856443 0.0
0.0 3.028109654 0.14589033097 0.0
0.0 3.029460886 0.145826219571 0.0
0.0 3.030812117 0.145763669107 0.0
0.0 3.032163348 0.14570294998 0.0
0.0 3.03351458 0.145644451409 0.0
0.0 3.034865811 0.145587713509 0.0
0.0 3.036217043 0.145532565937 0.0
0.0 3.037568274 0.145480543967 0.0
0.0 3.038919506 0.145430845141 0.0
0.0 3.040270737 0.145383955448 0.0
0.0 3.041621968 0.145340421376 0.0
0.0 3.0429732 0.145299724281 0.0
0.0 3.044324431 0.145263227022 0.0
0.0 3.045675663 0.145230344121 0.0
0.0 3.047026894 0.145201737784 0.0
0.0 3.048378126 0.145178275715 0.0
0.0 3.049729357 0.145160297369 0.0
0.0 3.051080589 0.145146076079 0.0
0.0 3.05243182 0.14513785699 0.0
0.0 3.053783051 0.145136277937 0.0
0.0 3.055134283 0.145141424642 0.0
0.0 3.056485514 0.145154541609 0.0
0.0 3.057836746 0.145175733152 0.0
0.0 3.059187977 0.14520562289 0.0
0.0 3.060539209 0.145246124585 0.0
0.0 3.06189044 0.145298638639 0.0
0.0 3.063241671 0.145363592687 0.0
0.0 3.064592903 0.145441299463 0.0
0.0 3.065944134 0.145534776716 0.0
0.0 3.067295366 0.145640842078 0.0
0.0 3.068646597 0.145765722507 0.0
0.0 3.069997829 0.145907958935 0.0
0.0 3.07134906 0.146066528468 0.0
0.0 3.072700292 0.146246439027 0.0
0.0 3.074051523 0.14644946522 0.0
0.0 3.075402754 0.146677964266 0.0
0.0 3.076753986 0.146934429412 0.0
0.0 3.078105217 0.147221811412 0.0
0.0 3.079456449 0.147542458074 0.0
0.0 3.08080768 0.147902887835 0.0
0.0 3.082158912 0.148306143415 0.0
0.0 3.083510143 0.148754292038 0.0
0.0 3.084861374 0.149251399777 0.0
0.0 3.086212606 0.149802691059 0.0
0.0 3.087563837 0.150412521844 0.0
0.0 3.088915069 0.151085783312 0.0
0.0 3.0902663 0.151829506052 0.0
0.0 3.091617532 0.152653071759 0.0
0.0 3.092968763 0.153561517016 0.0
0.0 3.094319995 0.154578834786 0.0
0.0 3.095671226 0.155683117923 0.0
0.0 3.097022457 0.156897986751 0.0
0.0 3.098373689 0.158236867895 0.0
0.0 3.09972492 0.1597111015 0.0
0.0 3.101076152 0.161324638967 0.0
0.0 3.102427383 0.163095558318 0.0
0.0 3.103778615 0.165041956018 0.0
0.0 3.105129846 0.167179343675 0.0
0.0 3.106481078 0.169526655084 0.0
0.0 3.107832309 0.172102755652 0.0
0.0 3.10918354 0.174926529255 0.0
0.0 3.110534772 0.178025350774 0.0
0.0 3.111886003 0.181428779882 0.0
0.0 3.113237235 0.18515402819 0.0
0.0 3.114588466 0.189226664319 0.0
0.0 3.115939698 0.193672111512 0.0
0.0 3.117290929 0.198518678963 0.0
0.0 3.11864216 0.203791997314 0.0
0.0 3.119993392 0.20952063184 0.0
0.0 3.121344623 0.215881883047 0.0
0.0 3.122695855 0.222676305083 0.0
0.0 3.124047086 0.230005353048 0.0
0.0 3.125398318 0.237884233395 0.0
0.0 3.126749549 0.246324283001 0.0
0.0 3.128100781 0.255327993789 0.0
0.0 3.129452012 0.264893554204 0.0
0.0 3.130803243 0.274975542784 0.0
0.0 3.132154475 0.285552810547 0.0
0.0 3.133505706 0.296606962974 0.0
0.0 3.134856938 0.308085958686 0.0
0.0 3.136208169 0.319939368084 0.0
0.0 3.137559401 0.332074702533 0.0
0.0 3.138910632 0.344422244272 0.0
0.0 3.140261863 0.356893161483 0.0
0.0 3.141613095 0.369451972873 0.0
0.0 3.142964326 0.381933310164 0.0
0.0 3.144315558 0.39422237896 0.0
0.0 3.145666789 0.406227181535 0.0
0.0 3.147018021 0.417844846899 0.0
0.0 3.148369252 0.429336322673 0.0
0.0 3.149720484 0.439963149112 0.0
0.0 3.151071715 0.449981806723 0.0
0.0 3.152422946 0.459355692059 0.0
0.0 3.153774178 0.46804042732 0.0
0.0 3.155125409 0.476042204399 0.0
0.0 3.156476641 0.483347414281 0.0
0.0 3.157827872 0.489975361722 0.0
0.0 3.159179104 0.495948149981 0.0
0.0 3.160530335 0.501263866866 0.0
0.0 3.161881566 0.505960762945 0.0
0.0 3.163232798 0.510105450026 0.0
0.0 3.164584029 0.513759439169 0.0
0.0 3.165935261 0.516960309046 0.0
0.0 3.167286492 0.519760032244 0.0
0.0 3.168637724 0.522200708994 0.0
0.0 3.169988955 0.524323336087 0.0
0.0 3.171340187 0.526417452668 0.0
0.0 3.172691418 0.528606314543 0.0
0.0 3.174042649 0.53041444521 0.0
0.0 3.175393881 0.531913672943 0.0
0.0 3.176745112 0.533264525925 0.0
0.0 3.178096344 0.534502123975 0.0
0.0 3.179447575 0.535641401637 0.0
0.0 3.180798807 0.536631524496 0.0
0.0 3.182150038 0.53750110459 0.0
0.0 3.18350127 0.538321266231 0.0
0.0 3.184852501 0.539094627198 0.0
0.0 3.186203732 0.539839887626 0.0
0.0 3.187554964 0.540562870325 0.0
0.0 3.188906195 0.541264019018 0.0
0.0 3.190257427 0.541942821738 0.0
0.0 3.191608658 0.542615945298 0.0
0.0 3.19295989 0.543282831386 0.0
0.0 3.194311121 0.54394384138 0.0
0.0 3.195662352 0.544601039824 0.0
0.0 3.197013584 0.545255972427 0.0
0.0 3.198364815 0.546380755175 0.0
0.0 3.199716047 0.547021602529 0.0
0.0 3.201067278 0.547624431097 0.0
0.0 3.20241851 0.54820800058 0.0
0.0 3.203769741 0.548791960577 0.0
0.0 3.205120973 0.549366916936 0.0
0.0 3.206472204 0.549943376769 0.0
0.0 3.207823435 0.55050613118 0.0
0.0 3.209174667 0.55106837157 0.0
0.0 3.210525898 0.551619541888 0.0
0.0 3.21187713 0.552171352518 0.0
0.0 3.213228361 0.552249518935 0.0
0.0 3.214579593 0.552800053762 0.0
0.0 3.215930824 0.553347361383 0.0
0.0 3.217282055 0.553904121678 0.0
0.0 3.218633287 0.554475628136 0.0
0.0 3.219984518 0.555058248026 0.0
0.0 3.22133575 0.555937318194 0.0
0.0 3.222686981 0.556982671921 0.0
0.0 3.224038213 0.557708628547 0.0
0.0 3.225389444 0.558441598761 0.0
0.0 3.226740676 0.559193413275 0.0
0.0 3.228091907 0.559944697099 0.0
0.0 3.229443138 0.560706764727 0.0
0.0 3.23079437 0.56132842185 0.0
0.0 3.232145601 0.561869960856 0.0
0.0 3.233496833 0.562419731838 0.0
0.0 3.234848064 0.562986718582 0.0
0.0 3.236199296 0.563557097915 0.0
0.0 3.237550527 0.56414137233 0.0
0.0 3.238901759 0.564740394758 0.0
0.0 3.24025299 0.56533979185 0.0
0.0 3.241604221 0.565900436854 0.0
0.0 3.242955453 0.56646203391 0.0
0.0 3.244306684 0.567190877798 0.0
0.0 3.245657916 0.568113553836 0.0
0.0 3.247009147 0.568687869363 0.0
0.0 3.248360379 0.569250882563 0.0
0.0 3.24971161 0.569820947443 0.0
0.0 3.251062841 0.570479787121 0.0
0.0 3.252414073 0.571167057856 0.0
0.0 3.253765304 0.571849903061 0.0
0.0 3.255116536 0.572539102692 0.0
0.0 3.256467767 0.573232274099 0.0
0.0 3.257818999 0.573926030915 0.0
0.0 3.25917023 0.574624646315 0.0
0.0 3.260521462 0.57528481979 0.0
0.0 3.261872693 0.57589637632 0.0
0.0 3.263223924 0.576494231011 0.0
0.0 3.264575156 0.577096462674 0.0
0.0 3.265926387 0.577682816236 0.0
0.0 3.267277619 0.578419654358 0.0
0.0 3.26862885 0.579382799586 0.0
0.0 3.269980082 0.579962246524 0.0
0.0 3.271331313 0.580416317868 0.0
0.0 3.272682544 0.580871406108 0.0
0.0 3.274033776 0.581329963513 0.0
0.0 3.275385007 0.58178353933 0.0
0.0 3.276736239 0.582241865823 0.0
0.0 3.27808747 0.58268775306 0.0
0.0 3.279438702 0.583143168743 0.0
0.0 3.280789933 0.583595317034 0.0
0.0 3.282141165 0.584060306129 0.0
0.0 3.283492396 0.584520979775 0.0
0.0 3.284843627 0.584987004327 0.0
0.0 3.286194859 0.58545553322 0.0
0.0 3.28754609 0.585930178279 0.0
0.0 3.288897322 0.586418215876 0.0
0.0 3.290248553 0.587447528098 0.0
0.0 3.291599785 0.587956143858 0.0
0.0 3.292951016 0.588463688359 0.0
0.0 3.294302247 0.58899446606 0.0
0.0 3.295653479 0.589526060981 0.0
0.0 3.29700471 0.590066400426 0.0
0.0 3.298355942 0.590606910859 0.0
0.0 3.299707173 0.591152907851 0.0
0.0 3.301058405 0.591597974781 0.0
0.0 3.302409636 0.592014176538 0.0
0.0 3.303760868 0.592443316378 0.0
0.0 3.305112099 0.592867652201 0.0
0.0 3.30646333 0.593309885857 0.0
0.0 3.307814562 0.593756482806 0.0
0.0 3.309165793 0.59422381749 0.0
0.0 3.310517025 0.594673042945 0.0
0.0 3.311868256 0.595567924915 0.0
0.0 3.313219488 0.59607149017 0.0
0.0 3.314570719 0.596504713969 0.0
0.0 3.315921951 0.596946907941 0.0
0.0 3.317273182 0.597380091067 0.0
0.0 3.318624413 0.597819288113 0.0
0.0 3.319975645 0.598247274293 0.0
0.0 3.321326876 0.598632387691 0.0
0.0 3.322678108 0.599009705057 0.0
0.0 3.324029339 0.599383339596 0.0
0.0 3.325380571 0.59975573715 0.0
0.0 3.326731802 0.600117770656 0.0
0.0 3.328083033 0.600485663303 0.0
0.0 3.329434265 0.600846306133 0.0
0.0 3.330785496 0.600866679413 0.0
0.0 3.332136728 0.600624058405 0.0
0.0 3.333487959 0.600379825857 0.0
0.0 3.334839191 0.600593973732 0.0
0.0 3.336190422 0.600426291883 0.0
0.0 3.337541654 0.600171151442 0.0
0.0 3.338892885 0.599900755877 0.0
0.0 3.340244116 0.599404729306 0.0
0.0 3.341595348 0.597867913177 0.0
0.0 3.342946579 0.596331146744 0.0
0.0 3.344297811 0.594782537252 0.0
0.0 3.345649042 0.59322523473 0.0
0.0 3.347000274 0.591660417831 0.0
0.0 3.348351505 0.590082533583 0.0
0.0 3.349702736 0.588511714781 0.0
0.0 3.351053968 0.58528434516 0.0
0.0 3.352405199 0.581591416564 0.0
0.0 3.353756431 0.577883595992 0.0
0.0 3.355107662 0.574170652225 0.0
0.0 3.356458894 0.570453142999 0.0
0.0 3.357810125 0.566728445474 0.0
0.0 3.359161357 0.563002900818 0.0
0.0 3.360512588 0.560843142404 0.0
0.0 3.361863819 0.561279587881 0.0
0.0 3.363215051 0.561709348567 0.0
0.0 3.364566282 0.562142797473 0.0
0.0 3.365917514 0.562577367706 0.0
0.0 3.367268745 0.563007963641 0.0
0.0 3.368619977 0.563443026028 0.0
0.0 3.369971208 0.563873305103 0.0
0.0 3.371322439 0.567904130141 0.0
0.0 3.372673671 0.572350692902 0.0
0.0 3.374024902 0.577164403675 0.0
0.0 3.375376134 0.581297306799 0.0
0.0 3.376727365 0.585432524787 0.0
0.0 3.378078597 0.589582235099 0.0
0.0 3.379429828 0.593733063589 0.0
0.0 3.38078106 0.596231693868 0.0
0.0 3.382132291 0.597510800987 0.0
0.0 3.383483522 0.598796893494 0.0
0.0 3.384834754 0.600084969075 0.0
0.0 3.386185985 0.601370347137 0.0
0.0 3.387537217 0.602665317116 0.0
0.0 3.388888448 0.603951144876 0.0
0.0 3.39023968 0.604965696642 0.0
0.0 3.391590911 0.604696361167 0.0
0.0 3.392942143 0.60442117824 0.0
0.0 3.394293374 0.604137502507 0.0
0.0 3.395644605 0.603838993613 0.0
0.0 3.396995837 0.60353980336 0.0
0.0 3.398347068 0.603222465158 0.0
0.0 3.3996983 0.602902305722 0.0
0.0 3.401049531 0.602521682872 0.0
0.0 3.402400763 0.602118615326 0.0
0.0 3.403751994 0.60171489686 0.0
0.0 3.405103225 0.601301645153 0.0
0.0 3.406454457 0.60089187157 0.0
0.0 3.407805688 0.600469159224 0.0
0.0 3.40915692 0.600131184632 0.0
0.0 3.410508151 0.600241615686 0.0
0.0 3.411859383 0.599997177876 0.0
0.0 3.413210614 0.599751525919 0.0
0.0 3.414561846 0.599490735719 0.0
0.0 3.415913077 0.599715916558 0.0
0.0 3.417264308 0.599491560194 0.0
0.0 3.41861554 0.599215302901 0.0
0.0 3.419966771 0.598934949806 0.0
0.0 3.421318003 0.599032058571 0.0
0.0 3.422669234 0.599143521192 0.0
0.0 3.424020466 0.599243720897 0.0
0.0 3.425371697 0.599344961883 0.0
0.0 3.426722928 0.599445178054 0.0
0.0 3.42807416 0.599545188904 0.0
0.0 3.429425391 0.59965456015 0.0
0.0 3.430776623 0.59965056812 0.0
0.0 3.432127854 0.599567908291 0.0
0.0 3.433479086 0.599469781962 0.0
0.0 3.434830317 0.599363021456 0.0
0.0 3.436181549 0.599253190102 0.0
0.0 3.43753278 0.599128819559 0.0
0.0 3.438884011 0.599003209369 0.0
0.0 3.440235243 0.598830001035 0.0
0.0 3.441586474 0.598486364041 0.0
0.0 3.442937706 0.598145979834 0.0
0.0 3.444288937 0.598361029749 0.0
0.0 3.445640169 0.598034968035 0.0
0.0 3.4469914 0.59770788614 0.0
0.0 3.448342631 0.597570595145 0.0
0.0 3.449693863 0.597600081661 0.0
0.0 3.451045094 0.597493322084 0.0
0.0 3.452396326 0.597459771696 0.0
0.0 3.453747557 0.597426312814 0.0
0.0 3.455098789 0.597404416873 0.0
0.0 3.45645002 0.597383296366 0.0
0.0 3.457801252 0.597363476269 0.0
0.0 3.459152483 0.597351030375 0.0
0.0 3.460503714 0.597484759011 0.0
0.0 3.461854946 0.597878023487 0.0
0.0 3.463206177 0.59827018209 0.0
0.0 3.464557409 0.598665651878 0.0
0.0 3.46590864 0.599065757867 0.0
0.0 3.467259872 0.599462758632 0.0
0.0 3.468611103 0.599868564025 0.0
0.0 3.469962335 0.600273053803 0.0
0.0 3.471313566 0.600359754569 0.0
0.0 3.472664797 0.600440984312 0.0
0.0 3.474016029 0.600519885616 0.0
0.0 3.47536726 0.600608054437 0.0
0.0 3.476718492 0.601097592469 0.0
0.0 3.478069723 0.601346203136 0.0
0.0 3.479420955 0.60166471395 0.0
0.0 3.480772186 0.602255923122 0.0
0.0 3.482123417 0.602684849596 0.0
0.0 3.483474649 0.603108382127 0.0
0.0 3.48482588 0.603529480094 0.0
0.0 3.486177112 0.603946734994 0.0
0.0 3.487528343 0.604354154175 0.0
0.0 3.488879575 0.604761461976 0.0
0.0 3.490230806 0.605184377047 0.0
0.0 3.491582038 0.605723100561 0.0
0.0 3.492933269 0.606259109077 0.0
0.0 3.4942845 0.606786116821 0.0
0.0 3.495635732 0.607312874187 0.0
0.0 3.496986963 0.607829019218 0.0
0.0 3.498338195 0.608341356206 0.0
0.0 3.499689426 0.608852982497 0.0
0.0 3.501040658 0.609301554934 0.0
0.0 3.502391889 0.609734295264 0.0
0.0 3.50374312 0.610160450129 0.0
0.0 3.505094352 0.610582531061 0.0
0.0 3.506445583 0.611001052684 0.0
0.0 3.507796815 0.611867782465 0.0
0.0 3.509148046 0.612399018252 0.0
0.0 3.510499278 0.613113325837 0.0
0.0 3.511850509 0.613870784966 0.0
0.0 3.513201741 0.614346844142 0.0
0.0 3.514552972 0.614807773938 0.0
0.0 3.515904203 0.615266408594 0.0
0.0 3.517255435 0.615718986946 0.0
0.0 3.518606666 0.616166461473 0.0
0.0 3.519957898 0.61660507332 0.0
0.0 3.521309129 0.616953427873 0.0
0.0 3.522660361 0.617291021253 0.0
0.0 3.524011592 0.617624359239 0.0
0.0 3.525362824 0.617957443353 0.0
0.0 3.526714055 0.6182942283 0.0
0.0 3.528065286 0.618627149148 0.0
0.0 3.529416518 0.61896268077 0.0
0.0 3.530767749 0.619266103868 0.0
0.0 3.532118981 0.619544817001 0.0
0.0 3.533470212 0.61982712382 0.0
0.0 3.534821444 0.620583353532 0.0
0.0 3.536172675 0.620968411998 0.0
0.0 3.537523906 0.621251642139 0.0
0.0 3.538875138 0.621533923447 0.0
0.0 3.540226369 0.621794285063 0.0
0.0 3.541577601 0.621927710874 0.0
0.0 3.542928832 0.622584994048 0.0
0.0 3.544280064 0.622771393826 0.0
0.0 3.545631295 0.622923860308 0.0
0.0 3.546982527 0.623084870001 0.0
0.0 3.548333758 0.62324818725 0.0
0.0 3.549684989 0.623412329957 0.0
0.0 3.551036221 0.623562419141 0.0
0.0 3.552387452 0.624246228611 0.0
0.0 3.553738684 0.624372551816 0.0
0.0 3.555089915 0.624502120499 0.0
0.0 3.556441147 0.624635127585 0.0
0.0 3.557792378 0.624775388882 0.0
0.0 3.559143609 0.624919753758 0.0
0.0 3.560494841 0.625095315352 0.0
0.0 3.561846072 0.625319897832 0.0
0.0 3.563197304 0.62554459121 0.0
0.0 3.564548535 0.625772391488 0.0
0.0 3.565899767 0.626003783407 0.0
0.0 3.567250998 0.626240721374 0.0
0.0 3.56860223 0.626837540893 0.0
0.0 3.569953461 0.627318492297 0.0
0.0 3.571304692 0.627505931823 0.0
0.0 3.572655924 0.627695179412 0.0
0.0 3.574007155 0.627883823846 0.0
0.0 3.575358387 0.628075690133 0.0
0.0 3.576709618 0.628268799796 0.0
0.0 3.57806085 0.629026559814 0.0
0.0 3.579412081 0.629219158585 0.0
0.0 3.580763312 0.629376161567 0.0
0.0 3.582114544 0.629506836349 0.0
0.0 3.583465775 0.62963842774 0.0
0.0 3.584817007 0.630257554577 0.0
0.0 3.586168238 0.63050385715 0.0
0.0 3.58751947 0.630639045888 0.0
0.0 3.588870701 0.630772515146 0.0
0.0 3.590221933 0.630895801174 0.0
0.0 3.591573164 0.6309583063 0.0
0.0 3.592924395 0.631020046093 0.0
0.0 3.594275627 0.631082237962 0.0
0.0 3.595626858 0.6311447392 0.0
0.0 3.59697809 0.631208073517 0.0
0.0 3.598329321 0.63127433965 0.0
0.0 3.599680553 0.631344523714 0.0
0.0 3.601031784 0.631414157769 0.0
0.0 3.602383016 0.631481228641 0.0
0.0 3.603734247 0.631981106774 0.0
0.0 3.605085478 0.632202055395 0.0
0.0 3.60643671 0.632263182498 0.0
0.0 3.607787941 0.632325489764 0.0
0.0 3.609139173 0.632388489177 0.0
0.0 3.610490404 0.632427404374 0.0
0.0 3.611841636 0.632426779259 0.0
0.0 3.613192867 0.632428236382 0.0
0.0 3.614544098 0.632429510084 0.0
0.0 3.61589533 0.632429282222 0.0
0.0 3.617246561 0.632429984757 0.0
0.0 3.618597793 0.632427658332 0.0
0.0 3.619949024 0.632963886795 0.0
0.0 3.621300256 0.632978382116 0.0
0.0 3.622651487 0.632966339345 0.0
0.0 3.624002719 0.632957364648 0.0
0.0 3.62535395 0.632949498013 0.0
0.0 3.626705181 0.632945397119 0.0
0.0 3.628056413 0.632941633473 0.0
0.0 3.629407644 0.632936274063 0.0
0.0 3.630758876 0.632973971729 0.0
0.0 3.632110107 0.633044261722 0.0
0.0 3.633461339 0.633111410004 0.0
0.0 3.63481257 0.633179734666 0.0
0.0 3.636163801 0.633249743539 0.0
0.0 3.637515033 0.633319291172 0.0
0.0 3.638866264 0.633392269359 0.0
0.0 3.640217496 0.633477938694 0.0
0.0 3.641568727 0.633621598475 0.0
0.0 3.642919959 0.633764955348 0.0
0.0 3.64427119 0.63390698329 0.0
0.0 3.645622422 0.634049369008 0.0
0.0 3.646973653 0.634188919483 0.0
0.0 3.648324884 0.63432938331 0.0
0.0 3.649676116 0.634875114586 0.0
0.0 3.651027347 0.63526389639 0.0
0.0 3.652378579 0.635478459412 0.0
0.0 3.65372981 0.635695955021 0.0
0.0 3.655081042 0.635910884321 0.0
0.0 3.656432273 0.636126072555 0.0
0.0 3.657783504 0.636341911259 0.0
0.0 3.659134736 0.636550854482 0.0
0.0 3.660485967 0.636731929826 0.0
0.0 3.661837199 0.636867133578 0.0
0.0 3.66318843 0.63700041032 0.0
0.0 3.664539662 0.637135408462 0.0
0.0 3.665890893 0.637269881314 0.0
0.0 3.667242125 0.637403008737 0.0
0.0 3.668593356 0.63753525764 0.0
0.0 3.669944587 0.638207433278 0.0
0.0 3.671295819 0.638434666904 0.0
0.0 3.67264705 0.638628459836 0.0
0.0 3.673998282 0.638817356188 0.0
0.0 3.675349513 0.639004506317 0.0
0.0 3.676700745 0.639186363728 0.0
0.0 3.678051976 0.639366937568 0.0
0.0 3.679403208 0.639550461015 0.0
0.0 3.680754439 0.639728386939 0.0
0.0 3.68210567 0.639907335422 0.0
0.0 3.683456902 0.640088665356 0.0
0.0 3.684808133 0.64026206278 0.0
0.0 3.686159365 0.640433728109 0.0
0.0 3.687510596 0.640605818092 0.0
0.0 3.688861828 0.640771758629 0.0
0.0 3.690213059 0.640917717203 0.0
0.0 3.69156429 0.640948851194 0.0
0.0 3.692915522 0.640975705134 0.0
0.0 3.694266753 0.641608158802 0.0
0.0 3.695617985 0.641639866348 0.0
0.0 3.696969216 0.641669547969 0.0
0.0 3.698320448 0.641702458529 0.0
0.0 3.699671679 0.641732973974 0.0
0.0 3.701022911 0.641761098203 0.0
0.0 3.702374142 0.64178964686 0.0
0.0 3.703725373 0.641815924465 0.0
0.0 3.705076605 0.641844644594 0.0
0.0 3.706427836 0.641878496408 0.0
0.0 3.707779068 0.64191288243 0.0
0.0 3.709130299 0.641951705907 0.0
0.0 3.710481531 0.642018578233 0.0
0.0 3.711832762 0.642129175356 0.0
0.0 3.713183993 0.642243390508 0.0
0.0 3.714535225 0.642355906336 0.0
0.0 3.715886456 0.642463780519 0.0
0.0 3.717237688 0.642573160444 0.0
0.0 3.718588919 0.642682103186 0.0
0.0 3.719940151 0.642792058858 0.0
0.0 3.721291382 0.642907804992 0.0
0.0 3.722642614 0.643022739057 0.0
0.0 3.723993845 0.643139380321 0.0
0.0 3.725345076 0.643260622014 0.0
0.0 3.726696308 0.643380910925 0.0
0.0 3.728047539 0.643502658132 0.0
0.0 3.729398771 0.643624340771 0.0
0.0 3.730750002 0.643743295515 0.0
0.0 3.732101234 0.64386524801 0.0
0.0 3.733452465 0.643987047266 0.0
0.0 3.734803696 0.644104829136 0.0
0.0 3.736154928 0.644829713922 0.0
0.0 3.737506159 0.644947444549 0.0
0.0 3.738857391 0.645059046299 0.0
0.0 3.740208622 0.645279758185 0.0
0.0 3.741559854 0.645770187282 0.0
0.0 3.742911085 0.645790770445 0.0
0.0 3.744262317 0.645807866337 0.0
0.0 3.745613548 0.64581558286 0.0
0.0 3.746964779 0.645814591436 0.0
0.0 3.748316011 0.645810524787 0.0
0.0 3.749667242 0.645798636726 0.0
0.0 3.751018474 0.64578065367 0.0
0.0 3.752369705 0.645760213174 0.0
0.0 3.753720937 0.645730221927 0.0
0.0 3.755072168 0.645693131446 0.0
0.0 3.7564234 0.645649123177 0.0
0.0 3.757774631 0.645591104896 0.0
0.0 3.759125862 0.645524052166 0.0
0.0 3.760477094 0.645448352654 0.0
0.0 3.761828325 0.645358134893 0.0
0.0 3.763179557 0.645260570731 0.0
0.0 3.764530788 0.645157744318 0.0
0.0 3.76588202 0.645044707659 0.0
0.0 3.767233251 0.64492860094 0.0
0.0 3.768584482 0.644808245742 0.0
0.0 3.769935714 0.644677263709 0.0
0.0 3.771286945 0.644534046606 0.0
0.0 3.772638177 0.644383241437 0.0
0.0 3.773989408 0.644220156607 0.0
0.0 3.77534064 0.644051656802 0.0
0.0 3.776691871 0.644294867039 0.0
0.0 3.778043103 0.644299354373 0.0
0.0 3.779394334 0.644119124679 0.0
0.0 3.780745565 0.643981751372 0.0
0.0 3.782096797 0.643876713787 0.0
0.0 3.783448028 0.643776042813 0.0
0.0 3.78479926 0.643675124658 0.0
0.0 3.786150491 0.643570640775 0.0
0.0 3.787501723 0.643469519508 0.0
0.0 3.788852954 0.643366229728 0.0
0.0 3.790204185 0.64323895557 0.0
0.0 3.791555417 0.642999198222 0.0
0.0 3.792906648 0.64276367082 0.0
0.0 3.79425788 0.642534141995 0.0
0.0 3.795609111 0.642320519662 0.0
0.0 3.796960343 0.642112913451 0.0
0.0 3.798311574 0.641911882759 0.0
0.0 3.799662806 0.64172669688 0.0
0.0 3.801014037 0.641657267985 0.0
0.0 3.802365268 0.641631902908 0.0
0.0 3.8037165 0.641622070902 0.0
0.0 3.805067731 0.64161772999 0.0
0.0 3.806418963 0.641622811604 0.0
0.0 3.807770194 0.641649573966 0.0
0.0 3.809121426 0.641689959228 0.0
0.0 3.810472657 0.641718673064 0.0
0.0 3.811823889 0.641719238951 0.0
0.0 3.81317512 0.64173037358 0.0
0.0 3.814526351 0.641754588467 0.0
0.0 3.815877583 0.641798053331 0.0
0.0 3.817228814 0.64198544034 0.0
0.0 3.818580046 0.642505223369 0.0
0.0 3.819931277 0.642577379095 0.0
0.0 3.821282509 0.64266456152 0.0
0.0 3.82263374 0.64276351723 0.0
0.0 3.823984971 0.642880478698 0.0
0.0 3.825336203 0.643006197696 0.0
0.0 3.826687434 0.643143028838 0.0
0.0 3.828038666 0.64329539166 0.0
0.0 3.829389897 0.643450246337 0.0
0.0 3.830741129 0.643606696071 0.0
0.0 3.83209236 0.643768699074 0.0
0.0 3.833443592 0.643924111345 0.0
0.0 3.834794823 0.64407592614 0.0
0.0 3.836146054 0.644229295348 0.0
0.0 3.837497286 0.644374294115 0.0
0.0 3.838848517 0.645004689494 0.0
0.0 3.840199749 0.645232676142 0.0
0.0 3.84155098 0.645358579027 0.0
0.0 3.842902212 0.645470853829 0.0
0.0 3.844253443 0.645576483121 0.0
0.0 3.845604674 0.645663352043 0.0
0.0 3.846955906 0.645730058317 0.0
0.0 3.848307137 0.645780382631 0.0
0.0 3.849658369 0.645801426511 0.0
0.0 3.8510096 0.645788064325 0.0
0.0 3.852360832 0.645753102504 0.0
0.0 3.853712063 0.645689797674 0.0
0.0 3.855063295 0.645596463799 0.0
0.0 3.856414526 0.645480396204 0.0
0.0 3.857765757 0.645789079706 0.0
0.0 3.859116989 0.645741050466 0.0
0.0 3.86046822 0.645524992379 0.0
0.0 3.861819452 0.645273847878 0.0
0.0 3.863170683 0.644979653474 0.0
0.0 3.864521915 0.644650963984 0.0
0.0 3.865873146 0.644282350926 0.0
0.0 3.867224377 0.643869177412 0.0
0.0 3.868575609 0.643424711193 0.0
0.0 3.86992684 0.642945972768 0.0
0.0 3.871278072 0.642414730331 0.0
0.0 3.872629303 0.641854115658 0.0
0.0 3.873980535 0.641259629724 0.0
0.0 3.875331766 0.640622269344 0.0
0.0 3.876682998 0.639953141438 0.0
0.0 3.878034229 0.63925098741 0.0
0.0 3.87938546 0.638509062032 0.0
0.0 3.880736692 0.637746333311 0.0
0.0 3.882087923 0.636962676602 0.0
0.0 3.883439155 0.636148368128 0.0
0.0 3.884790386 0.635313819457 0.0
0.0 3.886141618 0.634464842929 0.0
0.0 3.887492849 0.633593604992 0.0
0.0 3.888844081 0.632706547054 0.0
0.0 3.890195312 0.631809898596 0.0
0.0 3.891546543 0.630887633573 0.0
0.0 3.892897775 0.629951101188 0.0
0.0 3.894249006 0.629007815587 0.0
0.0 3.895600238 0.628045729082 0.0
0.0 3.896951469 0.627070406584 0.0
0.0 3.898302701 0.626667585151 0.0
0.0 3.899653932 0.62567694522 0.0
0.0 3.901005163 0.624672327618 0.0
0.0 3.902356395 0.623664947967 0.0
0.0 3.903707626 0.622649290428 0.0
0.0 3.905058858 0.621619782517 0.0
0.0 3.906410089 0.620585531999 0.0
0.0 3.907761321 0.619538317269 0.0
0.0 3.909112552 0.618466612495 0.0
0.0 3.910463784 0.617382643857 0.0
0.0 3.911815015 0.616282071102 0.0
0.0 3.913166246 0.615144292026 0.0
0.0 3.914517478 0.614255110415 0.0
0.0 3.915868709 0.613306408576 0.0
0.0 3.917219941 0.612044648715 0.0
0.0 3.918571172 0.610727877598 0.0
0.0 3.919922404 0.609348983784 0.0
0.0 3.921273635 0.607891252033 0.0
0.0 3.922624866 0.60634323899 0.0
0.0 3.923976098 0.60469907805 0.0
0.0 3.925327329 0.602933360661 0.0
0.0 3.926678561 0.601035923952 0.0
0.0 3.928029792 0.599000638643 0.0
0.0 3.929381024 0.596801040549 0.0
0.0 3.930732255 0.594418369319 0.0
0.0 3.932083487 0.591842138948 0.0
0.0 3.933434718 0.589054634785 0.0
0.0 3.934785949 0.586037577459 0.0
0.0 3.936137181 0.582783444286 0.0
0.0 3.937488412 0.579526170688 0.0
0.0 3.938839644 0.575994836966 0.0
0.0 3.940190875 0.57192275882 0.0
0.0 3.941542107 0.567603522839 0.0
0.0 3.942893338 0.562955970847 0.0
0.0 3.944244569 0.557978050683 0.0
0.0 3.945595801 0.552659757189 0.0
0.0 3.946947032 0.546987988365 0.0
0.0 3.948298264 0.540962400685 0.0
0.0 3.949649495 0.534587346771 0.0
0.0 3.951000727 0.527809089903 0.0
0.0 3.952351958 0.52066515134 0.0
0.0 3.95370319 0.513196947047 0.0
0.0 3.955054421 0.505403280304 0.0
0.0 3.956405652 0.497293870033 0.0
0.0 3.957756884 0.488894006205 0.0
0.0 3.959108115 0.480219610482 0.0
0.0 3.960459347 0.471293213713 0.0
0.0 3.961810578 0.46214772673 0.0
0.0 3.96316181 0.452810061142 0.0
0.0 3.964513041 0.443303822 0.0
0.0 3.965864273 0.433669958132 0.0
0.0 3.967215504 0.423946790393 0.0
0.0 3.968566735 0.414153546155 0.0
0.0 3.969917967 0.404607651453 0.0
0.0 3.971269198 0.394808783247 0.0
0.0 3.97262043 0.385017208523 0.0
0.0 3.973971661 0.375287985952 0.0
0.0 3.975322893 0.365655276046 0.0
0.0 3.976674124 0.356145267058 0.0
0.0 3.978025355 0.347029648406 0.0
0.0 3.979376587 0.337837624642 0.0
0.0 3.980727818 0.328839372483 0.0
0.0 3.98207905 0.320050537106 0.0
0.0 3.983430281 0.311493856113 0.0
0.0 3.984781513 0.30318300716 0.0
0.0 3.986132744 0.295125929369 0.0
0.0 3.987483976 0.287331987296 0.0
0.0 3.988835207 0.279811585857 0.0
0.0 3.990186438 0.272565546556 0.0
0.0 3.99153767 0.265598329555 0.0
0.0 3.992888901 0.258914698346 0.0
0.0 3.994240133 0.252510102686 0.0
0.0 3.995591364 0.24638171248 0.0
0.0 3.996942596 0.240527954966 0.0
0.0 3.998293827 0.234943759241 0.0
0.0 3.999645058 0.229619782381 0.0
0.0 4.00099629 0.224551114064 0.0
0.0 4.002347521 0.219733594722 0.0
0.0 4.003698753 0.215156370788 0.0
0.0 4.005049984 0.210813491438 0.0
0.0 4.006401216 0.206697270677 0.0
0.0 4.007752447 0.20279766662 0.0
0.0 4.009103679 0.199105815069 0.0
0.0 4.01045491 0.195618881755 0.0
0.0 4.011806141 0.192328896028 0.0
0.0 4.013157373 0.189219024189 0.0
0.0 4.014508604 0.186284020773 0.0
0.0 4.015859836 0.183515027015 0.0
0.0 4.017211067 0.180902981009 0.0
0.0 4.018562299 0.178468944447 0.0
0.0 4.01991353 0.176169124905 0.0
0.0 4.021264761 0.174019878829 0.0
0.0 4.022615993 0.171952638966 0.0
0.0 4.023967224 0.170009519502 0.0
0.0 4.025318456 0.168181741778 0.0
0.0 4.026669687 0.166463037582 0.0
0.0 4.028020919 0.16484908063 0.0
0.0 4.02937215 0.163334841536 0.0
0.0 4.030723382 0.161913194369 0.0
0.0 4.032074613 0.160579536864 0.0
0.0 4.033425844 0.159329130731 0.0
0.0 4.034777076 0.158155180062 0.0
0.0 4.036128307 0.157054946973 0.0
0.0 4.037479539 0.156025629956 0.0
0.0 4.03883077 0.155062693081 0.0
0.0 4.040182002 0.154161089669 0.0
0.0 4.041533233 0.153320128559 0.0
0.0 4.042884465 0.152534521228 0.0
0.0 4.044235696 0.151800850567 0.0
0.0 4.045586927 0.151117996809 0.0
0.0 4.046938159 0.150482739884 0.0
0.0 4.04828939 0.149890627536 0.0
0.0 4.049640622 0.149338120579 0.0
0.0 4.050991853 0.148823987404 0.0
0.0 4.052343085 0.148346584352 0.0
0.0 4.053694316 0.147903880048 0.0
0.0 4.055045547 0.147494829885 0.0
0.0 4.056396779 0.147116929303 0.0
0.0 4.05774801 0.146767437551 0.0
0.0 4.059099242 0.146444876036 0.0
0.0 4.060450473 0.146153068657 0.0
0.0 4.061801705 0.145884967848 0.0
0.0 4.063152936 0.145634047049 0.0
0.0 4.064504168 0.145404957473 0.0
0.0 4.065855399 0.145196558467 0.0
0.0 4.06720663 0.145007197402 0.0
0.0 4.068557862 0.144836407815 0.0
0.0 4.069909093 0.144683937567 0.0
0.0 4.071260325 0.144548019462 0.0
0.0 4.072611556 0.144431128419 0.0
0.0 4.073962788 0.144328168071 0.0
0.0 4.075314019 0.144237355358 0.0
0.0 4.07666525 0.144159255503 0.0
0.0 4.078016482 0.144094159111 0.0
0.0 4.079367713 0.14404108012 0.0
0.0 4.080718945 0.143998087705 0.0
0.0 4.082070176 0.143965410878 0.0
0.0 4.083421408 0.143942954131 0.0
0.0 4.084772639 0.143929316393 0.0
0.0 4.086123871 0.143922824422 0.0
0.0 4.087475102 0.143924283844 0.0
0.0 4.088826333 0.143932985776 0.0
0.0 4.090177565 0.143948656953 0.0
0.0 4.091528796 0.143971541163 0.0
0.0 4.092880028 0.144001872086 0.0
0.0 4.094231259 0.144039282353 0.0
0.0 4.095582491 0.144083756812 0.0
0.0 4.096933722 0.144135493505 0.0
0.0 4.098284953 0.144192534534 0.0
0.0 4.099636185 0.14425407941 0.0
0.0 4.100987416 0.144320578701 0.0
0.0 4.102338648 0.144392926054 0.0
0.0 4.103689879 0.144470815659 0.0
0.0 4.105041111 0.144551784458 0.0
0.0 4.106392342 0.144635989722 0.0
0.0 4.107743574 0.14472393984 0.0
0.0 4.109094805 0.144815643305 0.0
0.0 4.110446036 0.144912086122 0.0
0.0 4.111797268 0.145012857469 0.0
0.0 4.113148499 0.145116258932 0.0
0.0 4.114499731 0.145222761919 0.0
0.0 4.115850962 0.14533246025 0.0
0.0 4.117202194 0.145444899954 0.0
0.0 4.118553425 0.145559853508 0.0
0.0 4.119904657 0.145677738052 0.0
0.0 4.121255888 0.145797600768 0.0
0.0 4.122607119 0.145919252304 0.0
0.0 4.123958351 0.146042743193 0.0
0.0 4.125309582 0.146168519269 0.0
0.0 4.126660814 0.146295947276 0.0
0.0 4.128012045 0.146424935445 0.0
0.0 4.129363277 0.146556593392 0.0
0.0 4.130714508 0.146690506409 0.0
0.0 4.132065739 0.146826402358 0.0
0.0 4.133416971 0.146964562219 0.0
0.0 4.134768202 0.147105536467 0.0
0.0 4.136119434 0.147248381208 0.0
0.0 4.137470665 0.147393167644 0.0
0.0 4.138821897 0.14754019998 0.0
0.0 4.140173128 0.147689130284 0.0
0.0 4.14152436 0.147838285793 0.0
0.0 4.142875591 0.147987975399 0.0
0.0 4.144226822 0.148138938587 0.0
0.0 4.145578054 0.148291317988 0.0
0.0 4.146929285 0.148444908313 0.0
0.0 4.148280517 0.14860028938 0.0
0.0 4.149631748 0.148756595205 0.0
0.0 4.15098298 0.148913922555 0.0
0.0 4.152334211 0.149073480905 0.0
0.0 4.153685442 0.14923507893 0.0
0.0 4.155036674 0.149397401643 0.0
0.0 4.156387905 0.149559237733 0.0
0.0 4.157739137 0.14972196375 0.0
0.0 4.159090368 0.149886307939 0.0
0.0 4.1604416 0.15005234969 0.0
0.0 4.161792831 0.150219598225 0.0
0.0 4.163144063 0.150388252573 0.0
0.0 4.164495294 0.150557898773 0.0
0.0 4.165846525 0.150728605086 0.0
0.0 4.167197757 0.150901055186 0.0
0.0 4.168548988 0.151075272086 0.0
0.0 4.16990022 0.151250481633 0.0
0.0 4.171251451 0.151426091439 0.0
0.0 4.172602683 0.15160246163 0.0
0.0 4.173953914 0.151779045468 0.0
0.0 4.175305146 0.151955733364 0.0
0.0 4.176656377 0.152133524865 0.0
0.0 4.178007608 0.152313068505 0.0
0.0 4.17935884 0.152493278269 0.0
0.0 4.180710071 0.152673691053 0.0
0.0 4.182061303 0.152854721633 0.0
0.0 4.183412534 0.153037133862 0.0
0.0 4.184763766 0.153220504923 0.0
0.0 4.186114997 0.153405202735 0.0
0.0 4.187466228 0.153590912593 0.0
0.0 4.18881746 0.153777468747 0.0
0.0 4.190168691 0.153964467825 0.0
0.0 4.191519923 0.154152638181 0.0
0.0 4.192871154 0.1543420864 0.0
0.0 4.194222386 0.154532339042 0.0
0.0 4.195573617 0.154723172294 0.0
0.0 4.196924849 0.15491535655 0.0
0.0 4.19827608 0.155108494083 0.0
0.0 4.199627311 0.155301869895 0.0
0.0 4.200978543 0.155495975081 0.0
0.0 4.202329774 0.155691338867 0.0
0.0 4.203681006 0.155887835626 0.0
0.0 4.205032237 0.156085034664 0.0
0.0 4.206383469 0.156283467675 0.0
0.0 4.2077347 0.156483075008 0.0
0.0 4.209085931 0.156683622803 0.0
0.0 4.210437163 0.156885061635 0.0
0.0 4.211788394 0.157087846938 0.0
0.0 4.213139626 0.157291264657 0.0
0.0 4.214490857 0.15749480409 0.0
0.0 4.215842089 0.15769852762 0.0
0.0 4.21719332 0.157903256934 0.0
0.0 4.218544552 0.158108688035 0.0
0.0 4.219895783 0.158314912346 0.0
0.0 4.221247014 0.158521943923 0.0
0.0 4.222598246 0.158729711752 0.0
0.0 4.223949477 0.158937742462 0.0
0.0 4.225300709 0.159146409065 0.0
0.0 4.22665194 0.159356027814 0.0
0.0 4.228003172 0.159566242752 0.0
0.0 4.229354403 0.159777280283 0.0
0.0 4.230705634 0.159989784058 0.0
0.0 4.232056866 0.160204140315 0.0
0.0 4.233408097 0.160419477906 0.0
0.0 4.234759329 0.160635166237 0.0
0.0 4.23611056 0.160851880288 0.0
0.0 4.237461792 0.16106945383 0.0
0.0 4.238813023 0.1612869078 0.0
0.0 4.240164255 0.161503447875 0.0
0.0 4.241515486 0.161720134809 0.0
0.0 4.242866717 0.161937488764 0.0
0.0 4.244217949 0.162156050585 0.0
0.0 4.24556918 0.162376500257 0.0
0.0 4.246920412 0.162598302869 0.0
0.0 4.248271643 0.162821178603 0.0
0.0 4.249622875 0.163045219265 0.0
0.0 4.250974106 0.163271086584 0.0
0.0 4.252325338 0.16349778765 0.0
0.0 4.253676569 0.163724172572 0.0
0.0 4.2550278 0.163950118634 0.0
0.0 4.256379032 0.164176337831 0.0
0.0 4.257730263 0.164403391995 0.0
0.0 4.259081495 0.16463113516 0.0
0.0 4.260432726 0.164859973592 0.0
0.0 4.261783958 0.16509013514 0.0
0.0 4.263135189 0.165321616448 0.0
0.0 4.26448642 0.165554107427 0.0
0.0 4.265837652 0.165787804748 0.0
0.0 4.267188883 0.166022460547 0.0
0.0 4.268540115 0.166257386501 0.0
0.0 4.269891346 0.16649233953 0.0
0.0 4.271242578 0.166727893957 0.0
0.0 4.272593809 0.166964281425 0.0
0.0 4.273945041 0.167201425986 0.0
0.0 4.275296272 0.167439838291 0.0
0.0 4.276647503 0.167679746494 0.0
0.0 4.277998735 0.167920935103 0.0
0.0 4.279349966 0.168163154864 0.0
0.0 4.280701198 0.16840701149 0.0
0.0 4.282052429 0.168652619839 0.0
0.0 4.283403661 0.168899181733 0.0
0.0 4.284754892 0.169146192823 0.0
0.0 4.286106123 0.169393849414 0.0
0.0 4.287457355 0.169642457964 0.0
0.0 4.288808586 0.169891735999 0.0
0.0 4.290159818 0.17014171417 0.0
0.0 4.291511049 0.170392561929 0.0
0.0 4.292862281 0.17064423459 0.0
0.0 4.294213512 0.170896470128 0.0
0.0 4.295564744 0.171149274813 0.0
0.0 4.296915975 0.171402957729 0.0
0.0 4.298267206 0.171657468169 0.0
0.0 4.299618438 0.171912168275 0.0
0.0 4.300969669 0.172167546886 0.0
0.0 4.302320901 0.1724235941 0.0
0.0 4.303672132 0.172679902242 0.0
0.0 4.305023364 0.172936934475 0.0
0.0 4.306374595 0.173194946175 0.0
0.0 4.307725826 0.1734540051 0.0
0.0 4.309077058 0.173714048222 0.0
0.0 4.310428289 0.173975590102 0.0
0.0 4.311779521 0.174238185977 0.0
0.0 4.313130752 0.174502382203 0.0
0.0 4.314481984 0.174767856236 0.0
0.0 4.315833215 0.175034304378 0.0
0.0 4.317184447 0.175301732675 0.0
0.0 4.318535678 0.175570114617 0.0
0.0 4.319886909 0.175838922594 0.0
0.0 4.321238141 0.176108623844 0.0
0.0 4.322589372 0.176379661841 0.0
0.0 4.323940604 0.176651509568 0.0
0.0 4.325291835 0.176923677848 0.0
0.0 4.326643067 0.177196437987 0.0
0.0 4.327994298 0.177470199479 0.0
0.0 4.32934553 0.177745197219 0.0
0.0 4.330696761 0.178021076576 0.0
0.0 4.332047992 0.17829758878 0.0
0.0 4.333399224 0.178574992158 0.0
0.0 4.334750455 0.178853618652 0.0
0.0 4.336101687 0.179133671173 0.0
0.0 4.337452918 0.17941483082 0.0
0.0 4.33880415 0.179696695214 0.0
0.0 4.340155381 0.179979023163 0.0
0.0 4.341506612 0.180261855973 0.0
0.0 4.342857844 0.180545538368 0.0
0.0 4.344209075 0.180829917556 0.0
0.0 4.345560307 0.181114894951 0.0
0.0 4.346911538 0.181400316989 0.0
0.0 4.34826277 0.181686643005 0.0
0.0 4.349614001 0.181974066056 0.0
0.0 4.350965233 0.182262898793 0.0
0.0 4.352316464 0.18255323092 0.0
0.0 4.353667695 0.182845091478 0.0
0.0 4.355018927 0.183138270032 0.0
0.0 4.356370158 0.183432576367 0.0
0.0 4.35772139 0.183727824963 0.0
0.0 4.359072621 0.184024183803 0.0
0.0 4.360423853 0.184321478357 0.0
0.0 4.361775084 0.184619254465 0.0
0.0 4.363126315 0.184917241118 0.0
0.0 4.364477547 0.185215653117 0.0
0.0 4.365828778 0.185514740528 0.0
0.0 4.36718001 0.185814593353 0.0
0.0 4.368531241 0.186115420647 0.0
0.0 4.369882473 0.186417098147 0.0
0.0 4.371233704 0.186719765505 0.0
0.0 4.372584936 0.187023541355 0.0
0.0 4.373936167 0.187328891409 0.0
0.0 4.375287398 0.187635685054 0.0
0.0 4.37663863 0.187943988898 0.0
0.0 4.377989861 0.188253484149 0.0
0.0 4.379341093 0.188564288381 0.0
0.0 4.380692324 0.188876136681 0.0
0.0 4.382043556 0.189188913735 0.0
0.0 4.383394787 0.189502338984 0.0
0.0 4.384746018 0.189816605633 0.0
0.0 4.38609725 0.190131714283 0.0
0.0 4.387448481 0.190447565447 0.0
0.0 4.388799713 0.190764027163 0.0
0.0 4.390150944 0.191081249251 0.0
0.0 4.391502176 0.191399420659 0.0
0.0 4.392853407 0.191718599756 0.0
0.0 4.394204639 0.192038801758 0.0
0.0 4.39555587 0.192360050168 0.0
0.0 4.396907101 0.19268286747 0.0
0.0 4.398258333 0.193007208572 0.0
0.0 4.399609564 0.193332924866 0.0
0.0 4.400960796 0.19365946018 0.0
0.0 4.402312027 0.193986809707 0.0
0.0 4.403663259 0.194315185448 0.0
0.0 4.40501449 0.194644839424 0.0
0.0 4.406365722 0.194975456025 0.0
0.0 4.407716953 0.195306695131 0.0
0.0 4.409068184 0.195638807607 0.0
0.0 4.410419416 0.195972036558 0.0
0.0 4.411770647 0.196306450086 0.0
0.0 4.413121879 0.196642475328 0.0
0.0 4.41447311 0.196979765227 0.0
0.0 4.415824342 0.197318017051 0.0
0.0 4.417175573 0.197656517608 0.0
0.0 4.418526804 0.197995543106 0.0
0.0 4.419878036 0.198335006375 0.0
0.0 4.421229267 0.198675368359 0.0
0.0 4.422580499 0.199017048287 0.0
0.0 4.42393173 0.199359659225 0.0
0.0 4.425282962 0.199703554243 0.0
0.0 4.426634193 0.200048553279 0.0
0.0 4.427985425 0.200395588952 0.0
0.0 4.429336656 0.200744181242 0.0
0.0 4.430687887 0.20109434664 0.0
0.0 4.432039119 0.201445365752 0.0
0.0 4.43339035 0.201797266836 0.0
0.0 4.434741582 0.202149984905 0.0
0.0 4.436092813 0.202503892003 0.0
0.0 4.437444045 0.20285928666 0.0
0.0 4.438795276 0.203216026928 0.0
0.0 4.440146507 0.203573948883 0.0
0.0 4.441497739 0.203932854412 0.0
0.0 4.44284897 0.204293143083 0.0
0.0 4.444200202 0.204654529355 0.0
0.0 4.445551433 0.205017040569 0.0
0.0 4.446902665 0.205379749111 0.0
0.0 4.448253896 0.205742532624 0.0
0.0 4.449605128 0.20610507868 0.0
0.0 4.450956359 0.206468171248 0.0
0.0 4.45230759 0.206832044856 0.0
0.0 4.453658822 0.207197070914 0.0
0.0 4.455010053 0.207563393798 0.0
0.0 4.456361285 0.207931145653 0.0
0.0 4.457712516 0.208300962761 0.0
0.0 4.459063748 0.208672549967 0.0
0.0 4.460414979 0.209046000517 0.0
0.0 4.461766211 0.20942049301 0.0
0.0 4.463117442 0.209796293226 0.0
0.0 4.464468673 0.210172875823 0.0
0.0 4.465819905 0.210550201436 0.0
0.0 4.467171136 0.210927837457 0.0
0.0 4.468522368 0.211306025472 0.0
0.0 4.469873599 0.211685344171 0.0
0.0 4.471224831 0.212066191871 0.0
0.0 4.472576062 0.212448338115 0.0
0.0 4.473927293 0.212831294921 0.0
0.0 4.475278525 0.213215741579 0.0
0.0 4.476629756 0.213601464617 0.0
0.0 4.477980988 0.21398885114 0.0
0.0 4.479332219 0.214377307593 0.0
0.0 4.480683451 0.214767143895 0.0
0.0 4.482034682 0.215157830195 0.0
0.0 4.483385914 0.215549717967 0.0
0.0 4.484737145 0.21594293671 0.0
0.0 4.486088376 0.216337246103 0.0
0.0 4.487439608 0.216733087232 0.0
0.0 4.488790839 0.217129847677 0.0
0.0 4.490142071 0.217528019842 0.0
0.0 4.491493302 0.217927498765 0.0
0.0 4.492844534 0.218328569392 0.0
0.0 4.494195765 0.218730641555 0.0
0.0 4.495546996 0.21913377492 0.0
0.0 4.496898228 0.219537962702 0.0
0.0 4.498249459 0.219943393715 0.0
0.0 4.499600691 0.220349825406 0.0
0.0 4.500951922 0.22075673921 0.0
0.0 4.502303154 0.221164241702 0.0
0.0 4.503654385 0.221572547138 0.0
0.0 4.505005617 0.221982106211 0.0
0.0 4.506356848 0.222393097596 0.0
0.0 4.507708079 0.222805454093 0.0
0.0 4.509059311 0.223218915457 0.0
0.0 4.510410542 0.223634009254 0.0
0.0 4.511761774 0.224050617921 0.0
0.0 4.513113005 0.224468667923 0.0
0.0 4.514464237 0.224888472293 0.0
0.0 4.515815468 0.225310119741 0.0
0.0 4.517166699 0.225732965798 0.0
0.0 4.518517931 0.226156982238 0.0
0.0 4.519869162 0.226582510556 0.0
0.0 4.521220394 0.22700935193 0.0
0.0 4.522571625 0.227437503746 0.0
0.0 4.523922857 0.227866690565 0.0
0.0 4.525274088 0.228296987243 0.0
0.0 4.52662532 0.228728206751 0.0
0.0 4.527976551 0.229160371007 0.0
0.0 4.529327782 0.229593455564 0.0
0.0 4.530679014 0.230027511946 0.0
0.0 4.532030245 0.230463138038 0.0
0.0 4.533381477 0.230900184157 0.0
0.0 4.534732708 0.231338608488 0.0
0.0 4.53608394 0.231778040252 0.0
0.0 4.537435171 0.232218498029 0.0
0.0 4.538786403 0.232659531503 0.0
0.0 4.540137634 0.233101641488 0.0
0.0 4.541488865 0.233544746488 0.0
0.0 4.542840097 0.233988815485 0.0
0.0 4.544191328 0.234434129229 0.0
0.0 4.54554256 0.234880719056 0.0
0.0 4.546893791 0.235328796597 0.0
0.0 4.548245023 0.235778909861 0.0
0.0 4.549596254 0.236231594045 0.0
0.0 4.550947485 0.236685908814 0.0
0.0 4.552298717 0.237141678055 0.0
0.0 4.553649948 0.237598750121 0.0
0.0 4.55500118 0.238057059505 0.0
0.0 4.556352411 0.238516759253 0.0
0.0 4.557703643 0.238977507205 0.0
0.0 4.559054874 0.239439147409 0.0
0.0 4.560406106 0.239901613191 0.0
0.0 4.561757337 0.240365212545 0.0
0.0 4.563108568 0.240829971447 0.0
0.0 4.5644598 0.241296034029 0.0
0.0 4.565811031 0.241763599101 0.0
0.0 4.567162263 0.242232057349 0.0
0.0 4.568513494 0.242701650256 0.0
0.0 4.569864726 0.243172245879 0.0
0.0 4.571215957 0.24364459907 0.0
0.0 4.572567188 0.244118661075 0.0
0.0 4.57391842 0.24459407192 0.0
0.0 4.575269651 0.24507031026 0.0
0.0 4.576620883 0.245547487421 0.0
0.0 4.577972114 0.246026355801 0.0
0.0 4.579323346 0.246506972502 0.0
0.0 4.580674577 0.246989344368 0.0
0.0 4.582025809 0.247472804622 0.0
0.0 4.58337704 0.247957384567 0.0
0.0 4.584728271 0.248443366239 0.0
0.0 4.586079503 0.248931058846 0.0
0.0 4.587430734 0.249420502011 0.0
0.0 4.588781966 0.249911246616 0.0
0.0 4.590133197 0.250402998164 0.0
0.0 4.591484429 0.250894960761 0.0
0.0 4.59283566 0.251387803712 0.0
0.0 4.594186891 0.25188229277 0.0
0.0 4.595538123 0.25237867801 0.0
0.0 4.596889354 0.252876752287 0.0
0.0 4.598240586 0.253375885079 0.0
0.0 4.599591817 0.253876195681 0.0
0.0 4.600943049 0.254377959501 0.0
0.0 4.60229428 0.25488192721 0.0
0.0 4.603645512 0.255387389927 0.0
0.0 4.604996743 0.255893936488 0.0
0.0 4.606347974 0.256401489422 0.0
0.0 4.607699206 0.25691013474 0.0
0.0 4.609050437 0.257420138993 0.0
0.0 4.610401669 0.257931552588 0.0
0.0 4.6117529 0.25844451966 0.0
0.0 4.613104132 0.258958930214 0.0
0.0 4.614455363 0.259474731382 0.0
0.0 4.615806595 0.259991842953 0.0
0.0 4.617157826 0.260510294617 0.0
0.0 4.618509057 0.261030605082 0.0
0.0 4.619860289 0.26155252102 0.0
0.0 4.62121152 0.262075927311 0.0
0.0 4.622562752 0.262600553893 0.0
0.0 4.623913983 0.263126709178 0.0
0.0 4.625265215 0.263654567106 0.0
0.0 4.626616446 0.264183928651 0.0
0.0 4.627967677 0.264714755372 0.0
0.0 4.629318909 0.265246680695 0.0
0.0 4.63067014 0.265780109488 0.0
0.0 4.632021372 0.266315035231 0.0
0.0 4.633372603 0.266851411953 0.0
0.0 4.634723835 0.267388975332 0.0
0.0 4.636075066 0.26792792571 0.0
0.0 4.637426298 0.268468651087 0.0
0.0 4.638777529 0.26901073066 0.0
0.0 4.64012876 0.269554229236 0.0
0.0 4.641479992 0.270099083937 0.0
0.0 4.642831223 0.270645519775 0.0
0.0 4.644182455 0.271193519518 0.0
0.0 4.645533686 0.271743220345 0.0
0.0 4.646884918 0.272294317899 0.0
0.0 4.648236149 0.272846307743 0.0
0.0 4.64958738 0.273399792815 0.0
0.0 4.650938612 0.273954774372 0.0
0.0 4.652289843 0.274511205282 0.0
0.0 4.653641075 0.275069007039 0.0
0.0 4.654992306 0.275628323198 0.0
0.0 4.656343538 0.276189577903 0.0
0.0 4.657694769 0.27675253225 0.0
0.0 4.659046001 0.277317339134 0.0
0.0 4.660397232 0.277883624727 0.0
0.0 4.661748463 0.278451071878 0.0
0.0 4.663099695 0.279020031353 0.0
0.0 4.664450926 0.279590511942 0.0
0.0 4.665802158 0.280162557024 0.0
0.0 4.667153389 0.280735671719 0.0
0.0 4.668504621 0.281310189572 0.0
0.0 4.669855852 0.281886294239 0.0
0.0 4.671207083 0.282464054573 0.0
0.0 4.672558315 0.283043732238 0.0
0.0 4.673909546 0.283625035479 0.0
0.0 4.675260778 0.284207872754 0.0
0.0 4.676612009 0.28479232879 0.0
0.0 4.677963241 0.285378545783 0.0
0.0 4.679314472 0.285966777131 0.0
0.0 4.680665704 0.286556332598 0.0
0.0 4.682016935 0.287147169396 0.0
0.0 4.683368166 0.287739512447 0.0
0.0 4.684719398 0.2883332057 0.0
0.0 4.686070629 0.28892833787 0.0
0.0 4.687421861 0.289524954885 0.0
0.0 4.688773092 0.290123074379 0.0
0.0 4.690124324 0.290722635238 0.0
0.0 4.691475555 0.291324239711 0.0
0.0 4.692826787 0.291928098602 0.0
0.0 4.694178018 0.292533490661 0.0
0.0 4.695529249 0.29314064698 0.0
0.0 4.696880481 0.293749490009 0.0
0.0 4.698231712 0.294359758204 0.0
0.0 4.699582944 0.294970831601 0.0
0.0 4.700934175 0.295583025555 0.0
0.0 4.702285407 0.296196570036 0.0
0.0 4.703636638 0.296811349661 0.0
0.0 4.704987869 0.297427856297 0.0
0.0 4.706339101 0.298045916792 0.0
0.0 4.707690332 0.298665687173 0.0
0.0 4.709041564 0.299287641194 0.0
0.0 4.710392795 0.299912027432 0.0
0.0 4.711744027 0.300538171694 0.0
0.0 4.713095258 0.301165675329 0.0
0.0 4.71444649 0.301794494392 0.0
0.0 4.715797721 0.302424955427 0.0
0.0 4.717148952 0.303056956901 0.0
0.0 4.718500184 0.303690475718 0.0
0.0 4.719851415 0.304325214243 0.0
0.0 4.721202647 0.304961454056 0.0
0.0 4.722553878 0.305599847085 0.0
0.0 4.72390511 0.306240233758 0.0
0.0 4.725256341 0.306882459515 0.0
0.0 4.726607572 0.307526186001 0.0
0.0 4.727958804 0.308171660045 0.0
0.0 4.729310035 0.308818782202 0.0
0.0 4.730661267 0.30946752575 0.0
0.0 4.732012498 0.310117924777 0.0
0.0 4.73336373 0.31076964457 0.0
0.0 4.734714961 0.311423157092 0.0
0.0 4.736066193 0.312078349557 0.0
0.0 4.737417424 0.312735202858 0.0
0.0 4.738768655 0.313393729032 0.0
0.0 4.740119887 0.314054039187 0.0
0.0 4.741471118 0.314716106326 0.0
0.0 4.74282235 0.315379864846 0.0
0.0 4.744173581 0.316045300405 0.0
0.0 4.745524813 0.316712467541 0.0
0.0 4.746876044 0.317381705654 0.0
0.0 4.748227276 0.318052878131 0.0
0.0 4.749578507 0.318725602067 0.0
0.0 4.750929738 0.319399855161 0.0
0.0 4.75228097 0.320075750914 0.0
0.0 4.753632201 0.320753350306 0.0
0.0 4.754983433 0.321432664981 0.0
0.0 4.756334664 0.322113538943 0.0
0.0 4.757685896 0.322795917038 0.0
0.0 4.759037127 0.323480175773 0.0
0.0 4.760388358 0.324166346466 0.0
0.0 4.76173959 0.324854314373 0.0
0.0 4.763090821 0.325544093277 0.0
0.0 4.764442053 0.326235658261 0.0
0.0 4.765793284 0.326929122549 0.0
0.0 4.767144516 0.327624324459 0.0
0.0 4.768495747 0.328321183078 0.0
0.0 4.769846979 0.329019586314 0.0
0.0 4.77119821 0.329719828126 0.0
0.0 4.772549441 0.330422141287 0.0
0.0 4.773900673 0.331126229085 0.0
0.0 4.775251904 0.331832070979 0.0
0.0 4.776603136 0.332539542234 0.0
0.0 4.777954367 0.333248902401 0.0
0.0 4.779305599 0.333960161964 0.0
0.0 4.78065683 0.334673142563 0.0
0.0 4.782008061 0.335387910288 0.0
0.0 4.783359293 0.336104365564 0.0
0.0 4.784710524 0.336822883169 0.0
0.0 4.786061756 0.337543643654 0.0
0.0 4.787412987 0.338266331738 0.0
0.0 4.788764219 0.338990892068 0.0
0.0 4.79011545 0.339717236073 0.0
0.0 4.791466682 0.340445472389 0.0
0.0 4.792817913 0.341175427551 0.0
0.0 4.794169144 0.34190700542 0.0
0.0 4.795520376 0.342640073376 0.0
0.0 4.796871607 0.343374514624 0.0
0.0 4.798222839 0.34411072773 0.0
0.0 4.79957407 0.344848663782 0.0
0.0 4.800925302 0.34558848151 0.0
0.0 4.802276533 0.346330271414 0.0
0.0 4.803627764 0.3470741991 0.0
0.0 4.804978996 0.347820083045 0.0
0.0 4.806330227 0.348567601723 0.0
0.0 4.807681459 0.349316933824 0.0
0.0 4.80903269 0.35006821363 0.0
0.0 4.810383922 0.350821488854 0.0
0.0 4.811735153 0.351576743704 0.0
0.0 4.813086385 0.352333763095 0.0
0.0 4.814437616 0.353092459181 0.0
0.0 4.815788847 0.353853213112 0.0
0.0 4.817140079 0.354616253132 0.0
0.0 4.81849131 0.355381278599 0.0
0.0 4.819842542 0.356148015784 0.0
0.0 4.821193773 0.356916466894 0.0
0.0 4.822545005 0.357686769688 0.0
0.0 4.823896236 0.358458940448 0.0
0.0 4.825247468 0.359232975978 0.0
0.0 4.826598699 0.360008829585 0.0
0.0 4.82794993 0.360786569809 0.0
0.0 4.829301162 0.361566409378 0.0
0.0 4.830652393 0.362348502189 0.0
0.0 4.832003625 0.363132567157 0.0
0.0 4.833354856 0.363918413746 0.0
0.0 4.834706088 0.36470618939 0.0
0.0 4.836057319 0.365495980478 0.0
0.0 4.83740855 0.366287665954 0.0
0.0 4.838759782 0.367081297022 0.0
0.0 4.840111013 0.367876754963 0.0
0.0 4.841462245 0.368674016922 0.0
0.0 4.842813476 0.369473494818 0.0
0.0 4.844164708 0.370275400672 0.0
0.0 4.845515939 0.37107927814 0.0
0.0 4.846867171 0.371885078076 0.0
0.0 4.848218402 0.372692883118 0.0
0.0 4.849569633 0.373502840069 0.0
0.0 4.850920865 0.374314855572 0.0
0.0 4.852272096 0.375128700966 0.0
0.0 4.853623328 0.37594417236 0.0
0.0 4.854974559 0.376761197403 0.0
0.0 4.856325791 0.377580362597 0.0
0.0 4.857677022 0.37840166649 0.0
0.0 4.859028253 0.37922507154 0.0
0.0 4.860379485 0.38005042513 0.0
0.0 4.861730716 0.380877863988 0.0
0.0 4.863081948 0.381707568887 0.0
0.0 4.864433179 0.382539557189 0.0
0.0 4.865784411 0.38337362575 0.0
0.0 4.867135642 0.384209567052 0.0
0.0 4.868486874 0.38504739238 0.0
0.0 4.869838105 0.385887172522 0.0
0.0 4.871189336 0.386728900354 0.0
0.0 4.872540568 0.387572650055 0.0
0.0 4.873891799 0.388418485836 0.0
0.0 4.875243031 0.389266583532 0.0
0.0 4.876594262 0.390116847937 0.0
0.0 4.877945494 0.390969241706 0.0
0.0 4.879296725 0.391823802129 0.0
0.0 4.880647956 0.392680574476 0.0
0.0 4.881999188 0.393539692352 0.0
0.0 4.883350419 0.394400753611 0.0
0.0 4.884701651 0.395263605603 0.0
0.0 4.886052882 0.396128162687 0.0
0.0 4.887404114 0.396994781567 0.0
0.0 4.888755345 0.397863795287 0.0
0.0 4.890106577 0.398735007607 0.0
0.0 4.891457808 0.399608158697 0.0
0.0 4.892809039 0.400483095596 0.0
0.0 4.894160271 0.401360146814 0.0
0.0 4.895511502 0.402239643925 0.0
0.0 4.896862734 0.403121490858 0.0
0.0 4.898213965 0.404005486688 0.0
0.0 4.899565197 0.404891398172 0.0
0.0 4.900916428 0.405779392211 0.0
0.0 4.90226766 0.406669542444 0.0
0.0 4.903618891 0.40756176032 0.0
0.0 4.904970122 0.408455871145 0.0
0.0 4.906321354 0.40935192278 0.0
0.0 4.907672585 0.410250157393 0.0
0.0 4.909023817 0.41115070773 0.0
0.0 4.910375048 0.412053568513 0.0
0.0 4.91172628 0.412958297733 0.0
0.0 4.913077511 0.413865109109 0.0
0.0 4.914428742 0.414774197712 0.0
0.0 4.915779974 0.415685834235 0.0
0.0 4.917131205 0.416599836331 0.0
0.0 4.918482437 0.417515915379 0.0
0.0 4.919833668 0.418434072102 0.0
0.0 4.9211849 0.41935431322 0.0
0.0 4.922536131 0.420276960481 0.0
0.0 4.923887363 0.421201801549 0.0
0.0 4.925238594 0.4221288184 0.0
0.0 4.926589825 0.423057919022 0.0
0.0 4.927941057 0.423989419862 0.0
0.0 4.929292288 0.424923407708 0.0
0.0 4.93064352 0.425859570461 0.0
0.0 4.931994751 0.426797647356 0.0
0.0 4.933345983 0.427737632483 0.0
0.0 4.934697214 0.428679726103 0.0
0.0 4.936048445 0.429623932414 0.0
0.0 4.937399677 0.430570253004 0.0
0.0 4.938750908 0.431518429498 0.0
0.0 4.94010214 0.432468702167 0.0
0.0 4.941453371 0.433421591746 0.0
0.0 4.942804603 0.434377417148 0.0
0.0 4.944155834 0.435335870969 0.0
0.0 4.945507066 0.436296773911 0.0
0.0 4.946858297 0.437259989054 0.0
0.0 4.948209528 0.438225560584 0.0
0.0 4.94956076 0.439193468543 0.0
0.0 4.950911991 0.440163227379 0.0
0.0 4.952263223 0.441134939115 0.0
0.0 4.953614454 0.442108639941 0.0
0.0 4.954965686 0.443084780392 0.0
0.0 4.956316917 0.444063435504 0.0
0.0 4.957668148 0.445044664274 0.0
0.0 4.95901938 0.446028251272 0.0
0.0 4.960370611 0.447014190657 0.0
0.0 4.961721843 0.448002873262 0.0
0.0 4.963073074 0.448993929016 0.0
0.0 4.964424306 0.449987224611 0.0
0.0 4.965775537 0.450982373381 0.0
0.0 4.967126769 0.451979569406 0.0
0.0 4.968478 0.452978994291 0.0
0.0 4.969829231 0.453980867978 0.0
0.0 4.971180463 0.454985180174 0.0
0.0 4.972531694 0.455991762095 0.0
0.0 4.973882926 0.457000681478 0.0
0.0 4.975234157 0.458012112184 0.0
0.0 4.976585389 0.459026332996 0.0
0.0 4.97793662 0.460042848809 0.0
0.0 4.979287852 0.461060963033 0.0
0.0 4.980639083 0.462081318467 0.0
0.0 4.981990314 0.463103956412 0.0
0.0 4.983341546 0.46412897375 0.0
0.0 4.984692777 0.46515640199 0.0
0.0 4.986044009 0.466186414312 0.0
0.0 4.98739524 0.467218921201 0.0
0.0 4.988746472 0.468254309621 0.0
0.0 4.990097703 0.469293082158 0.0
0.0 4.991448934 0.470334479971 0.0
0.0 4.992800166 0.471378301326 0.0
0.0 4.994151397 0.472424367165 0.0
0.0 4.995502629 0.473472728043 0.0
0.0 4.99685386 0.474523159663 0.0
0.0 4.998205092 0.475575832479 0.0
0.0 4.999556323 0.476630585889 0.0
0.0 5.000907555 0.477687582596 0.0
0.0 5.002258786 0.478747062176 0.0
0.0 5.003610017 0.479809205031 0.0
0.0 5.004961249 0.480874276445 0.0
0.0 5.00631248 0.481941760526 0.0
0.0 5.007663712 0.48301156177 0.0
0.0 5.009014943 0.484083694435 0.0
0.0 5.010366175 0.485158379833 0.0
0.0 5.011717406 0.486235663126 0.0
0.0 5.013068637 0.487315246851 0.0
0.0 5.014419869 0.488397077974 0.0
0.0 5.0157711 0.489481144752 0.0
0.0 5.017122332 0.490567934197 0.0
0.0 5.018473563 0.491657433059 0.0
0.0 5.019824795 0.492749642283 0.0
0.0 5.021176026 0.493844147159 0.0
0.0 5.022527258 0.494941126427 0.0
0.0 5.023878489 0.49604077357 0.0
0.0 5.02522972 0.497143045351 0.0
0.0 5.026580952 0.49824779959 0.0
0.0 5.027932183 0.499354823881 0.0
0.0 5.029283415 0.500464388934 0.0
0.0 5.030634646 0.501576524661 0.0
0.0 5.031985878 0.50269186135 0.0
0.0 5.033337109 0.503809860591 0.0
0.0 5.034688341 0.504930697083 0.0
0.0 5.036039572 0.506054078031 0.0
0.0 5.037390803 0.507180040446 0.0
0.0 5.038742035 0.508308720289 0.0
0.0 5.040093266 0.50943982623 0.0
0.0 5.041444498 0.510573400774 0.0
0.0 5.042795729 0.511709239625 0.0
0.0 5.044146961 0.512847607617 0.0
0.0 5.045498192 0.5139882972 0.0
0.0 5.046849423 0.515131579362 0.0
0.0 5.048200655 0.516277261113 0.0
0.0 5.049551886 0.517425450554 0.0
0.0 5.050903118 0.51857639944 0.0
0.0 5.052254349 0.519730094416 0.0
0.0 5.053605581 0.520886436942 0.0
0.0 5.054956812 0.522045378839 0.0
0.0 5.056308044 0.523206923558 0.0
0.0 5.057659275 0.524371131658 0.0
0.0 5.059010506 0.525538232624 0.0
0.0 5.060361738 0.526708183908 0.0
0.0 5.061712969 0.527880898044 0.0
0.0 5.063064201 0.529056215475 0.0
0.0 5.064415432 0.530234204947 0.0
0.0 5.065766664 0.531414874356 0.0
0.0 5.067117895 0.532598226847 0.0
0.0 5.068469126 0.533784268187 0.0
0.0 5.069820358 0.534973004146 0.0
0.0 5.071171589 0.536164431623 0.0
0.0 5.072522821 0.537358502692 0.0
0.0 5.073874052 0.53855534748 0.0
0.0 5.075225284 0.539754907864 0.0
0.0 5.076576515 0.540957185849 0.0
0.0 5.077927747 0.542162197072 0.0
0.0 5.079278978 0.543370028466 0.0
0.0 5.080630209 0.544580572708 0.0
0.0 5.081981441 0.545793787158 0.0
0.0 5.083332672 0.547009730998 0.0
0.0 5.084683904 0.548228423626 0.0
0.0 5.086035135 0.549449868519 0.0
0.0 5.087386367 0.550674072377 0.0
0.0 5.088737598 0.551901029695 0.0
0.0 5.090088829 0.553130664556 0.0
0.0 5.091440061 0.554363093539 0.0
0.0 5.092791292 0.555598375898 0.0
0.0 5.094142524 0.556836658035 0.0
0.0 5.095493755 0.558077866332 0.0
0.0 5.096844987 0.559321972938 0.0
0.0 5.098196218 0.560568819299 0.0
0.0 5.09954745 0.561818160097 0.0
