0.0 2.002074478 0.219864468688 0.0
0.0 2.00368257 0.219768326217 0.0
0.0 2.005290662 0.219672011804 0.0
0.0 2.006898754 0.219575525976 0.0
0.0 2.008506846 0.219478869254 0.0
0.0 2.010114938 0.219382042163 0.0
0.0 2.01172303 0.219285045228 0.0
0.0 2.013331122 0.219187878972 0.0
0.0 2.014939214 0.219090543922 0.0
0.0 2.016547306 0.2189930406 0.0
0.0 2.018155398 0.218895369532 0.0
0.0 2.01976349 0.218797531241 0.0
0.0 2.021371582 0.218699526254 0.0
0.0 2.022979674 0.218601355095 0.0
0.0 2.024587766 0.218503018291 0.0
0.0 2.026195858 0.218404516364 0.0
0.0 2.027803949 0.218305849904 0.0
0.0 2.029412041 0.218207019311 0.0
0.0 2.031020133 0.218108025172 0.0
0.0 2.032628225 0.218008868014 0.0
0.0 2.034236317 0.217909548361 0.0
0.0 2.035844409 0.21781006674 0.0
0.0 2.037452501 0.217710423675 0.0
0.0 2.039060593 0.217610619694 0.0
0.0 2.040668685 0.217510655321 0.0
0.0 2.042276777 0.217410531083 0.0
0.0 2.043884869 0.217310247505 0.0
0.0 2.045492961 0.217209805114 0.0
0.0 2.047101053 0.217109204436 0.0
0.0 2.048709145 0.217008445998 0.0
0.0 2.050317237 0.216907530324 0.0
0.0 2.051925329 0.216806457943 0.0
0.0 2.053533421 0.216705229378 0.0
0.0 2.055141513 0.216603845157 0.0
0.0 2.056749605 0.216502305805 0.0
0.0 2.058357697 0.216400611852 0.0
0.0 2.059965788 0.216298763885 0.0
0.0 2.06157388 0.216196762304 0.0
0.0 2.063181972 0.2160946077 0.0
0.0 2.064790064 0.215992300599 0.0
0.0 2.066398156 0.215889841527 0.0
0.0 2.068006248 0.215787231012 0.0
0.0 2.06961434 0.215684469578 0.0
0.0 2.071222432 0.215581557754 0.0
0.0 2.072830524 0.215478496066 0.0
0.0 2.074438616 0.215375285041 0.0
0.0 2.076046708 0.215271925206 0.0
0.0 2.0776548 0.215168417088 0.0
0.0 2.079262892 0.215064761211 0.0
0.0 2.080870984 0.214960958105 0.0
0.0 2.082479076 0.214857008295 0.0
0.0 2.084087168 0.214752912307 0.0
0.0 2.08569526 0.214648670669 0.0
0.0 2.087303352 0.214544283907 0.0
0.0 2.088911444 0.21443975255 0.0
0.0 2.090519536 0.214335077121 0.0
0.0 2.092127627 0.214230258214 0.0
0.0 2.093735719 0.214125296225 0.0
0.0 2.095343811 0.214020191741 0.0
0.0 2.096951903 0.213914945294 0.0
0.0 2.098559995 0.213809557417 0.0
0.0 2.100168087 0.213704028631 0.0
0.0 2.101776179 0.213598359461 0.0
0.0 2.103384271 0.21349255043 0.0
0.0 2.104992363 0.213386602068 0.0
0.0 2.106600455 0.213280514901 0.0
0.0 2.108208547 0.213174289456 0.0
0.0 2.109816639 0.213067926258 0.0
0.0 2.111424731 0.212961425824 0.0
0.0 2.113032823 0.212854788696 0.0
0.0 2.114640915 0.212748015401 0.0
0.0 2.116249007 0.212641106462 0.0
0.0 2.117857099 0.212534062402 0.0
0.0 2.119465191 0.212426883749 0.0
0.0 2.121073283 0.212319571028 0.0
0.0 2.122681375 0.212212124765 0.0
0.0 2.124289466 0.212104545555 0.0
0.0 2.125897558 0.211996833786 0.0
0.0 2.12750565 0.211888990053 0.0
0.0 2.129113742 0.211781014883 0.0
0.0 2.130721834 0.211672908801 0.0
0.0 2.132329926 0.211564672333 0.0
0.0 2.133938018 0.211456306003 0.0
0.0 2.13554611 0.211347810339 0.0
0.0 2.137154202 0.211239185864 0.0
0.0 2.138762294 0.211130433105 0.0
0.0 2.140370386 0.211021552587 0.0
0.0 2.141978478 0.210912544836 0.0
0.0 2.14358657 0.210803410376 0.0
0.0 2.145194662 0.210694149732 0.0
0.0 2.146802754 0.21058476343 0.0
0.0 2.148410846 0.210475251997 0.0
0.0 2.150018938 0.210365615956 0.0
0.0 2.15162703 0.210255855824 0.0
0.0 2.153235122 0.210145972138 0.0
0.0 2.154843214 0.210035965417 0.0
0.0 2.156451305 0.209925836255 0.0
0.0 2.158059397 0.20981558504 0.0
0.0 2.159667489 0.209705212363 0.0
0.0 2.161275581 0.209594718749 0.0
0.0 2.162883673 0.209484104722 0.0
0.0 2.164491765 0.209373370807 0.0
0.0 2.166099857 0.209262517527 0.0
0.0 2.167707949 0.209151545407 0.0
0.0 2.169316041 0.209040454969 0.0
0.0 2.170924133 0.208929246737 0.0
0.0 2.172532225 0.208817921236 0.0
0.0 2.174140317 0.208706478987 0.0
0.0 2.175748409 0.208594920516 0.0
0.0 2.177356501 0.208483246344 0.0
0.0 2.178964593 0.208371456995 0.0
0.0 2.180572685 0.208259552992 0.0
0.0 2.182180777 0.208147534857 0.0
0.0 2.183788869 0.208035403114 0.0
0.0 2.185396961 0.207923158284 0.0
0.0 2.187005053 0.207810800892 0.0
0.0 2.188613145 0.207698331466 0.0
0.0 2.190221236 0.207585750584 0.0
0.0 2.191829328 0.207473058623 0.0
0.0 2.19343742 0.207360256196 0.0
0.0 2.195045512 0.207247343816 0.0
0.0 2.196653604 0.207134322005 0.0
0.0 2.198261696 0.207021191284 0.0
0.0 2.199869788 0.206907952173 0.0
0.0 2.20147788 0.206794605196 0.0
0.0 2.203085972 0.206681150872 0.0
0.0 2.204694064 0.206567589722 0.0
0.0 2.206302156 0.206453922269 0.0
0.0 2.207910248 0.206340149031 0.0
0.0 2.20951834 0.206226270529 0.0
0.0 2.211126432 0.206112287285 0.0
0.0 2.212734524 0.205998199818 0.0
0.0 2.214342616 0.205884008648 0.0
0.0 2.215950708 0.205769714295 0.0
0.0 2.2175588 0.20565531728 0.0
0.0 2.219166892 0.205540818122 0.0
0.0 2.220774984 0.205426217343 0.0
0.0 2.222383075 0.20531151557 0.0
0.0 2.223991167 0.205196713111 0.0
0.0 2.225599259 0.205081810521 0.0
0.0 2.227207351 0.20496680843 0.0
0.0 2.228815443 0.204851707315 0.0
0.0 2.230423535 0.204736507692 0.0
0.0 2.232031627 0.204621210076 0.0
0.0 2.233639719 0.204505814986 0.0
0.0 2.235247811 0.20439032294 0.0
0.0 2.236855903 0.204274734457 0.0
0.0 2.238463995 0.204159050054 0.0
0.0 2.240072087 0.204043270248 0.0
0.0 2.241680179 0.203927395558 0.0
0.0 2.243288271 0.203811426499 0.0
0.0 2.244896363 0.20369536359 0.0
0.0 2.246504455 0.203579207347 0.0
0.0 2.248112547 0.203462958286 0.0
0.0 2.249720639 0.203346616924 0.0
0.0 2.251328731 0.203230183778 0.0
0.0 2.252936823 0.203113659362 0.0
0.0 2.254544914 0.202997044268 0.0
0.0 2.256153006 0.202880338864 0.0
0.0 2.257761098 0.202763543739 0.0
0.0 2.25936919 0.202646659408 0.0
0.0 2.260977282 0.202529686385 0.0
0.0 2.262585374 0.202412625188 0.0
0.0 2.264193466 0.202295476329 0.0
0.0 2.265801558 0.202178240324 0.0
0.0 2.26740965 0.202060917807 0.0
0.0 2.269017742 0.201943510999 0.0
0.0 2.270625834 0.201826017811 0.0
0.0 2.272233926 0.201708435342 0.0
0.0 2.273842018 0.201590771097 0.0
0.0 2.27545011 0.201473023136 0.0
0.0 2.277058202 0.201355192922 0.0
0.0 2.278666294 0.201237278609 0.0
0.0 2.280274386 0.201119279794 0.0
0.0 2.281882478 0.201001200882 0.0
0.0 2.28349057 0.200883041798 0.0
0.0 2.285098662 0.200764806226 0.0
0.0 2.286706753 0.200646493844 0.0
0.0 2.288314845 0.200528099001 0.0
0.0 2.289922937 0.20040964539 0.0
0.0 2.291531029 0.200291062207 0.0
0.0 2.293139121 0.200172411766 0.0
0.0 2.294747213 0.200053681123 0.0
0.0 2.296355305 0.199934882012 0.0
0.0 2.297963397 0.199816010354 0.0
0.0 2.299571489 0.199697062799 0.0
0.0 2.301179581 0.199578039384 0.0
0.0 2.302787673 0.199458940606 0.0
0.0 2.304395765 0.199339766976 0.0
0.0 2.306003857 0.199220519004 0.0
0.0 2.307611949 0.199101197201 0.0
0.0 2.309220041 0.198981802075 0.0
0.0 2.310828133 0.198862334139 0.0
0.0 2.312436225 0.198742793901 0.0
0.0 2.314044317 0.198623181873 0.0
0.0 2.315652409 0.198503498565 0.0
0.0 2.317260501 0.198383744489 0.0
0.0 2.318868592 0.198263920227 0.0
0.0 2.320476684 0.198144026142 0.0
0.0 2.322084776 0.198024062812 0.0
0.0 2.323692868 0.197904030745 0.0
0.0 2.32530096 0.197783930441 0.0
0.0 2.326909052 0.197663762407 0.0
0.0 2.328517144 0.197543527143 0.0
0.0 2.330125236 0.197423225156 0.0
0.0 2.331733328 0.197302857801 0.0
0.0 2.33334142 0.197182441021 0.0
0.0 2.334949512 0.197062155284 0.0
0.0 2.336557604 0.196941752004 0.0
0.0 2.338165696 0.196821051213 0.0
0.0 2.339773788 0.196700300876 0.0
0.0 2.34138188 0.19657952598 0.0
0.0 2.342989972 0.196458687653 0.0
0.0 2.344598064 0.19633786739 0.0
0.0 2.346206156 0.196217155147 0.0
0.0 2.347814248 0.196096566186 0.0
0.0 2.34942234 0.195975599104 0.0
0.0 2.351030431 0.19585450803 0.0
0.0 2.352638523 0.195733434735 0.0
0.0 2.354246615 0.195612077757 0.0
0.0 2.355854707 0.195490694601 0.0
0.0 2.357462799 0.195368648067 0.0
0.0 2.359070891 0.195246980281 0.0
0.0 2.360678983 0.195125480067 0.0
0.0 2.362287075 0.195003948594 0.0
0.0 2.363895167 0.194882361832 0.0
0.0 2.365503259 0.194760719423 0.0
0.0 2.367111351 0.194639021865 0.0
0.0 2.368719443 0.194517269656 0.0
0.0 2.370327535 0.194395465089 0.0
0.0 2.371935627 0.194273619048 0.0
0.0 2.373543719 0.194151780123 0.0
0.0 2.375151811 0.194029893048 0.0
0.0 2.376759903 0.193907946571 0.0
0.0 2.378367995 0.193785973959 0.0
0.0 2.379976087 0.19366392838 0.0
0.0 2.381584179 0.193541849338 0.0
0.0 2.383192271 0.193419732061 0.0
0.0 2.384800362 0.19329757025 0.0
0.0 2.386408454 0.193175378238 0.0
0.0 2.388016546 0.193052362765 0.0
0.0 2.389624638 0.192929762578 0.0
0.0 2.39123273 0.192807279947 0.0
0.0 2.392840822 0.192684767479 0.0
0.0 2.394448914 0.192562208746 0.0
0.0 2.396057006 0.192439604435 0.0
0.0 2.397665098 0.192316970184 0.0
0.0 2.39927319 0.192194416604 0.0
0.0 2.400881282 0.192072194749 0.0
0.0 2.402489374 0.191949673211 0.0
0.0 2.404097466 0.191827210319 0.0
0.0 2.405705558 0.19170426466 0.0
0.0 2.40731365 0.191581039383 0.0
0.0 2.408921742 0.191457851167 0.0
0.0 2.410529834 0.191334778469 0.0
0.0 2.412137926 0.19121174145 0.0
0.0 2.413746018 0.191088955581 0.0
0.0 2.41535411 0.190965531174 0.0
0.0 2.416962201 0.190842430329 0.0
0.0 2.418570293 0.190719231257 0.0
0.0 2.420178385 0.190595733477 0.0
0.0 2.421786477 0.190472298988 0.0
0.0 2.423394569 0.190349022679 0.0
0.0 2.425002661 0.190226127016 0.0
0.0 2.426610753 0.190104046033 0.0
0.0 2.428218845 0.189981416707 0.0
0.0 2.429826937 0.189857566944 0.0
0.0 2.431435029 0.189733742798 0.0
0.0 2.433043121 0.189610019223 0.0
0.0 2.434651213 0.189486473054 0.0
0.0 2.436259305 0.189364459143 0.0
0.0 2.437867397 0.189240857719 0.0
0.0 2.439475489 0.189117010715 0.0
0.0 2.441083581 0.188993211523 0.0
0.0 2.442691673 0.188869802964 0.0
0.0 2.444299765 0.188746448264 0.0
0.0 2.445907857 0.188622867095 0.0
0.0 2.447515949 0.188498442299 0.0
0.0 2.44912404 0.18837416409 0.0
0.0 2.450732132 0.188249195599 0.0
0.0 2.452340224 0.188124725673 0.0
0.0 2.453948316 0.188000934698 0.0
0.0 2.455556408 0.187877426965 0.0
0.0 2.4571645 0.187753987704 0.0
0.0 2.458772592 0.187631086418 0.0
0.0 2.460380684 0.187506435063 0.0
0.0 2.461988776 0.187381458006 0.0
0.0 2.463596868 0.187257152334 0.0
0.0 2.46520496 0.187132854875 0.0
0.0 2.466813052 0.187008772417 0.0
0.0 2.468421144 0.18688501145 0.0
0.0 2.470029236 0.186760213866 0.0
0.0 2.471637328 0.186635749093 0.0
0.0 2.47324542 0.186512535003 0.0
0.0 2.474853512 0.186389927337 0.0
0.0 2.476461604 0.186267585948 0.0
0.0 2.478069696 0.186146386371 0.0
0.0 2.479677788 0.186022607096 0.0
0.0 2.481285879 0.185898517044 0.0
0.0 2.482893971 0.185774693453 0.0
0.0 2.484502063 0.185647658901 0.0
0.0 2.486110155 0.185522923286 0.0
0.0 2.487718247 0.185398408364 0.0
0.0 2.489326339 0.185274126525 0.0
0.0 2.490934431 0.185149845394 0.0
0.0 2.492542523 0.185025551856 0.0
0.0 2.494150615 0.184900148162 0.0
0.0 2.495758707 0.184774850109 0.0
0.0 2.497366799 0.184649652464 0.0
0.0 2.498974891 0.184524641816 0.0
0.0 2.499778162 0.184459785308 0.0
0.0 2.501129393 0.18435486139 0.0
0.0 2.502480624 0.18424802098 0.0
0.0 2.503831856 0.184146538951 0.0
0.0 2.505183087 0.184039392674 0.0
0.0 2.506534319 0.183934095513 0.0
0.0 2.50788555 0.183830958319 0.0
0.0 2.509236782 0.183724382091 0.0
0.0 2.510588013 0.183621725735 0.0
0.0 2.511939244 0.183518132613 0.0
0.0 2.513290476 0.183410172984 0.0
0.0 2.514641707 0.183305445847 0.0
0.0 2.515992939 0.183200672797 0.0
0.0 2.51734417 0.183097643887 0.0
0.0 2.518695402 0.182991746781 0.0
0.0 2.520046633 0.182890814642 0.0
0.0 2.521397865 0.182783681355 0.0
0.0 2.522749096 0.182678666976 0.0
0.0 2.524100327 0.182572024856 0.0
0.0 2.525451559 0.182468991525 0.0
0.0 2.52680279 0.182365527441 0.0
0.0 2.528154022 0.182258192032 0.0
0.0 2.529505253 0.182152830323 0.0
0.0 2.530856485 0.182048015284 0.0
0.0 2.532207716 0.181943203998 0.0
0.0 2.533558948 0.181839064495 0.0
0.0 2.534910179 0.181735976646 0.0
0.0 2.53626141 0.181631404485 0.0
0.0 2.537612642 0.181524754163 0.0
0.0 2.538963873 0.181421218211 0.0
0.0 2.540315105 0.181314274609 0.0
0.0 2.541666336 0.181209448131 0.0
0.0 2.543017568 0.181105288833 0.0
0.0 2.544368799 0.181001953215 0.0
0.0 2.54572003 0.18089494216 0.0
0.0 2.547071262 0.180793311903 0.0
0.0 2.548422493 0.180686750187 0.0
0.0 2.549773725 0.180582777062 0.0
0.0 2.551124956 0.180478946186 0.0
0.0 2.552476188 0.180370785204 0.0
0.0 2.553827419 0.180266024272 0.0
0.0 2.555178651 0.180161121169 0.0
0.0 2.556529882 0.180059721407 0.0
0.0 2.557881113 0.179955811935 0.0
0.0 2.559232345 0.179850977979 0.0
0.0 2.560583576 0.179741839639 0.0
0.0 2.561934808 0.179638127936 0.0
0.0 2.563286039 0.179534137321 0.0
0.0 2.564637271 0.179428241528 0.0
0.0 2.565988502 0.179325224927 0.0
0.0 2.567339733 0.179224018624 0.0
0.0 2.568690965 0.179114883942 0.0
0.0 2.570042196 0.179008201599 0.0
0.0 2.571393428 0.178903430123 0.0
0.0 2.572744659 0.178799539903 0.0
0.0 2.574095891 0.178693818594 0.0
0.0 2.575447122 0.178589038008 0.0
0.0 2.576798354 0.178486199754 0.0
0.0 2.578149585 0.178379636216 0.0
0.0 2.579500816 0.178274751095 0.0
0.0 2.580852048 0.178170651999 0.0
0.0 2.582203279 0.178069160185 0.0
0.0 2.583554511 0.177960546441 0.0
0.0 2.584905742 0.177855800436 0.0
0.0 2.586256974 0.177751215396 0.0
0.0 2.587608205 0.177646362209 0.0
0.0 2.588959437 0.177541725529 0.0
0.0 2.590310668 0.177438760632 0.0
0.0 2.591661899 0.177333734714 0.0
0.0 2.593013131 0.177228646901 0.0
0.0 2.594364362 0.177124558265 0.0
0.0 2.595715594 0.177022039022 0.0
0.0 2.597066825 0.176913633775 0.0
0.0 2.598418057 0.176809000927 0.0
0.0 2.599769288 0.176704351593 0.0
0.0 2.601120519 0.176599734832 0.0
0.0 2.602471751 0.176495163187 0.0
0.0 2.603822982 0.176392532945 0.0
0.0 2.605174214 0.176285981288 0.0
0.0 2.606525445 0.176181381594 0.0
0.0 2.607876677 0.176076823128 0.0
0.0 2.609227908 0.175972277248 0.0
0.0 2.61057914 0.175868439747 0.0
0.0 2.611930371 0.175763810627 0.0
0.0 2.613281602 0.17565871953 0.0
0.0 2.614632834 0.175555946458 0.0
0.0 2.615984065 0.175450825804 0.0
0.0 2.617335297 0.17534528921 0.0
0.0 2.618686528 0.175240912216 0.0
0.0 2.62003776 0.175138926864 0.0
0.0 2.621388991 0.175032016829 0.0
0.0 2.622740222 0.174927596649 0.0
0.0 2.624091454 0.174823224168 0.0
0.0 2.625442685 0.17472053472 0.0
0.0 2.626793917 0.174620095732 0.0
0.0 2.628145148 0.174515736933 0.0
0.0 2.62949638 0.174408618968 0.0
0.0 2.630847611 0.174301478104 0.0
0.0 2.632198843 0.174198747873 0.0
0.0 2.633550074 0.174096410585 0.0
0.0 2.634901305 0.173988788897 0.0
0.0 2.636252537 0.173884438676 0.0
0.0 2.637603768 0.173780265689 0.0
0.0 2.638955 0.173677530396 0.0
0.0 2.640306231 0.173571978168 0.0
0.0 2.641657463 0.173468743261 0.0
0.0 2.643008694 0.173365832721 0.0
0.0 2.644359925 0.173262008895 0.0
0.0 2.645711157 0.173159609964 0.0
0.0 2.647062388 0.173052294208 0.0
0.0 2.64841362 0.172948642901 0.0
0.0 2.649764851 0.172843321445 0.0
0.0 2.651116083 0.172740159321 0.0
0.0 2.652467314 0.17263821557 0.0
0.0 2.653818546 0.172531363351 0.0
0.0 2.655169777 0.172427236306 0.0
0.0 2.656521008 0.172323305155 0.0
0.0 2.65787224 0.172220754187 0.0
0.0 2.659223471 0.17211570636 0.0
0.0 2.660574703 0.172011634451 0.0
0.0 2.661925934 0.171908709506 0.0
0.0 2.663277166 0.171803873664 0.0
0.0 2.664628397 0.171700099242 0.0
0.0 2.665979629 0.171598142598 0.0
0.0 2.66733086 0.171495495441 0.0
0.0 2.668682091 0.171390328521 0.0
0.0 2.670033323 0.171285146826 0.0
0.0 2.671384554 0.17118176344 0.0
0.0 2.672735786 0.171080583142 0.0
0.0 2.674087017 0.170976036698 0.0
0.0 2.675438249 0.170872483669 0.0
0.0 2.67678948 0.170770595787 0.0
0.0 2.678140711 0.170665440368 0.0
0.0 2.679491943 0.170559983412 0.0
0.0 2.680843174 0.17045649789 0.0
0.0 2.682194406 0.170354536387 0.0
0.0 2.683545637 0.17025217869 0.0
0.0 2.684896869 0.170146197598 0.0
0.0 2.6862481 0.170043341032 0.0
0.0 2.687599332 0.169941127088 0.0
0.0 2.688950563 0.169838461073 0.0
0.0 2.690301794 0.169733154585 0.0
0.0 2.691653026 0.169630732541 0.0
0.0 2.693004257 0.169526653942 0.0
0.0 2.694355489 0.169423230112 0.0
0.0 2.69570672 0.169321228453 0.0
0.0 2.697057952 0.16921690415 0.0
0.0 2.698409183 0.169114027802 0.0
0.0 2.699760414 0.169012741103 0.0
0.0 2.701111646 0.168908757297 0.0
0.0 2.702462877 0.168805039886 0.0
0.0 2.703814109 0.16870161654 0.0
0.0 2.70516534 0.168600266186 0.0
0.0 2.706516572 0.168496521093 0.0
0.0 2.707867803 0.168396638648 0.0
0.0 2.709219035 0.168294659776 0.0
0.0 2.710570266 0.168189072574 0.0
0.0 2.711921497 0.168085313165 0.0
0.0 2.713272729 0.167982529933 0.0
0.0 2.71462396 0.167878912755 0.0
0.0 2.715975192 0.167777139367 0.0
0.0 2.717326423 0.167676315452 0.0
0.0 2.718677655 0.167573011076 0.0
0.0 2.720028886 0.167468896392 0.0
0.0 2.721380117 0.167366100227 0.0
0.0 2.722731349 0.16726529574 0.0
0.0 2.72408258 0.16716406635 0.0
0.0 2.725433812 0.167060426214 0.0
0.0 2.726785043 0.166960852549 0.0
0.0 2.728136275 0.166857050186 0.0
0.0 2.729487506 0.166753841456 0.0
0.0 2.730838738 0.16665206538 0.0
0.0 2.732189969 0.166548422808 0.0
0.0 2.7335412 0.16644577632 0.0
0.0 2.734892432 0.166343187465 0.0
0.0 2.736243663 0.166242083997 0.0
0.0 2.737594895 0.166139242639 0.0
0.0 2.738946126 0.166037938083 0.0
0.0 2.740297358 0.165935831537 0.0
0.0 2.741648589 0.165833646996 0.0
0.0 2.742999821 0.165734226399 0.0
0.0 2.744351052 0.165631605567 0.0
0.0 2.745702283 0.165528874149 0.0
0.0 2.747053515 0.165427898263 0.0
0.0 2.748404746 0.165326353958 0.0
0.0 2.749755978 0.165225661784 0.0
0.0 2.751107209 0.165124716045 0.0
0.0 2.752458441 0.165021130308 0.0
0.0 2.753809672 0.164918700008 0.0
0.0 2.755160903 0.164815102224 0.0
0.0 2.756512135 0.164714020846 0.0
0.0 2.757863366 0.164611397639 0.0
0.0 2.759214598 0.164511985412 0.0
0.0 2.760565829 0.164411712669 0.0
0.0 2.761917061 0.164308947321 0.0
0.0 2.763268292 0.164210505876 0.0
0.0 2.764619524 0.164107719068 0.0
0.0 2.765970755 0.164005201325 0.0
0.0 2.767321986 0.163903441575 0.0
0.0 2.768673218 0.163802416257 0.0
0.0 2.770024449 0.163704523609 0.0
0.0 2.771375681 0.163598989283 0.0
0.0 2.772726912 0.163497895693 0.0
0.0 2.774078144 0.163396938447 0.0
0.0 2.775429375 0.163296606108 0.0
0.0 2.776780606 0.163198107977 0.0
0.0 2.778131838 0.163095214463 0.0
0.0 2.779483069 0.162993574636 0.0
0.0 2.780834301 0.162892851224 0.0
0.0 2.782185532 0.162792244053 0.0
0.0 2.783536764 0.162691578648 0.0
0.0 2.784887995 0.162591021847 0.0
0.0 2.786239227 0.162492245778 0.0
0.0 2.787590458 0.16239140717 0.0
0.0 2.788941689 0.162290314204 0.0
0.0 2.790292921 0.162190236253 0.0
0.0 2.791644152 0.16208880031 0.0
0.0 2.792995384 0.161988514994 0.0
0.0 2.794346615 0.161888279791 0.0
0.0 2.795697847 0.161788094825 0.0
0.0 2.797049078 0.161688307996 0.0
0.0 2.798400309 0.161587877088 0.0
0.0 2.799751541 0.161487844706 0.0
0.0 2.801102772 0.161387863802 0.0
0.0 2.802454004 0.16128856923 0.0
0.0 2.803805235 0.161188678014 0.0
0.0 2.805156467 0.1610891949 0.0
0.0 2.806507698 0.160988459571 0.0
0.0 2.80785893 0.160889494585 0.0
0.0 2.809210161 0.160791645129 0.0
0.0 2.810561392 0.16068947301 0.0
0.0 2.811912624 0.160589899698 0.0
0.0 2.813263855 0.16049039375 0.0
0.0 2.814615087 0.160390941863 0.0
0.0 2.815966318 0.16029201612 0.0
0.0 2.81731755 0.160192201681 0.0
0.0 2.818668781 0.160092913936 0.0
0.0 2.820020013 0.159993681343 0.0
0.0 2.821371244 0.159894504335 0.0
0.0 2.822722475 0.159795383108 0.0
0.0 2.824073707 0.159696317862 0.0
0.0 2.825424938 0.159597309021 0.0
0.0 2.82677617 0.159498356708 0.0
0.0 2.828127401 0.159399461345 0.0
0.0 2.829478633 0.159300623061 0.0
0.0 2.830829864 0.159201842275 0.0
0.0 2.832181095 0.159103119189 0.0
0.0 2.833532327 0.159004454003 0.0
0.0 2.834883558 0.158905847139 0.0
0.0 2.83623479 0.158807298723 0.0
0.0 2.837586021 0.158708809173 0.0
0.0 2.838937253 0.158610378626 0.0
0.0 2.840288484 0.158512007501 0.0
0.0 2.841639716 0.158413695924 0.0
0.0 2.842990947 0.158315444313 0.0
0.0 2.844342178 0.158217252871 0.0
0.0 2.84569341 0.158119121803 0.0
0.0 2.847044641 0.158021051527 0.0
0.0 2.848395873 0.157923042172 0.0
0.0 2.849747104 0.15782509416 0.0
0.0 2.851098336 0.157727207619 0.0
0.0 2.852449567 0.157629382969 0.0
0.0 2.853800798 0.157531620415 0.0
0.0 2.85515203 0.15743392016 0.0
0.0 2.856503261 0.157336282623 0.0
0.0 2.857854493 0.157238707936 0.0
0.0 2.859205724 0.157141196519 0.0
0.0 2.860556956 0.1570437485 0.0
0.0 2.861908187 0.156946364304 0.0
0.0 2.863259419 0.156849044064 0.0
0.0 2.86461065 0.156751788199 0.0
0.0 2.865961881 0.15665459691 0.0
0.0 2.867313113 0.1565574704 0.0
0.0 2.868664344 0.15646040909 0.0
0.0 2.870015576 0.156363413115 0.0
0.0 2.871366807 0.156266482894 0.0
0.0 2.872718039 0.156169653289 0.0
0.0 2.87406927 0.156072955165 0.0
0.0 2.875420501 0.155976089014 0.0
0.0 2.876771733 0.155879424215 0.0
0.0 2.878122964 0.155782826552 0.0
0.0 2.879474196 0.155686296161 0.0
0.0 2.880825427 0.155589833459 0.0
0.0 2.882176659 0.155493438583 0.0
0.0 2.88352789 0.155397111952 0.0
0.0 2.884879122 0.155300853701 0.0
0.0 2.886230353 0.155204681405 0.0
0.0 2.887581584 0.155108543801 0.0
0.0 2.888932816 0.15501249257 0.0
0.0 2.890284047 0.154916510972 0.0
0.0 2.891635279 0.154820599144 0.0
0.0 2.89298651 0.15472475751 0.0
0.0 2.894337742 0.154628986197 0.0
0.0 2.895688973 0.154533285629 0.0
0.0 2.897040205 0.154437655943 0.0
0.0 2.898391436 0.154342097559 0.0
0.0 2.899742667 0.154246610687 0.0
0.0 2.901093899 0.154151195531 0.0
0.0 2.90244513 0.154055852513 0.0
0.0 2.903796362 0.153960581772 0.0
0.0 2.905147593 0.153865383728 0.0
0.0 2.906498825 0.153770258519 0.0
0.0 2.907850056 0.153675206565 0.0
0.0 2.909201287 0.153580228076 0.0
0.0 2.910552519 0.153485323259 0.0
0.0 2.91190375 0.153390492536 0.0
0.0 2.913254982 0.153295736051 0.0
0.0 2.914606213 0.153201054219 0.0
0.0 2.915957445 0.153106447182 0.0
0.0 2.917308676 0.15301191536 0.0
0.0 2.918659908 0.152917458894 0.0
0.0 2.920011139 0.152823078204 0.0
0.0 2.92136237 0.152728773499 0.0
0.0 2.922713602 0.152634544992 0.0
0.0 2.924064833 0.152540393104 0.0
0.0 2.925416065 0.152446317979 0.0
0.0 2.926767296 0.152352320036 0.0
0.0 2.928118528 0.152258399417 0.0
0.0 2.929469759 0.15216455654 0.0
0.0 2.93082099 0.152070791621 0.0
0.0 2.932172222 0.15197710487 0.0
0.0 2.933523453 0.151883496711 0.0
0.0 2.934874685 0.151789967287 0.0
0.0 2.936225916 0.151696517016 0.0
0.0 2.937577148 0.151603146044 0.0
0.0 2.938928379 0.151509854794 0.0
0.0 2.940279611 0.151416643412 0.0
0.0 2.941630842 0.151323512318 0.0
0.0 2.942982073 0.151230461725 0.0
0.0 2.944333305 0.151137491853 0.0
0.0 2.945684536 0.151044603115 0.0
0.0 2.947035768 0.15095179566 0.0
0.0 2.948386999 0.150859069911 0.0
0.0 2.949738231 0.150766426013 0.0
0.0 2.951089462 0.150673864393 0.0
0.0 2.952440694 0.150581385189 0.0
0.0 2.953791925 0.150488988829 0.0
0.0 2.955143156 0.150396675527 0.0
0.0 2.956494388 0.150304445502 0.0
0.0 2.957845619 0.150212299175 0.0
0.0 2.959196851 0.150120236696 0.0
0.0 2.960548082 0.150028258486 0.0
0.0 2.961899314 0.149936364694 0.0
0.0 2.963250545 0.149844555744 0.0
0.0 2.964601776 0.149752831854 0.0
0.0 2.965953008 0.14966119324 0.0
0.0 2.967304239 0.149569640327 0.0
0.0 2.968655471 0.149478173265 0.0
0.0 2.970006702 0.149386792477 0.0
0.0 2.971357934 0.149295498116 0.0
0.0 2.972709165 0.149204290603 0.0
0.0 2.974060397 0.14911317009 0.0
0.0 2.975411628 0.149022137005 0.0
0.0 2.976762859 0.148931191566 0.0
0.0 2.978114091 0.148840333987 0.0
0.0 2.979465322 0.148749564695 0.0
0.0 2.980816554 0.148658883845 0.0
0.0 2.982167785 0.148568291859 0.0
0.0 2.983519017 0.148477788894 0.0
0.0 2.984870248 0.148387375372 0.0
0.0 2.986221479 0.148297051517 0.0
0.0 2.987572711 0.148206817551 0.0
0.0 2.988923942 0.148116673902 0.0
0.0 2.990275174 0.148026620719 0.0
0.0 2.991626405 0.147936658431 0.0
0.0 2.992977637 0.147846787193 0.0
0.0 2.994328868 0.147757007429 0.0
0.0 2.9956801 0.147667319299 0.0
0.0 2.997031331 0.147577723225 0.0
0.0 2.998382562 0.147488219433 0.0
0.0 2.999733794 0.14739880815 0.0
0.0 3.001085025 0.147309489796 0.0
0.0 3.002436257 0.147220264536 0.0
0.0 3.003787488 0.14713113279 0.0
0.0 3.00513872 0.147042094721 0.0
0.0 3.006489951 0.146953150757 0.0
0.0 3.007841182 0.146864301122 0.0
0.0 3.009192414 0.146775546041 0.0
0.0 3.010543645 0.146686885944 0.0
0.0 3.011894877 0.146598320995 0.0
0.0 3.013246108 0.146509851616 0.0
0.0 3.01459734 0.146421477971 0.0
0.0 3.015948571 0.146333200485 0.0
0.0 3.017299803 0.146245019323 0.0
0.0 3.018651034 0.146156934911 0.0
0.0 3.020002265 0.146068947479 0.0
0.0 3.021353497 0.145981057255 0.0
0.0 3.022704728 0.145893335757 0.0
0.0 3.02405596 0.145805569882 0.0
0.0 3.025407191 0.145717973327 0.0
0.0 3.026758423 0.145630475169 0.0
0.0 3.028109654 0.145543075834 0.0
0.0 3.029460886 0.145455775489 0.0
0.0 3.030812117 0.145368574565 0.0
0.0 3.032163348 0.145281473295 0.0
0.0 3.03351458 0.145194471909 0.0
0.0 3.034865811 0.145107570835 0.0
0.0 3.036217043 0.145020770246 0.0
0.0 3.037568274 0.144934070569 0.0
0.0 3.038919506 0.144847471968 0.0
0.0 3.040270737 0.144760974878 0.0
0.0 3.041621968 0.144674579535 0.0
0.0 3.0429732 0.144588286171 0.0
0.0 3.044324431 0.144502095218 0.0
0.0 3.045675663 0.144416006846 0.0
0.0 3.047026894 0.144330021486 0.0
0.0 3.048378126 0.144244139312 0.0
0.0 3.049729357 0.144158360752 0.0
0.0 3.051080589 0.144072706221 0.0
0.0 3.05243182 0.143987115421 0.0
0.0 3.053783051 0.14390164932 0.0
0.0 3.055134283 0.143816287916 0.0
0.0 3.056485514 0.143731031638 0.0
0.0 3.057836746 0.143645880664 0.0
0.0 3.059187977 0.143560835423 0.0
0.0 3.060539209 0.143475896095 0.0
0.0 3.06189044 0.143391063111 0.0
0.0 3.063241671 0.143306336711 0.0
0.0 3.064592903 0.143221717137 0.0
0.0 3.065944134 0.143137204822 0.0
0.0 3.067295366 0.143052799942 0.0
0.0 3.068646597 0.142968502932 0.0
0.0 3.069997829 0.14288431397 0.0
0.0 3.07134906 0.142800233485 0.0
0.0 3.072700292 0.14271629279 0.0
0.0 3.074051523 0.142632398936 0.0
0.0 3.075402754 0.142548645548 0.0
0.0 3.076753986 0.142465001748 0.0
0.0 3.078105217 0.142382438673 0.0
0.0 3.079456449 0.142299355619 0.0
0.0 3.08080768 0.142214731449 0.0
0.0 3.082158912 0.142131529333 0.0
0.0 3.083510143 0.142049402361 0.0
0.0 3.084861374 0.141968075814 0.0
0.0 3.086212606 0.141882895802 0.0
0.0 3.087563837 0.141799836091 0.0
0.0 3.088915069 0.141718002095 0.0
0.0 3.0902663 0.141636243381 0.0
0.0 3.091617532 0.141554467321 0.0
0.0 3.092968763 0.141472626476 0.0
0.0 3.094319995 0.141389397772 0.0
0.0 3.095671226 0.141307415391 0.0
0.0 3.097022457 0.141226533408 0.0
0.0 3.098373689 0.1411426173 0.0
0.0 3.09972492 0.141061326006 0.0
0.0 3.101076152 0.140982517596 0.0
0.0 3.102427383 0.140904081696 0.0
0.0 3.103778615 0.140823027555 0.0
0.0 3.105129846 0.140738877114 0.0
0.0 3.106481078 0.140656880101 0.0
0.0 3.107832309 0.140577068266 0.0
0.0 3.10918354 0.140496536898 0.0
0.0 3.110534772 0.140416948374 0.0
0.0 3.111886003 0.140339261944 0.0
0.0 3.113237235 0.140258181007 0.0
0.0 3.114588466 0.14017554405 0.0
0.0 3.115939698 0.140092226746 0.0
0.0 3.117290929 0.140013008534 0.0
0.0 3.11864216 0.139935946739 0.0
0.0 3.119993392 0.139855419065 0.0
0.0 3.121344623 0.139774799021 0.0
0.0 3.122695855 0.139698509793 0.0
0.0 3.124047086 0.139620472533 0.0
0.0 3.125398318 0.139540779999 0.0
0.0 3.126749549 0.139461240448 0.0
0.0 3.128100781 0.139382985731 0.0
0.0 3.129452012 0.139308277271 0.0
0.0 3.130803243 0.139232153746 0.0
0.0 3.132154475 0.139155433111 0.0
0.0 3.133505706 0.139077654658 0.0
0.0 3.134856938 0.138998886626 0.0
0.0 3.136208169 0.138919788062 0.0
0.0 3.137559401 0.138839575683 0.0
0.0 3.138910632 0.138764017401 0.0
0.0 3.140261863 0.138690366889 0.0
0.0 3.141613095 0.138614204642 0.0
0.0 3.142964326 0.138534833932 0.0
0.0 3.144315558 0.138458493847 0.0
0.0 3.145666789 0.138381022053 0.0
0.0 3.147018021 0.13830356524 0.0
0.0 3.148369252 0.138227554283 0.0
0.0 3.149720484 0.138154329599 0.0
0.0 3.151071715 0.138079504271 0.0
0.0 3.152422946 0.138003516588 0.0
0.0 3.153774178 0.137925835891 0.0
0.0 3.155125409 0.137850119199 0.0
0.0 3.156476641 0.137776447334 0.0
0.0 3.157827872 0.137702873367 0.0
0.0 3.159179104 0.137626263792 0.0
0.0 3.160530335 0.137551143962 0.0
0.0 3.161881566 0.137477806689 0.0
0.0 3.163232798 0.137402431565 0.0
0.0 3.164584029 0.137329863919 0.0
0.0 3.165935261 0.137258619848 0.0
0.0 3.167286492 0.137184076975 0.0
0.0 3.168637724 0.137105723572 0.0
0.0 3.169988955 0.137033300032 0.0
0.0 3.171340187 0.136961759263 0.0
0.0 3.172691418 0.136884619185 0.0
0.0 3.174042649 0.136810385285 0.0
0.0 3.175393881 0.136736537167 0.0
0.0 3.176745112 0.136663019195 0.0
0.0 3.178096344 0.136593082162 0.0
0.0 3.179447575 0.136521277191 0.0
0.0 3.180798807 0.136446451038 0.0
0.0 3.182150038 0.13637316564 0.0
0.0 3.18350127 0.136303225011 0.0
0.0 3.184852501 0.136227274549 0.0
0.0 3.186203732 0.136148359942 0.0
0.0 3.187554964 0.136076177149 0.0
0.0 3.188906195 0.136007603812 0.0
0.0 3.190257427 0.13593503662 0.0
0.0 3.191608658 0.135860890658 0.0
0.0 3.19295989 0.135783846032 0.0
0.0 3.194311121 0.135712608544 0.0
0.0 3.195662352 0.135641897734 0.0
0.0 3.197013584 0.135570397944 0.0
0.0 3.198364815 0.135500130933 0.0
0.0 3.199716047 0.135426311246 0.0
0.0 3.201067278 0.13535133424 0.0
0.0 3.20241851 0.135274962874 0.0
0.0 3.203769741 0.135203784149 0.0
0.0 3.205120973 0.135134022064 0.0
0.0 3.206472204 0.135063697769 0.0
0.0 3.207823435 0.134997138771 0.0
0.0 3.209174667 0.134930506547 0.0
0.0 3.210525898 0.134858489062 0.0
0.0 3.21187713 0.134785147896 0.0
0.0 3.213228361 0.134713266741 0.0
0.0 3.214579593 0.134644228508 0.0
0.0 3.215930824 0.134574885307 0.0
0.0 3.217282055 0.13450458941 0.0
0.0 3.218633287 0.134433792492 0.0
0.0 3.219984518 0.134366260201 0.0
0.0 3.22133575 0.134299587056 0.0
0.0 3.222686981 0.13423100416 0.0
0.0 3.224038213 0.13416056024 0.0
0.0 3.225389444 0.134089560844 0.0
0.0 3.226740676 0.134020018006 0.0
0.0 3.228091907 0.133954446947 0.0
0.0 3.229443138 0.133891661389 0.0
0.0 3.23079437 0.133825167418 0.0
0.0 3.232145601 0.133757553582 0.0
0.0 3.233496833 0.133689967571 0.0
0.0 3.234848064 0.13362519531 0.0
0.0 3.236199296 0.133558024058 0.0
0.0 3.237550527 0.133490041736 0.0
0.0 3.238901759 0.133425650566 0.0
0.0 3.24025299 0.133364354959 0.0
0.0 3.241604221 0.13329801727 0.0
0.0 3.242955453 0.133230107228 0.0
0.0 3.244306684 0.133170321323 0.0
0.0 3.245657916 0.133106963649 0.0
0.0 3.247009147 0.133040372931 0.0
0.0 3.248360379 0.132974903483 0.0
0.0 3.24971161 0.132910086792 0.0
0.0 3.251062841 0.132847527988 0.0
0.0 3.252414073 0.132791247196 0.0
0.0 3.253765304 0.132734817125 0.0
0.0 3.255116536 0.132671739936 0.0
0.0 3.256467767 0.13260861207 0.0
0.0 3.257818999 0.132546782108 0.0
0.0 3.25917023 0.132488138823 0.0
0.0 3.260521462 0.132432370964 0.0
0.0 3.261872693 0.132377117342 0.0
0.0 3.263223924 0.132321459826 0.0
0.0 3.264575156 0.132266905968 0.0
0.0 3.265926387 0.132213211025 0.0
0.0 3.267277619 0.132159608137 0.0
0.0 3.26862885 0.132108830295 0.0
0.0 3.269980082 0.132060935975 0.0
0.0 3.271331313 0.13201166168 0.0
0.0 3.272682544 0.131961981354 0.0
0.0 3.274033776 0.131918085054 0.0
0.0 3.275385007 0.131876292206 0.0
0.0 3.276736239 0.131832208434 0.0
0.0 3.27808747 0.131791801191 0.0
0.0 3.279438702 0.131754016624 0.0
0.0 3.280789933 0.131718577394 0.0
0.0 3.282141165 0.131690188951 0.0
0.0 3.283492396 0.131666957655 0.0
0.0 3.284843627 0.131647286732 0.0
0.0 3.286194859 0.131630143465 0.0
0.0 3.28754609 0.131617991667 0.0
0.0 3.288897322 0.131613711594 0.0
0.0 3.290248553 0.131615980835 0.0
0.0 3.291599785 0.131623150617 0.0
0.0 3.292951016 0.131637466538 0.0
0.0 3.294302247 0.131663317927 0.0
0.0 3.295653479 0.131698270608 0.0
0.0 3.29700471 0.13174027054 0.0
0.0 3.298355942 0.131795190717 0.0
0.0 3.299707173 0.131865396249 0.0
0.0 3.301058405 0.131946937092 0.0
0.0 3.302409636 0.132035054286 0.0
0.0 3.303760868 0.132139314535 0.0
0.0 3.305112099 0.132265806974 0.0
0.0 3.30646333 0.132406105197 0.0
0.0 3.307814562 0.132554267001 0.0
0.0 3.309165793 0.132715433034 0.0
0.0 3.310517025 0.132890298275 0.0
0.0 3.311868256 0.133081453803 0.0
0.0 3.313219488 0.133281448018 0.0
0.0 3.314570719 0.133488821693 0.0
0.0 3.315921951 0.133699359947 0.0
0.0 3.317273182 0.133911130889 0.0
0.0 3.318624413 0.134126464426 0.0
0.0 3.319975645 0.134340307658 0.0
0.0 3.321326876 0.134544654652 0.0
0.0 3.322678108 0.134736123889 0.0
0.0 3.324029339 0.134918892895 0.0
0.0 3.325380571 0.13509300924 0.0
0.0 3.326731802 0.135256589474 0.0
0.0 3.328083033 0.135406720179 0.0
0.0 3.329434265 0.135544526688 0.0
0.0 3.330785496 0.135663464226 0.0
0.0 3.332136728 0.135771386993 0.0
0.0 3.333487959 0.135875213839 0.0
0.0 3.334839191 0.13597530864 0.0
0.0 3.336190422 0.136059654003 0.0
0.0 3.337541654 0.136138575813 0.0
0.0 3.338892885 0.136221634355 0.0
0.0 3.340244116 0.136303814446 0.0
0.0 3.341595348 0.136372451433 0.0
0.0 3.342946579 0.136446171937 0.0
0.0 3.344297811 0.136524797461 0.0
0.0 3.345649042 0.136610401299 0.0
0.0 3.347000274 0.13669958114 0.0
0.0 3.348351505 0.136798830993 0.0
0.0 3.349702736 0.13691471033 0.0
0.0 3.351053968 0.137016306245 0.0
0.0 3.352405199 0.137123970854 0.0
0.0 3.353756431 0.137247042625 0.0
0.0 3.355107662 0.137384356566 0.0
0.0 3.356458894 0.137535207341 0.0
0.0 3.357810125 0.137702656083 0.0
0.0 3.359161357 0.137889574432 0.0
0.0 3.360512588 0.138134448659 0.0
0.0 3.361863819 0.138469123409 0.0
0.0 3.363215051 0.138835307859 0.0
0.0 3.364566282 0.139235975373 0.0
0.0 3.365917514 0.13967816881 0.0
0.0 3.367268745 0.140166852098 0.0
0.0 3.368619977 0.140696554874 0.0
0.0 3.369971208 0.141271631468 0.0
0.0 3.371322439 0.142021462794 0.0
0.0 3.372673671 0.142856846905 0.0
0.0 3.374024902 0.143785988489 0.0
0.0 3.375376134 0.144774434964 0.0
0.0 3.376727365 0.145856789523 0.0
0.0 3.378078597 0.14704252577 0.0
0.0 3.379429828 0.148342101932 0.0
0.0 3.38078106 0.14968580847 0.0
0.0 3.382132291 0.151099965739 0.0
0.0 3.383483522 0.15264961875 0.0
0.0 3.384834754 0.154343248478 0.0
0.0 3.386185985 0.156199670392 0.0
0.0 3.387537217 0.158233576585 0.0
0.0 3.388888448 0.160466847141 0.0
0.0 3.39023968 0.162896881173 0.0
0.0 3.391590911 0.165455959089 0.0
0.0 3.392942143 0.168257943809 0.0
0.0 3.394293374 0.171329936676 0.0
0.0 3.395644605 0.174689745863 0.0
0.0 3.396995837 0.178360586262 0.0
0.0 3.398347068 0.182372300547 0.0
0.0 3.3996983 0.186749077254 0.0
0.0 3.401049531 0.191515882882 0.0
0.0 3.402400763 0.196707975465 0.0
0.0 3.403751994 0.202357343465 0.0
0.0 3.405103225 0.208496071264 0.0
0.0 3.406454457 0.215157145924 0.0
0.0 3.407805688 0.22237500775 0.0
0.0 3.40915692 0.230192995832 0.0
0.0 3.410508151 0.238717301007 0.0
0.0 3.411859383 0.247785603467 0.0
0.0 3.413210614 0.25747794812 0.0
0.0 3.414561846 0.267787747507 0.0
0.0 3.415913077 0.278860265655 0.0
0.0 3.417264308 0.290377925576 0.0
0.0 3.41861554 0.302415537854 0.0
0.0 3.419966771 0.314890975614 0.0
0.0 3.421318003 0.327869811523 0.0
0.0 3.422669234 0.341150276859 0.0
0.0 3.424020466 0.354614165033 0.0
0.0 3.425371697 0.36812943983 0.0
0.0 3.426722928 0.381514343193 0.0
0.0 3.42807416 0.394573292289 0.0
0.0 3.429425391 0.407248056424 0.0
0.0 3.430776623 0.419353635623 0.0
0.0 3.432127854 0.430803092649 0.0
0.0 3.433479086 0.441564413261 0.0
0.0 3.434830317 0.451456737951 0.0
0.0 3.436181549 0.460546968896 0.0
0.0 3.43753278 0.468782226553 0.0
0.0 3.438884011 0.476127458069 0.0
0.0 3.440235243 0.482577253178 0.0
0.0 3.441586474 0.488014992 0.0
0.0 3.442937706 0.492666578338 0.0
0.0 3.444288937 0.497076521486 0.0
0.0 3.445640169 0.5004420631 0.0
0.0 3.4469914 0.503272191448 0.0
0.0 3.448342631 0.505781593466 0.0
0.0 3.449693863 0.507977908145 0.0
0.0 3.451045094 0.509744855838 0.0
0.0 3.452396326 0.511287559903 0.0
0.0 3.453747557 0.512618151136 0.0
0.0 3.455098789 0.513783372246 0.0
0.0 3.45645002 0.514814980161 0.0
0.0 3.457801252 0.5157673956 0.0
0.0 3.459152483 0.516665962494 0.0
0.0 3.460503714 0.517667944087 0.0
0.0 3.461854946 0.518875158445 0.0
0.0 3.463206177 0.520097057765 0.0
0.0 3.464557409 0.521364056781 0.0
0.0 3.46590864 0.522675447873 0.0
0.0 3.467259872 0.524050097498 0.0
0.0 3.468611103 0.525489976944 0.0
0.0 3.469962335 0.526997474753 0.0
0.0 3.471313566 0.528303167046 0.0
0.0 3.472664797 0.529660521065 0.0
0.0 3.474016029 0.531099658989 0.0
0.0 3.47536726 0.53260129874 0.0
0.0 3.476718492 0.534496485469 0.0
0.0 3.478069723 0.536235728884 0.0
0.0 3.479420955 0.538083464808 0.0
0.0 3.480772186 0.54022860846 0.0
0.0 3.482123417 0.542267796969 0.0
0.0 3.483474649 0.54433647504 0.0
0.0 3.48482588 0.546441109621 0.0
0.0 3.486177112 0.548567281266 0.0
0.0 3.487528343 0.550706165847 0.0
0.0 3.488879575 0.552837360445 0.0
0.0 3.490230806 0.554972476339 0.0
0.0 3.491582038 0.557189698535 0.0
0.0 3.492933269 0.559360846406 0.0
0.0 3.4942845 0.561497180317 0.0
0.0 3.495635732 0.563584333626 0.0
0.0 3.496986963 0.565608179837 0.0
0.0 3.498338195 0.567564516545 0.0
0.0 3.499689426 0.569425304856 0.0
0.0 3.501040658 0.571161667894 0.0
0.0 3.502391889 0.572796062764 0.0
0.0 3.50374312 0.574341893472 0.0
0.0 3.505094352 0.575803871237 0.0
0.0 3.506445583 0.577170758913 0.0
0.0 3.507796815 0.578873894323 0.0
0.0 3.509148046 0.580146890622 0.0
0.0 3.510499278 0.581493136202 0.0
0.0 3.511850509 0.582787801137 0.0
0.0 3.513201741 0.583708414933 0.0
0.0 3.514552972 0.584534440384 0.0
0.0 3.515904203 0.58526912215 0.0
0.0 3.517255435 0.585916547259 0.0
0.0 3.518606666 0.586494072446 0.0
0.0 3.519957898 0.586974546767 0.0
0.0 3.521309129 0.58730732381 0.0
0.0 3.522660361 0.58757963211 0.0
0.0 3.524011592 0.587801096008 0.0
0.0 3.525362824 0.587968678527 0.0
0.0 3.526714055 0.58807255784 0.0
0.0 3.528065286 0.588126241467 0.0
0.0 3.529416518 0.588140211974 0.0
0.0 3.530767749 0.588068579058 0.0
0.0 3.532118981 0.58794813761 0.0
0.0 3.533470212 0.587811341118 0.0
0.0 3.534821444 0.588108395754 0.0
0.0 3.536172675 0.588052855145 0.0
0.0 3.537523906 0.587892700977 0.0
0.0 3.538875138 0.587740181828 0.0
0.0 3.540226369 0.587570427662 0.0
0.0 3.541577601 0.58729654671 0.0
0.0 3.542928832 0.5875345179 0.0
0.0 3.544280064 0.587355813677 0.0
0.0 3.545631295 0.587183485004 0.0
0.0 3.546982527 0.587048574598 0.0
0.0 3.548333758 0.586948571189 0.0
0.0 3.549684989 0.586900816431 0.0
0.0 3.551036221 0.586878400885 0.0
0.0 3.552387452 0.58740133837 0.0
0.0 3.553738684 0.587452947788 0.0
0.0 3.555089915 0.587554228092 0.0
0.0 3.556441147 0.587725393993 0.0
0.0 3.557792378 0.587953779387 0.0
0.0 3.559143609 0.588236482796 0.0
0.0 3.560494841 0.588601494211 0.0
0.0 3.561846072 0.589082823458 0.0
0.0 3.563197304 0.589628599249 0.0
0.0 3.564548535 0.590225151799 0.0
0.0 3.565899767 0.590870910588 0.0
0.0 3.567250998 0.591570992652 0.0
0.0 3.56860223 0.592633306057 0.0
0.0 3.569953461 0.593630893416 0.0
0.0 3.571304692 0.594396740594 0.0
0.0 3.572655924 0.59518590914 0.0
0.0 3.574007155 0.596006644559 0.0
0.0 3.575358387 0.596845592753 0.0
0.0 3.576709618 0.597701143307 0.0
0.0 3.57806085 0.599113233648 0.0
0.0 3.579412081 0.599990133924 0.0
0.0 3.580763312 0.600837542341 0.0
0.0 3.582114544 0.601655243458 0.0
0.0 3.583465775 0.602455723841 0.0
0.0 3.584817007 0.603708267987 0.0
0.0 3.586168238 0.604583880473 0.0
0.0 3.58751947 0.60533350574 0.0
0.0 3.588870701 0.606063460649 0.0
0.0 3.590221933 0.60673641409 0.0
0.0 3.591573164 0.607311366466 0.0
0.0 3.592924395 0.607833192931 0.0
0.0 3.594275627 0.608299337626 0.0
0.0 3.595626858 0.608730705588 0.0
0.0 3.59697809 0.609101658209 0.0
0.0 3.598329321 0.609414169528 0.0
0.0 3.599680553 0.609674540655 0.0
0.0 3.601031784 0.609891490828 0.0
0.0 3.602383016 0.610070808579 0.0
0.0 3.603734247 0.610595467435 0.0
0.0 3.605085478 0.61078239712 0.0
0.0 3.60643671 0.610770639788 0.0
0.0 3.607787941 0.610688739692 0.0
0.0 3.609139173 0.610541244599 0.0
0.0 3.610490404 0.610320873822 0.0
0.0 3.611841636 0.609997023172 0.0
0.0 3.613192867 0.609624125066 0.0
0.0 3.614544098 0.60919544026 0.0
0.0 3.61589533 0.60870723278 0.0
0.0 3.617246561 0.608184688015 0.0
0.0 3.618597793 0.607614734179 0.0
0.0 3.619949024 0.607514861789 0.0
0.0 3.621300256 0.606893996866 0.0
0.0 3.622651487 0.606210549415 0.0
0.0 3.624002719 0.605512255419 0.0
0.0 3.62535395 0.604803546909 0.0
0.0 3.626705181 0.604071059424 0.0
0.0 3.628056413 0.603335890295 0.0
0.0 3.629407644 0.602593141244 0.0
0.0 3.630758876 0.601880643627 0.0
0.0 3.632110107 0.601211455284 0.0
0.0 3.633461339 0.60054644784 0.0
0.0 3.63481257 0.599899922026 0.0
0.0 3.636163801 0.599278654016 0.0
0.0 3.637515033 0.598665997264 0.0
0.0 3.638866264 0.598082416302 0.0
0.0 3.640217496 0.597543996971 0.0
0.0 3.641568727 0.597115100919 0.0
0.0 3.642919959 0.596748930601 0.0
0.0 3.64427119 0.596410898322 0.0
0.0 3.645622422 0.596107929366 0.0
0.0 3.646973653 0.5958559829 0.0
0.0 3.648324884 0.595643461953 0.0
0.0 3.649676116 0.595857216157 0.0
0.0 3.651027347 0.595980605065 0.0
0.0 3.652378579 0.595977186841 0.0
0.0 3.65372981 0.596035403864 0.0
0.0 3.655081042 0.596146101895 0.0
0.0 3.656432273 0.596301909478 0.0
0.0 3.657783504 0.596518745308 0.0
0.0 3.659134736 0.596783105608 0.0
0.0 3.660485967 0.597062740745 0.0
0.0 3.661837199 0.597341764321 0.0
0.0 3.66318843 0.597659719762 0.0
0.0 3.664539662 0.598030990412 0.0
0.0 3.665890893 0.598448494062 0.0
0.0 3.667242125 0.598900512549 0.0
0.0 3.668593356 0.599396417271 0.0
0.0 3.669944587 0.60042221726 0.0
0.0 3.671295819 0.601059580655 0.0
0.0 3.67264705 0.601709559768 0.0
0.0 3.673998282 0.602379989832 0.0
0.0 3.675349513 0.60307305778 0.0
0.0 3.676700745 0.603794247613 0.0
0.0 3.678051976 0.604520728485 0.0
0.0 3.679403208 0.605258058052 0.0
0.0 3.680754439 0.606006384161 0.0
0.0 3.68210567 0.6067490489 0.0
0.0 3.683456902 0.607544641517 0.0
0.0 3.684808133 0.608345721255 0.0
0.0 3.686159365 0.609127637404 0.0
0.0 3.687510596 0.609909466657 0.0
0.0 3.688861828 0.610672533655 0.0
0.0 3.690213059 0.611393276249 0.0
0.0 3.69156429 0.611999610671 0.0
0.0 3.692915522 0.612586081631 0.0
0.0 3.694266753 0.61372063057 0.0
0.0 3.695617985 0.614273645351 0.0
0.0 3.696969216 0.614790100849 0.0
0.0 3.698320448 0.615276057499 0.0
0.0 3.699671679 0.615738266281 0.0
0.0 3.701022911 0.616166516247 0.0
0.0 3.702374142 0.616569906811 0.0
0.0 3.703725373 0.616941526158 0.0
0.0 3.705076605 0.617274903789 0.0
0.0 3.706427836 0.617586807098 0.0
0.0 3.707779068 0.617868293011 0.0
0.0 3.709130299 0.618113371521 0.0
0.0 3.710481531 0.618362149282 0.0
0.0 3.711832762 0.618623486098 0.0
0.0 3.713183993 0.618847392482 0.0
0.0 3.714535225 0.619047966448 0.0
0.0 3.715886456 0.619220929567 0.0
0.0 3.717237688 0.61937518144 0.0
0.0 3.718588919 0.619512576649 0.0
0.0 3.719940151 0.619621598083 0.0
0.0 3.721291382 0.619718164158 0.0
0.0 3.722642614 0.619804786805 0.0
0.0 3.723993845 0.619867999761 0.0
0.0 3.725345076 0.61994467724 0.0
0.0 3.726696308 0.620022406248 0.0
0.0 3.728047539 0.620075204476 0.0
0.0 3.729398771 0.620117331852 0.0
0.0 3.730750002 0.6201560772 0.0
0.0 3.732101234 0.620190599936 0.0
0.0 3.733452465 0.62022200597 0.0
0.0 3.734803696 0.620238673515 0.0
0.0 3.736154928 0.620829413946 0.0
0.0 3.737506159 0.62085032659 0.0
0.0 3.738857391 0.620848728541 0.0
0.0 3.740208622 0.620930762467 0.0
0.0 3.741559854 0.621267821466 0.0
0.0 3.742911085 0.621142772229 0.0
0.0 3.744262317 0.621004351837 0.0
0.0 3.745613548 0.62085399157 0.0
0.0 3.746964779 0.620674027463 0.0
0.0 3.748316011 0.620470238753 0.0
0.0 3.749667242 0.620237567357 0.0
0.0 3.751018474 0.619953305633 0.0
0.0 3.752369705 0.619629454367 0.0
0.0 3.753720937 0.619258409454 0.0
0.0 3.755072168 0.618822692163 0.0
0.0 3.7564234 0.61832849101 0.0
0.0 3.757774631 0.617758432474 0.0
0.0 3.759125862 0.617093723955 0.0
0.0 3.760477094 0.616342053251 0.0
0.0 3.761828325 0.615485713194 0.0
0.0 3.763179557 0.614505996187 0.0
0.0 3.764530788 0.613408483952 0.0
0.0 3.76588202 0.612172171168 0.0
0.0 3.767233251 0.610778491809 0.0
0.0 3.768584482 0.609238880422 0.0
0.0 3.769935714 0.607524973255 0.0
0.0 3.771286945 0.60560260835 0.0
0.0 3.772638177 0.60347764836 0.0
0.0 3.773989408 0.601130775816 0.0
0.0 3.77534064 0.598540747666 0.0
0.0 3.776691871 0.596082453012 0.0
0.0 3.778043103 0.593145711403 0.0
0.0 3.779394334 0.58976256576 0.0
0.0 3.780745565 0.586135863288 0.0
0.0 3.782096797 0.582232554674 0.0
0.0 3.783448028 0.578003453438 0.0
0.0 3.78479926 0.573447049665 0.0
0.0 3.786150491 0.568543493713 0.0
0.0 3.787501723 0.563288983619 0.0
0.0 3.788852954 0.557694536054 0.0
0.0 3.790204185 0.551730577971 0.0
0.0 3.791555417 0.545316506719 0.0
0.0 3.792906648 0.538560044442 0.0
0.0 3.79425788 0.531447520942 0.0
0.0 3.795609111 0.523993711007 0.0
0.0 3.796960343 0.516218890977 0.0
0.0 3.798311574 0.508116408291 0.0
0.0 3.799662806 0.499706221586 0.0
0.0 3.801014037 0.49109040019 0.0
0.0 3.802365268 0.482203502855 0.0
0.0 3.8037165 0.473044792518 0.0
0.0 3.805067731 0.463662260896 0.0
0.0 3.806418963 0.454070878667 0.0
0.0 3.807770194 0.444311055019 0.0
0.0 3.809121426 0.434412386057 0.0
0.0 3.810472657 0.424374418427 0.0
0.0 3.811823889 0.414224669305 0.0
0.0 3.81317512 0.40402457933 0.0
0.0 3.814526351 0.393798263508 0.0
0.0 3.815877583 0.38358522115 0.0
0.0 3.817228814 0.373482336688 0.0
0.0 3.818580046 0.363592886267 0.0
0.0 3.819931277 0.353586936333 0.0
0.0 3.821282509 0.343721655688 0.0
0.0 3.82263374 0.334012481143 0.0
0.0 3.823984971 0.324483829166 0.0
0.0 3.825336203 0.315161108207 0.0
0.0 3.826687434 0.306063532762 0.0
0.0 3.828038666 0.297210640753 0.0
0.0 3.829389897 0.288618403496 0.0
0.0 3.830741129 0.280289190419 0.0
0.0 3.83209236 0.2722318299 0.0
0.0 3.833443592 0.264462107234 0.0
0.0 3.834794823 0.256988224027 0.0
0.0 3.836146054 0.249812887921 0.0
0.0 3.837497286 0.242928817118 0.0
0.0 3.838848517 0.236443901701 0.0
0.0 3.840199749 0.23016612294 0.0
0.0 3.84155098 0.224166641602 0.0
0.0 3.842902212 0.218454765763 0.0
0.0 3.844253443 0.213026762863 0.0
0.0 3.845604674 0.207876441635 0.0
0.0 3.846955906 0.202992716106 0.0
0.0 3.848307137 0.198365681019 0.0
0.0 3.849658369 0.19398843691 0.0
0.0 3.8510096 0.189853581869 0.0
0.0 3.852360832 0.185954042844 0.0
0.0 3.853712063 0.182280043643 0.0
0.0 3.855063295 0.178820802577 0.0
0.0 3.856414526 0.175568779131 0.0
0.0 3.857765757 0.17255491846 0.0
0.0 3.859116989 0.16968593788 0.0
0.0 3.86046822 0.166977085374 0.0
0.0 3.861819452 0.164438353455 0.0
0.0 3.863170683 0.162056275605 0.0
0.0 3.864521915 0.159821774143 0.0
0.0 3.865873146 0.15773196639 0.0
0.0 3.867224377 0.155775704816 0.0
0.0 3.868575609 0.153942282739 0.0
0.0 3.86992684 0.152228028287 0.0
0.0 3.871278072 0.150626310556 0.0
0.0 3.872629303 0.149128062268 0.0
0.0 3.873980535 0.147727038812 0.0
0.0 3.875331766 0.146420658169 0.0
0.0 3.876682998 0.145204522712 0.0
0.0 3.878034229 0.144070615893 0.0
0.0 3.87938546 0.143010245728 0.0
0.0 3.880736692 0.142017344791 0.0
0.0 3.882087923 0.141091815057 0.0
0.0 3.883439155 0.140233097972 0.0
0.0 3.884790386 0.139433102425 0.0
0.0 3.886141618 0.13868864969 0.0
0.0 3.887492849 0.137998844891 0.0
0.0 3.888844081 0.137356873222 0.0
0.0 3.890195312 0.136756074285 0.0
0.0 3.891546543 0.136195567236 0.0
0.0 3.892897775 0.135677401809 0.0
0.0 3.894249006 0.135200819446 0.0
0.0 3.895600238 0.134760639154 0.0
0.0 3.896951469 0.134349913342 0.0
0.0 3.898302701 0.13397320614 0.0
0.0 3.899653932 0.133616705047 0.0
0.0 3.901005163 0.133291052369 0.0
0.0 3.902356395 0.132992515366 0.0
0.0 3.903707626 0.132717067535 0.0
0.0 3.905058858 0.132461060535 0.0
0.0 3.906410089 0.132222525518 0.0
0.0 3.907761321 0.132001809281 0.0
0.0 3.909112552 0.131799052234 0.0
0.0 3.910463784 0.131614715889 0.0
0.0 3.911815015 0.131450049396 0.0
0.0 3.913166246 0.131304162852 0.0
0.0 3.914517478 0.131173388377 0.0
0.0 3.915868709 0.131051176638 0.0
0.0 3.917219941 0.130938686754 0.0
0.0 3.918571172 0.130839072801 0.0
0.0 3.919922404 0.130750361915 0.0
0.0 3.921273635 0.130671254195 0.0
0.0 3.922624866 0.13060153282 0.0
0.0 3.923976098 0.13054264925 0.0
0.0 3.925327329 0.130494239226 0.0
0.0 3.926678561 0.130452583219 0.0
0.0 3.928029792 0.130414468104 0.0
0.0 3.929381024 0.130382049871 0.0
0.0 3.930732255 0.130359363744 0.0
0.0 3.932083487 0.130345178668 0.0
0.0 3.933434718 0.130336658405 0.0
0.0 3.934785949 0.130332247048 0.0
0.0 3.936137181 0.130331307416 0.0
0.0 3.937488412 0.130336299437 0.0
0.0 3.938839644 0.130347706667 0.0
0.0 3.940190875 0.13036449187 0.0
0.0 3.941542107 0.130386212265 0.0
0.0 3.942893338 0.130411097203 0.0
0.0 3.944244569 0.130437076985 0.0
0.0 3.945595801 0.130465773494 0.0
0.0 3.946947032 0.130501749135 0.0
0.0 3.948298264 0.130539797063 0.0
0.0 3.949649495 0.130578010013 0.0
0.0 3.951000727 0.130620723067 0.0
0.0 3.952351958 0.130668301793 0.0
0.0 3.95370319 0.130717788468 0.0
0.0 3.955054421 0.130768269286 0.0
0.0 3.956405652 0.130821996638 0.0
0.0 3.957756884 0.130878579076 0.0
0.0 3.959108115 0.130935567434 0.0
0.0 3.960459347 0.130995217436 0.0
0.0 3.961810578 0.131056979089 0.0
0.0 3.96316181 0.131119772675 0.0
0.0 3.964513041 0.13118471335 0.0
0.0 3.965864273 0.1312523472 0.0
0.0 3.967215504 0.131322773981 0.0
0.0 3.968566735 0.131396274404 0.0
0.0 3.969917967 0.131473045298 0.0
0.0 3.971269198 0.131549652766 0.0
0.0 3.97262043 0.131624581787 0.0
0.0 3.973971661 0.131699445157 0.0
0.0 3.975322893 0.13177477648 0.0
0.0 3.976674124 0.131851732268 0.0
0.0 3.978025355 0.13193108726 0.0
0.0 3.979376587 0.132011904275 0.0
0.0 3.980727818 0.132093894325 0.0
0.0 3.98207905 0.13217810897 0.0
0.0 3.983430281 0.132264911849 0.0
0.0 3.984781513 0.132352784852 0.0
0.0 3.986132744 0.132441970974 0.0
0.0 3.987483976 0.132532012999 0.0
0.0 3.988835207 0.132624435886 0.0
0.0 3.990186438 0.132718268544 0.0
0.0 3.99153767 0.132812715836 0.0
0.0 3.992888901 0.132907085202 0.0
0.0 3.994240133 0.133000903441 0.0
0.0 3.995591364 0.133095867471 0.0
0.0 3.996942596 0.133192585325 0.0
0.0 3.998293827 0.133291748284 0.0
0.0 3.999645058 0.133393107967 0.0
0.0 4.00099629 0.133494723686 0.0
0.0 4.002347521 0.133595140189 0.0
0.0 4.003698753 0.133695417026 0.0
0.0 4.005049984 0.133798108704 0.0
0.0 4.006401216 0.13390188661 0.0
0.0 4.007752447 0.134005102901 0.0
0.0 4.009103679 0.13410811338 0.0
0.0 4.01045491 0.134211175071 0.0
0.0 4.011806141 0.134315437305 0.0
0.0 4.013157373 0.134421775546 0.0
0.0 4.014508604 0.134530182467 0.0
0.0 4.015859836 0.134638801021 0.0
0.0 4.017211067 0.134747539643 0.0
0.0 4.018562299 0.134856574895 0.0
0.0 4.01991353 0.134965301556 0.0
0.0 4.021264761 0.135074262593 0.0
0.0 4.022615993 0.13518336445 0.0
0.0 4.023967224 0.135294137191 0.0
0.0 4.025318456 0.135405774012 0.0
0.0 4.026669687 0.135520076532 0.0
0.0 4.028020919 0.135636452988 0.0
0.0 4.02937215 0.135751849272 0.0
0.0 4.030723382 0.135865573494 0.0
0.0 4.032074613 0.135979847851 0.0
0.0 4.033425844 0.136096220802 0.0
0.0 4.034777076 0.136215162814 0.0
0.0 4.036128307 0.136334376164 0.0
0.0 4.037479539 0.136451590902 0.0
0.0 4.03883077 0.136568277285 0.0
0.0 4.040182002 0.136686593536 0.0
0.0 4.041533233 0.136806290236 0.0
0.0 4.042884465 0.136926524918 0.0
0.0 4.044235696 0.137046831878 0.0
0.0 4.045586927 0.137168498283 0.0
0.0 4.046938159 0.13729186554 0.0
0.0 4.04828939 0.137415700483 0.0
0.0 4.049640622 0.137539455072 0.0
0.0 4.050991853 0.137662766089 0.0
0.0 4.052343085 0.137785798331 0.0
0.0 4.053694316 0.137909745265 0.0
0.0 4.055045547 0.138035882686 0.0
0.0 4.056396779 0.13816392653 0.0
0.0 4.05774801 0.138292364863 0.0
0.0 4.059099242 0.138419722332 0.0
0.0 4.060450473 0.138546712292 0.0
0.0 4.061801705 0.138674503565 0.0
0.0 4.063152936 0.138803473279 0.0
0.0 4.064504168 0.138933991268 0.0
0.0 4.065855399 0.139065829396 0.0
0.0 4.06720663 0.139198149153 0.0
0.0 4.068557862 0.139329811775 0.0
0.0 4.069909093 0.139461171736 0.0
0.0 4.071260325 0.139593282013 0.0
0.0 4.072611556 0.13972652503 0.0
0.0 4.073962788 0.139860299925 0.0
0.0 4.075314019 0.13999541394 0.0
0.0 4.07666525 0.14013175337 0.0
0.0 4.078016482 0.140268765628 0.0
0.0 4.079367713 0.140405348409 0.0
0.0 4.080718945 0.140541964967 0.0
0.0 4.082070176 0.140679549661 0.0
0.0 4.083421408 0.140818059999 0.0
0.0 4.084772639 0.14095743517 0.0
0.0 4.086123871 0.141097214959 0.0
0.0 4.087475102 0.141237019651 0.0
0.0 4.088826333 0.141377209369 0.0
0.0 4.090177565 0.14151929314 0.0
0.0 4.091528796 0.141662062835 0.0
0.0 4.092880028 0.141804982326 0.0
0.0 4.094231259 0.141948840822 0.0
0.0 4.095582491 0.142094313562 0.0
0.0 4.096933722 0.142240882503 0.0
0.0 4.098284953 0.142387178394 0.0
0.0 4.099636185 0.14253415184 0.0
0.0 4.100987416 0.142681177762 0.0
0.0 4.102338648 0.142827995985 0.0
0.0 4.103689879 0.142975093541 0.0
0.0 4.105041111 0.143123183284 0.0
0.0 4.106392342 0.143270902792 0.0
0.0 4.107743574 0.143418324989 0.0
0.0 4.109094805 0.143568338888 0.0
0.0 4.110446036 0.143720336576 0.0
0.0 4.111797268 0.143873541385 0.0
0.0 4.113148499 0.144026343972 0.0
0.0 4.114499731 0.144180034555 0.0
0.0 4.115850962 0.144334375715 0.0
0.0 4.117202194 0.144488743083 0.0
0.0 4.118553425 0.144643555021 0.0
0.0 4.119904657 0.144799301133 0.0
0.0 4.121255888 0.144955889996 0.0
0.0 4.122607119 0.145112810782 0.0
0.0 4.123958351 0.145270419568 0.0
0.0 4.125309582 0.145427877573 0.0
0.0 4.126660814 0.145584811714 0.0
0.0 4.128012045 0.145741942738 0.0
0.0 4.129363277 0.145900950816 0.0
0.0 4.130714508 0.146063221492 0.0
0.0 4.132065739 0.146227036154 0.0
0.0 4.133416971 0.146391093453 0.0
0.0 4.134768202 0.146554246495 0.0
0.0 4.136119434 0.146716873595 0.0
0.0 4.137470665 0.146881195538 0.0
0.0 4.138821897 0.147046556381 0.0
0.0 4.140173128 0.147211893923 0.0
0.0 4.14152436 0.14737775088 0.0
0.0 4.142875591 0.147545023755 0.0
0.0 4.144226822 0.147714011078 0.0
0.0 4.145578054 0.147882070525 0.0
0.0 4.146929285 0.148049840789 0.0
0.0 4.148280517 0.148218462018 0.0
0.0 4.149631748 0.148388403354 0.0
0.0 4.15098298 0.148559570886 0.0
0.0 4.152334211 0.148731423653 0.0
0.0 4.153685442 0.148903244554 0.0
0.0 4.155036674 0.149074736217 0.0
0.0 4.156387905 0.149246399716 0.0
0.0 4.157739137 0.149419019401 0.0
0.0 4.159090368 0.149593780973 0.0
0.0 4.1604416 0.149770366493 0.0
0.0 4.161792831 0.149947540843 0.0
0.0 4.163144063 0.150124716219 0.0
0.0 4.164495294 0.150301905552 0.0
0.0 4.165846525 0.150480075269 0.0
0.0 4.167197757 0.150658806953 0.0
0.0 4.168548988 0.150836914669 0.0
0.0 4.16990022 0.15101550417 0.0
0.0 4.171251451 0.151195600563 0.0
0.0 4.172602683 0.151378233568 0.0
0.0 4.173953914 0.151561733507 0.0
0.0 4.175305146 0.151745240492 0.0
0.0 4.176656377 0.151928825335 0.0
0.0 4.178007608 0.152112797472 0.0
0.0 4.17935884 0.152297436992 0.0
0.0 4.180710071 0.152483748985 0.0
0.0 4.182061303 0.15267107724 0.0
0.0 4.183412534 0.152859034755 0.0
0.0 4.184763766 0.153047651875 0.0
0.0 4.186114997 0.153237770723 0.0
0.0 4.187466228 0.153429106996 0.0
0.0 4.18881746 0.153620481352 0.0
0.0 4.190168691 0.153811929879 0.0
0.0 4.191519923 0.154003387432 0.0
0.0 4.192871154 0.154194507657 0.0
0.0 4.194222386 0.154384510729 0.0
0.0 4.195573617 0.154577035161 0.0
0.0 4.196924849 0.154771781203 0.0
0.0 4.19827608 0.154968384144 0.0
0.0 4.199627311 0.15516488251 0.0
0.0 4.200978543 0.155361871458 0.0
0.0 4.202329774 0.155560028641 0.0
0.0 4.203681006 0.155758630481 0.0
0.0 4.205032237 0.155956965505 0.0
0.0 4.206383469 0.156155557177 0.0
0.0 4.2077347 0.156355677584 0.0
0.0 4.209085931 0.156557229516 0.0
0.0 4.210437163 0.15675955046 0.0
0.0 4.211788394 0.156963842537 0.0
0.0 4.213139626 0.157168875324 0.0
0.0 4.214490857 0.157373203402 0.0
0.0 4.215842089 0.157576645205 0.0
0.0 4.21719332 0.15778248575 0.0
0.0 4.218544552 0.157990135207 0.0
0.0 4.219895783 0.158198984573 0.0
0.0 4.221247014 0.158406830038 0.0
0.0 4.222598246 0.158614486413 0.0
0.0 4.223949477 0.158824301963 0.0
0.0 4.225300709 0.159034979856 0.0
0.0 4.22665194 0.159246428171 0.0
0.0 4.228003172 0.159458648893 0.0
0.0 4.229354403 0.15967164338 0.0
0.0 4.230705634 0.159885413468 0.0
0.0 4.232056866 0.160099960998 0.0
0.0 4.233408097 0.160315287335 0.0
0.0 4.234759329 0.160531394489 0.0
0.0 4.23611056 0.160748283828 0.0
0.0 4.237461792 0.16096595737 0.0
0.0 4.238813023 0.16118441649 0.0
0.0 4.240164255 0.161403663213 0.0
0.0 4.241515486 0.16162369892 0.0
0.0 4.242866717 0.161844525486 0.0
0.0 4.244217949 0.162066144777 0.0
0.0 4.24556918 0.162288583629 0.0
0.0 4.246920412 0.162511782851 0.0
0.0 4.248271643 0.162735774886 0.0
0.0 4.249622875 0.162960581626 0.0
0.0 4.250974106 0.163186303519 0.0
0.0 4.252325338 0.163413208953 0.0
0.0 4.253676569 0.16363994965 0.0
0.0 4.2550278 0.163871051858 0.0
0.0 4.256379032 0.164101274986 0.0
0.0 4.257730263 0.164329746642 0.0
0.0 4.259081495 0.164559847877 0.0
0.0 4.260432726 0.164791895129 0.0
0.0 4.261783958 0.165026089283 0.0
0.0 4.263135189 0.165259066687 0.0
0.0 4.26448642 0.165491939932 0.0
0.0 4.265837652 0.165725417008 0.0
0.0 4.267188883 0.165959957927 0.0
0.0 4.268540115 0.166196187623 0.0
0.0 4.269891346 0.166434110113 0.0
0.0 4.271242578 0.166673314101 0.0
0.0 4.272593809 0.166913030005 0.0
0.0 4.273945041 0.167152813186 0.0
0.0 4.275296272 0.167394003163 0.0
0.0 4.276647503 0.167636048906 0.0
0.0 4.277998735 0.16787871349 0.0
0.0 4.279349966 0.168121819843 0.0
0.0 4.280701198 0.168366703543 0.0
0.0 4.282052429 0.168614377062 0.0
0.0 4.283403661 0.168860035575 0.0
0.0 4.284754892 0.1691062641 0.0
0.0 4.286106123 0.169354925598 0.0
0.0 4.287457355 0.169602985195 0.0
0.0 4.288808586 0.169850595813 0.0
0.0 4.290159818 0.170098709143 0.0
0.0 4.291511049 0.170349955326 0.0
0.0 4.292862281 0.170601806547 0.0
0.0 4.294213512 0.170854367215 0.0
0.0 4.295564744 0.171107457659 0.0
0.0 4.296915975 0.171362216298 0.0
0.0 4.298267206 0.171617036732 0.0
0.0 4.299618438 0.171872512815 0.0
0.0 4.300969669 0.172129475073 0.0
0.0 4.302320901 0.172389224269 0.0
0.0 4.303672132 0.172649324679 0.0
0.0 4.305023364 0.172908967268 0.0
0.0 4.306374595 0.173168189464 0.0
0.0 4.307725826 0.173427728539 0.0
0.0 4.309077058 0.173689771393 0.0
0.0 4.310428289 0.173954315007 0.0
0.0 4.311779521 0.174221088315 0.0
0.0 4.313130752 0.174488326952 0.0
0.0 4.314481984 0.174754039194 0.0
0.0 4.315833215 0.17502032963 0.0
0.0 4.317184447 0.175287850758 0.0
0.0 4.318535678 0.175557571828 0.0
0.0 4.319886909 0.175828866578 0.0
0.0 4.321238141 0.176100585438 0.0
0.0 4.322589372 0.176369259949 0.0
0.0 4.323940604 0.17663663224 0.0
0.0 4.325291835 0.176905405513 0.0
0.0 4.326643067 0.177178848647 0.0
0.0 4.327994298 0.177453907042 0.0
0.0 4.32934553 0.177732367759 0.0
0.0 4.330696761 0.178011779579 0.0
0.0 4.332047992 0.178290902429 0.0
0.0 4.333399224 0.178572545652 0.0
0.0 4.334750455 0.17885342124 0.0
0.0 4.336101687 0.179135634036 0.0
0.0 4.337452918 0.179417846074 0.0
0.0 4.33880415 0.179699062392 0.0
0.0 4.340155381 0.17997802622 0.0
0.0 4.341506612 0.180258877019 0.0
0.0 4.342857844 0.180542197106 0.0
0.0 4.344209075 0.180826962061 0.0
0.0 4.345560307 0.181111080596 0.0
0.0 4.346911538 0.181396706319 0.0
0.0 4.34826277 0.181684436031 0.0
0.0 4.349614001 0.181974417333 0.0
0.0 4.350965233 0.182264612783 0.0
0.0 4.352316464 0.182555311283 0.0
0.0 4.353667695 0.182846693547 0.0
0.0 4.355018927 0.183139455216 0.0
0.0 4.356370158 0.183433843788 0.0
0.0 4.35772139 0.183729947767 0.0
0.0 4.359072621 0.184026837649 0.0
0.0 4.360423853 0.184323327894 0.0
0.0 4.361775084 0.184619287485 0.0
0.0 4.363126315 0.184917614945 0.0
0.0 4.364477547 0.185217755911 0.0
0.0 4.365828778 0.185518947609 0.0
0.0 4.36718001 0.18582082912 0.0
0.0 4.368531241 0.186124772604 0.0
0.0 4.369882473 0.186430221398 0.0
0.0 4.371233704 0.186735206724 0.0
0.0 4.372584936 0.187038422648 0.0
0.0 4.373936167 0.187342105817 0.0
0.0 4.375287398 0.187647023226 0.0
0.0 4.37663863 0.187953975576 0.0
0.0 4.377989861 0.188264167036 0.0
0.0 4.379341093 0.18857695511 0.0
0.0 4.380692324 0.188892365341 0.0
0.0 4.382043556 0.189205991535 0.0
0.0 4.383394787 0.189519739864 0.0
0.0 4.384746018 0.189834169333 0.0
0.0 4.38609725 0.190150583999 0.0
0.0 4.387448481 0.190467587095 0.0
0.0 4.388799713 0.190785308618 0.0
0.0 4.390150944 0.191103736892 0.0
0.0 4.391502176 0.191422803717 0.0
0.0 4.392853407 0.191741577886 0.0
0.0 4.394204639 0.192061228614 0.0
0.0 4.39555587 0.192382349772 0.0
0.0 4.396907101 0.192704840767 0.0
0.0 4.398258333 0.193027068342 0.0
0.0 4.399609564 0.193349854563 0.0
0.0 4.400960796 0.193674291052 0.0
0.0 4.402312027 0.194000742423 0.0
0.0 4.403663259 0.194327907167 0.0
0.0 4.40501449 0.19465552882 0.0
0.0 4.406365722 0.19498589726 0.0
0.0 4.407716953 0.195319029092 0.0
0.0 4.409068184 0.195653235438 0.0
0.0 4.410419416 0.195986941707 0.0
0.0 4.411770647 0.19632068638 0.0
0.0 4.413121879 0.196656449161 0.0
0.0 4.41447311 0.196994086518 0.0
0.0 4.415824342 0.197332707994 0.0
0.0 4.417175573 0.197671880143 0.0
0.0 4.418526804 0.198012080214 0.0
0.0 4.419878036 0.198353630522 0.0
0.0 4.421229267 0.198695751108 0.0
0.0 4.422580499 0.199038285255 0.0
0.0 4.42393173 0.199381414606 0.0
0.0 4.425282962 0.199725705537 0.0
0.0 4.426634193 0.20007171785 0.0
0.0 4.427985425 0.200418635044 0.0
0.0 4.429336656 0.200766127797 0.0
0.0 4.430687887 0.20111342458 0.0
0.0 4.432039119 0.201462068529 0.0
0.0 4.43339035 0.201811983572 0.0
0.0 4.434741582 0.202163178008 0.0
0.0 4.436092813 0.20251524447 0.0
0.0 4.437444045 0.202868900901 0.0
0.0 4.438795276 0.203224173587 0.0
0.0 4.440146507 0.203581529784 0.0
0.0 4.441497739 0.203940608401 0.0
0.0 4.44284897 0.204301344235 0.0
0.0 4.444200202 0.204662918159 0.0
0.0 4.445551433 0.20502323926 0.0
0.0 4.446902665 0.205383715691 0.0
0.0 4.448253896 0.205745387736 0.0
0.0 4.449605128 0.206111185066 0.0
0.0 4.450956359 0.206477081852 0.0
0.0 4.45230759 0.206842874173 0.0
0.0 4.453658822 0.207206442829 0.0
0.0 4.455010053 0.20757333445 0.0
0.0 4.456361285 0.207942827253 0.0
0.0 4.457712516 0.208315533643 0.0
0.0 4.459063748 0.208688560442 0.0
0.0 4.460414979 0.209062681693 0.0
0.0 4.461766211 0.209437855161 0.0
0.0 4.463117442 0.209813762241 0.0
0.0 4.464468673 0.210189658862 0.0
0.0 4.465819905 0.210565833416 0.0
0.0 4.467171136 0.21094260483 0.0
0.0 4.468522368 0.211321509042 0.0
0.0 4.469873599 0.21170261731 0.0
0.0 4.471224831 0.212086617957 0.0
0.0 4.472576062 0.212472684031 0.0
0.0 4.473927293 0.212859482621 0.0
0.0 4.475278525 0.213246470747 0.0
0.0 4.476629756 0.213633065141 0.0
0.0 4.477980988 0.21402043432 0.0
0.0 4.479332219 0.214408738085 0.0
0.0 4.480683451 0.214798414861 0.0
0.0 4.482034682 0.215190129173 0.0
0.0 4.483385914 0.215583174669 0.0
0.0 4.484737145 0.2159771288 0.0
0.0 4.486088376 0.216370458569 0.0
0.0 4.487439608 0.216764734306 0.0
0.0 4.488790839 0.217159924567 0.0
0.0 4.490142071 0.217556542908 0.0
0.0 4.491493302 0.217954842986 0.0
0.0 4.492844534 0.218355021097 0.0
0.0 4.494195765 0.218756997181 0.0
0.0 4.495546996 0.219160059886 0.0
0.0 4.496898228 0.219564537292 0.0
0.0 4.498249459 0.219971047902 0.0
0.0 4.499600691 0.220379439313 0.0
0.0 4.500951922 0.22078847791 0.0
0.0 4.502303154 0.221196842225 0.0
0.0 4.503654385 0.221604125518 0.0
0.0 4.505005617 0.222012942458 0.0
0.0 4.506356848 0.222423626362 0.0
0.0 4.507708079 0.222836576816 0.0
0.0 4.509059311 0.223251620682 0.0
0.0 4.510410542 0.223668285094 0.0
0.0 4.511761774 0.224086137952 0.0
0.0 4.513113005 0.224503585603 0.0
0.0 4.514464237 0.224921291545 0.0
0.0 4.515815468 0.225339603342 0.0
0.0 4.517166699 0.225759935279 0.0
0.0 4.518517931 0.226182068511 0.0
0.0 4.519869162 0.226606552428 0.0
0.0 4.521220394 0.227034473084 0.0
0.0 4.522571625 0.227463878989 0.0
0.0 4.523922857 0.227893898946 0.0
0.0 4.525274088 0.228321447608 0.0
0.0 4.52662532 0.228751050522 0.0
0.0 4.527976551 0.229183163144 0.0
0.0 4.529327782 0.229620648568 0.0
0.0 4.530679014 0.230058625922 0.0
0.0 4.532030245 0.230496667768 0.0
0.0 4.533381477 0.230932450718 0.0
0.0 4.534732708 0.231368499483 0.0
0.0 4.53608394 0.231805406483 0.0
0.0 4.537435171 0.23224401364 0.0
0.0 4.538786403 0.232685449808 0.0
0.0 4.540137634 0.233128791106 0.0
0.0 4.541488865 0.233572777924 0.0
0.0 4.542840097 0.234016012797 0.0
0.0 4.544191328 0.234460234304 0.0
0.0 4.54554256 0.234906908057 0.0
0.0 4.546893791 0.235358010719 0.0
0.0 4.548245023 0.235811761123 0.0
0.0 4.549596254 0.236267921928 0.0
0.0 4.550947485 0.236723514417 0.0
0.0 4.552298717 0.237178395546 0.0
0.0 4.553649948 0.237631614613 0.0
0.0 4.55500118 0.238084513075 0.0
0.0 4.556352411 0.238539507548 0.0
0.0 4.557703643 0.238997072519 0.0
0.0 4.559054874 0.239457799205 0.0
0.0 4.560406106 0.239920868357 0.0
0.0 4.561757337 0.240387111554 0.0
0.0 4.563108568 0.240854910998 0.0
0.0 4.5644598 0.24132279681 0.0
0.0 4.565811031 0.241790063974 0.0
0.0 4.567162263 0.24225724119 0.0
0.0 4.568513494 0.242726517387 0.0
0.0 4.569864726 0.243198121749 0.0
0.0 4.571215957 0.243672425969 0.0
0.0 4.572567188 0.244148438436 0.0
0.0 4.57391842 0.244626152201 0.0
0.0 4.575269651 0.245103074349 0.0
0.0 4.576620883 0.245580252509 0.0
0.0 4.577972114 0.246057752625 0.0
0.0 4.579323346 0.246538418038 0.0
0.0 4.580674577 0.247020321352 0.0
0.0 4.582025809 0.247503414764 0.0
0.0 4.58337704 0.247985043318 0.0
0.0 4.584728271 0.248469075207 0.0
0.0 4.586079503 0.248955379207 0.0
0.0 4.587430734 0.249444515967 0.0
0.0 4.588781966 0.249933903542 0.0
0.0 4.590133197 0.250423645694 0.0
0.0 4.591484429 0.250915150627 0.0
0.0 4.59283566 0.251408954287 0.0
0.0 4.594186891 0.251905287305 0.0
0.0 4.595538123 0.252403317739 0.0
0.0 4.596889354 0.252902814551 0.0
0.0 4.598240586 0.253403707428 0.0
0.0 4.599591817 0.253904162614 0.0
0.0 4.600943049 0.254405723731 0.0
0.0 4.60229428 0.254908390152 0.0
0.0 4.603645512 0.255414050053 0.0
0.0 4.604996743 0.255920887371 0.0
0.0 4.606347974 0.256428538714 0.0
0.0 4.607699206 0.256936114472 0.0
0.0 4.609050437 0.257445544063 0.0
0.0 4.610401669 0.257956988965 0.0
0.0 4.6117529 0.258470128266 0.0
0.0 4.613104132 0.258985048974 0.0
0.0 4.614455363 0.259501998357 0.0
0.0 4.615806595 0.260021202596 0.0
0.0 4.617157826 0.26054131718 0.0
0.0 4.618509057 0.261061428322 0.0
0.0 4.619860289 0.261582993607 0.0
0.0 4.62121152 0.262106880831 0.0
0.0 4.622562752 0.262633840368 0.0
0.0 4.623913983 0.263160856786 0.0
0.0 4.625265215 0.263688834506 0.0
0.0 4.626616446 0.264217476696 0.0
0.0 4.627967677 0.264748626313 0.0
0.0 4.629318909 0.26528116504 0.0
0.0 4.63067014 0.265813198985 0.0
0.0 4.632021372 0.266345536695 0.0
0.0 4.633372603 0.266879306708 0.0
0.0 4.634723835 0.267416968077 0.0
0.0 4.636075066 0.267956416641 0.0
0.0 4.637426298 0.268497390646 0.0
0.0 4.638777529 0.269038434055 0.0
0.0 4.64012876 0.269582467905 0.0
0.0 4.641479992 0.270128992514 0.0
0.0 4.642831223 0.270679149152 0.0
0.0 4.644182455 0.271229988243 0.0
0.0 4.645533686 0.27178102119 0.0
0.0 4.646884918 0.272330809879 0.0
0.0 4.648236149 0.272882279675 0.0
0.0 4.64958738 0.273436045395 0.0
0.0 4.650938612 0.273992503282 0.0
0.0 4.652289843 0.274550374649 0.0
0.0 4.653641075 0.27510823387 0.0
0.0 4.654992306 0.27566646409 0.0
0.0 4.656343538 0.276226045374 0.0
0.0 4.657694769 0.276787448321 0.0
0.0 4.659046001 0.277350501622 0.0
0.0 4.660397232 0.277915211992 0.0
0.0 4.661748463 0.278482820188 0.0
0.0 4.663099695 0.279052673425 0.0
0.0 4.664450926 0.279624626561 0.0
0.0 4.665802158 0.28019604014 0.0
0.0 4.667153389 0.280769162851 0.0
0.0 4.668504621 0.281344124572 0.0
0.0 4.669855852 0.28192312686 0.0
0.0 4.671207083 0.282503729995 0.0
0.0 4.672558315 0.283085149693 0.0
0.0 4.673909546 0.283665467017 0.0
0.0 4.675260778 0.284246096247 0.0
0.0 4.676612009 0.284826695539 0.0
0.0 4.677963241 0.285408596173 0.0
0.0 4.679314472 0.285992758572 0.0
0.0 4.680665704 0.286580900071 0.0
0.0 4.682016935 0.287171853237 0.0
0.0 4.683368166 0.287765706228 0.0
0.0 4.684719398 0.288359824414 0.0
0.0 4.686070629 0.288955126358 0.0
0.0 4.687421861 0.289551385551 0.0
0.0 4.688773092 0.290148871258 0.0
0.0 4.690124324 0.290747813516 0.0
0.0 4.691475555 0.291348301268 0.0
0.0 4.692826787 0.291952478157 0.0
0.0 4.694178018 0.292559460285 0.0
0.0 4.695529249 0.293169492053 0.0
0.0 4.696880481 0.2937797233 0.0
0.0 4.698231712 0.294390236821 0.0
0.0 4.699582944 0.295001091242 0.0
0.0 4.700934175 0.29561425577 0.0
0.0 4.702285407 0.296230009879 0.0
0.0 4.703636638 0.296846552656 0.0
0.0 4.704987869 0.297464055438 0.0
0.0 4.706339101 0.298081491342 0.0
0.0 4.707690332 0.298700775192 0.0
0.0 4.709041564 0.299321945203 0.0
0.0 4.710392795 0.299946384839 0.0
0.0 4.711744027 0.300572940214 0.0
0.0 4.713095258 0.301201699747 0.0
0.0 4.71444649 0.30183131075 0.0
0.0 4.715797721 0.302461651323 0.0
0.0 4.717148952 0.303092071979 0.0
0.0 4.718500184 0.303723084237 0.0
0.0 4.719851415 0.304355930701 0.0
0.0 4.721202647 0.304992295802 0.0
0.0 4.722553878 0.305631796351 0.0
0.0 4.72390511 0.306274332252 0.0
0.0 4.725256341 0.306916916009 0.0
0.0 4.726607572 0.307560151124 0.0
0.0 4.727958804 0.308203572425 0.0
0.0 4.729310035 0.308849333637 0.0
0.0 4.730661267 0.309497017811 0.0
0.0 4.732012498 0.310146617165 0.0
0.0 4.73336373 0.310797080783 0.0
0.0 4.734714961 0.311449437526 0.0
0.0 4.736066193 0.312104597182 0.0
0.0 4.737417424 0.312762029476 0.0
0.0 4.738768655 0.313420997478 0.0
0.0 4.740119887 0.314081138849 0.0
0.0 4.741471118 0.314743743679 0.0
0.0 4.74282235 0.315409825072 0.0
0.0 4.744173581 0.31607846938 0.0
0.0 4.745524813 0.316748346123 0.0
0.0 4.746876044 0.317416542119 0.0
0.0 4.748227276 0.31808564864 0.0
0.0 4.749578507 0.318755364571 0.0
0.0 4.750929738 0.31942752428 0.0
0.0 4.75228097 0.320102121287 0.0
0.0 4.753632201 0.32078066844 0.0
0.0 4.754983433 0.321461806265 0.0
0.0 4.756334664 0.322145747794 0.0
0.0 4.757685896 0.322830006585 0.0
0.0 4.759037127 0.323515253617 0.0
0.0 4.760388358 0.324200877059 0.0
0.0 4.76173959 0.324888192039 0.0
0.0 4.763090821 0.325577179538 0.0
0.0 4.764442053 0.326267831545 0.0
0.0 4.765793284 0.32696013842 0.0
0.0 4.767144516 0.327654124982 0.0
0.0 4.768495747 0.328349510707 0.0
0.0 4.769846979 0.329046608357 0.0
0.0 4.77119821 0.329745415307 0.0
0.0 4.772549441 0.33044721541 0.0
0.0 4.773900673 0.331151685227 0.0
0.0 4.775251904 0.331859233877 0.0
0.0 4.776603136 0.332568485259 0.0
0.0 4.777954367 0.333278869068 0.0
0.0 4.779305599 0.333990818003 0.0
0.0 4.78065683 0.334704485535 0.0
0.0 4.782008061 0.335419177031 0.0
0.0 4.783359293 0.336135046274 0.0
0.0 4.784710524 0.336851838726 0.0
0.0 4.786061756 0.337571262107 0.0
0.0 4.787412987 0.338292950587 0.0
0.0 4.788764219 0.339017151148 0.0
0.0 4.79011545 0.339741968654 0.0
0.0 4.791466682 0.340468493983 0.0
0.0 4.792817913 0.341197523932 0.0
0.0 4.794169144 0.341928736553 0.0
0.0 4.795520376 0.34266210142 0.0
0.0 4.796871607 0.343397799415 0.0
0.0 4.798222839 0.344136138784 0.0
0.0 4.79957407 0.344874839947 0.0
0.0 4.800925302 0.34561547739 0.0
0.0 4.802276533 0.346357706022 0.0
0.0 4.803627764 0.34710193941 0.0
0.0 4.804978996 0.347848287895 0.0
0.0 4.806330227 0.348597189576 0.0
0.0 4.807681459 0.349348008434 0.0
0.0 4.80903269 0.350100751503 0.0
0.0 4.810383922 0.350854182086 0.0
0.0 4.811735153 0.35160882283 0.0
0.0 4.813086385 0.352362899693 0.0
0.0 4.814437616 0.353118435386 0.0
0.0 4.815788847 0.353875402327 0.0
0.0 4.817140079 0.354636383191 0.0
0.0 4.81849131 0.355400165681 0.0
0.0 4.819842542 0.356168602876 0.0
0.0 4.821193773 0.35693895325 0.0
0.0 4.822545005 0.357710715534 0.0
0.0 4.823896236 0.358483295757 0.0
0.0 4.825247468 0.359257703989 0.0
0.0 4.826598699 0.360034381599 0.0
0.0 4.82794993 0.360812943972 0.0
0.0 4.829301162 0.361593330521 0.0
0.0 4.830652393 0.362375334239 0.0
0.0 4.832003625 0.363159300883 0.0
0.0 4.833354856 0.363945946135 0.0
0.0 4.834706088 0.364734898394 0.0
0.0 4.836057319 0.36552604475 0.0
0.0 4.83740855 0.366318110747 0.0
0.0 4.838759782 0.367111573933 0.0
0.0 4.840111013 0.367905181914 0.0
0.0 4.841462245 0.368700639737 0.0
0.0 4.842813476 0.369498126903 0.0
0.0 4.844164708 0.370299193871 0.0
0.0 4.845515939 0.371102752047 0.0
0.0 4.846867171 0.371909117603 0.0
0.0 4.848218402 0.372717416115 0.0
0.0 4.849569633 0.373527350035 0.0
0.0 4.850920865 0.374338543815 0.0
0.0 4.852272096 0.375151366865 0.0
0.0 4.853623328 0.375964258154 0.0
0.0 4.854974559 0.376778602963 0.0
0.0 4.856325791 0.377595157087 0.0
0.0 4.857677022 0.378414648435 0.0
0.0 4.859028253 0.379236642751 0.0
0.0 4.860379485 0.380061805303 0.0
0.0 4.861730716 0.380889300927 0.0
0.0 4.863081948 0.381719352199 0.0
0.0 4.864433179 0.382551874332 0.0
0.0 4.865784411 0.383387990518 0.0
0.0 4.867135642 0.384225012143 0.0
0.0 4.868486874 0.385063871791 0.0
0.0 4.869838105 0.385903612904 0.0
0.0 4.871189336 0.386745382738 0.0
0.0 4.872540568 0.387589207289 0.0
0.0 4.873891799 0.388434359806 0.0
0.0 4.875243031 0.389281284995 0.0
0.0 4.876594262 0.39012950487 0.0
0.0 4.877945494 0.390980352595 0.0
0.0 4.879296725 0.391833913096 0.0
0.0 4.880647956 0.392689858474 0.0
0.0 4.881999188 0.393549638744 0.0
0.0 4.883350419 0.394410514501 0.0
0.0 4.884701651 0.395272985765 0.0
0.0 4.886052882 0.396136682379 0.0
0.0 4.887404114 0.397002346204 0.0
0.0 4.888755345 0.397870223379 0.0
0.0 4.890106577 0.398740078818 0.0
0.0 4.891457808 0.399612291506 0.0
0.0 4.892809039 0.400487041053 0.0
0.0 4.894160271 0.401364760547 0.0
0.0 4.895511502 0.402245912638 0.0
0.0 4.896862734 0.403128940177 0.0
0.0 4.898213965 0.404013207444 0.0
0.0 4.899565197 0.404896228609 0.0
0.0 4.900916428 0.405781721666 0.0
0.0 4.90226766 0.406670615555 0.0
0.0 4.903618891 0.40756344991 0.0
0.0 4.904970122 0.408459436641 0.0
0.0 4.906321354 0.409357077647 0.0
0.0 4.907672585 0.410256131188 0.0
0.0 4.909023817 0.411156370844 0.0
0.0 4.910375048 0.412058763162 0.0
0.0 4.91172628 0.412963109714 0.0
0.0 4.913077511 0.413869074044 0.0
0.0 4.914428742 0.414777936475 0.0
0.0 4.915779974 0.415689105057 0.0
0.0 4.917131205 0.416602584471 0.0
0.0 4.918482437 0.417518151569 0.0
0.0 4.919833668 0.418435335298 0.0
0.0 4.9211849 0.419354942762 0.0
0.0 4.922536131 0.420277661285 0.0
0.0 4.923887363 0.421203160477 0.0
0.0 4.925238594 0.422131159805 0.0
0.0 4.926589825 0.423060485641 0.0
0.0 4.927941057 0.423991077245 0.0
0.0 4.929292288 0.424923553365 0.0
0.0 4.93064352 0.425858419205 0.0
0.0 4.931994751 0.426796425081 0.0
0.0 4.933345983 0.427737139237 0.0
0.0 4.934697214 0.428678846446 0.0
0.0 4.936048445 0.429621917437 0.0
0.0 4.937399677 0.430566941606 0.0
0.0 4.938750908 0.431515191464 0.0
0.0 4.94010214 0.432465973005 0.0
0.0 4.941453371 0.433419354407 0.0
0.0 4.942804603 0.434375776471 0.0
0.0 4.944155834 0.435334453839 0.0
0.0 4.945507066 0.436295333506 0.0
0.0 4.946858297 0.437258391762 0.0
0.0 4.948209528 0.438223129575 0.0
0.0 4.94956076 0.439190016096 0.0
0.0 4.950911991 0.44015879145 0.0
0.0 4.952263223 0.441130365041 0.0
0.0 4.953614454 0.442104508459 0.0
0.0 4.954965686 0.443081587091 0.0
0.0 4.956316917 0.444062140988 0.0
0.0 4.957668148 0.445045043427 0.0
0.0 4.95901938 0.446030371883 0.0
0.0 4.960370611 0.447016005737 0.0
0.0 4.961721843 0.448003619038 0.0
0.0 4.963073074 0.448992994072 0.0
0.0 4.964424306 0.44998534666 0.0
0.0 4.965775537 0.450980385711 0.0
0.0 4.967126769 0.451977829967 0.0
0.0 4.968478 0.452977813159 0.0
0.0 4.969829231 0.453979619729 0.0
0.0 4.971180463 0.454983873784 0.0
0.0 4.972531694 0.455990547915 0.0
0.0 4.973882926 0.456999640433 0.0
0.0 4.975234157 0.458011277282 0.0
0.0 4.976585389 0.459025419752 0.0
0.0 4.97793662 0.460041933546 0.0
0.0 4.979287852 0.461060220554 0.0
0.0 4.980639083 0.462080579817 0.0
0.0 4.981990314 0.463102490129 0.0
0.0 4.983341546 0.464126855985 0.0
0.0 4.984692777 0.465154405899 0.0
0.0 4.986044009 0.466185224807 0.0
0.0 4.98739524 0.467218726784 0.0
0.0 4.988746472 0.46825430869 0.0
0.0 4.990097703 0.469293695201 0.0
0.0 4.991448934 0.470334878029 0.0
0.0 4.992800166 0.471378359361 0.0
0.0 4.994151397 0.472423191601 0.0
0.0 4.995502629 0.473469805019 0.0
0.0 4.99685386 0.474518774988 0.0
0.0 4.998205092 0.475570617237 0.0
0.0 4.999556323 0.476625149263 0.0
0.0 5.000907555 0.477682933847 0.0
0.0 5.002258786 0.478743576412 0.0
0.0 5.003610017 0.479806696062 0.0
0.0 5.004961249 0.480872285091 0.0
0.0 5.00631248 0.481940069097 0.0
0.0 5.007663712 0.48301008939 0.0
0.0 5.009014943 0.484082576226 0.0
0.0 5.010366175 0.485156962673 0.0
0.0 5.011717406 0.486234154824 0.0
0.0 5.013068637 0.487313655102 0.0
0.0 5.014419869 0.488395509911 0.0
0.0 5.0157711 0.489479706145 0.0
0.0 5.017122332 0.490565855189 0.0
0.0 5.018473563 0.491655630537 0.0
0.0 5.019824795 0.492747815316 0.0
0.0 5.021176026 0.493842392279 0.0
0.0 5.022527258 0.494939460739 0.0
0.0 5.023878489 0.4960391262 0.0
0.0 5.02522972 0.497141737491 0.0
0.0 5.026580952 0.498246917685 0.0
0.0 5.027932183 0.499354629752 0.0
0.0 5.029283415 0.500464555383 0.0
0.0 5.030634646 0.501576719306 0.0
0.0 5.031985878 0.502691680895 0.0
0.0 5.033337109 0.503809295108 0.0
0.0 5.034688341 0.504929982049 0.0
0.0 5.036039572 0.506053533007 0.0
0.0 5.037390803 0.507178822885 0.0
0.0 5.038742035 0.508306504356 0.0
0.0 5.040093266 0.509436402163 0.0
0.0 5.041444498 0.510569391965 0.0
0.0 5.042795729 0.511705348141 0.0
0.0 5.044146961 0.512844108288 0.0
0.0 5.045498192 0.513985972303 0.0
0.0 5.046849423 0.515130040851 0.0
0.0 5.048200655 0.516276531623 0.0
0.0 5.049551886 0.517424556565 0.0
0.0 5.050903118 0.518575126073 0.0
0.0 5.052254349 0.519728459676 0.0
0.0 5.053605581 0.520885076818 0.0
0.0 5.054956812 0.522044570895 0.0
0.0 5.056308044 0.523206782977 0.0
0.0 5.057659275 0.524371765451 0.0
0.0 5.059010506 0.52553905949 0.0
0.0 5.060361738 0.526708918411 0.0
0.0 5.061712969 0.527881930347 0.0
0.0 5.063064201 0.52905868261 0.0
0.0 5.064415432 0.530236837877 0.0
0.0 5.065766664 0.531417541799 0.0
0.0 5.067117895 0.53259993159 0.0
0.0 5.068469126 0.533785046703 0.0
0.0 5.069820358 0.534973917845 0.0
0.0 5.071171589 0.536165311662 0.0
0.0 5.072522821 0.537359274444 0.0
0.0 5.073874052 0.538556138729 0.0
0.0 5.075225284 0.539756255553 0.0
0.0 5.076576515 0.540958607502 0.0
0.0 5.077927747 0.542163555774 0.0
0.0 5.079278978 0.543371051133 0.0
0.0 5.080630209 0.544583321084 0.0
0.0 5.081981441 0.545796087886 0.0
0.0 5.083332672 0.547010424167 0.0
0.0 5.084683904 0.548228785089 0.0
0.0 5.086035135 0.549450463905 0.0
0.0 5.087386367 0.550675103584 0.0
0.0 5.088737598 0.551902195228 0.0
0.0 5.090088829 0.553131810372 0.0
0.0 5.091440061 0.554363635241 0.0
0.0 5.092791292 0.555598573019 0.0
0.0 5.094142524 0.556836449146 0.0
0.0 5.095493755 0.558077295491 0.0
0.0 5.096844987 0.559320947834 0.0
0.0 5.098196218 0.560567397682 0.0
0.0 5.09954745 0.561816651946 0.0
