0.0 2.002074478 0.199473174264 0.0
0.0 2.00368257 0.199814378159 0.0
0.0 2.005290662 0.200154153736 0.0
0.0 2.006898754 0.200492502783 0.0
0.0 2.008506846 0.200829427093 0.0
0.0 2.010114938 0.201164928453 0.0
0.0 2.01172303 0.201499008656 0.0
0.0 2.013331122 0.201831669492 0.0
0.0 2.014939214 0.202162912751 0.0
0.0 2.016547306 0.20249274022 0.0
0.0 2.018155398 0.202821153696 0.0
0.0 2.01976349 0.203148154963 0.0
0.0 2.021371582 0.203473745818 0.0
0.0 2.022979674 0.203797928046 0.0
0.0 2.024587766 0.20412070344 0.0
0.0 2.026195858 0.204442073791 0.0
0.0 2.027803949 0.204762040692 0.0
0.0 2.029412041 0.20508060633 0.0
0.0 2.031020133 0.205397772296 0.0
0.0 2.032628225 0.205713540382 0.0
0.0 2.034236317 0.206027912376 0.0
0.0 2.035844409 0.206340890071 0.0
0.0 2.037452501 0.206652475259 0.0
0.0 2.039060593 0.206962669727 0.0
0.0 2.040668685 0.207271475269 0.0
0.0 2.042276777 0.207578893673 0.0
0.0 2.043884869 0.207884926731 0.0
0.0 2.045492961 0.208189576232 0.0
0.0 2.047101053 0.208492843969 0.0
0.0 2.048709145 0.208794731732 0.0
0.0 2.050317237 0.20909524131 0.0
0.0 2.051925329 0.209394374496 0.0
0.0 2.053533421 0.20969213308 0.0
0.0 2.055141513 0.209988518852 0.0
0.0 2.056749605 0.210283533603 0.0
0.0 2.058357697 0.210577179123 0.0
0.0 2.059965788 0.210869457024 0.0
0.0 2.06157388 0.211160369456 0.0
0.0 2.063181972 0.211449918031 0.0
0.0 2.064790064 0.211738104538 0.0
0.0 2.066398156 0.212024930768 0.0
0.0 2.068006248 0.212310398513 0.0
0.0 2.06961434 0.212594509562 0.0
0.0 2.071222432 0.212877265706 0.0
0.0 2.072830524 0.213158668739 0.0
0.0 2.074438616 0.213438720446 0.0
0.0 2.076046708 0.213717422624 0.0
0.0 2.0776548 0.213994777061 0.0
0.0 2.079262892 0.214270785551 0.0
0.0 2.080870984 0.214545449881 0.0
0.0 2.082479076 0.214818771844 0.0
0.0 2.084087168 0.215090753233 0.0
0.0 2.08569526 0.215361395838 0.0
0.0 2.087303352 0.215630701451 0.0
0.0 2.088911444 0.215898671865 0.0
0.0 2.090519536 0.21616530887 0.0
0.0 2.092127627 0.216430614098 0.0
0.0 2.093735719 0.21669458967 0.0
0.0 2.095343811 0.216957237222 0.0
0.0 2.096951903 0.217218558535 0.0
0.0 2.098559995 0.217478555412 0.0
0.0 2.100168087 0.217737229651 0.0
0.0 2.101776179 0.217994583032 0.0
0.0 2.103384271 0.218250617365 0.0
0.0 2.104992363 0.218505334431 0.0
0.0 2.106600455 0.218758736004 0.0
0.0 2.108208547 0.219010823887 0.0
0.0 2.109816639 0.219261599843 0.0
0.0 2.111424731 0.21951106565 0.0
0.0 2.113032823 0.219759223069 0.0
0.0 2.114640915 0.220006073858 0.0
0.0 2.116249007 0.22025161983 0.0
0.0 2.117857099 0.220495862718 0.0
0.0 2.119465191 0.220738804351 0.0
0.0 2.121073283 0.220980446529 0.0
0.0 2.122681375 0.22122079105 0.0
0.0 2.124289466 0.221459839561 0.0
0.0 2.125897558 0.221697594197 0.0
0.0 2.12750565 0.221934056593 0.0
0.0 2.129113742 0.222169228537 0.0
0.0 2.130721834 0.222403111841 0.0
0.0 2.132329926 0.222635708289 0.0
0.0 2.133938018 0.222867019675 0.0
0.0 2.13554611 0.223097047797 0.0
0.0 2.137154202 0.223325794455 0.0
0.0 2.138762294 0.223553261418 0.0
0.0 2.140370386 0.22377945049 0.0
0.0 2.141978478 0.224004363443 0.0
0.0 2.14358657 0.224228002089 0.0
0.0 2.145194662 0.224450368202 0.0
0.0 2.146802754 0.224671463568 0.0
0.0 2.148410846 0.224891289983 0.0
0.0 2.150018938 0.225109849238 0.0
0.0 2.15162703 0.225327143129 0.0
0.0 2.153235122 0.22554317345 0.0
0.0 2.154843214 0.225757941986 0.0
0.0 2.156451305 0.225971450403 0.0
0.0 2.158059397 0.226183700745 0.0
0.0 2.159667489 0.226394694682 0.0
0.0 2.161275581 0.226604434001 0.0
0.0 2.162883673 0.226812920474 0.0
0.0 2.164491765 0.22702015591 0.0
0.0 2.166099857 0.227226142092 0.0
0.0 2.167707949 0.227430880811 0.0
0.0 2.169316041 0.227634373861 0.0
0.0 2.170924133 0.227836623022 0.0
0.0 2.172532225 0.228037630104 0.0
0.0 2.174140317 0.228237396885 0.0
0.0 2.175748409 0.228435925161 0.0
0.0 2.177356501 0.22863321672 0.0
0.0 2.178964593 0.22882927336 0.0
0.0 2.180572685 0.229024096871 0.0
0.0 2.182180777 0.22921768904 0.0
0.0 2.183788869 0.229410051667 0.0
0.0 2.185396961 0.229601186547 0.0
0.0 2.187005053 0.229791095453 0.0
0.0 2.188613145 0.229979780192 0.0
0.0 2.190221236 0.230167242442 0.0
0.0 2.191829328 0.230353484223 0.0
0.0 2.19343742 0.23053850721 0.0
0.0 2.195045512 0.230722313198 0.0
0.0 2.196653604 0.230904903994 0.0
0.0 2.198261696 0.231086281388 0.0
0.0 2.199869788 0.231266447184 0.0
0.0 2.20147788 0.231445403208 0.0
0.0 2.203085972 0.23162315123 0.0
0.0 2.204694064 0.231799693067 0.0
0.0 2.206302156 0.231975030529 0.0
0.0 2.207910248 0.232149165436 0.0
0.0 2.20951834 0.232322099641 0.0
0.0 2.211126432 0.232493834948 0.0
0.0 2.212734524 0.232664373232 0.0
0.0 2.214342616 0.23283371639 0.0
0.0 2.215950708 0.23300186626 0.0
0.0 2.2175588 0.233168824869 0.0
0.0 2.219166892 0.233334594077 0.0
0.0 2.220774984 0.23349917584 0.0
0.0 2.222383075 0.233662571871 0.0
0.0 2.223991167 0.233824783796 0.0
0.0 2.225599259 0.233985812362 0.0
0.0 2.227207351 0.234145658673 0.0
0.0 2.228815443 0.234304323962 0.0
0.0 2.230423535 0.234461810385 0.0
0.0 2.232031627 0.234618120354 0.0
0.0 2.233639719 0.234773256358 0.0
0.0 2.235247811 0.234927220753 0.0
0.0 2.236855903 0.235080015644 0.0
0.0 2.238463995 0.235231643053 0.0
0.0 2.240072087 0.235382104855 0.0
0.0 2.241680179 0.235531403436 0.0
0.0 2.243288271 0.235679540462 0.0
0.0 2.244896363 0.235826518329 0.0
0.0 2.246504455 0.235972339047 0.0
0.0 2.248112547 0.236117004557 0.0
0.0 2.249720639 0.236260517304 0.0
0.0 2.251328731 0.236402879214 0.0
0.0 2.252936823 0.236544091602 0.0
0.0 2.254544914 0.236684156523 0.0
0.0 2.256153006 0.236823075217 0.0
0.0 2.257761098 0.236960849322 0.0
0.0 2.25936919 0.237097479727 0.0
0.0 2.260977282 0.237232968303 0.0
0.0 2.262585374 0.237367315479 0.0
0.0 2.264193466 0.237500522669 0.0
0.0 2.265801558 0.237632590892 0.0
0.0 2.26740965 0.237763520357 0.0
0.0 2.269017742 0.237893313118 0.0
0.0 2.270625834 0.238021970699 0.0
0.0 2.272233926 0.23814949402 0.0
0.0 2.273842018 0.238275886565 0.0
0.0 2.27545011 0.238401150156 0.0
0.0 2.277058202 0.238525287738 0.0
0.0 2.278666294 0.238648301136 0.0
0.0 2.280274386 0.238770194151 0.0
0.0 2.281882478 0.238890970463 0.0
0.0 2.28349057 0.239010631533 0.0
0.0 2.285098662 0.239129180305 0.0
0.0 2.286706753 0.239246619649 0.0
0.0 2.288314845 0.239362950426 0.0
0.0 2.289922937 0.239478177351 0.0
0.0 2.291531029 0.239592303007 0.0
0.0 2.293139121 0.239705330428 0.0
0.0 2.294747213 0.239817264938 0.0
0.0 2.296355305 0.23992811095 0.0
0.0 2.297963397 0.240037871546 0.0
0.0 2.299571489 0.240146554963 0.0
0.0 2.301179581 0.24025416028 0.0
0.0 2.302787673 0.240360699153 0.0
0.0 2.304395765 0.240466178469 0.0
0.0 2.306003857 0.240570608341 0.0
0.0 2.307611949 0.240674001859 0.0
0.0 2.309220041 0.240776367468 0.0
0.0 2.310828133 0.240877730098 0.0
0.0 2.312436225 0.240978112924 0.0
0.0 2.314044317 0.241077534444 0.0
0.0 2.315652409 0.241176055314 0.0
0.0 2.317260501 0.241273702083 0.0
0.0 2.318868592 0.24137049905 0.0
0.0 2.320476684 0.241466487823 0.0
0.0 2.322084776 0.24156164474 0.0
0.0 2.323692868 0.241655960606 0.0
0.0 2.32530096 0.241749346784 0.0
0.0 2.326909052 0.241841781081 0.0
0.0 2.328517144 0.241933163449 0.0
0.0 2.330125236 0.242023471893 0.0
0.0 2.331733328 0.242112708739 0.0
0.0 2.33334142 0.242200769391 0.0
0.0 2.334949512 0.242287633753 0.0
0.0 2.336557604 0.242373140189 0.0
0.0 2.338165696 0.242457284666 0.0
0.0 2.339773788 0.242539927925 0.0
0.0 2.34138188 0.242621142722 0.0
0.0 2.342989972 0.242700983724 0.0
0.0 2.344598064 0.242779526111 0.0
0.0 2.346206156 0.242856932387 0.0
0.0 2.347814248 0.242933290553 0.0
0.0 2.34942234 0.243008678177 0.0
0.0 2.351030431 0.243083152927 0.0
0.0 2.352638523 0.243156729587 0.0
0.0 2.354246615 0.243229502899 0.0
0.0 2.355854707 0.243301421742 0.0
0.0 2.357462799 0.243372503513 0.0
0.0 2.359070891 0.24344262776 0.0
0.0 2.360678983 0.243511907249 0.0
0.0 2.362287075 0.243580148039 0.0
0.0 2.363895167 0.243647386106 0.0
0.0 2.365503259 0.243713530958 0.0
0.0 2.367111351 0.243778591268 0.0
0.0 2.368719443 0.243842541246 0.0
0.0 2.370327535 0.243905292491 0.0
0.0 2.371935627 0.243966825028 0.0
0.0 2.373543719 0.244027145719 0.0
0.0 2.375151811 0.244086221192 0.0
0.0 2.376759903 0.244144036929 0.0
0.0 2.378367995 0.24420064448 0.0
0.0 2.379976087 0.244256064157 0.0
0.0 2.381584179 0.244310380068 0.0
0.0 2.383192271 0.244363566223 0.0
0.0 2.384800362 0.244415717505 0.0
0.0 2.386408454 0.244466859922 0.0
0.0 2.388016546 0.244517114889 0.0
0.0 2.389624638 0.244566391711 0.0
0.0 2.39123273 0.244614756733 0.0
0.0 2.392840822 0.244662210715 0.0
0.0 2.394448914 0.244708777572 0.0
0.0 2.396057006 0.244754430421 0.0
0.0 2.397665098 0.244799150979 0.0
0.0 2.39927319 0.244842963973 0.0
0.0 2.400881282 0.244885841372 0.0
0.0 2.402489374 0.244927781061 0.0
0.0 2.404097466 0.244968784979 0.0
0.0 2.405705558 0.245008824155 0.0
0.0 2.40731365 0.245047888327 0.0
0.0 2.408921742 0.245085964118 0.0
0.0 2.410529834 0.245123093496 0.0
0.0 2.412137926 0.245159275214 0.0
0.0 2.413746018 0.245194493862 0.0
0.0 2.41535411 0.245228714097 0.0
0.0 2.416962201 0.245261935369 0.0
0.0 2.418570293 0.245294137285 0.0
0.0 2.420178385 0.245325258524 0.0
0.0 2.421786477 0.245355345286 0.0
0.0 2.423394569 0.245384291459 0.0
0.0 2.425002661 0.245412143515 0.0
0.0 2.426610753 0.24543892815 0.0
0.0 2.428218845 0.245464756795 0.0
0.0 2.429826937 0.245489651322 0.0
0.0 2.431435029 0.245513681301 0.0
0.0 2.433043121 0.24553693398 0.0
0.0 2.434651213 0.245559409507 0.0
0.0 2.436259305 0.245581069503 0.0
0.0 2.437867397 0.245601861317 0.0
0.0 2.439475489 0.2456217876 0.0
0.0 2.441083581 0.245640778023 0.0
0.0 2.442691673 0.245658804625 0.0
0.0 2.444299765 0.245675869375 0.0
0.0 2.445907857 0.245691943137 0.0
0.0 2.447515949 0.245706974225 0.0
0.0 2.44912404 0.245720995371 0.0
0.0 2.450732132 0.24573405688 0.0
0.0 2.452340224 0.245746125699 0.0
0.0 2.453948316 0.245757206394 0.0
0.0 2.455556408 0.245767379151 0.0
0.0 2.4571645 0.245776695201 0.0
0.0 2.458772592 0.245785172351 0.0
0.0 2.460380684 0.245792834515 0.0
0.0 2.461988776 0.245799677294 0.0
0.0 2.463596868 0.24580571766 0.0
0.0 2.46520496 0.245810894456 0.0
0.0 2.466813052 0.245815185997 0.0
0.0 2.468421144 0.245818528077 0.0
0.0 2.470029236 0.24582092181 0.0
0.0 2.471637328 0.245822386182 0.0
0.0 2.47324542 0.245822931876 0.0
0.0 2.474853512 0.245822629638 0.0
0.0 2.476461604 0.245821419772 0.0
0.0 2.478069696 0.245819419649 0.0
0.0 2.479677788 0.245816518368 0.0
0.0 2.481285879 0.245812686749 0.0
0.0 2.482893971 0.245807868614 0.0
0.0 2.484502063 0.245802107781 0.0
0.0 2.486110155 0.245795363817 0.0
0.0 2.487718247 0.245787583818 0.0
0.0 2.489326339 0.245778877291 0.0
0.0 2.490934431 0.245769243274 0.0
0.0 2.492542523 0.245758822617 0.0
0.0 2.494150615 0.245747579312 0.0
0.0 2.495758707 0.245777980232 0.0
0.0 2.497366799 0.245807132547 0.0
0.0 2.498974891 0.245834800841 0.0
0.0 2.499778162 0.245868895381 0.0
0.0 2.501129393 0.245896120668 0.0
0.0 2.502480624 0.245922345272 0.0
0.0 2.503831856 0.245946626992 0.0
0.0 2.505183087 0.245968776285 0.0
0.0 2.506534319 0.245946922345 0.0
0.0 2.50788555 0.24592372373 0.0
0.0 2.509236782 0.24589950346 0.0
0.0 2.510588013 0.245873168853 0.0
0.0 2.511939244 0.245846561484 0.0
0.0 2.513290476 0.245817810448 0.0
0.0 2.514641707 0.24578827981 0.0
0.0 2.515992939 0.245758652828 0.0
0.0 2.51734417 0.245727823188 0.0
0.0 2.518695402 0.245695717837 0.0
0.0 2.520046633 0.245662826509 0.0
0.0 2.521397865 0.245629998166 0.0
0.0 2.522749096 0.245595741483 0.0
0.0 2.524100327 0.245561212633 0.0
0.0 2.525451559 0.245525987705 0.0
0.0 2.52680279 0.245489522607 0.0
0.0 2.528154022 0.245453160086 0.0
0.0 2.529505253 0.24541648886 0.0
0.0 2.530856485 0.245379077022 0.0
0.0 2.532207716 0.245340876345 0.0
0.0 2.533558948 0.245302672483 0.0
0.0 2.534910179 0.245263786361 0.0
0.0 2.53626141 0.245224792754 0.0
0.0 2.537612642 0.245185275372 0.0
0.0 2.538963873 0.245145317688 0.0
0.0 2.540315105 0.245105292652 0.0
0.0 2.541666336 0.245065639401 0.0
0.0 2.543017568 0.245025665422 0.0
0.0 2.544368799 0.24498507994 0.0
0.0 2.54572003 0.244944322503 0.0
0.0 2.547071262 0.244904164001 0.0
0.0 2.548422493 0.244864497622 0.0
0.0 2.549773725 0.244823723618 0.0
0.0 2.551124956 0.244782908489 0.0
0.0 2.552476188 0.244741241588 0.0
0.0 2.553827419 0.244700264753 0.0
0.0 2.555178651 0.244659739406 0.0
0.0 2.556529882 0.244619336808 0.0
0.0 2.557881113 0.244576890033 0.0
0.0 2.559232345 0.244534288383 0.0
0.0 2.560583576 0.244492979816 0.0
0.0 2.561934808 0.244451411018 0.0
0.0 2.563286039 0.244409681347 0.0
0.0 2.564637271 0.244367469884 0.0
0.0 2.565988502 0.244324411955 0.0
0.0 2.567339733 0.244280934064 0.0
0.0 2.568690965 0.24423827447 0.0
0.0 2.570042196 0.244194807712 0.0
0.0 2.571393428 0.244149883643 0.0
0.0 2.572744659 0.24410486227 0.0
0.0 2.574095891 0.244059254197 0.0
0.0 2.575447122 0.244012899896 0.0
0.0 2.576798354 0.243966358181 0.0
0.0 2.578149585 0.243919831404 0.0
0.0 2.579500816 0.243872285667 0.0
0.0 2.580852048 0.243824642663 0.0
0.0 2.582203279 0.243776835228 0.0
0.0 2.583554511 0.243727731822 0.0
0.0 2.584905742 0.243678312764 0.0
0.0 2.586256974 0.243628569344 0.0
0.0 2.587608205 0.243578332221 0.0
0.0 2.588959437 0.243527049277 0.0
0.0 2.590310668 0.243475911183 0.0
0.0 2.591661899 0.243424008385 0.0
0.0 2.593013131 0.243371193792 0.0
0.0 2.594364362 0.243318301812 0.0
0.0 2.595715594 0.243264751093 0.0
0.0 2.597066825 0.243210490288 0.0
0.0 2.598418057 0.243155693561 0.0
0.0 2.599769288 0.243100567747 0.0
0.0 2.601120519 0.243044889764 0.0
0.0 2.602471751 0.242988468112 0.0
0.0 2.603822982 0.242931979565 0.0
0.0 2.605174214 0.242875158643 0.0
0.0 2.606525445 0.242817570808 0.0
0.0 2.607876677 0.242759285253 0.0
0.0 2.609227908 0.242700729347 0.0
0.0 2.61057914 0.242641736751 0.0
0.0 2.611930371 0.242581474329 0.0
0.0 2.613281602 0.24252079188 0.0
0.0 2.614632834 0.24245977562 0.0
0.0 2.615984065 0.242397769625 0.0
0.0 2.617335297 0.242335472311 0.0
0.0 2.618686528 0.242272726106 0.0
0.0 2.62003776 0.2422091887 0.0
0.0 2.621388991 0.242145086742 0.0
0.0 2.622740222 0.242080908646 0.0
0.0 2.624091454 0.242016203525 0.0
0.0 2.625442685 0.241950658132 0.0
0.0 2.626793917 0.241885242891 0.0
0.0 2.628145148 0.241819249443 0.0
0.0 2.62949638 0.241752719978 0.0
0.0 2.630847611 0.241685838374 0.0
0.0 2.632198843 0.241618409566 0.0
0.0 2.633550074 0.241550482853 0.0
0.0 2.634901305 0.241482039044 0.0
0.0 2.636252537 0.241412734581 0.0
0.0 2.637603768 0.24134248843 0.0
0.0 2.638955 0.241272189267 0.0
0.0 2.640306231 0.24120138669 0.0
0.0 2.641657463 0.241129589846 0.0
0.0 2.643008694 0.241057264429 0.0
0.0 2.644359925 0.240984656886 0.0
0.0 2.645711157 0.24091138071 0.0
0.0 2.647062388 0.240838004616 0.0
0.0 2.64841362 0.240764301013 0.0
0.0 2.649764851 0.24068957911 0.0
0.0 2.651116083 0.240614500897 0.0
0.0 2.652467314 0.240539126676 0.0
0.0 2.653818546 0.240463351685 0.0
0.0 2.655169777 0.240387075321 0.0
0.0 2.656521008 0.240310333729 0.0
0.0 2.65787224 0.240233235078 0.0
0.0 2.659223471 0.240155350371 0.0
0.0 2.660574703 0.240077221049 0.0
0.0 2.661925934 0.239998537014 0.0
0.0 2.663277166 0.239919705746 0.0
0.0 2.664628397 0.239839910073 0.0
0.0 2.665979629 0.239759154268 0.0
0.0 2.66733086 0.239678194355 0.0
0.0 2.668682091 0.239596512407 0.0
0.0 2.670033323 0.239514420043 0.0
0.0 2.671384554 0.239431933185 0.0
0.0 2.672735786 0.239349388235 0.0
0.0 2.674087017 0.239265584397 0.0
0.0 2.675438249 0.239181641433 0.0
0.0 2.67678948 0.239097429152 0.0
0.0 2.678140711 0.239012784426 0.0
0.0 2.679491943 0.23892776433 0.0
0.0 2.680843174 0.238842434934 0.0
0.0 2.682194406 0.238756248825 0.0
0.0 2.683545637 0.238669085375 0.0
0.0 2.684896869 0.238581989772 0.0
0.0 2.6862481 0.238494480324 0.0
0.0 2.687599332 0.238406464333 0.0
0.0 2.688950563 0.23831796668 0.0
0.0 2.690301794 0.238228903362 0.0
0.0 2.691653026 0.238139152837 0.0
0.0 2.693004257 0.238049268816 0.0
0.0 2.694355489 0.237958909064 0.0
0.0 2.69570672 0.237868067031 0.0
0.0 2.697057952 0.237777055902 0.0
0.0 2.698409183 0.237685340185 0.0
0.0 2.699760414 0.237593066316 0.0
0.0 2.701111646 0.23750038024 0.0
0.0 2.702462877 0.237407549301 0.0
0.0 2.703814109 0.237314536494 0.0
0.0 2.70516534 0.237220541695 0.0
0.0 2.706516572 0.23712603635 0.0
0.0 2.707867803 0.237031047595 0.0
0.0 2.709219035 0.236935799148 0.0
0.0 2.710570266 0.236839925884 0.0
0.0 2.711921497 0.236743660033 0.0
0.0 2.713272729 0.236646569657 0.0
0.0 2.71462396 0.236548789533 0.0
0.0 2.715975192 0.236451052574 0.0
0.0 2.717326423 0.236353075523 0.0
0.0 2.718677655 0.236254313927 0.0
0.0 2.720028886 0.236155270069 0.0
0.0 2.721380117 0.236055930535 0.0
0.0 2.722731349 0.235955915925 0.0
0.0 2.72408258 0.235855561195 0.0
0.0 2.725433812 0.235754888495 0.0
0.0 2.726785043 0.235653789334 0.0
0.0 2.728136275 0.235551955568 0.0
0.0 2.729487506 0.235449816522 0.0
0.0 2.730838738 0.235347075357 0.0
0.0 2.732189969 0.235243959664 0.0
0.0 2.7335412 0.235140563478 0.0
0.0 2.734892432 0.235037020762 0.0
0.0 2.736243663 0.234932696843 0.0
0.0 2.737594895 0.234828004731 0.0
0.0 2.738946126 0.234722846136 0.0
0.0 2.740297358 0.234617202027 0.0
0.0 2.741648589 0.23451118305 0.0
0.0 2.742999821 0.234404732446 0.0
0.0 2.744351052 0.234297897164 0.0
0.0 2.745702283 0.234190276988 0.0
0.0 2.747053515 0.234082412015 0.0
0.0 2.748404746 0.233974093427 0.0
0.0 2.749755978 0.233865520389 0.0
0.0 2.751107209 0.233756501574 0.0
0.0 2.752458441 0.233647383516 0.0
0.0 2.753809672 0.233537742321 0.0
0.0 2.755160903 0.233427636832 0.0
0.0 2.756512135 0.233317047104 0.0
0.0 2.757863366 0.233205958919 0.0
0.0 2.759214598 0.233094464943 0.0
0.0 2.760565829 0.232982634524 0.0
0.0 2.761917061 0.232870297587 0.0
0.0 2.763268292 0.232757256657 0.0
0.0 2.764619524 0.232643907723 0.0
0.0 2.765970755 0.232530198053 0.0
0.0 2.767321986 0.232416141453 0.0
0.0 2.768673218 0.232301770606 0.0
0.0 2.770024449 0.232187119643 0.0
0.0 2.771375681 0.232071959729 0.0
0.0 2.772726912 0.231956359927 0.0
0.0 2.774078144 0.231840510582 0.0
0.0 2.775429375 0.231724108227 0.0
0.0 2.776780606 0.23160722656 0.0
0.0 2.778131838 0.231490048723 0.0
0.0 2.779483069 0.23137267093 0.0
0.0 2.780834301 0.231254784845 0.0
0.0 2.782185532 0.231136257169 0.0
0.0 2.783536764 0.231017457277 0.0
0.0 2.784887995 0.230898278982 0.0
0.0 2.786239227 0.230779060179 0.0
0.0 2.787590458 0.230659288409 0.0
0.0 2.788941689 0.230538882138 0.0
0.0 2.790292921 0.23041787271 0.0
0.0 2.791644152 0.230296628586 0.0
0.0 2.792995384 0.230175309218 0.0
0.0 2.794346615 0.23005337501 0.0
0.0 2.795697847 0.229930882162 0.0
0.0 2.797049078 0.229807837399 0.0
0.0 2.798400309 0.229684628527 0.0
0.0 2.799751541 0.229561268011 0.0
0.0 2.801102772 0.229437415867 0.0
0.0 2.802454004 0.229313047467 0.0
0.0 2.803805235 0.229188351171 0.0
0.0 2.805156467 0.229063457367 0.0
0.0 2.806507698 0.228938157276 0.0
0.0 2.80785893 0.228812573639 0.0
0.0 2.809210161 0.228686457425 0.0
0.0 2.810561392 0.228559863194 0.0
0.0 2.811912624 0.22843297594 0.0
0.0 2.813263855 0.228305777297 0.0
0.0 2.814615087 0.228178124797 0.0
0.0 2.815966318 0.228050118029 0.0
0.0 2.81731755 0.227921696406 0.0
0.0 2.818668781 0.227792752913 0.0
0.0 2.820020013 0.227663538727 0.0
0.0 2.821371244 0.227534093649 0.0
0.0 2.822722475 0.227404582336 0.0
0.0 2.824073707 0.22727427033 0.0
0.0 2.825424938 0.227143583927 0.0
0.0 2.82677617 0.22701282264 0.0
0.0 2.828127401 0.226881590405 0.0
0.0 2.829478633 0.226750061172 0.0
0.0 2.830829864 0.226618106669 0.0
0.0 2.832181095 0.226485688396 0.0
0.0 2.833532327 0.226352875495 0.0
0.0 2.834883558 0.226219974908 0.0
0.0 2.83623479 0.226086560917 0.0
0.0 2.837586021 0.225952511763 0.0
0.0 2.838937253 0.225818292557 0.0
0.0 2.840288484 0.225683682806 0.0
0.0 2.841639716 0.225548788599 0.0
0.0 2.842990947 0.225413678059 0.0
0.0 2.844342178 0.225277907166 0.0
0.0 2.84569341 0.225141838755 0.0
0.0 2.847044641 0.225005816018 0.0
0.0 2.848395873 0.224869494711 0.0
0.0 2.849747104 0.224732572825 0.0
0.0 2.851098336 0.224595302214 0.0
0.0 2.852449567 0.224457691874 0.0
0.0 2.853800798 0.224319667698 0.0
0.0 2.85515203 0.224181559897 0.0
0.0 2.856503261 0.224042986289 0.0
0.0 2.857854493 0.223903786741 0.0
0.0 2.859205724 0.223764226576 0.0
0.0 2.860556956 0.223624661802 0.0
0.0 2.861908187 0.223484685895 0.0
0.0 2.863259419 0.223344495461 0.0
0.0 2.86461065 0.223203999266 0.0
0.0 2.865961881 0.223062892979 0.0
0.0 2.867313113 0.222921531771 0.0
0.0 2.868664344 0.222780038121 0.0
0.0 2.870015576 0.222638240176 0.0
0.0 2.871366807 0.222496079601 0.0
0.0 2.872718039 0.222353582354 0.0
0.0 2.87406927 0.222210522374 0.0
0.0 2.875420501 0.222067103478 0.0
0.0 2.876771733 0.221923591064 0.0
0.0 2.878122964 0.221779907675 0.0
0.0 2.879474196 0.221635616456 0.0
0.0 2.880825427 0.221491073479 0.0
0.0 2.882176659 0.221346224791 0.0
0.0 2.88352789 0.221201148715 0.0
0.0 2.884879122 0.221055644492 0.0
0.0 2.886230353 0.220909822709 0.0
0.0 2.887581584 0.220763561278 0.0
0.0 2.888932816 0.220616886383 0.0
0.0 2.890284047 0.220470045421 0.0
0.0 2.891635279 0.220322799703 0.0
0.0 2.89298651 0.220175275076 0.0
0.0 2.894337742 0.220027355111 0.0
0.0 2.895688973 0.219879354301 0.0
0.0 2.897040205 0.219731068867 0.0
0.0 2.898391436 0.219582576333 0.0
0.0 2.899742667 0.219433705247 0.0
0.0 2.901093899 0.219284482582 0.0
0.0 2.90244513 0.219134956866 0.0
0.0 2.903796362 0.218985055468 0.0
0.0 2.905147593 0.218835052474 0.0
0.0 2.906498825 0.218684819526 0.0
0.0 2.907850056 0.218534266351 0.0
0.0 2.909201287 0.21838326003 0.0
0.0 2.910552519 0.218231891217 0.0
0.0 2.91190375 0.218080274317 0.0
0.0 2.913254982 0.217928363214 0.0
0.0 2.914606213 0.217776147999 0.0
0.0 2.915957445 0.217623697962 0.0
0.0 2.917308676 0.217470873676 0.0
0.0 2.918659908 0.217317684253 0.0
0.0 2.920011139 0.217164247696 0.0
0.0 2.92136237 0.217010825556 0.0
0.0 2.922713602 0.216857097913 0.0
0.0 2.924064833 0.216703005938 0.0
0.0 2.925416065 0.21654864725 0.0
0.0 2.926767296 0.216393678849 0.0
0.0 2.928118528 0.216238448428 0.0
0.0 2.929469759 0.216083150286 0.0
0.0 2.93082099 0.215927611097 0.0
0.0 2.932172222 0.215771864246 0.0
0.0 2.933523453 0.215615679868 0.0
0.0 2.934874685 0.215459088187 0.0
0.0 2.936225916 0.215302418526 0.0
0.0 2.937577148 0.215145513279 0.0
0.0 2.938928379 0.214988201799 0.0
0.0 2.940279611 0.214830479894 0.0
0.0 2.941630842 0.214672461631 0.0
0.0 2.942982073 0.214513944864 0.0
0.0 2.944333305 0.21435547505 0.0
0.0 2.945684536 0.214196981335 0.0
0.0 2.947035768 0.214037980079 0.0
0.0 2.948386999 0.213878661792 0.0
0.0 2.949738231 0.213719202651 0.0
0.0 2.951089462 0.213559479502 0.0
0.0 2.952440694 0.213399492151 0.0
0.0 2.953791925 0.213239237656 0.0
0.0 2.955143156 0.213078627896 0.0
0.0 2.956494388 0.212917896643 0.0
0.0 2.957845619 0.21275687046 0.0
0.0 2.959196851 0.212595581258 0.0
0.0 2.960548082 0.212434034606 0.0
0.0 2.961899314 0.212272231497 0.0
0.0 2.963250545 0.212110212259 0.0
0.0 2.964601776 0.211947938233 0.0
0.0 2.965953008 0.211785339154 0.0
0.0 2.967304239 0.211622372735 0.0
0.0 2.968655471 0.211459195718 0.0
0.0 2.970006702 0.211295880515 0.0
0.0 2.971357934 0.211132314561 0.0
0.0 2.972709165 0.210968709965 0.0
0.0 2.974060397 0.210805005496 0.0
0.0 2.975411628 0.210640870164 0.0
0.0 2.976762859 0.210476394205 0.0
0.0 2.978114091 0.210311526014 0.0
0.0 2.979465322 0.210146435148 0.0
0.0 2.980816554 0.209981154474 0.0
0.0 2.982167785 0.209815635795 0.0
0.0 2.983519017 0.209649670003 0.0
0.0 2.984870248 0.209483281962 0.0
0.0 2.986221479 0.209316845716 0.0
0.0 2.987572711 0.209150589956 0.0
0.0 2.988923942 0.208984299863 0.0
0.0 2.990275174 0.208817426244 0.0
0.0 2.991626405 0.208650263032 0.0
0.0 2.992977637 0.208482878451 0.0
0.0 2.994328868 0.208315261938 0.0
0.0 2.9956801 0.208147399741 0.0
0.0 2.997031331 0.207979314555 0.0
0.0 2.998382562 0.207810750331 0.0
0.0 2.999733794 0.20764185406 0.0
0.0 3.001085025 0.207473170115 0.0
0.0 3.002436257 0.207304361509 0.0
0.0 3.003787488 0.20713535182 0.0
0.0 3.00513872 0.206965937244 0.0
0.0 3.006489951 0.206796298114 0.0
0.0 3.007841182 0.206626471578 0.0
0.0 3.009192414 0.20645636914 0.0
0.0 3.010543645 0.20628599301 0.0
0.0 3.011894877 0.206115329854 0.0
0.0 3.013246108 0.205944474427 0.0
0.0 3.01459734 0.205773286324 0.0
0.0 3.015948571 0.20560206938 0.0
0.0 3.017299803 0.205430718384 0.0
0.0 3.018651034 0.205259111964 0.0
0.0 3.020002265 0.205087284325 0.0
0.0 3.021353497 0.204915409977 0.0
0.0 3.022704728 0.204743337267 0.0
0.0 3.02405596 0.204570814444 0.0
0.0 3.025407191 0.204398169804 0.0
0.0 3.026758423 0.204225503062 0.0
0.0 3.028109654 0.204052692318 0.0
0.0 3.029460886 0.203879865902 0.0
0.0 3.030812117 0.203706712332 0.0
0.0 3.032163348 0.203533141411 0.0
0.0 3.03351458 0.203359177299 0.0
0.0 3.034865811 0.203185259642 0.0
0.0 3.036217043 0.203011289903 0.0
0.0 3.037568274 0.202836905639 0.0
0.0 3.038919506 0.20266225065 0.0
0.0 3.040270737 0.202486936926 0.0
0.0 3.041621968 0.202311675557 0.0
0.0 3.0429732 0.202136640225 0.0
0.0 3.044324431 0.201961470026 0.0
0.0 3.045675663 0.201786092774 0.0
0.0 3.047026894 0.201610270156 0.0
0.0 3.048378126 0.201434340603 0.0
0.0 3.049729357 0.201258256265 0.0
0.0 3.051080589 0.201082148524 0.0
0.0 3.05243182 0.200905845225 0.0
0.0 3.053783051 0.200729235434 0.0
0.0 3.055134283 0.200552362065 0.0
0.0 3.056485514 0.200375105062 0.0
0.0 3.057836746 0.200197810593 0.0
0.0 3.059187977 0.200020298447 0.0
0.0 3.060539209 0.19984244189 0.0
0.0 3.06189044 0.199664741755 0.0
0.0 3.063241671 0.199486909409 0.0
0.0 3.064592903 0.199308364534 0.0
0.0 3.065944134 0.199129770521 0.0
0.0 3.067295366 0.198951218316 0.0
0.0 3.068646597 0.198772576555 0.0
0.0 3.069997829 0.198593895928 0.0
0.0 3.07134906 0.198414885218 0.0
0.0 3.072700292 0.198235553565 0.0
0.0 3.074051523 0.198056136391 0.0
0.0 3.075402754 0.197876837239 0.0
0.0 3.076753986 0.197697377288 0.0
0.0 3.078105217 0.197517673827 0.0
0.0 3.079456449 0.197337578487 0.0
0.0 3.08080768 0.197157144677 0.0
0.0 3.082158912 0.196976752492 0.0
0.0 3.083510143 0.196796049364 0.0
0.0 3.084861374 0.196614987083 0.0
0.0 3.086212606 0.196433792275 0.0
0.0 3.087563837 0.196252735135 0.0
0.0 3.088915069 0.196071643929 0.0
0.0 3.0902663 0.195890928579 0.0
0.0 3.091617532 0.195710180317 0.0
0.0 3.092968763 0.195529070906 0.0
0.0 3.094319995 0.195347895498 0.0
0.0 3.095671226 0.195166380384 0.0
0.0 3.097022457 0.194984679161 0.0
0.0 3.098373689 0.194802467117 0.0
0.0 3.09972492 0.194620164742 0.0
0.0 3.101076152 0.194437177299 0.0
0.0 3.102427383 0.194253921263 0.0
0.0 3.103778615 0.1940707297 0.0
0.0 3.105129846 0.193887499381 0.0
0.0 3.106481078 0.193704572463 0.0
0.0 3.107832309 0.193521328248 0.0
0.0 3.10918354 0.19333797364 0.0
0.0 3.110534772 0.193154408152 0.0
0.0 3.111886003 0.192970905073 0.0
0.0 3.113237235 0.192787204046 0.0
0.0 3.114588466 0.192603200844 0.0
0.0 3.115939698 0.192419028725 0.0
0.0 3.117290929 0.192234608559 0.0
0.0 3.11864216 0.192050433014 0.0
0.0 3.119993392 0.191866304833 0.0
0.0 3.121344623 0.19168197853 0.0
0.0 3.122695855 0.191497646494 0.0
0.0 3.124047086 0.19131340366 0.0
0.0 3.125398318 0.191129141974 0.0
0.0 3.126749549 0.190944824564 0.0
0.0 3.128100781 0.190760147675 0.0
0.0 3.129452012 0.190575014074 0.0
0.0 3.130803243 0.190389742414 0.0
0.0 3.132154475 0.190204405884 0.0
0.0 3.133505706 0.190018831999 0.0
0.0 3.134856938 0.189833164012 0.0
0.0 3.136208169 0.189647328924 0.0
0.0 3.137559401 0.189461392654 0.0
0.0 3.138910632 0.189275648861 0.0
0.0 3.140261863 0.189089880101 0.0
0.0 3.141613095 0.188903758265 0.0
0.0 3.142964326 0.188717439606 0.0
0.0 3.144315558 0.188530712927 0.0
0.0 3.145666789 0.188343770136 0.0
0.0 3.147018021 0.188156950808 0.0
0.0 3.148369252 0.187969730259 0.0
0.0 3.149720484 0.187781819233 0.0
0.0 3.151071715 0.187594093608 0.0
0.0 3.152422946 0.187406850562 0.0
0.0 3.153774178 0.187219632172 0.0
0.0 3.155125409 0.187032077645 0.0
0.0 3.156476641 0.186844203693 0.0
0.0 3.157827872 0.186656245267 0.0
0.0 3.159179104 0.186468399684 0.0
0.0 3.160530335 0.186280933429 0.0
0.0 3.161881566 0.186093240111 0.0
0.0 3.163232798 0.18590465262 0.0
0.0 3.164584029 0.185715516414 0.0
0.0 3.165935261 0.18552679931 0.0
0.0 3.167286492 0.185338054075 0.0
0.0 3.168637724 0.185149150924 0.0
0.0 3.169988955 0.184960067288 0.0
0.0 3.171340187 0.184770728851 0.0
0.0 3.172691418 0.184581237869 0.0
0.0 3.174042649 0.184392000871 0.0
0.0 3.175393881 0.184202776873 0.0
0.0 3.176745112 0.184013381876 0.0
0.0 3.178096344 0.183824010115 0.0
0.0 3.179447575 0.183634525079 0.0
0.0 3.180798807 0.18344505572 0.0
0.0 3.182150038 0.183255640156 0.0
0.0 3.18350127 0.183065961154 0.0
0.0 3.184852501 0.182876220187 0.0
0.0 3.186203732 0.182686765773 0.0
0.0 3.187554964 0.182497526569 0.0
0.0 3.188906195 0.182308144683 0.0
0.0 3.190257427 0.182118658733 0.0
0.0 3.191608658 0.181929106912 0.0
0.0 3.19295989 0.181739544013 0.0
0.0 3.194311121 0.181549895593 0.0
0.0 3.195662352 0.181360062056 0.0
0.0 3.197013584 0.18117007652 0.0
0.0 3.198364815 0.180979997091 0.0
0.0 3.199716047 0.180789931819 0.0
0.0 3.201067278 0.180599600772 0.0
0.0 3.20241851 0.180409231174 0.0
0.0 3.203769741 0.180218841737 0.0
0.0 3.205120973 0.180028861314 0.0
0.0 3.206472204 0.179838532842 0.0
0.0 3.207823435 0.179647940937 0.0
0.0 3.209174667 0.179457080461 0.0
0.0 3.210525898 0.179265989402 0.0
0.0 3.21187713 0.179074941916 0.0
0.0 3.213228361 0.178883931914 0.0
0.0 3.214579593 0.178692576454 0.0
0.0 3.215930824 0.178500808622 0.0
0.0 3.217282055 0.178309439472 0.0
0.0 3.218633287 0.178118046215 0.0
0.0 3.219984518 0.177926540516 0.0
0.0 3.22133575 0.177735178686 0.0
0.0 3.222686981 0.177543986791 0.0
0.0 3.224038213 0.177352349247 0.0
0.0 3.225389444 0.177160861646 0.0
0.0 3.226740676 0.17696950953 0.0
0.0 3.228091907 0.176777934008 0.0
0.0 3.229443138 0.176586325374 0.0
0.0 3.23079437 0.176394826786 0.0
0.0 3.232145601 0.176203173878 0.0
0.0 3.233496833 0.176011292059 0.0
0.0 3.234848064 0.175819578661 0.0
0.0 3.236199296 0.17562769445 0.0
0.0 3.237550527 0.175435694577 0.0
0.0 3.238901759 0.175244058674 0.0
0.0 3.24025299 0.175052615389 0.0
0.0 3.241604221 0.1748607602 0.0
0.0 3.242955453 0.1746691895 0.0
0.0 3.244306684 0.174477770568 0.0
0.0 3.245657916 0.17428629696 0.0
0.0 3.247009147 0.174094579721 0.0
0.0 3.248360379 0.173902785358 0.0
0.0 3.24971161 0.173710646999 0.0
0.0 3.251062841 0.173518089727 0.0
0.0 3.252414073 0.173325649188 0.0
0.0 3.253765304 0.173133097778 0.0
0.0 3.255116536 0.172940524927 0.0
0.0 3.256467767 0.172747674321 0.0
0.0 3.257818999 0.172554954408 0.0
0.0 3.25917023 0.172362442305 0.0
0.0 3.260521462 0.172170600351 0.0
0.0 3.261872693 0.171979268245 0.0
0.0 3.263223924 0.171787779068 0.0
0.0 3.264575156 0.171595598829 0.0
0.0 3.265926387 0.171403208655 0.0
0.0 3.267277619 0.171211021392 0.0
0.0 3.26862885 0.171019041675 0.0
0.0 3.269980082 0.1708269982 0.0
0.0 3.271331313 0.170634314976 0.0
0.0 3.272682544 0.170441250058 0.0
0.0 3.274033776 0.170248095561 0.0
0.0 3.275385007 0.170055550568 0.0
0.0 3.276736239 0.16986349684 0.0
0.0 3.27808747 0.169671603598 0.0
0.0 3.279438702 0.169479222411 0.0
0.0 3.280789933 0.169286646085 0.0
0.0 3.282141165 0.169094030487 0.0
0.0 3.283492396 0.168901831977 0.0
0.0 3.284843627 0.168709795541 0.0
0.0 3.286194859 0.168517106925 0.0
0.0 3.28754609 0.168324127019 0.0
0.0 3.288897322 0.168131247106 0.0
0.0 3.290248553 0.167938587466 0.0
0.0 3.291599785 0.167745723065 0.0
0.0 3.292951016 0.167553013808 0.0
0.0 3.294302247 0.167359878823 0.0
0.0 3.295653479 0.167166564356 0.0
0.0 3.29700471 0.166973718658 0.0
0.0 3.298355942 0.166780948343 0.0
0.0 3.299707173 0.166588321956 0.0
0.0 3.301058405 0.166395706664 0.0
0.0 3.302409636 0.166203171413 0.0
0.0 3.303760868 0.166010352473 0.0
0.0 3.305112099 0.165817886841 0.0
0.0 3.30646333 0.165625832223 0.0
0.0 3.307814562 0.165433799155 0.0
0.0 3.309165793 0.165241615825 0.0
0.0 3.310517025 0.165049211036 0.0
0.0 3.311868256 0.164856988158 0.0
0.0 3.313219488 0.164664753986 0.0
0.0 3.314570719 0.16447266021 0.0
0.0 3.315921951 0.164280276542 0.0
0.0 3.317273182 0.164087858633 0.0
0.0 3.318624413 0.163895541883 0.0
0.0 3.319975645 0.16370317322 0.0
0.0 3.321326876 0.163510507057 0.0
0.0 3.322678108 0.16331767501 0.0
0.0 3.324029339 0.163125413229 0.0
0.0 3.325380571 0.162933323685 0.0
0.0 3.326731802 0.16274103315 0.0
0.0 3.328083033 0.162548643969 0.0
0.0 3.329434265 0.162356567936 0.0
0.0 3.330785496 0.162164858158 0.0
0.0 3.332136728 0.161973308868 0.0
0.0 3.333487959 0.161782191305 0.0
0.0 3.334839191 0.161590968202 0.0
0.0 3.336190422 0.16139933197 0.0
0.0 3.337541654 0.161207816545 0.0
0.0 3.338892885 0.161016233738 0.0
0.0 3.340244116 0.160824755739 0.0
0.0 3.341595348 0.160633192785 0.0
0.0 3.342946579 0.160441586581 0.0
0.0 3.344297811 0.160249579715 0.0
0.0 3.345649042 0.160057481272 0.0
0.0 3.347000274 0.159865868503 0.0
0.0 3.348351505 0.159674773637 0.0
0.0 3.349702736 0.159483990613 0.0
0.0 3.351053968 0.159292652949 0.0
0.0 3.352405199 0.159101062998 0.0
0.0 3.353756431 0.158909937125 0.0
0.0 3.355107662 0.158719189951 0.0
0.0 3.356458894 0.158528551283 0.0
0.0 3.357810125 0.158338097782 0.0
0.0 3.359161357 0.15814728278 0.0
0.0 3.360512588 0.15795652324 0.0
0.0 3.361863819 0.157766074909 0.0
0.0 3.363215051 0.157575592555 0.0
0.0 3.364566282 0.157384933258 0.0
0.0 3.365917514 0.157194358326 0.0
0.0 3.367268745 0.157003718456 0.0
0.0 3.368619977 0.156812844602 0.0
0.0 3.369971208 0.156622512989 0.0
0.0 3.371322439 0.156432565828 0.0
0.0 3.372673671 0.156242990952 0.0
0.0 3.374024902 0.156053266226 0.0
0.0 3.375376134 0.155862681986 0.0
0.0 3.376727365 0.155672094391 0.0
0.0 3.378078597 0.155482121039 0.0
0.0 3.379429828 0.155292539874 0.0
0.0 3.38078106 0.155102632062 0.0
0.0 3.382132291 0.154912575973 0.0
0.0 3.383483522 0.154722462785 0.0
0.0 3.384834754 0.154532511005 0.0
0.0 3.386185985 0.154343767837 0.0
0.0 3.387537217 0.154155212185 0.0
0.0 3.388888448 0.153966343665 0.0
0.0 3.39023968 0.153777086765 0.0
0.0 3.391590911 0.153587625561 0.0
0.0 3.392942143 0.15339839021 0.0
0.0 3.394293374 0.153209071239 0.0
0.0 3.395644605 0.153020221787 0.0
0.0 3.396995837 0.152831209366 0.0
0.0 3.398347068 0.152642096243 0.0
0.0 3.3996983 0.152452696106 0.0
0.0 3.401049531 0.152263545068 0.0
0.0 3.402400763 0.152075200345 0.0
0.0 3.403751994 0.151886791298 0.0
0.0 3.405103225 0.151698474769 0.0
0.0 3.406454457 0.151510107559 0.0
0.0 3.407805688 0.151321713108 0.0
0.0 3.40915692 0.151133601503 0.0
0.0 3.410508151 0.150945618408 0.0
0.0 3.411859383 0.150757421887 0.0
0.0 3.413210614 0.150568824976 0.0
0.0 3.414561846 0.150380527265 0.0
0.0 3.415913077 0.15019233638 0.0
0.0 3.417264308 0.150004353419 0.0
0.0 3.41861554 0.149816975578 0.0
0.0 3.419966771 0.149629466766 0.0
0.0 3.421318003 0.149441970433 0.0
0.0 3.422669234 0.149254412343 0.0
0.0 3.424020466 0.14906704975 0.0
0.0 3.425371697 0.148880004575 0.0
0.0 3.426722928 0.148693617761 0.0
0.0 3.42807416 0.148507296888 0.0
0.0 3.429425391 0.148320400986 0.0
0.0 3.430776623 0.148133381518 0.0
0.0 3.432127854 0.147946887798 0.0
0.0 3.433479086 0.147761211026 0.0
0.0 3.434830317 0.147575663255 0.0
0.0 3.436181549 0.147389477203 0.0
0.0 3.43753278 0.14720291123 0.0
0.0 3.438884011 0.147016598001 0.0
0.0 3.440235243 0.146830519556 0.0
0.0 3.441586474 0.146644489988 0.0
0.0 3.442937706 0.146458188886 0.0
0.0 3.444288937 0.146272030916 0.0
0.0 3.445640169 0.146086218172 0.0
0.0 3.4469914 0.145900702577 0.0
0.0 3.448342631 0.145715235627 0.0
0.0 3.449693863 0.145530008093 0.0
0.0 3.451045094 0.145345191181 0.0
0.0 3.452396326 0.145160642478 0.0
0.0 3.453747557 0.144976517564 0.0
0.0 3.455098789 0.144792723184 0.0
0.0 3.45645002 0.144609065844 0.0
0.0 3.457801252 0.14442565412 0.0
0.0 3.459152483 0.144242100913 0.0
0.0 3.460503714 0.144058605033 0.0
0.0 3.461854946 0.143875454722 0.0
0.0 3.463206177 0.143692470209 0.0
0.0 3.464557409 0.143509290697 0.0
0.0 3.46590864 0.143325511039 0.0
0.0 3.467259872 0.143141638514 0.0
0.0 3.468611103 0.142958011547 0.0
0.0 3.469962335 0.142774815677 0.0
0.0 3.471313566 0.142591734617 0.0
0.0 3.472664797 0.142408536872 0.0
0.0 3.474016029 0.142226027159 0.0
0.0 3.47536726 0.142043985515 0.0
0.0 3.476718492 0.141862278048 0.0
0.0 3.478069723 0.141680626419 0.0
0.0 3.479420955 0.141498907732 0.0
0.0 3.480772186 0.141317637716 0.0
0.0 3.482123417 0.141136435081 0.0
0.0 3.483474649 0.140955237251 0.0
0.0 3.48482588 0.140774235407 0.0
0.0 3.486177112 0.140593543226 0.0
0.0 3.487528343 0.140413084438 0.0
0.0 3.488879575 0.140232680791 0.0
0.0 3.490230806 0.140052266708 0.0
0.0 3.491582038 0.139871970073 0.0
0.0 3.492933269 0.139692061162 0.0
0.0 3.4942845 0.139512189993 0.0
0.0 3.495635732 0.139331376119 0.0
0.0 3.496986963 0.139150503707 0.0
0.0 3.498338195 0.138969959019 0.0
0.0 3.499689426 0.138790134678 0.0
0.0 3.501040658 0.138610779086 0.0
0.0 3.502391889 0.138431489399 0.0
0.0 3.50374312 0.138252241486 0.0
0.0 3.505094352 0.138073554705 0.0
0.0 3.506445583 0.137895349124 0.0
0.0 3.507796815 0.137717648137 0.0
0.0 3.509148046 0.137540046314 0.0
0.0 3.510499278 0.137361952289 0.0
0.0 3.511850509 0.137183693965 0.0
0.0 3.513201741 0.137005421731 0.0
0.0 3.514552972 0.136827338233 0.0
0.0 3.515904203 0.13664940238 0.0
0.0 3.517255435 0.13647217435 0.0
0.0 3.518606666 0.136295422772 0.0
0.0 3.519957898 0.13611896182 0.0
0.0 3.521309129 0.135942642704 0.0
0.0 3.522660361 0.13576663233 0.0
0.0 3.524011592 0.135590648177 0.0
0.0 3.525362824 0.135414635906 0.0
0.0 3.526714055 0.135238761671 0.0
0.0 3.528065286 0.135063270771 0.0
0.0 3.529416518 0.134887753681 0.0
0.0 3.530767749 0.134712295785 0.0
0.0 3.532118981 0.134537519063 0.0
0.0 3.533470212 0.134363146689 0.0
0.0 3.534821444 0.134189005463 0.0
0.0 3.536172675 0.134015013506 0.0
0.0 3.537523906 0.133841203868 0.0
0.0 3.538875138 0.133667538074 0.0
0.0 3.540226369 0.133494079325 0.0
0.0 3.541577601 0.133320839644 0.0
0.0 3.542928832 0.133147400486 0.0
0.0 3.544280064 0.132973964288 0.0
0.0 3.545631295 0.132800973683 0.0
0.0 3.546982527 0.132628382523 0.0
0.0 3.548333758 0.132455951782 0.0
0.0 3.549684989 0.132283636649 0.0
0.0 3.551036221 0.132111149688 0.0
0.0 3.552387452 0.131938704699 0.0
0.0 3.553738684 0.131766685284 0.0
0.0 3.555089915 0.131595058518 0.0
0.0 3.556441147 0.131423630641 0.0
0.0 3.557792378 0.131252277841 0.0
0.0 3.559143609 0.131081090703 0.0
0.0 3.560494841 0.130910359352 0.0
0.0 3.561846072 0.130740058002 0.0
0.0 3.563197304 0.130569922841 0.0
0.0 3.564548535 0.130399812217 0.0
0.0 3.565899767 0.130229993994 0.0
0.0 3.567250998 0.130060872992 0.0
0.0 3.56860223 0.129892355321 0.0
0.0 3.569953461 0.129724018491 0.0
0.0 3.571304692 0.129555538419 0.0
0.0 3.572655924 0.129387127028 0.0
0.0 3.574007155 0.129219191945 0.0
0.0 3.575358387 0.129051644165 0.0
0.0 3.576709618 0.128884011673 0.0
0.0 3.57806085 0.128716232296 0.0
0.0 3.579412081 0.128548655335 0.0
0.0 3.580763312 0.128381484504 0.0
0.0 3.582114544 0.128214478037 0.0
0.0 3.583465775 0.128047556088 0.0
0.0 3.584817007 0.127880813791 0.0
0.0 3.586168238 0.127714307493 0.0
0.0 3.58751947 0.127548166406 0.0
0.0 3.588870701 0.127382293211 0.0
0.0 3.590221933 0.127216454048 0.0
0.0 3.591573164 0.127050826278 0.0
0.0 3.592924395 0.126885683002 0.0
0.0 3.594275627 0.126720847147 0.0
0.0 3.595626858 0.126556122746 0.0
0.0 3.59697809 0.126391752406 0.0
0.0 3.598329321 0.126227860065 0.0
0.0 3.599680553 0.126064063342 0.0
0.0 3.601031784 0.125900268666 0.0
0.0 3.602383016 0.125736615351 0.0
0.0 3.603734247 0.125573155039 0.0
0.0 3.605085478 0.125409998929 0.0
0.0 3.60643671 0.125247236702 0.0
0.0 3.607787941 0.125084713968 0.0
0.0 3.609139173 0.124922422872 0.0
0.0 3.610490404 0.124760488107 0.0
0.0 3.611841636 0.124598923536 0.0
0.0 3.613192867 0.124437716405 0.0
0.0 3.614544098 0.124276724866 0.0
0.0 3.61589533 0.124115900978 0.0
0.0 3.617246561 0.123955401997 0.0
0.0 3.618597793 0.123795075 0.0
0.0 3.619949024 0.123634717028 0.0
0.0 3.621300256 0.123474687008 0.0
0.0 3.622651487 0.123315287503 0.0
0.0 3.624002719 0.123156137247 0.0
0.0 3.62535395 0.122997273511 0.0
0.0 3.626705181 0.122838932365 0.0
0.0 3.628056413 0.122680972465 0.0
0.0 3.629407644 0.122523231561 0.0
0.0 3.630758876 0.122365603678 0.0
0.0 3.632110107 0.122207961822 0.0
0.0 3.633461339 0.122050471265 0.0
0.0 3.63481257 0.121893406697 0.0
0.0 3.636163801 0.121736732622 0.0
0.0 3.637515033 0.121580278016 0.0
0.0 3.638866264 0.121423880368 0.0
0.0 3.640217496 0.121267733794 0.0
0.0 3.641568727 0.121112152347 0.0
0.0 3.642919959 0.12095717562 0.0
0.0 3.64427119 0.120802566487 0.0
0.0 3.645622422 0.120647969641 0.0
0.0 3.646973653 0.120493442663 0.0
0.0 3.648324884 0.120339058547 0.0
0.0 3.649676116 0.120184759917 0.0
0.0 3.651027347 0.120030922203 0.0
0.0 3.652378579 0.119877625685 0.0
0.0 3.65372981 0.119724458798 0.0
0.0 3.655081042 0.119571533461 0.0
0.0 3.656432273 0.119419118079 0.0
0.0 3.657783504 0.119267069127 0.0
0.0 3.659134736 0.119115463233 0.0
0.0 3.660485967 0.11896430283 0.0
0.0 3.661837199 0.118813218899 0.0
0.0 3.66318843 0.118662237454 0.0
0.0 3.664539662 0.118511500063 0.0
0.0 3.665890893 0.118361130188 0.0
0.0 3.667242125 0.118211237532 0.0
0.0 3.668593356 0.11806163398 0.0
0.0 3.669944587 0.117912299817 0.0
0.0 3.671295819 0.117763303608 0.0
0.0 3.67264705 0.117614830888 0.0
0.0 3.673998282 0.117466976585 0.0
0.0 3.675349513 0.117319475574 0.0
0.0 3.676700745 0.117172052187 0.0
0.0 3.678051976 0.117024769087 0.0
0.0 3.679403208 0.11687775925 0.0
0.0 3.680754439 0.116731278028 0.0
0.0 3.68210567 0.116585275336 0.0
0.0 3.683456902 0.116439316826 0.0
0.0 3.684808133 0.116293378785 0.0
0.0 3.686159365 0.116147627536 0.0
0.0 3.687510596 0.116002149631 0.0
0.0 3.688861828 0.115857186563 0.0
0.0 3.690213059 0.115712664358 0.0
0.0 3.69156429 0.115568339381 0.0
0.0 3.692915522 0.115424497518 0.0
0.0 3.694266753 0.115281269135 0.0
0.0 3.695617985 0.115138409133 0.0
0.0 3.696969216 0.114996231867 0.0
0.0 3.698320448 0.114854583508 0.0
0.0 3.699671679 0.114713171369 0.0
0.0 3.701022911 0.114572209362 0.0
0.0 3.702374142 0.114431783989 0.0
0.0 3.703725373 0.114292131761 0.0
0.0 3.705076605 0.114152893976 0.0
0.0 3.706427836 0.114013890684 0.0
0.0 3.707779068 0.11387531307 0.0
0.0 3.709130299 0.113737588873 0.0
0.0 3.710481531 0.113600787331 0.0
0.0 3.711832762 0.113464583621 0.0
0.0 3.713183993 0.113328892799 0.0
0.0 3.714535225 0.113193825788 0.0
0.0 3.715886456 0.113060046252 0.0
0.0 3.717237688 0.112927566863 0.0
0.0 3.718588919 0.112796220572 0.0
0.0 3.719940151 0.11266560519 0.0
0.0 3.721291382 0.112535630101 0.0
0.0 3.722642614 0.112406964186 0.0
0.0 3.723993845 0.112279673027 0.0
0.0 3.725345076 0.112153089968 0.0
0.0 3.726696308 0.112027064791 0.0
0.0 3.728047539 0.111901640797 0.0
0.0 3.729398771 0.111777085551 0.0
0.0 3.730750002 0.111654089776 0.0
0.0 3.732101234 0.111532520038 0.0
0.0 3.733452465 0.11141175686 0.0
0.0 3.734803696 0.111291715002 0.0
0.0 3.736154928 0.11117277214 0.0
0.0 3.737506159 0.111054936667 0.0
0.0 3.738857391 0.110939071392 0.0
0.0 3.740208622 0.110824550205 0.0
0.0 3.741559854 0.110711120147 0.0
0.0 3.742911085 0.110598996761 0.0
0.0 3.744262317 0.110488741214 0.0
0.0 3.745613548 0.110380713091 0.0
0.0 3.746964779 0.110275261285 0.0
0.0 3.748316011 0.110171826106 0.0
0.0 3.749667242 0.110070435885 0.0
0.0 3.751018474 0.109971778097 0.0
0.0 3.752369705 0.109875621756 0.0
0.0 3.753720937 0.109781647255 0.0
0.0 3.755072168 0.109689958843 0.0
0.0 3.7564234 0.109600600766 0.0
0.0 3.757774631 0.109514093471 0.0
0.0 3.759125862 0.109430745861 0.0
0.0 3.760477094 0.109350005745 0.0
0.0 3.761828325 0.109271811371 0.0
0.0 3.763179557 0.10919670639 0.0
0.0 3.764530788 0.109125065701 0.0
0.0 3.76588202 0.109057205358 0.0
0.0 3.767233251 0.108993030614 0.0
0.0 3.768584482 0.108932302206 0.0
0.0 3.769935714 0.10887537086 0.0
0.0 3.771286945 0.108822421255 0.0
0.0 3.772638177 0.108773473864 0.0
0.0 3.773989408 0.108728947049 0.0
0.0 3.77534064 0.108688885224 0.0
0.0 3.776691871 0.108654470578 0.0
0.0 3.778043103 0.108624328902 0.0
0.0 3.779394334 0.108598542598 0.0
0.0 3.780745565 0.108577814771 0.0
0.0 3.782096797 0.108563029368 0.0
0.0 3.783448028 0.108554344112 0.0
0.0 3.78479926 0.108551358909 0.0
0.0 3.786150491 0.108554605443 0.0
0.0 3.787501723 0.108564709839 0.0
0.0 3.788852954 0.108581924991 0.0
0.0 3.790204185 0.108606919237 0.0
0.0 3.791555417 0.108639573306 0.0
0.0 3.792906648 0.108680487604 0.0
0.0 3.79425788 0.108730393354 0.0
0.0 3.795609111 0.108790264959 0.0
0.0 3.796960343 0.108860847784 0.0
0.0 3.798311574 0.108942666533 0.0
0.0 3.799662806 0.109035745174 0.0
0.0 3.801014037 0.109141703226 0.0
0.0 3.802365268 0.109261727783 0.0
0.0 3.8037165 0.109396884433 0.0
0.0 3.805067731 0.109548167247 0.0
0.0 3.806418963 0.10971651292 0.0
0.0 3.807770194 0.109902863589 0.0
0.0 3.809121426 0.110109237357 0.0
0.0 3.810472657 0.110337792504 0.0
0.0 3.811823889 0.110589313007 0.0
0.0 3.81317512 0.110865480245 0.0
0.0 3.814526351 0.111168561255 0.0
0.0 3.815877583 0.111501154367 0.0
0.0 3.817228814 0.111868370564 0.0
0.0 3.818580046 0.112276695484 0.0
0.0 3.819931277 0.112715297543 0.0
0.0 3.821282509 0.113194968169 0.0
0.0 3.82263374 0.113720296556 0.0
0.0 3.823984971 0.114295833684 0.0
0.0 3.825336203 0.11492568843 0.0
0.0 3.826687434 0.115614129166 0.0
0.0 3.828038666 0.116365738737 0.0
0.0 3.829389897 0.117186285791 0.0
0.0 3.830741129 0.11808270922 0.0
0.0 3.83209236 0.119061839505 0.0
0.0 3.833443592 0.120130895324 0.0
0.0 3.834794823 0.12129818442 0.0
0.0 3.836146054 0.122572883903 0.0
0.0 3.837497286 0.123965166254 0.0
0.0 3.838848517 0.12550856047 0.0
0.0 3.840199749 0.127175992048 0.0
0.0 3.84155098 0.128992060574 0.0
0.0 3.842902212 0.130974573135 0.0
0.0 3.844253443 0.133138177091 0.0
0.0 3.845604674 0.135498422025 0.0
0.0 3.846955906 0.138072219449 0.0
0.0 3.848307137 0.140877636598 0.0
0.0 3.849658369 0.143933902987 0.0
0.0 3.8510096 0.14726084862 0.0
0.0 3.852360832 0.150880245995 0.0
0.0 3.853712063 0.15481513148 0.0
0.0 3.855063295 0.159088375823 0.0
0.0 3.856414526 0.163723236114 0.0
0.0 3.857765757 0.168803685649 0.0
0.0 3.859116989 0.174255816979 0.0
0.0 3.86046822 0.180119687356 0.0
0.0 3.861819452 0.186435876937 0.0
0.0 3.863170683 0.1932222954 0.0
0.0 3.864521915 0.20049512564 0.0
0.0 3.865873146 0.208268186669 0.0
0.0 3.867224377 0.2165500926 0.0
0.0 3.868575609 0.225344308525 0.0
0.0 3.86992684 0.234650396383 0.0
0.0 3.871278072 0.244455954564 0.0
0.0 3.872629303 0.254745933498 0.0
0.0 3.873980535 0.265497373828 0.0
0.0 3.875331766 0.276677616749 0.0
0.0 3.876682998 0.288243473522 0.0
0.0 3.878034229 0.300147610502 0.0
0.0 3.87938546 0.312328402673 0.0
0.0 3.880736692 0.324724437278 0.0
0.0 3.882087923 0.337270217618 0.0
0.0 3.883439155 0.349892372995 0.0
0.0 3.884790386 0.362515425888 0.0
0.0 3.886141618 0.375067244883 0.0
0.0 3.887492849 0.387478392201 0.0
0.0 3.888844081 0.399678754324 0.0
0.0 3.890195312 0.411611563708 0.0
0.0 3.891546543 0.423220412915 0.0
0.0 3.892897775 0.434455876462 0.0
0.0 3.894249006 0.44527842963 0.0
0.0 3.895600238 0.455661036232 0.0
0.0 3.896951469 0.465571474024 0.0
0.0 3.898302701 0.475429226404 0.0
0.0 3.899653932 0.484371793511 0.0
0.0 3.901005163 0.492815733309 0.0
0.0 3.902356395 0.500769112231 0.0
0.0 3.903707626 0.508248848766 0.0
0.0 3.905058858 0.515268614676 0.0
0.0 3.906410089 0.521841605901 0.0
0.0 3.907761321 0.52799768573 0.0
0.0 3.909112552 0.533759718046 0.0
0.0 3.910463784 0.539147604355 0.0
0.0 3.911815015 0.544192117226 0.0
0.0 3.913166246 0.548904600211 0.0
0.0 3.914517478 0.55356023445 0.0
0.0 3.915868709 0.557907366899 0.0
0.0 3.917219941 0.561734725865 0.0
0.0 3.918571172 0.565300515686 0.0
0.0 3.919922404 0.568621524657 0.0
0.0 3.921273635 0.571718258171 0.0
0.0 3.922624866 0.574597176729 0.0
0.0 3.923976098 0.57727242351 0.0
0.0 3.925327329 0.579764963353 0.0
0.0 3.926678561 0.582079406935 0.0
0.0 3.928029792 0.584222594174 0.0
0.0 3.929381024 0.586209056654 0.0
0.0 3.930732255 0.58803739473 0.0
0.0 3.932083487 0.589715004175 0.0
0.0 3.933434718 0.59125917918 0.0
0.0 3.934785949 0.592676761059 0.0
0.0 3.936137181 0.593969891873 0.0
0.0 3.937488412 0.595430868982 0.0
0.0 3.938839644 0.596803678575 0.0
0.0 3.940190875 0.597788156521 0.0
0.0 3.941542107 0.598741512914 0.0
0.0 3.942893338 0.599612365101 0.0
0.0 3.944244569 0.600399723713 0.0
0.0 3.945595801 0.601111570057 0.0
0.0 3.946947032 0.601756428204 0.0
0.0 3.948298264 0.602336313196 0.0
0.0 3.949649495 0.602855366764 0.0
0.0 3.951000727 0.603265168346 0.0
0.0 3.952351958 0.603607978824 0.0
0.0 3.95370319 0.60390371415 0.0
0.0 3.955054421 0.604165811852 0.0
0.0 3.956405652 0.604396761229 0.0
0.0 3.957756884 0.604597107613 0.0
0.0 3.959108115 0.604775765524 0.0
0.0 3.960459347 0.604938754331 0.0
0.0 3.961810578 0.605086040081 0.0
0.0 3.96316181 0.60521635837 0.0
0.0 3.964513041 0.605338466741 0.0
0.0 3.965864273 0.605448261309 0.0
0.0 3.967215504 0.605548367319 0.0
0.0 3.968566735 0.60564807283 0.0
0.0 3.969917967 0.606263547956 0.0
0.0 3.971269198 0.606412849099 0.0
0.0 3.97262043 0.606517951236 0.0
0.0 3.973971661 0.606625952633 0.0
0.0 3.975322893 0.606733371664 0.0
0.0 3.976674124 0.606844580764 0.0
0.0 3.978025355 0.60755246666 0.0
0.0 3.979376587 0.607665827978 0.0
0.0 3.980727818 0.607774319186 0.0
0.0 3.98207905 0.607881353902 0.0
0.0 3.983430281 0.60798743241 0.0
0.0 3.984781513 0.608093115767 0.0
0.0 3.986132744 0.60820222296 0.0
0.0 3.987483976 0.608312615916 0.0
0.0 3.988835207 0.608420154615 0.0
0.0 3.990186438 0.608533372378 0.0
0.0 3.99153767 0.608648018254 0.0
0.0 3.992888901 0.608758949028 0.0
0.0 3.994240133 0.608871817327 0.0
0.0 3.995591364 0.608986228981 0.0
0.0 3.996942596 0.609097673209 0.0
0.0 3.998293827 0.609205424903 0.0
0.0 3.999645058 0.60931401087 0.0
0.0 4.00099629 0.609409782643 0.0
0.0 4.002347521 0.609497235943 0.0
0.0 4.003698753 0.609587237051 0.0
0.0 4.005049984 0.609674907724 0.0
0.0 4.006401216 0.609758387285 0.0
0.0 4.007752447 0.609840902429 0.0
0.0 4.009103679 0.609923979734 0.0
0.0 4.01045491 0.610025011132 0.0
0.0 4.011806141 0.610170130406 0.0
0.0 4.013157373 0.610317718338 0.0
0.0 4.014508604 0.610459384305 0.0
0.0 4.015859836 0.610597385975 0.0
0.0 4.017211067 0.610735132797 0.0
0.0 4.018562299 0.61120624743 0.0
0.0 4.01991353 0.611598437771 0.0
0.0 4.021264761 0.61224485217 0.0
0.0 4.022615993 0.612314324973 0.0
0.0 4.023967224 0.612380234293 0.0
0.0 4.025318456 0.612449225016 0.0
0.0 4.026669687 0.612521658531 0.0
0.0 4.028020919 0.612593734868 0.0
0.0 4.02937215 0.612664538262 0.0
0.0 4.030723382 0.612737410169 0.0
0.0 4.032074613 0.612809086577 0.0
0.0 4.033425844 0.61287744255 0.0
0.0 4.034777076 0.612949783787 0.0
0.0 4.036128307 0.613023782507 0.0
0.0 4.037479539 0.613097296962 0.0
0.0 4.03883077 0.613172690878 0.0
0.0 4.040182002 0.61326466101 0.0
0.0 4.041533233 0.613418801382 0.0
0.0 4.042884465 0.61357348328 0.0
0.0 4.044235696 0.613734928271 0.0
0.0 4.045586927 0.613897588428 0.0
0.0 4.046938159 0.614059708819 0.0
0.0 4.04828939 0.614224109965 0.0
0.0 4.049640622 0.614392307078 0.0
0.0 4.050991853 0.614503326714 0.0
0.0 4.052343085 0.614596097569 0.0
0.0 4.053694316 0.614692328114 0.0
0.0 4.055045547 0.614786856709 0.0
0.0 4.056396779 0.614880387328 0.0
0.0 4.05774801 0.614976486219 0.0
0.0 4.059099242 0.615075163124 0.0
0.0 4.060450473 0.615440453096 0.0
0.0 4.061801705 0.615868805612 0.0
0.0 4.063152936 0.615967247055 0.0
0.0 4.064504168 0.616061015098 0.0
0.0 4.065855399 0.61615062843 0.0
0.0 4.06720663 0.616240261324 0.0
0.0 4.068557862 0.616326331102 0.0
0.0 4.069909093 0.616403556671 0.0
0.0 4.071260325 0.616547448214 0.0
0.0 4.072611556 0.617049513557 0.0
0.0 4.073962788 0.617417493135 0.0
0.0 4.075314019 0.617557300393 0.0
0.0 4.07666525 0.617699244384 0.0
0.0 4.078016482 0.617836520492 0.0
0.0 4.079367713 0.617969436844 0.0
0.0 4.080718945 0.618065920307 0.0
0.0 4.082070176 0.618126243902 0.0
0.0 4.083421408 0.618178776726 0.0
0.0 4.084772639 0.6182263606 0.0
0.0 4.086123871 0.618274420314 0.0
0.0 4.087475102 0.618316271877 0.0
0.0 4.088826333 0.618356449336 0.0
0.0 4.090177565 0.618398299498 0.0
0.0 4.091528796 0.618439136499 0.0
0.0 4.092880028 0.618476296772 0.0
0.0 4.094231259 0.618515298789 0.0
0.0 4.095582491 0.61855864556 0.0
0.0 4.096933722 0.618598824377 0.0
0.0 4.098284953 0.618639839348 0.0
0.0 4.099636185 0.618683125639 0.0
0.0 4.100987416 0.618676321909 0.0
0.0 4.102338648 0.618646611642 0.0
0.0 4.103689879 0.619037734056 0.0
0.0 4.105041111 0.619201615604 0.0
0.0 4.106392342 0.619177207259 0.0
0.0 4.107743574 0.619154962235 0.0
0.0 4.109094805 0.619138998382 0.0
0.0 4.110446036 0.619147037157 0.0
0.0 4.111797268 0.619198041883 0.0
0.0 4.113148499 0.619255998699 0.0
0.0 4.114499731 0.619317191683 0.0
0.0 4.115850962 0.61937894237 0.0
0.0 4.117202194 0.619441393568 0.0
0.0 4.118553425 0.619833642036 0.0
0.0 4.119904657 0.620162801077 0.0
0.0 4.121255888 0.620236332537 0.0
0.0 4.122607119 0.620314291312 0.0
0.0 4.123958351 0.620395992186 0.0
0.0 4.125309582 0.620477033419 0.0
0.0 4.126660814 0.620560951076 0.0
0.0 4.128012045 0.620652207349 0.0
0.0 4.129363277 0.620743714959 0.0
0.0 4.130714508 0.620797955615 0.0
0.0 4.132065739 0.620820965953 0.0
0.0 4.133416971 0.620847031718 0.0
0.0 4.134768202 0.620869509654 0.0
0.0 4.136119434 0.620893251804 0.0
0.0 4.137470665 0.620918325144 0.0
0.0 4.138821897 0.620941954953 0.0
0.0 4.140173128 0.620978092074 0.0
0.0 4.14152436 0.6211334069 0.0
0.0 4.142875591 0.621289519929 0.0
0.0 4.144226822 0.621442337932 0.0
0.0 4.145578054 0.621595587131 0.0
0.0 4.146929285 0.621751450013 0.0
0.0 4.148280517 0.622513318967 0.0
0.0 4.149631748 0.622662543001 0.0
0.0 4.15098298 0.622762618164 0.0
0.0 4.152334211 0.622842026872 0.0
0.0 4.153685442 0.622917404648 0.0
0.0 4.155036674 0.622988080318 0.0
0.0 4.156387905 0.623058367978 0.0
0.0 4.157739137 0.623123042528 0.0
0.0 4.159090368 0.62318156754 0.0
0.0 4.1604416 0.623498714524 0.0
0.0 4.161792831 0.623888456146 0.0
0.0 4.163144063 0.623944209263 0.0
0.0 4.164495294 0.623995593097 0.0
0.0 4.165846525 0.624046596968 0.0
0.0 4.167197757 0.624092840057 0.0
0.0 4.168548988 0.624127152481 0.0
0.0 4.16990022 0.62415782455 0.0
0.0 4.171251451 0.624191222924 0.0
0.0 4.172602683 0.624218161323 0.0
0.0 4.173953914 0.624239651337 0.0
0.0 4.175305146 0.624256759317 0.0
0.0 4.176656377 0.624270047659 0.0
0.0 4.178007608 0.624276094797 0.0
0.0 4.17935884 0.624280231924 0.0
0.0 4.180710071 0.624283917714 0.0
0.0 4.182061303 0.624285225955 0.0
0.0 4.183412534 0.624281822551 0.0
0.0 4.184763766 0.624279419342 0.0
0.0 4.186114997 0.624276322693 0.0
0.0 4.187466228 0.624268342058 0.0
0.0 4.18881746 0.624255107827 0.0
0.0 4.190168691 0.624240069738 0.0
0.0 4.191519923 0.62421596297 0.0
0.0 4.192871154 0.624186493053 0.0
0.0 4.194222386 0.624763657692 0.0
0.0 4.195573617 0.624733120225 0.0
0.0 4.196924849 0.624699728053 0.0
0.0 4.19827608 0.624664587348 0.0
0.0 4.199627311 0.624633551123 0.0
0.0 4.200978543 0.624601085766 0.0
0.0 4.202329774 0.624566572573 0.0
0.0 4.203681006 0.624931700717 0.0
0.0 4.205032237 0.625087474069 0.0
0.0 4.206383469 0.625054607112 0.0
0.0 4.2077347 0.625021066674 0.0
0.0 4.209085931 0.624988984751 0.0
0.0 4.210437163 0.624965183493 0.0
0.0 4.211788394 0.624951303607 0.0
0.0 4.213139626 0.624937242126 0.0
0.0 4.214490857 0.624925776096 0.0
0.0 4.215842089 0.62491688535 0.0
0.0 4.21719332 0.624907065948 0.0
0.0 4.218544552 0.624900075649 0.0
0.0 4.219895783 0.624897528363 0.0
0.0 4.221247014 0.624885809977 0.0
0.0 4.222598246 0.624873484017 0.0
0.0 4.223949477 0.624864774737 0.0
0.0 4.225300709 0.624857876106 0.0
0.0 4.22665194 0.624848703259 0.0
0.0 4.228003172 0.624837023646 0.0
0.0 4.229354403 0.624826303139 0.0
0.0 4.230705634 0.624815677881 0.0
0.0 4.232056866 0.624801504656 0.0
0.0 4.233408097 0.624784607027 0.0
0.0 4.234759329 0.624770307612 0.0
0.0 4.23611056 0.624758207028 0.0
0.0 4.237461792 0.624749901921 0.0
0.0 4.238813023 0.624750323538 0.0
0.0 4.240164255 0.624759503391 0.0
0.0 4.241515486 0.624766582579 0.0
0.0 4.242866717 0.62530510883 0.0
0.0 4.244217949 0.625408779081 0.0
0.0 4.24556918 0.625436866404 0.0
0.0 4.246920412 0.62546551059 0.0
0.0 4.248271643 0.626080146196 0.0
0.0 4.249622875 0.626112710291 0.0
0.0 4.250974106 0.626136403104 0.0
0.0 4.252325338 0.626155307379 0.0
0.0 4.253676569 0.626175836622 0.0
0.0 4.2550278 0.626199965069 0.0
0.0 4.256379032 0.626225426149 0.0
0.0 4.257730263 0.6262529245 0.0
0.0 4.259081495 0.626284264712 0.0
0.0 4.260432726 0.626001333407 0.0
0.0 4.261783958 0.625044524904 0.0
0.0 4.263135189 0.624088664275 0.0
0.0 4.26448642 0.62313524239 0.0
0.0 4.265837652 0.622181531031 0.0
0.0 4.267188883 0.621224650383 0.0
0.0 4.268540115 0.620266187521 0.0
0.0 4.269891346 0.619307184576 0.0
0.0 4.271242578 0.617888274843 0.0
0.0 4.272593809 0.616427606516 0.0
0.0 4.273945041 0.614968733131 0.0
0.0 4.275296272 0.613512491763 0.0
0.0 4.276647503 0.612056104607 0.0
0.0 4.277998735 0.610600437716 0.0
0.0 4.279349966 0.609148814313 0.0
0.0 4.280701198 0.609744000954 0.0
0.0 4.282052429 0.612232596828 0.0
0.0 4.283403661 0.614720238278 0.0
0.0 4.284754892 0.617207255293 0.0
0.0 4.286106123 0.619692044916 0.0
0.0 4.287457355 0.62217399677 0.0
0.0 4.288808586 0.62465542422 0.0
0.0 4.290159818 0.626858373546 0.0
0.0 4.291511049 0.626977927758 0.0
0.0 4.292862281 0.627096080027 0.0
0.0 4.294213512 0.627927833349 0.0
0.0 4.295564744 0.628526806869 0.0
0.0 4.296915975 0.628652406016 0.0
0.0 4.298267206 0.628778947851 0.0
0.0 4.299618438 0.628906965118 0.0
0.0 4.300969669 0.628976049013 0.0
0.0 4.302320901 0.629020471057 0.0
0.0 4.303672132 0.629064281807 0.0
0.0 4.305023364 0.629109126982 0.0
0.0 4.306374595 0.629154090391 0.0
0.0 4.307725826 0.629197312821 0.0
0.0 4.309077058 0.629239758474 0.0
0.0 4.310428289 0.629282282453 0.0
0.0 4.311779521 0.62932210376 0.0
0.0 4.313130752 0.629361252803 0.0
0.0 4.314481984 0.629400935484 0.0
0.0 4.315833215 0.629442260625 0.0
0.0 4.317184447 0.629483764228 0.0
0.0 4.318535678 0.629524632922 0.0
0.0 4.319886909 0.629566107054 0.0
0.0 4.321238141 0.629622985428 0.0
0.0 4.322589372 0.629680194983 0.0
0.0 4.323940604 0.629735491646 0.0
0.0 4.325291835 0.629790134123 0.0
0.0 4.326643067 0.629844098761 0.0
0.0 4.327994298 0.629896123552 0.0
0.0 4.32934553 0.629946277582 0.0
0.0 4.330696761 0.629991840424 0.0
0.0 4.332047992 0.630032924506 0.0
0.0 4.333399224 0.630073204035 0.0
0.0 4.334750455 0.630112292718 0.0
0.0 4.336101687 0.630151967529 0.0
0.0 4.337452918 0.630190491362 0.0
0.0 4.33880415 0.630227245144 0.0
0.0 4.340155381 0.630261070645 0.0
0.0 4.341506612 0.630291822639 0.0
0.0 4.342857844 0.630318915491 0.0
0.0 4.344209075 0.630342568381 0.0
0.0 4.345560307 0.630687635982 0.0
0.0 4.346911538 0.630961444783 0.0
0.0 4.34826277 0.630973653973 0.0
0.0 4.349614001 0.63097000794 0.0
0.0 4.350965233 0.630958207782 0.0
0.0 4.352316464 0.631544346888 0.0
0.0 4.353667695 0.631525114433 0.0
0.0 4.355018927 0.631502091731 0.0
0.0 4.356370158 0.631474317075 0.0
0.0 4.35772139 0.631443114386 0.0
0.0 4.359072621 0.631406357694 0.0
0.0 4.360423853 0.631368577742 0.0
0.0 4.361775084 0.631335527865 0.0
0.0 4.363126315 0.631296886233 0.0
0.0 4.364477547 0.631251883256 0.0
0.0 4.365828778 0.631200671625 0.0
0.0 4.36718001 0.631143761751 0.0
0.0 4.368531241 0.631080939834 0.0
0.0 4.369882473 0.631012947462 0.0
0.0 4.371233704 0.630936061933 0.0
0.0 4.372584936 0.630855839265 0.0
0.0 4.373936167 0.630771299563 0.0
0.0 4.375287398 0.630683095211 0.0
0.0 4.37663863 0.630590699811 0.0
0.0 4.377989861 0.630496972451 0.0
0.0 4.379341093 0.630400115037 0.0
0.0 4.380692324 0.630306345825 0.0
0.0 4.382043556 0.630213639652 0.0
0.0 4.383394787 0.630119506032 0.0
0.0 4.384746018 0.630023263617 0.0
0.0 4.38609725 0.629926529172 0.0
0.0 4.387448481 0.629828039557 0.0
0.0 4.388799713 0.629730647004 0.0
0.0 4.390150944 0.629633430765 0.0
0.0 4.391502176 0.629535523811 0.0
0.0 4.392853407 0.62943952185 0.0
0.0 4.394204639 0.629346894441 0.0
0.0 4.39555587 0.629257786723 0.0
0.0 4.396907101 0.629203871671 0.0
0.0 4.398258333 0.629168914167 0.0
0.0 4.399609564 0.62913680886 0.0
0.0 4.400960796 0.629108033978 0.0
0.0 4.402312027 0.629082280267 0.0
0.0 4.403663259 0.629062133202 0.0
0.0 4.40501449 0.62905435196 0.0
0.0 4.406365722 0.629606889602 0.0
0.0 4.407716953 0.629602006727 0.0
0.0 4.409068184 0.629605392137 0.0
0.0 4.410419416 0.629614621533 0.0
0.0 4.411770647 0.62963134683 0.0
0.0 4.413121879 0.629727141938 0.0
0.0 4.41447311 0.630278352713 0.0
0.0 4.415824342 0.63031717886 0.0
0.0 4.417175573 0.630363835307 0.0
0.0 4.418526804 0.630416724907 0.0
0.0 4.419878036 0.630475560672 0.0
0.0 4.421229267 0.630542805772 0.0
0.0 4.422580499 0.630615387811 0.0
0.0 4.42393173 0.630693844063 0.0
0.0 4.425282962 0.630776483638 0.0
0.0 4.426634193 0.630865937885 0.0
0.0 4.427985425 0.630959560924 0.0
0.0 4.429336656 0.631060020818 0.0
0.0 4.430687887 0.631159778055 0.0
0.0 4.432039119 0.631260298647 0.0
0.0 4.43339035 0.631364193204 0.0
0.0 4.434741582 0.631473790207 0.0
0.0 4.436092813 0.631587562796 0.0
0.0 4.437444045 0.631705409023 0.0
0.0 4.438795276 0.631826562025 0.0
0.0 4.440146507 0.63195188087 0.0
0.0 4.441497739 0.63208689303 0.0
0.0 4.44284897 0.632224551859 0.0
0.0 4.444200202 0.632362770307 0.0
0.0 4.445551433 0.632483083945 0.0
0.0 4.446902665 0.632607087539 0.0
0.0 4.448253896 0.632731376069 0.0
0.0 4.449605128 0.632858402561 0.0
0.0 4.450956359 0.632982889153 0.0
0.0 4.45230759 0.633109021142 0.0
0.0 4.453658822 0.633235405997 0.0
0.0 4.455010053 0.633363104576 0.0
0.0 4.456361285 0.633491819585 0.0
0.0 4.457712516 0.633621568286 0.0
0.0 4.459063748 0.633752176475 0.0
0.0 4.460414979 0.633883740267 0.0
0.0 4.461766211 0.634020052705 0.0
0.0 4.463117442 0.634156570518 0.0
0.0 4.464468673 0.634294351939 0.0
0.0 4.465819905 0.634429982267 0.0
0.0 4.467171136 0.634566840463 0.0
0.0 4.468522368 0.634702828687 0.0
0.0 4.469873599 0.634839410846 0.0
0.0 4.471224831 0.634973782388 0.0
0.0 4.472576062 0.635108195446 0.0
0.0 4.473927293 0.635242715024 0.0
0.0 4.475278525 0.635376946419 0.0
0.0 4.476629756 0.635867280158 0.0
0.0 4.477980988 0.636209243258 0.0
0.0 4.479332219 0.636343172443 0.0
0.0 4.480683451 0.636474908333 0.0
0.0 4.482034682 0.636606056873 0.0
0.0 4.483385914 0.636734385724 0.0
0.0 4.484737145 0.637295622224 0.0
0.0 4.486088376 0.637576183993 0.0
0.0 4.487439608 0.637701604389 0.0
0.0 4.488790839 0.63782600018 0.0
0.0 4.490142071 0.637949775906 0.0
0.0 4.491493302 0.63806888559 0.0
0.0 4.492844534 0.63818521634 0.0
0.0 4.494195765 0.638299919021 0.0
0.0 4.495546996 0.638403706531 0.0
0.0 4.496898228 0.638508883269 0.0
0.0 4.498249459 0.638611134639 0.0
0.0 4.499600691 0.638712789593 0.0
0.0 4.500951922 0.638819116943 0.0
0.0 4.502303154 0.638928636926 0.0
0.0 4.503654385 0.639035612179 0.0
0.0 4.505005617 0.639138949078 0.0
0.0 4.506356848 0.639241278575 0.0
0.0 4.507708079 0.639340349121 0.0
0.0 4.509059311 0.639437504163 0.0
0.0 4.510410542 0.639528999209 0.0
0.0 4.511761774 0.639618688126 0.0
0.0 4.513113005 0.639704955522 0.0
0.0 4.514464237 0.639790002396 0.0
0.0 4.515815468 0.639871038028 0.0
0.0 4.517166699 0.639949537348 0.0
0.0 4.518517931 0.640027383634 0.0
0.0 4.519869162 0.640101980757 0.0
0.0 4.521220394 0.640177416624 0.0
0.0 4.522571625 0.640248611906 0.0
0.0 4.523922857 0.640320102027 0.0
0.0 4.525274088 0.640387516604 0.0
0.0 4.52662532 0.640452204951 0.0
0.0 4.527976551 0.640512275177 0.0
0.0 4.529327782 0.640570607383 0.0
0.0 4.530679014 0.640624145375 0.0
0.0 4.532030245 0.640670470997 0.0
0.0 4.533381477 0.640714918217 0.0
0.0 4.534732708 0.640756640309 0.0
0.0 4.53608394 0.640800594328 0.0
0.0 4.537435171 0.640841146988 0.0
0.0 4.538786403 0.640879691501 0.0
0.0 4.540137634 0.640915769294 0.0
0.0 4.541488865 0.640952479543 0.0
0.0 4.542840097 0.64098794006 0.0
0.0 4.544191328 0.641018889608 0.0
0.0 4.54554256 0.641046581366 0.0
0.0 4.546893791 0.641069875002 0.0
0.0 4.548245023 0.641093629117 0.0
0.0 4.549596254 0.641113908324 0.0
0.0 4.550947485 0.641139349391 0.0
0.0 4.552298717 0.641166708728 0.0
0.0 4.553649948 0.641194992937 0.0
0.0 4.55500118 0.641222560016 0.0
0.0 4.556352411 0.641248064797 0.0
0.0 4.557703643 0.641275784618 0.0
0.0 4.559054874 0.6413034995 0.0
0.0 4.560406106 0.641331656685 0.0
0.0 4.561757337 0.641775487959 0.0
0.0 4.563108568 0.641935003523 0.0
0.0 4.5644598 0.641961370948 0.0
0.0 4.565811031 0.641988635437 0.0
0.0 4.567162263 0.642016666317 0.0
0.0 4.568513494 0.642044407546 0.0
0.0 4.569864726 0.642077135428 0.0
0.0 4.571215957 0.642231236262 0.0
0.0 4.572567188 0.642711625704 0.0
0.0 4.57391842 0.642740757894 0.0
0.0 4.575269651 0.642772090676 0.0
0.0 4.576620883 0.642805988191 0.0
0.0 4.577972114 0.642839000301 0.0
0.0 4.579323346 0.642872730906 0.0
0.0 4.580674577 0.642907340867 0.0
0.0 4.582025809 0.642947964339 0.0
0.0 4.58337704 0.64298721685 0.0
0.0 4.584728271 0.643026520144 0.0
0.0 4.586079503 0.64306506885 0.0
0.0 4.587430734 0.643104242552 0.0
0.0 4.588781966 0.643144369132 0.0
0.0 4.590133197 0.643179217131 0.0
0.0 4.591484429 0.643207032924 0.0
0.0 4.59283566 0.643234752439 0.0
0.0 4.594186891 0.643265914262 0.0
0.0 4.595538123 0.643294561081 0.0
0.0 4.596889354 0.643321117384 0.0
0.0 4.598240586 0.643347890301 0.0
0.0 4.599591817 0.643375363422 0.0
0.0 4.600943049 0.643404212265 0.0
0.0 4.60229428 0.643427906601 0.0
0.0 4.603645512 0.643451413166 0.0
0.0 4.604996743 0.643473698943 0.0
0.0 4.606347974 0.643495345956 0.0
0.0 4.607699206 0.643513466035 0.0
0.0 4.609050437 0.643527373171 0.0
0.0 4.610401669 0.643562687794 0.0
0.0 4.6117529 0.643646660257 0.0
0.0 4.613104132 0.64372784598 0.0
0.0 4.614455363 0.643802198391 0.0
0.0 4.615806595 0.643874682714 0.0
0.0 4.617157826 0.643946861577 0.0
0.0 4.618509057 0.644016846795 0.0
0.0 4.619860289 0.644084006844 0.0
0.0 4.62121152 0.644077783351 0.0
0.0 4.622562752 0.644063763166 0.0
0.0 4.623913983 0.644046752189 0.0
0.0 4.625265215 0.644025632288 0.0
0.0 4.626616446 0.643999952624 0.0
0.0 4.627967677 0.643971560511 0.0
0.0 4.629318909 0.643942700061 0.0
0.0 4.63067014 0.643910054174 0.0
0.0 4.632021372 0.643874550193 0.0
0.0 4.633372603 0.643833589188 0.0
0.0 4.634723835 0.64379133961 0.0
0.0 4.636075066 0.643746531556 0.0
0.0 4.637426298 0.643695175505 0.0
0.0 4.638777529 0.643641113452 0.0
0.0 4.64012876 0.643584280998 0.0
0.0 4.641479992 0.643530499397 0.0
0.0 4.642831223 0.643472757143 0.0
0.0 4.644182455 0.643411540185 0.0
0.0 4.645533686 0.643350016319 0.0
0.0 4.646884918 0.643288964622 0.0
0.0 4.648236149 0.643228837952 0.0
0.0 4.64958738 0.643163444756 0.0
0.0 4.650938612 0.643094100058 0.0
0.0 4.652289843 0.64355272228 0.0
0.0 4.653641075 0.643478316319 0.0
0.0 4.654992306 0.643402279335 0.0
0.0 4.656343538 0.64332192428 0.0
0.0 4.657694769 0.643243701287 0.0
0.0 4.659046001 0.643167086978 0.0
0.0 4.660397232 0.643094712045 0.0
0.0 4.661748463 0.643026846628 0.0
0.0 4.663099695 0.642960190308 0.0
0.0 4.664450926 0.642899147597 0.0
0.0 4.665802158 0.642841069176 0.0
0.0 4.667153389 0.642785957064 0.0
0.0 4.668504621 0.642731180771 0.0
0.0 4.669855852 0.642681679588 0.0
0.0 4.671207083 0.642640641951 0.0
0.0 4.672558315 0.642603499427 0.0
0.0 4.673909546 0.64257024092 0.0
0.0 4.675260778 0.642539927208 0.0
0.0 4.676612009 0.642517575619 0.0
0.0 4.677963241 0.642500855447 0.0
0.0 4.679314472 0.642486198168 0.0
0.0 4.680665704 0.64247044484 0.0
0.0 4.682016935 0.642454570558 0.0
0.0 4.683368166 0.64244843124 0.0
0.0 4.684719398 0.642447967817 0.0
0.0 4.686070629 0.642453157128 0.0
0.0 4.687421861 0.642466304506 0.0
0.0 4.688773092 0.64249004819 0.0
0.0 4.690124324 0.642526697439 0.0
0.0 4.691475555 0.642573616227 0.0
0.0 4.692826787 0.642627715075 0.0
0.0 4.694178018 0.642690262583 0.0
0.0 4.695529249 0.642763089508 0.0
0.0 4.696880481 0.642844659916 0.0
0.0 4.698231712 0.643467769141 0.0
0.0 4.699582944 0.643560800472 0.0
0.0 4.700934175 0.643665376972 0.0
0.0 4.702285407 0.64378138876 0.0
0.0 4.703636638 0.643904353352 0.0
0.0 4.704987869 0.644032139107 0.0
0.0 4.706339101 0.64417077333 0.0
0.0 4.707690332 0.644319460547 0.0
0.0 4.709041564 0.644478169817 0.0
0.0 4.710392795 0.64466064694 0.0
0.0 4.711744027 0.644893473411 0.0
0.0 4.713095258 0.645136267244 0.0
0.0 4.71444649 0.645387278673 0.0
0.0 4.715797721 0.645645402139 0.0
0.0 4.717148952 0.645906763931 0.0
0.0 4.718500184 0.646174359351 0.0
0.0 4.719851415 0.646450413498 0.0
0.0 4.721202647 0.646673825238 0.0
0.0 4.722553878 0.646894137962 0.0
0.0 4.72390511 0.647116885211 0.0
0.0 4.725256341 0.647346185989 0.0
0.0 4.726607572 0.647582155846 0.0
0.0 4.727958804 0.647820020439 0.0
0.0 4.729310035 0.648060143383 0.0
0.0 4.730661267 0.648302617981 0.0
0.0 4.732012498 0.648551998375 0.0
0.0 4.73336373 0.648806016314 0.0
0.0 4.734714961 0.649426909435 0.0
0.0 4.736066193 0.649828151705 0.0
0.0 4.737417424 0.650085418673 0.0
0.0 4.738768655 0.650347390501 0.0
0.0 4.740119887 0.650610188146 0.0
0.0 4.741471118 0.650874015457 0.0
0.0 4.74282235 0.651137019505 0.0
0.0 4.744173581 0.651400388458 0.0
0.0 4.745524813 0.651665619829 0.0
0.0 4.746876044 0.651926915288 0.0
0.0 4.748227276 0.652183473651 0.0
0.0 4.749578507 0.652438624723 0.0
0.0 4.750929738 0.652693093715 0.0
0.0 4.75228097 0.652947873304 0.0
0.0 4.753632201 0.653197773912 0.0
0.0 4.754983433 0.653444005113 0.0
0.0 4.756334664 0.653690603561 0.0
0.0 4.757685896 0.653936638583 0.0
0.0 4.759037127 0.654180969095 0.0
0.0 4.760388358 0.654420559388 0.0
0.0 4.76173959 0.654660299715 0.0
0.0 4.763090821 0.654881878173 0.0
0.0 4.764442053 0.65509725017 0.0
0.0 4.765793284 0.65530866147 0.0
0.0 4.767144516 0.655513077575 0.0
0.0 4.768495747 0.655714983119 0.0
0.0 4.769846979 0.655916637921 0.0
0.0 4.77119821 0.656113842497 0.0
0.0 4.772549441 0.656306866727 0.0
0.0 4.773900673 0.656494687717 0.0
0.0 4.775251904 0.656682573465 0.0
0.0 4.776603136 0.656871643551 0.0
0.0 4.777954367 0.657057886153 0.0
0.0 4.779305599 0.657241539767 0.0
0.0 4.78065683 0.657418466523 0.0
0.0 4.782008061 0.657593991729 0.0
0.0 4.783359293 0.657772501051 0.0
0.0 4.784710524 0.657949414609 0.0
0.0 4.786061756 0.658125298224 0.0
0.0 4.787412987 0.658301541745 0.0
0.0 4.788764219 0.658482274624 0.0
0.0 4.79011545 0.658665856854 0.0
0.0 4.791466682 0.658850621075 0.0
0.0 4.792817913 0.659035500028 0.0
0.0 4.794169144 0.659222898375 0.0
0.0 4.795520376 0.659415860575 0.0
0.0 4.796871607 0.659611840403 0.0
0.0 4.798222839 0.659807669988 0.0
0.0 4.79957407 0.660006476848 0.0
0.0 4.800925302 0.660213941156 0.0
0.0 4.802276533 0.660430035024 0.0
0.0 4.803627764 0.660649899203 0.0
0.0 4.804978996 0.660871148138 0.0
0.0 4.806330227 0.661098417359 0.0
0.0 4.807681459 0.661333637772 0.0
0.0 4.80903269 0.66207601273 0.0
0.0 4.810383922 0.662321270937 0.0
0.0 4.811735153 0.662562781634 0.0
0.0 4.813086385 0.662812229044 0.0
0.0 4.814437616 0.663070811482 0.0
0.0 4.815788847 0.663336194173 0.0
0.0 4.817140079 0.66360452688 0.0
0.0 4.81849131 0.66387485727 0.0
0.0 4.819842542 0.664151858251 0.0
0.0 4.821193773 0.66444411636 0.0
0.0 4.822545005 0.664741633112 0.0
0.0 4.823896236 0.665040700671 0.0
0.0 4.825247468 0.665341582179 0.0
0.0 4.826598699 0.665649549824 0.0
0.0 4.82794993 0.665964525165 0.0
0.0 4.829301162 0.666282695546 0.0
0.0 4.830652393 0.666599853028 0.0
0.0 4.832003625 0.66691661007 0.0
0.0 4.833354856 0.66723977307 0.0
0.0 4.834706088 0.667567744977 0.0
0.0 4.836057319 0.667894991875 0.0
0.0 4.83740855 0.66821945451 0.0
0.0 4.838759782 0.6685419249 0.0
0.0 4.840111013 0.668865135064 0.0
0.0 4.841462245 0.669185706036 0.0
0.0 4.842813476 0.669499328544 0.0
0.0 4.844164708 0.669805720467 0.0
0.0 4.845515939 0.670106786889 0.0
0.0 4.846867171 0.670405344862 0.0
0.0 4.848218402 0.670699432448 0.0
0.0 4.849569633 0.670982624638 0.0
0.0 4.850920865 0.67126372705 0.0
0.0 4.852272096 0.671540581114 0.0
0.0 4.853623328 0.67181172944 0.0
0.0 4.854974559 0.672074927081 0.0
0.0 4.856325791 0.672323580378 0.0
0.0 4.857677022 0.672559654842 0.0
0.0 4.859028253 0.672784990502 0.0
0.0 4.860379485 0.673000675797 0.0
0.0 4.861730716 0.673203175412 0.0
0.0 4.863081948 0.673388377814 0.0
0.0 4.864433179 0.673558330787 0.0
0.0 4.865784411 0.673714558856 0.0
0.0 4.867135642 0.673857679277 0.0
0.0 4.868486874 0.673984344564 0.0
0.0 4.869838105 0.67409024802 0.0
0.0 4.871189336 0.674172904963 0.0
0.0 4.872540568 0.674239318881 0.0
0.0 4.873891799 0.674291227542 0.0
0.0 4.875243031 0.674325333367 0.0
0.0 4.876594262 0.674627478335 0.0
0.0 4.877945494 0.674821477973 0.0
0.0 4.879296725 0.674626279301 0.0
0.0 4.880647956 0.674413860337 0.0
0.0 4.881999188 0.674188203063 0.0
0.0 4.883350419 0.673945377983 0.0
0.0 4.884701651 0.673688925346 0.0
0.0 4.886052882 0.673421743733 0.0
0.0 4.887404114 0.673143710733 0.0
0.0 4.888755345 0.672850873306 0.0
0.0 4.890106577 0.672543558643 0.0
0.0 4.891457808 0.672222898244 0.0
0.0 4.892809039 0.671894821206 0.0
0.0 4.894160271 0.671558920245 0.0
0.0 4.895511502 0.671211120363 0.0
0.0 4.896862734 0.670852878664 0.0
0.0 4.898213965 0.670487202264 0.0
0.0 4.899565197 0.670118473772 0.0
0.0 4.900916428 0.669745973062 0.0
0.0 4.90226766 0.669366645828 0.0
0.0 4.903618891 0.66898280976 0.0
0.0 4.904970122 0.668598408312 0.0
0.0 4.906321354 0.668217239341 0.0
0.0 4.907672585 0.667838501354 0.0
0.0 4.909023817 0.667459115814 0.0
0.0 4.910375048 0.667080171366 0.0
0.0 4.91172628 0.666706977026 0.0
0.0 4.913077511 0.666340734559 0.0
0.0 4.914428742 0.665979468389 0.0
0.0 4.915779974 0.665619704237 0.0
0.0 4.917131205 0.665261245529 0.0
0.0 4.918482437 0.664908076597 0.0
0.0 4.919833668 0.664561874639 0.0
0.0 4.9211849 0.664216897244 0.0
0.0 4.922536131 0.66387220113 0.0
0.0 4.923887363 0.663528879036 0.0
0.0 4.925238594 0.663190230624 0.0
0.0 4.926589825 0.662857882457 0.0
0.0 4.927941057 0.662528920174 0.0
0.0 4.929292288 0.662199265716 0.0
0.0 4.93064352 0.66186866442 0.0
0.0 4.931994751 0.661539220196 0.0
0.0 4.933345983 0.661211825851 0.0
0.0 4.934697214 0.660880803635 0.0
0.0 4.936048445 0.660541786451 0.0
0.0 4.937399677 0.660190772284 0.0
0.0 4.938750908 0.659830181497 0.0
0.0 4.94010214 0.659458059592 0.0
0.0 4.941453371 0.659269104099 0.0
0.0 4.942804603 0.659097039351 0.0
0.0 4.944155834 0.65865687635 0.0
0.0 4.945507066 0.658191824429 0.0
0.0 4.946858297 0.657695414927 0.0
0.0 4.948209528 0.657165624233 0.0
0.0 4.94956076 0.656593591439 0.0
0.0 4.950911991 0.655975730009 0.0
0.0 4.952263223 0.655313864783 0.0
0.0 4.953614454 0.654599376388 0.0
0.0 4.954965686 0.653834328227 0.0
0.0 4.956316917 0.653001033873 0.0
0.0 4.957668148 0.652102923698 0.0
0.0 4.95901938 0.651134409514 0.0
0.0 4.960370611 0.650093340455 0.0
0.0 4.961721843 0.648977413018 0.0
0.0 4.963073074 0.647770157743 0.0
0.0 4.964424306 0.646479462815 0.0
0.0 4.965775537 0.645087783292 0.0
0.0 4.967126769 0.643607785994 0.0
0.0 4.968478 0.642024994403 0.0
0.0 4.969829231 0.64033612177 0.0
0.0 4.971180463 0.638546416544 0.0
0.0 4.972531694 0.636641051472 0.0
0.0 4.973882926 0.634636321657 0.0
0.0 4.975234157 0.632506255237 0.0
0.0 4.976585389 0.63026806768 0.0
0.0 4.97793662 0.627905499109 0.0
0.0 4.979287852 0.625428375054 0.0
0.0 4.980639083 0.622837624303 0.0
0.0 4.981990314 0.620126399081 0.0
0.0 4.983341546 0.61730787142 0.0
0.0 4.984692777 0.614361711866 0.0
0.0 4.986044009 0.611317991196 0.0
0.0 4.98739524 0.608160725087 0.0
0.0 4.988746472 0.604907674697 0.0
0.0 4.990097703 0.6015527961 0.0
0.0 4.991448934 0.59809875243 0.0
0.0 4.992800166 0.594559831486 0.0
0.0 4.994151397 0.590928591132 0.0
0.0 4.995502629 0.587232264398 0.0
0.0 4.99685386 0.583449966748 0.0
0.0 4.998205092 0.579606079438 0.0
0.0 4.999556323 0.57569550546 0.0
0.0 5.000907555 0.571762514753 0.0
0.0 5.002258786 0.567797624902 0.0
0.0 5.003610017 0.563785811405 0.0
0.0 5.004961249 0.559742763894 0.0
0.0 5.00631248 0.555659496519 0.0
0.0 5.007663712 0.55156531837 0.0
0.0 5.009014943 0.547730148102 0.0
0.0 5.010366175 0.543604506444 0.0
0.0 5.011717406 0.539471644933 0.0
0.0 5.013068637 0.535339535183 0.0
0.0 5.014419869 0.531217955658 0.0
0.0 5.0157711 0.527106320466 0.0
0.0 5.017122332 0.523018145665 0.0
0.0 5.018473563 0.51894478722 0.0
0.0 5.019824795 0.514903099564 0.0
0.0 5.021176026 0.510888360766 0.0
0.0 5.022527258 0.506912488329 0.0
0.0 5.023878489 0.502973386319 0.0
0.0 5.02522972 0.499073143808 0.0
0.0 5.026580952 0.495215615696 0.0
0.0 5.027932183 0.491398446311 0.0
0.0 5.029283415 0.487631948964 0.0
0.0 5.030634646 0.483906811713 0.0
0.0 5.031985878 0.480231863141 0.0
0.0 5.033337109 0.476597445255 0.0
0.0 5.034688341 0.473011423371 0.0
0.0 5.036039572 0.469471230279 0.0
0.0 5.037390803 0.465978528762 0.0
0.0 5.038742035 0.462532928449 0.0
0.0 5.040093266 0.459129585578 0.0
0.0 5.041444498 0.455775551085 0.0
0.0 5.042795729 0.452462504901 0.0
0.0 5.044146961 0.449202013315 0.0
0.0 5.045498192 0.445981184737 0.0
0.0 5.046849423 0.442807863783 0.0
0.0 5.048200655 0.439675222139 0.0
0.0 5.049551886 0.436587589741 0.0
0.0 5.050903118 0.433544046478 0.0
0.0 5.052254349 0.430541949733 0.0
0.0 5.053605581 0.427584976907 0.0
0.0 5.054956812 0.424664986952 0.0
0.0 5.056308044 0.421794173706 0.0
0.0 5.057659275 0.418961424243 0.0
0.0 5.059010506 0.416179195383 0.0
0.0 5.060361738 0.413436091078 0.0
0.0 5.061712969 0.410741297015 0.0
0.0 5.063064201 0.408093483059 0.0
0.0 5.064415432 0.405521651189 0.0
0.0 5.065766664 0.403000873264 0.0
0.0 5.067117895 0.400529130386 0.0
0.0 5.068469126 0.398115335177 0.0
0.0 5.069820358 0.395753540278 0.0
0.0 5.071171589 0.393458215768 0.0
0.0 5.072522821 0.391221909278 0.0
0.0 5.073874052 0.389056060422 0.0
0.0 5.075225284 0.386954652062 0.0
0.0 5.076576515 0.384925419119 0.0
0.0 5.077927747 0.383025480279 0.0
0.0 5.079278978 0.381144156205 0.0
0.0 5.080630209 0.379335404537 0.0
0.0 5.081981441 0.377602337 0.0
0.0 5.083332672 0.375950142983 0.0
0.0 5.084683904 0.374374875404 0.0
0.0 5.086035135 0.372883845386 0.0
0.0 5.087386367 0.37147214175 0.0
0.0 5.088737598 0.370144496605 0.0
0.0 5.090088829 0.368896992801 0.0
0.0 5.091440061 0.367732345884 0.0
0.0 5.092791292 0.366648461353 0.0
0.0 5.094142524 0.365645519284 0.0
0.0 5.095493755 0.36472211169 0.0
0.0 5.096844987 0.363876193208 0.0
0.0 5.098196218 0.36310729368 0.0
0.0 5.09954745 0.362412350503 0.0
