0.0 2.002074478 0.199473174059 0.0
0.0 2.00368257 0.199814377975 0.0
0.0 2.005290662 0.200154153567 0.0
0.0 2.006898754 0.200492502628 0.0
0.0 2.008506846 0.20082942695 0.0
0.0 2.010114938 0.20116492832 0.0
0.0 2.01172303 0.201499008531 0.0
0.0 2.013331122 0.201831669373 0.0
0.0 2.014939214 0.202162912637 0.0
0.0 2.016547306 0.202492740113 0.0
0.0 2.018155398 0.202821153593 0.0
0.0 2.01976349 0.203148154867 0.0
0.0 2.021371582 0.203473745725 0.0
0.0 2.022979674 0.203797927956 0.0
0.0 2.024587766 0.204120703356 0.0
0.0 2.026195858 0.204442073709 0.0
0.0 2.027803949 0.204762040612 0.0
0.0 2.029412041 0.205080606253 0.0
0.0 2.031020133 0.205397772221 0.0
0.0 2.032628225 0.205713540309 0.0
0.0 2.034236317 0.206027912306 0.0
0.0 2.035844409 0.206340890002 0.0
0.0 2.037452501 0.20665247519 0.0
0.0 2.039060593 0.20696266966 0.0
0.0 2.040668685 0.207271475201 0.0
0.0 2.042276777 0.207578893604 0.0
0.0 2.043884869 0.207884926661 0.0
0.0 2.045492961 0.208189576162 0.0
0.0 2.047101053 0.208492843898 0.0
0.0 2.048709145 0.208794731659 0.0
0.0 2.050317237 0.209095241235 0.0
0.0 2.051925329 0.209394374419 0.0
0.0 2.053533421 0.209692133001 0.0
0.0 2.055141513 0.20998851877 0.0
0.0 2.056749605 0.210283533517 0.0
0.0 2.058357697 0.210577179033 0.0
0.0 2.059965788 0.210869456928 0.0
0.0 2.06157388 0.211160369355 0.0
0.0 2.063181972 0.211449917924 0.0
0.0 2.064790064 0.211738104424 0.0
0.0 2.066398156 0.212024930646 0.0
0.0 2.068006248 0.212310398382 0.0
0.0 2.06961434 0.212594509421 0.0
0.0 2.071222432 0.212877265556 0.0
0.0 2.072830524 0.213158668575 0.0
0.0 2.074438616 0.213438720268 0.0
0.0 2.076046708 0.21371742243 0.0
0.0 2.0776548 0.213994776847 0.0
0.0 2.079262892 0.21427078531 0.0
0.0 2.080870984 0.214545449612 0.0
0.0 2.082479076 0.214818771544 0.0
0.0 2.084087168 0.215090752898 0.0
0.0 2.08569526 0.21536139546 0.0
0.0 2.087303352 0.215630701022 0.0
0.0 2.088911444 0.215898671375 0.0
0.0 2.090519536 0.216165308309 0.0
0.0 2.092127627 0.216430613452 0.0
0.0 2.093735719 0.216694588927 0.0
0.0 2.095343811 0.216957236351 0.0
0.0 2.096951903 0.217218557519 0.0
0.0 2.098559995 0.217478554228 0.0
0.0 2.100168087 0.217737228273 0.0
0.0 2.101776179 0.217994581408 0.0
0.0 2.103384271 0.218250615454 0.0
0.0 2.104992363 0.218505332204 0.0
0.0 2.106600455 0.218758733449 0.0
0.0 2.108208547 0.219010820994 0.0
0.0 2.109816639 0.219261596579 0.0
0.0 2.111424731 0.219511062012 0.0
0.0 2.113032823 0.219759219102 0.0
0.0 2.114640915 0.220006069704 0.0
0.0 2.116249007 0.220251615486 0.0
0.0 2.117857099 0.22049585832 0.0
0.0 2.119465191 0.220738799849 0.0
0.0 2.121073283 0.220980442078 0.0
0.0 2.122681375 0.221220786732 0.0
0.0 2.124289466 0.221459835435 0.0
0.0 2.125897558 0.221697590182 0.0
0.0 2.12750565 0.221934052687 0.0
0.0 2.129113742 0.222169224766 0.0
0.0 2.130721834 0.222403108211 0.0
0.0 2.132329926 0.222635704816 0.0
0.0 2.133938018 0.222867016297 0.0
0.0 2.13554611 0.223097044522 0.0
0.0 2.137154202 0.223325791265 0.0
0.0 2.138762294 0.223553258336 0.0
0.0 2.140370386 0.223779447483 0.0
0.0 2.141978478 0.224004360511 0.0
0.0 2.14358657 0.224227999178 0.0
0.0 2.145194662 0.22445036531 0.0
0.0 2.146802754 0.224671460713 0.0
0.0 2.148410846 0.22489128717 0.0
0.0 2.150018938 0.225109846438 0.0
0.0 2.15162703 0.225327140345 0.0
0.0 2.153235122 0.225543170682 0.0
0.0 2.154843214 0.225757939242 0.0
0.0 2.156451305 0.2259714477 0.0
0.0 2.158059397 0.226183697993 0.0
0.0 2.159667489 0.226394691885 0.0
0.0 2.161275581 0.226604431161 0.0
0.0 2.162883673 0.226812917611 0.0
0.0 2.164491765 0.227020153024 0.0
0.0 2.166099857 0.227226139155 0.0
0.0 2.167707949 0.227430877821 0.0
0.0 2.169316041 0.227634370792 0.0
0.0 2.170924133 0.227836619888 0.0
0.0 2.172532225 0.22803762691 0.0
0.0 2.174140317 0.228237393649 0.0
0.0 2.175748409 0.228435921821 0.0
0.0 2.177356501 0.228633213263 0.0
0.0 2.178964593 0.228829269796 0.0
0.0 2.180572685 0.229024093222 0.0
0.0 2.182180777 0.22921768538 0.0
0.0 2.183788869 0.22941004781 0.0
0.0 2.185396961 0.229601182502 0.0
0.0 2.187005053 0.229791091248 0.0
0.0 2.188613145 0.229979775826 0.0
0.0 2.190221236 0.230167237826 0.0
0.0 2.191829328 0.2303534793 0.0
0.0 2.19343742 0.230538501985 0.0
0.0 2.195045512 0.23072230766 0.0
0.0 2.196653604 0.230904898109 0.0
0.0 2.198261696 0.231086275118 0.0
0.0 2.199869788 0.231266440474 0.0
0.0 2.20147788 0.231445395948 0.0
0.0 2.203085972 0.231623143363 0.0
0.0 2.204694064 0.231799684501 0.0
0.0 2.206302156 0.231975021157 0.0
0.0 2.207910248 0.232149155305 0.0
0.0 2.20951834 0.232322088346 0.0
0.0 2.211126432 0.232493822263 0.0
0.0 2.212734524 0.232664358858 0.0
0.0 2.214342616 0.232833699974 0.0
0.0 2.215950708 0.233001847881 0.0
0.0 2.2175588 0.233168803034 0.0
0.0 2.219166892 0.233334568332 0.0
0.0 2.220774984 0.233499145162 0.0
0.0 2.222383075 0.233662535404 0.0
0.0 2.223991167 0.233824741321 0.0
0.0 2.225599259 0.233985764525 0.0
0.0 2.227207351 0.23414560753 0.0
0.0 2.228815443 0.234304268848 0.0
0.0 2.230423535 0.234461752512 0.0
0.0 2.232031627 0.234618061246 0.0
0.0 2.233639719 0.234773196565 0.0
0.0 2.235247811 0.234927159758 0.0
0.0 2.236855903 0.23507995201 0.0
0.0 2.238463995 0.235231575794 0.0
0.0 2.240072087 0.235382036019 0.0
0.0 2.241680179 0.235531334489 0.0
0.0 2.243288271 0.235679470953 0.0
0.0 2.244896363 0.235826445532 0.0
0.0 2.246504455 0.235972263445 0.0
0.0 2.248112547 0.236116927966 0.0
0.0 2.249720639 0.236260442174 0.0
0.0 2.251328731 0.236402807312 0.0
0.0 2.252936823 0.236544026728 0.0
0.0 2.254544914 0.236684103486 0.0
0.0 2.256153006 0.236823035015 0.0
0.0 2.257761098 0.236960829417 0.0
0.0 2.25936919 0.237097481156 0.0
0.0 2.260977282 0.237232996641 0.0
0.0 2.262585374 0.237367366368 0.0
0.0 2.264193466 0.237500575686 0.0
0.0 2.265801558 0.237632645432 0.0
0.0 2.26740965 0.237763588496 0.0
0.0 2.269017742 0.237893397215 0.0
0.0 2.270625834 0.238022060146 0.0
0.0 2.272233926 0.238149572869 0.0
0.0 2.273842018 0.238275953746 0.0
0.0 2.27545011 0.238401219562 0.0
0.0 2.277058202 0.23852536039 0.0
0.0 2.278666294 0.238648376435 0.0
0.0 2.280274386 0.238770270747 0.0
0.0 2.281882478 0.238891048382 0.0
0.0 2.28349057 0.239010711214 0.0
0.0 2.285098662 0.239129261842 0.0
0.0 2.286706753 0.239246707118 0.0
0.0 2.288314845 0.239363049582 0.0
0.0 2.289922937 0.239478291345 0.0
0.0 2.291531029 0.239592400955 0.0
0.0 2.293139121 0.239705410024 0.0
0.0 2.294747213 0.239817341984 0.0
0.0 2.296355305 0.239928210179 0.0
0.0 2.297963397 0.240037996946 0.0
0.0 2.299571489 0.240146660281 0.0
0.0 2.301179581 0.240254237129 0.0
0.0 2.302787673 0.240360776071 0.0
0.0 2.304395765 0.240466319131 0.0
0.0 2.306003857 0.240570831024 0.0
0.0 2.307611949 0.240674266652 0.0
0.0 2.309220041 0.240776672242 0.0
0.0 2.310828133 0.240878077834 0.0
0.0 2.312436225 0.240978484309 0.0
0.0 2.314044317 0.241077930541 0.0
0.0 2.315652409 0.241176475087 0.0
0.0 2.317260501 0.241274135229 0.0
0.0 2.318868592 0.241370916738 0.0
0.0 2.320476684 0.241466792363 0.0
0.0 2.322084776 0.241561766781 0.0
0.0 2.323692868 0.24165610783 0.0
0.0 2.32530096 0.24174980178 0.0
0.0 2.326909052 0.241842645588 0.0
0.0 2.328517144 0.241933633403 0.0
0.0 2.330125236 0.242023455903 0.0
0.0 2.331733328 0.242112498588 0.0
0.0 2.33334142 0.242201078022 0.0
0.0 2.334949512 0.2422886297 0.0
0.0 2.336557604 0.242374155753 0.0
0.0 2.338165696 0.242458044937 0.0
0.0 2.339773788 0.242540563093 0.0
0.0 2.34138188 0.242622761342 0.0
0.0 2.342989972 0.242703601199 0.0
0.0 2.344598064 0.242782957525 0.0
0.0 2.346206156 0.242860963451 0.0
0.0 2.347814248 0.242937844901 0.0
0.0 2.34942234 0.243012719414 0.0
0.0 2.351030431 0.243086445969 0.0
0.0 2.352638523 0.243159460019 0.0
0.0 2.354246615 0.243232603227 0.0
0.0 2.355854707 0.243304876758 0.0
0.0 2.357462799 0.243375550227 0.0
0.0 2.359070891 0.243444585712 0.0
0.0 2.360678983 0.243512837626 0.0
0.0 2.362287075 0.243581852351 0.0
0.0 2.363895167 0.243650320213 0.0
0.0 2.365503259 0.243717314476 0.0
0.0 2.367111351 0.243780884615 0.0
0.0 2.368719443 0.243843321977 0.0
0.0 2.370327535 0.243904379962 0.0
0.0 2.371935627 0.243964069592 0.0
0.0 2.373543719 0.244022583787 0.0
0.0 2.375151811 0.244077259374 0.0
0.0 2.376759903 0.244130555438 0.0
0.0 2.378367995 0.244183064826 0.0
0.0 2.379976087 0.244233287955 0.0
0.0 2.381584179 0.244283502415 0.0
0.0 2.383192271 0.244334087614 0.0
0.0 2.384800362 0.244385079278 0.0
0.0 2.386408454 0.244435300064 0.0
0.0 2.388016546 0.24448311259 0.0
0.0 2.389624638 0.244529905229 0.0
0.0 2.39123273 0.244576508372 0.0
0.0 2.392840822 0.244623956934 0.0
0.0 2.394448914 0.244670609699 0.0
0.0 2.396057006 0.244715368834 0.0
0.0 2.397665098 0.244757476157 0.0
0.0 2.39927319 0.244800465994 0.0
0.0 2.400881282 0.244843132326 0.0
0.0 2.402489374 0.244885430361 0.0
0.0 2.404097466 0.244927068641 0.0
0.0 2.405705558 0.244967075882 0.0
0.0 2.40731365 0.245005587781 0.0
0.0 2.408921742 0.245043201376 0.0
0.0 2.410529834 0.245078822003 0.0
0.0 2.412137926 0.245114944423 0.0
0.0 2.413746018 0.245151067521 0.0
0.0 2.41535411 0.245184891011 0.0
0.0 2.416962201 0.245217837121 0.0
0.0 2.418570293 0.245249245087 0.0
0.0 2.420178385 0.245279681222 0.0
0.0 2.421786477 0.245309762037 0.0
0.0 2.423394569 0.24533896471 0.0
0.0 2.425002661 0.245367355669 0.0
0.0 2.426610753 0.245395555465 0.0
0.0 2.428218845 0.245421439061 0.0
0.0 2.429826937 0.245446159156 0.0
0.0 2.431435029 0.245470413948 0.0
0.0 2.433043121 0.245493900396 0.0
0.0 2.434651213 0.245516720593 0.0
0.0 2.436259305 0.245540098258 0.0
0.0 2.437867397 0.245559612474 0.0
0.0 2.439475489 0.245579113333 0.0
0.0 2.441083581 0.245597951095 0.0
0.0 2.442691673 0.245615720454 0.0
0.0 2.444299765 0.245632595658 0.0
0.0 2.445907857 0.245648597373 0.0
0.0 2.447515949 0.245663548496 0.0
0.0 2.44912404 0.245677664329 0.0
0.0 2.450732132 0.245689945151 0.0
0.0 2.452340224 0.245701430296 0.0
0.0 2.453948316 0.245712573435 0.0
0.0 2.455556408 0.245722860151 0.0
0.0 2.4571645 0.24573225765 0.0
0.0 2.458772592 0.245740907746 0.0
0.0 2.460380684 0.245748462957 0.0
0.0 2.461988776 0.245754975425 0.0
0.0 2.463596868 0.2457606753 0.0
0.0 2.46520496 0.245765581202 0.0
0.0 2.466813052 0.245769857714 0.0
0.0 2.468421144 0.245774608478 0.0
0.0 2.470029236 0.245777242082 0.0
0.0 2.471637328 0.245777911357 0.0
0.0 2.47324542 0.245777947655 0.0
0.0 2.474853512 0.245777314504 0.0
0.0 2.476461604 0.245775927922 0.0
0.0 2.478069696 0.245773857111 0.0
0.0 2.479677788 0.245770345374 0.0
0.0 2.481285879 0.24576606876 0.0
0.0 2.482893971 0.245761131556 0.0
0.0 2.484502063 0.245754237983 0.0
0.0 2.486110155 0.245746851741 0.0
0.0 2.487718247 0.245738739056 0.0
0.0 2.489326339 0.245729885881 0.0
0.0 2.490934431 0.245720362506 0.0
0.0 2.492542523 0.245711045243 0.0
0.0 2.494150615 0.245698402576 0.0
0.0 2.495758707 0.245685379365 0.0
0.0 2.497366799 0.245671754427 0.0
0.0 2.498974891 0.245658087403 0.0
0.0 2.499778162 0.245656575763 0.0
0.0 2.501129393 0.245641957576 0.0
0.0 2.502480624 0.245626852816 0.0
0.0 2.503831856 0.245613655135 0.0
0.0 2.505183087 0.245596400478 0.0
0.0 2.506534319 0.245581741403 0.0
0.0 2.50788555 0.245566233059 0.0
0.0 2.509236782 0.245548726458 0.0
0.0 2.510588013 0.245530403473 0.0
0.0 2.511939244 0.245513652191 0.0
0.0 2.513290476 0.245497442473 0.0
0.0 2.514641707 0.245481615659 0.0
0.0 2.515992939 0.245458330725 0.0
0.0 2.51734417 0.245438129497 0.0
0.0 2.518695402 0.245415450682 0.0
0.0 2.520046633 0.245395945997 0.0
0.0 2.521397865 0.245372840228 0.0
0.0 2.522749096 0.245350832744 0.0
0.0 2.524100327 0.245327706486 0.0
0.0 2.525451559 0.245303189254 0.0
0.0 2.52680279 0.245279367164 0.0
0.0 2.528154022 0.245257162261 0.0
0.0 2.529505253 0.245229396363 0.0
0.0 2.530856485 0.245204117446 0.0
0.0 2.532207716 0.245174584355 0.0
0.0 2.533558948 0.245146057309 0.0
0.0 2.534910179 0.24511887581 0.0
0.0 2.53626141 0.245091489952 0.0
0.0 2.537612642 0.245062859264 0.0
0.0 2.538963873 0.245035434739 0.0
0.0 2.540315105 0.245005210924 0.0
0.0 2.541666336 0.244974142304 0.0
0.0 2.543017568 0.244944176887 0.0
0.0 2.544368799 0.244909071456 0.0
0.0 2.54572003 0.244875591284 0.0
0.0 2.547071262 0.244841598807 0.0
0.0 2.548422493 0.244805563811 0.0
0.0 2.549773725 0.244773102688 0.0
0.0 2.551124956 0.244736364487 0.0
0.0 2.552476188 0.244700488741 0.0
0.0 2.553827419 0.244666279475 0.0
0.0 2.555178651 0.24463448405 0.0
0.0 2.556529882 0.244594004527 0.0
0.0 2.557881113 0.244557607864 0.0
0.0 2.559232345 0.244517727274 0.0
0.0 2.560583576 0.24448173593 0.0
0.0 2.561934808 0.24444220165 0.0
0.0 2.563286039 0.244398528271 0.0
0.0 2.564637271 0.244356126068 0.0
0.0 2.565988502 0.24431686428 0.0
0.0 2.567339733 0.244278268414 0.0
0.0 2.568690965 0.244232678749 0.0
0.0 2.570042196 0.244189496035 0.0
0.0 2.571393428 0.244148137156 0.0
0.0 2.572744659 0.244103046022 0.0
0.0 2.574095891 0.244054043096 0.0
0.0 2.575447122 0.244010569651 0.0
0.0 2.576798354 0.243970935855 0.0
0.0 2.578149585 0.24391968318 0.0
0.0 2.579500816 0.243870424524 0.0
0.0 2.580852048 0.243823307231 0.0
0.0 2.582203279 0.243776818041 0.0
0.0 2.583554511 0.243731844896 0.0
0.0 2.584905742 0.243683069004 0.0
0.0 2.586256974 0.243629108719 0.0
0.0 2.587608205 0.243581795722 0.0
0.0 2.588959437 0.243527539641 0.0
0.0 2.590310668 0.243478231913 0.0
0.0 2.591661899 0.243424109183 0.0
0.0 2.593013131 0.243371315825 0.0
0.0 2.594364362 0.243319984775 0.0
0.0 2.595715594 0.243269241009 0.0
0.0 2.597066825 0.243211885567 0.0
0.0 2.598418057 0.243160998868 0.0
0.0 2.599769288 0.243108014975 0.0
0.0 2.601120519 0.243048705829 0.0
0.0 2.602471751 0.242992075637 0.0
0.0 2.603822982 0.242932240598 0.0
0.0 2.605174214 0.242876689027 0.0
0.0 2.606525445 0.242820118536 0.0
0.0 2.607876677 0.242757867607 0.0
0.0 2.609227908 0.242698086605 0.0
0.0 2.61057914 0.242639628726 0.0
0.0 2.611930371 0.242579782385 0.0
0.0 2.613281602 0.242526844009 0.0
0.0 2.614632834 0.242469022124 0.0
0.0 2.615984065 0.242404277264 0.0
0.0 2.617335297 0.242342012646 0.0
0.0 2.618686528 0.242274723639 0.0
0.0 2.62003776 0.242207943924 0.0
0.0 2.621388991 0.242144234493 0.0
0.0 2.622740222 0.242080101904 0.0
0.0 2.624091454 0.24201643099 0.0
0.0 2.625442685 0.241955206237 0.0
0.0 2.626793917 0.241887188281 0.0
0.0 2.628145148 0.241820272809 0.0
0.0 2.62949638 0.241753737268 0.0
0.0 2.630847611 0.241686720694 0.0
0.0 2.632198843 0.241619864676 0.0
0.0 2.633550074 0.241548556247 0.0
0.0 2.634901305 0.241479231461 0.0
0.0 2.636252537 0.241411587554 0.0
0.0 2.637603768 0.241343385313 0.0
0.0 2.638955 0.24127111212 0.0
0.0 2.640306231 0.241203027255 0.0
0.0 2.641657463 0.241130900545 0.0
0.0 2.643008694 0.241057082393 0.0
0.0 2.644359925 0.240984483275 0.0
0.0 2.645711157 0.240914252739 0.0
0.0 2.647062388 0.24084026828 0.0
0.0 2.64841362 0.240769919481 0.0
0.0 2.649764851 0.240697191382 0.0
0.0 2.651116083 0.240616121159 0.0
0.0 2.652467314 0.240541833565 0.0
0.0 2.653818546 0.240464582502 0.0
0.0 2.655169777 0.240387187663 0.0
0.0 2.656521008 0.240311485092 0.0
0.0 2.65787224 0.240233267731 0.0
0.0 2.659223471 0.240154112642 0.0
0.0 2.660574703 0.240079006938 0.0
0.0 2.661925934 0.239996739852 0.0
0.0 2.663277166 0.239917103973 0.0
0.0 2.664628397 0.239837371413 0.0
0.0 2.665979629 0.239758134283 0.0
0.0 2.66733086 0.239678232287 0.0
0.0 2.668682091 0.23959797549 0.0
0.0 2.670033323 0.239512993372 0.0
0.0 2.671384554 0.239430709997 0.0
0.0 2.672735786 0.239350047269 0.0
0.0 2.674087017 0.239267319313 0.0
0.0 2.675438249 0.239183678208 0.0
0.0 2.67678948 0.239098449491 0.0
0.0 2.678140711 0.239013916862 0.0
0.0 2.679491943 0.238927384183 0.0
0.0 2.680843174 0.238844348692 0.0
0.0 2.682194406 0.238758186692 0.0
0.0 2.683545637 0.238670269167 0.0
0.0 2.684896869 0.238583474205 0.0
0.0 2.6862481 0.238497923298 0.0
0.0 2.687599332 0.238406389167 0.0
0.0 2.688950563 0.238317367514 0.0
0.0 2.690301794 0.238228410571 0.0
0.0 2.691653026 0.238138984915 0.0
0.0 2.693004257 0.238049153891 0.0
0.0 2.694355489 0.2379617876 0.0
0.0 2.69570672 0.237870579167 0.0
0.0 2.697057952 0.237778603324 0.0
0.0 2.698409183 0.237687853919 0.0
0.0 2.699760414 0.237595367349 0.0
0.0 2.701111646 0.237501012972 0.0
0.0 2.702462877 0.2374078104 0.0
0.0 2.703814109 0.237316678115 0.0
0.0 2.70516534 0.237221010883 0.0
0.0 2.706516572 0.237126036285 0.0
0.0 2.707867803 0.237030881005 0.0
0.0 2.709219035 0.236934361795 0.0
0.0 2.710570266 0.236838413038 0.0
0.0 2.711921497 0.236742106168 0.0
0.0 2.713272729 0.236645386772 0.0
0.0 2.71462396 0.236548080116 0.0
0.0 2.715975192 0.236450875797 0.0
0.0 2.717326423 0.236353782528 0.0
0.0 2.718677655 0.236255761788 0.0
0.0 2.720028886 0.236156022947 0.0
0.0 2.721380117 0.236058038366 0.0
0.0 2.722731349 0.235960418961 0.0
0.0 2.72408258 0.23585711389 0.0
0.0 2.725433812 0.23575506085 0.0
0.0 2.726785043 0.235653326445 0.0
0.0 2.728136275 0.235552501285 0.0
0.0 2.729487506 0.235450030054 0.0
0.0 2.730838738 0.23534790546 0.0
0.0 2.732189969 0.235246875721 0.0
0.0 2.7335412 0.23514188318 0.0
0.0 2.734892432 0.235036297668 0.0
0.0 2.736243663 0.234931981903 0.0
0.0 2.737594895 0.234827334558 0.0
0.0 2.738946126 0.234722431073 0.0
0.0 2.740297358 0.234618469938 0.0
0.0 2.741648589 0.234510486848 0.0
0.0 2.742999821 0.234404223331 0.0
0.0 2.744351052 0.234297164236 0.0
0.0 2.745702283 0.234189938534 0.0
0.0 2.747053515 0.234085335926 0.0
0.0 2.748404746 0.233976564559 0.0
0.0 2.749755978 0.233868331837 0.0
0.0 2.751107209 0.233762616548 0.0
0.0 2.752458441 0.233649196078 0.0
0.0 2.753809672 0.233537179046 0.0
0.0 2.755160903 0.23342864487 0.0
0.0 2.756512135 0.23331927809 0.0
0.0 2.757863366 0.233208420236 0.0
0.0 2.759214598 0.233097219368 0.0
0.0 2.760565829 0.232986186683 0.0
0.0 2.761917061 0.23287401376 0.0
0.0 2.763268292 0.232758481994 0.0
0.0 2.764619524 0.232645076641 0.0
0.0 2.765970755 0.232529941068 0.0
0.0 2.767321986 0.23241680306 0.0
0.0 2.768673218 0.232304072827 0.0
0.0 2.770024449 0.2321900416 0.0
0.0 2.771375681 0.232071630949 0.0
0.0 2.772726912 0.231956001352 0.0
0.0 2.774078144 0.231840713481 0.0
0.0 2.775429375 0.231724171609 0.0
0.0 2.776780606 0.231608328495 0.0
0.0 2.778131838 0.231493633989 0.0
0.0 2.779483069 0.231374954534 0.0
0.0 2.780834301 0.231256925538 0.0
0.0 2.782185532 0.231145121571 0.0
0.0 2.783536764 0.231026999375 0.0
0.0 2.784887995 0.230903873541 0.0
0.0 2.786239227 0.230782935718 0.0
0.0 2.787590458 0.230660007426 0.0
0.0 2.788941689 0.230540387053 0.0
0.0 2.790292921 0.230418867306 0.0
0.0 2.791644152 0.230296334999 0.0
0.0 2.792995384 0.230176085559 0.0
0.0 2.794346615 0.230054489319 0.0
0.0 2.795697847 0.229930197815 0.0
0.0 2.797049078 0.229807161627 0.0
0.0 2.798400309 0.229684196971 0.0
0.0 2.799751541 0.229562771771 0.0
0.0 2.801102772 0.229438802689 0.0
0.0 2.802454004 0.229312496405 0.0
0.0 2.803805235 0.229187928208 0.0
0.0 2.805156467 0.229063999164 0.0
0.0 2.806507698 0.228937583675 0.0
0.0 2.80785893 0.228811743585 0.0
0.0 2.809210161 0.228685612208 0.0
0.0 2.810561392 0.228560599419 0.0
0.0 2.811912624 0.228433587375 0.0
0.0 2.813263855 0.228305550985 0.0
0.0 2.814615087 0.228177603657 0.0
0.0 2.815966318 0.228049348942 0.0
0.0 2.81731755 0.22792124926 0.0
0.0 2.818668781 0.227792352505 0.0
0.0 2.820020013 0.227663144721 0.0
0.0 2.821371244 0.227535043877 0.0
0.0 2.822722475 0.227404026226 0.0
0.0 2.824073707 0.227273651791 0.0
0.0 2.825424938 0.22714575561 0.0
0.0 2.82677617 0.227012323215 0.0
0.0 2.828127401 0.226881767263 0.0
0.0 2.829478633 0.226749320095 0.0
0.0 2.830829864 0.226619872543 0.0
0.0 2.832181095 0.226485656226 0.0
0.0 2.833532327 0.226352698044 0.0
0.0 2.834883558 0.226219719559 0.0
0.0 2.83623479 0.22608579554 0.0
0.0 2.837586021 0.225951884595 0.0
0.0 2.838937253 0.225818358621 0.0
0.0 2.840288484 0.225683413076 0.0
0.0 2.841639716 0.225548352722 0.0
0.0 2.842990947 0.225413346559 0.0
0.0 2.844342178 0.225279108124 0.0
0.0 2.84569341 0.225141873722 0.0
0.0 2.847044641 0.225005996337 0.0
0.0 2.848395873 0.22486891842 0.0
0.0 2.849747104 0.224731994287 0.0
0.0 2.851098336 0.224594726759 0.0
0.0 2.852449567 0.2244571171 0.0
0.0 2.853800798 0.224319172888 0.0
0.0 2.85515203 0.224180883077 0.0
0.0 2.856503261 0.224046333263 0.0
0.0 2.857854493 0.223905860215 0.0
0.0 2.859205724 0.223764398902 0.0
0.0 2.860556956 0.223624333006 0.0
0.0 2.861908187 0.223484357243 0.0
0.0 2.863259419 0.223344075913 0.0
0.0 2.86461065 0.223203517632 0.0
0.0 2.865961881 0.223063165635 0.0
0.0 2.867313113 0.22292112703 0.0
0.0 2.868664344 0.22277949348 0.0
0.0 2.870015576 0.22263847686 0.0
0.0 2.871366807 0.222497843301 0.0
0.0 2.872718039 0.222354473203 0.0
0.0 2.87406927 0.222210041862 0.0
0.0 2.875420501 0.222066420483 0.0
0.0 2.876771733 0.221923271273 0.0
0.0 2.878122964 0.221778949463 0.0
0.0 2.879474196 0.221635173797 0.0
0.0 2.880825427 0.221491684421 0.0
0.0 2.882176659 0.221345321144 0.0
0.0 2.88352789 0.221202680967 0.0
0.0 2.884879122 0.221056830433 0.0
0.0 2.886230353 0.220910907195 0.0
0.0 2.887581584 0.220762622495 0.0
0.0 2.888932816 0.220616464431 0.0
0.0 2.890284047 0.220472501458 0.0
0.0 2.891635279 0.220324122416 0.0
0.0 2.89298651 0.220175723031 0.0
0.0 2.894337742 0.220030760582 0.0
0.0 2.895688973 0.219882331487 0.0
0.0 2.897040205 0.219730965764 0.0
0.0 2.898391436 0.219582968124 0.0
0.0 2.899742667 0.219434651728 0.0
0.0 2.901093899 0.219284839062 0.0
0.0 2.90244513 0.219138245228 0.0
0.0 2.903796362 0.218986775062 0.0
0.0 2.905147593 0.21883472679 0.0
0.0 2.906498825 0.218684296275 0.0
0.0 2.907850056 0.218533569875 0.0
0.0 2.909201287 0.218382880555 0.0
0.0 2.910552519 0.218234292832 0.0
0.0 2.91190375 0.218080645316 0.0
0.0 2.913254982 0.217928898267 0.0
0.0 2.914606213 0.217776335465 0.0
0.0 2.915957445 0.217622998484 0.0
0.0 2.917308676 0.217470247979 0.0
0.0 2.918659908 0.217317712918 0.0
0.0 2.920011139 0.217164512165 0.0
0.0 2.92136237 0.217010195908 0.0
0.0 2.922713602 0.216859828049 0.0
0.0 2.924064833 0.216705066356 0.0
0.0 2.925416065 0.21655047589 0.0
0.0 2.926767296 0.216395580708 0.0
0.0 2.928118528 0.216239472665 0.0
0.0 2.929469759 0.216082695634 0.0
0.0 2.93082099 0.215929923936 0.0
0.0 2.932172222 0.215774069393 0.0
0.0 2.933523453 0.215616024713 0.0
0.0 2.934874685 0.215459911172 0.0
0.0 2.936225916 0.215303629294 0.0
0.0 2.937577148 0.215144594636 0.0
0.0 2.938928379 0.214987300168 0.0
0.0 2.940279611 0.214830227163 0.0
0.0 2.941630842 0.214671980266 0.0
0.0 2.942982073 0.214515326083 0.0
0.0 2.944333305 0.214360213112 0.0
0.0 2.945684536 0.214197184424 0.0
0.0 2.947035768 0.214037354933 0.0
0.0 2.948386999 0.213879182024 0.0
0.0 2.949738231 0.213721278588 0.0
0.0 2.951089462 0.21356243159 0.0
0.0 2.952440694 0.213401081623 0.0
0.0 2.953791925 0.213240104323 0.0
0.0 2.955143156 0.213079101896 0.0
0.0 2.956494388 0.21291786034 0.0
0.0 2.957845619 0.212757680241 0.0
0.0 2.959196851 0.212598566034 0.0
0.0 2.960548082 0.212439307508 0.0
0.0 2.961899314 0.212274080333 0.0
0.0 2.963250545 0.212109917007 0.0
0.0 2.964601776 0.211947893606 0.0
0.0 2.965953008 0.211785597525 0.0
0.0 2.967304239 0.211622935617 0.0
0.0 2.968655471 0.211460521629 0.0
0.0 2.970006702 0.211296880525 0.0
0.0 2.971357934 0.211134511055 0.0
0.0 2.972709165 0.210969356461 0.0
0.0 2.974060397 0.210804221708 0.0
0.0 2.975411628 0.210640690739 0.0
0.0 2.976762859 0.210477085794 0.0
0.0 2.978114091 0.210311466984 0.0
0.0 2.979465322 0.210146258351 0.0
0.0 2.980816554 0.209980534372 0.0
0.0 2.982167785 0.209816144893 0.0
0.0 2.983519017 0.209649762468 0.0
0.0 2.984870248 0.209484711644 0.0
0.0 2.986221479 0.209321490566 0.0
0.0 2.987572711 0.20915206218 0.0
0.0 2.988923942 0.20898602117 0.0
0.0 2.990275174 0.208819060616 0.0
0.0 2.991626405 0.20865106963 0.0
0.0 2.992977637 0.20848515894 0.0
0.0 2.994328868 0.208317454712 0.0
0.0 2.9956801 0.208148345108 0.0
0.0 2.997031331 0.207982478129 0.0
0.0 2.998382562 0.207814189994 0.0
0.0 2.999733794 0.207646044119 0.0
0.0 3.001085025 0.207474554154 0.0
0.0 3.002436257 0.207305315993 0.0
0.0 3.003787488 0.207135613088 0.0
0.0 3.00513872 0.206967594465 0.0
0.0 3.006489951 0.206798645971 0.0
0.0 3.007841182 0.206629365152 0.0
0.0 3.009192414 0.206459929777 0.0
0.0 3.010543645 0.206289514957 0.0
0.0 3.011894877 0.206117049599 0.0
0.0 3.013246108 0.205946054238 0.0
0.0 3.01459734 0.205775072757 0.0
0.0 3.015948571 0.205605241561 0.0
0.0 3.017299803 0.205435355416 0.0
0.0 3.018651034 0.205264258327 0.0
0.0 3.020002265 0.205088642017 0.0
0.0 3.021353497 0.204915750967 0.0
0.0 3.022704728 0.204743544667 0.0
0.0 3.02405596 0.204572316427 0.0
0.0 3.025407191 0.204399959681 0.0
0.0 3.026758423 0.204225180312 0.0
0.0 3.028109654 0.204052685534 0.0
0.0 3.029460886 0.203878618092 0.0
0.0 3.030812117 0.203705933943 0.0
0.0 3.032163348 0.203534730293 0.0
0.0 3.03351458 0.203360481267 0.0
0.0 3.034865811 0.203184485812 0.0
0.0 3.036217043 0.20301071208 0.0
0.0 3.037568274 0.202836749831 0.0
0.0 3.038919506 0.202662825826 0.0
0.0 3.040270737 0.202488264676 0.0
0.0 3.041621968 0.202312673271 0.0
0.0 3.0429732 0.202138133135 0.0
0.0 3.044324431 0.201964731654 0.0
0.0 3.045675663 0.201788599193 0.0
0.0 3.047026894 0.201609973977 0.0
0.0 3.048378126 0.201434391371 0.0
0.0 3.049729357 0.201258460929 0.0
0.0 3.051080589 0.201082625609 0.0
0.0 3.05243182 0.200906429358 0.0
0.0 3.053783051 0.200728245929 0.0
0.0 3.055134283 0.200551867543 0.0
0.0 3.056485514 0.200372738938 0.0
0.0 3.057836746 0.200195110779 0.0
0.0 3.059187977 0.200017655439 0.0
0.0 3.060539209 0.199840021512 0.0
0.0 3.06189044 0.199663880199 0.0
0.0 3.063241671 0.199487143569 0.0
0.0 3.064592903 0.199307703706 0.0
0.0 3.065944134 0.199128475298 0.0
0.0 3.067295366 0.19894923183 0.0
0.0 3.068646597 0.198770984899 0.0
0.0 3.069997829 0.198591840804 0.0
0.0 3.07134906 0.198414469134 0.0
0.0 3.072700292 0.198235931916 0.0
0.0 3.074051523 0.198057176929 0.0
0.0 3.075402754 0.197878060933 0.0
0.0 3.076753986 0.197698921003 0.0
0.0 3.078105217 0.197518303299 0.0
0.0 3.079456449 0.197340888851 0.0
0.0 3.08080768 0.1971644982 0.0
0.0 3.082158912 0.196986596014 0.0
0.0 3.083510143 0.196803979582 0.0
0.0 3.084861374 0.196623223015 0.0
0.0 3.086212606 0.196441978804 0.0
0.0 3.087563837 0.196261097252 0.0
0.0 3.088915069 0.196084297167 0.0
0.0 3.0902663 0.195906656131 0.0
0.0 3.091617532 0.195725907476 0.0
0.0 3.092968763 0.195547977023 0.0
0.0 3.094319995 0.195375335073 0.0
0.0 3.095671226 0.195205760226 0.0
0.0 3.097022457 0.195032164966 0.0
0.0 3.098373689 0.194851976317 0.0
0.0 3.09972492 0.194662841021 0.0
0.0 3.101076152 0.194476202041 0.0
0.0 3.102427383 0.194301987464 0.0
0.0 3.103778615 0.194129994418 0.0
0.0 3.105129846 0.193945189693 0.0
0.0 3.106481078 0.193756394189 0.0
0.0 3.107832309 0.193567225041 0.0
0.0 3.10918354 0.193376118714 0.0
0.0 3.110534772 0.193184787705 0.0
0.0 3.111886003 0.192999397805 0.0
0.0 3.113237235 0.192818509155 0.0
0.0 3.114588466 0.192638159338 0.0
0.0 3.115939698 0.192454236209 0.0
0.0 3.117290929 0.192266961921 0.0
0.0 3.11864216 0.192076056923 0.0
0.0 3.119993392 0.191888938757 0.0
0.0 3.121344623 0.191710576123 0.0
0.0 3.122695855 0.191530595576 0.0
0.0 3.124047086 0.19134687238 0.0
0.0 3.125398318 0.191160832591 0.0
0.0 3.126749549 0.190975318849 0.0
0.0 3.128100781 0.190792674068 0.0
0.0 3.129452012 0.190613829217 0.0
0.0 3.130803243 0.1904324685 0.0
0.0 3.132154475 0.190247514455 0.0
0.0 3.133505706 0.190064120812 0.0
0.0 3.134856938 0.189873649475 0.0
0.0 3.136208169 0.189677634975 0.0
0.0 3.137559401 0.189489870391 0.0
0.0 3.138910632 0.189310691595 0.0
0.0 3.140261863 0.189127637712 0.0
0.0 3.141613095 0.188939900774 0.0
0.0 3.142964326 0.188748860237 0.0
0.0 3.144315558 0.18855447232 0.0
0.0 3.145666789 0.18836125356 0.0
0.0 3.147018021 0.188170687283 0.0
0.0 3.148369252 0.187978204846 0.0
0.0 3.149720484 0.187785760483 0.0
0.0 3.151071715 0.187598155197 0.0
0.0 3.152422946 0.187412892221 0.0
0.0 3.153774178 0.187225825644 0.0
0.0 3.155125409 0.187036752815 0.0
0.0 3.156476641 0.18684750487 0.0
0.0 3.157827872 0.186658591665 0.0
0.0 3.159179104 0.186471100502 0.0
0.0 3.160530335 0.186284029128 0.0
0.0 3.161881566 0.186096453083 0.0
0.0 3.163232798 0.185906194231 0.0
0.0 3.164584029 0.185716111848 0.0
0.0 3.165935261 0.185527892935 0.0
0.0 3.167286492 0.185338325461 0.0
0.0 3.168637724 0.185147174558 0.0
0.0 3.169988955 0.184961461175 0.0
0.0 3.171340187 0.184773928442 0.0
0.0 3.172691418 0.184582346437 0.0
0.0 3.174042649 0.184392713439 0.0
0.0 3.175393881 0.184202311267 0.0
0.0 3.176745112 0.184012253354 0.0
0.0 3.178096344 0.183825935084 0.0
0.0 3.179447575 0.183639165204 0.0
0.0 3.180798807 0.183451395355 0.0
0.0 3.182150038 0.183260387966 0.0
0.0 3.18350127 0.18306860285 0.0
0.0 3.184852501 0.182880336317 0.0
0.0 3.186203732 0.182694217944 0.0
0.0 3.187554964 0.182503290693 0.0
0.0 3.188906195 0.182311109527 0.0
0.0 3.190257427 0.182123980868 0.0
0.0 3.191608658 0.181939786967 0.0
0.0 3.19295989 0.181748471483 0.0
0.0 3.194311121 0.181554063952 0.0
0.0 3.195662352 0.181364472936 0.0
0.0 3.197013584 0.181173712443 0.0
0.0 3.198364815 0.180981302021 0.0
0.0 3.199716047 0.180788442397 0.0
0.0 3.201067278 0.180597713644 0.0
0.0 3.20241851 0.180407236536 0.0
0.0 3.203769741 0.1802176674 0.0
0.0 3.205120973 0.180030948843 0.0
0.0 3.206472204 0.179838700925 0.0
0.0 3.207823435 0.17964495224 0.0
0.0 3.209174667 0.17945427928 0.0
0.0 3.210525898 0.179264265369 0.0
0.0 3.21187713 0.179073614996 0.0
0.0 3.213228361 0.17888188932 0.0
0.0 3.214579593 0.178691834385 0.0
0.0 3.215930824 0.178502458863 0.0
0.0 3.217282055 0.178310076333 0.0
0.0 3.218633287 0.178117155982 0.0
0.0 3.219984518 0.17792577462 0.0
0.0 3.22133575 0.177735949903 0.0
0.0 3.222686981 0.177546817454 0.0
0.0 3.224038213 0.177353746614 0.0
0.0 3.225389444 0.177163420531 0.0
0.0 3.226740676 0.176973073297 0.0
0.0 3.228091907 0.176782012402 0.0
0.0 3.229443138 0.176592966125 0.0
0.0 3.23079437 0.176402438972 0.0
0.0 3.232145601 0.176212791837 0.0
0.0 3.233496833 0.176019736537 0.0
0.0 3.234848064 0.17582297077 0.0
0.0 3.236199296 0.175628926357 0.0
0.0 3.237550527 0.17543593194 0.0
0.0 3.238901759 0.175244927616 0.0
0.0 3.24025299 0.175053864831 0.0
0.0 3.241604221 0.174864481784 0.0
0.0 3.242955453 0.174674389643 0.0
0.0 3.244306684 0.17448285977 0.0
0.0 3.245657916 0.174287943829 0.0
0.0 3.247009147 0.174090226238 0.0
0.0 3.248360379 0.17389863497 0.0
0.0 3.24971161 0.173706903054 0.0
0.0 3.251062841 0.173513056846 0.0
0.0 3.252414073 0.173320338196 0.0
0.0 3.253765304 0.17313161943 0.0
0.0 3.255116536 0.172943917579 0.0
0.0 3.256467767 0.172751684795 0.0
0.0 3.257818999 0.172559015625 0.0
0.0 3.25917023 0.172364847061 0.0
0.0 3.260521462 0.172171906595 0.0
0.0 3.261872693 0.171977942723 0.0
0.0 3.263223924 0.171783739663 0.0
0.0 3.264575156 0.171595003572 0.0
0.0 3.265926387 0.171404886754 0.0
0.0 3.267277619 0.171214095583 0.0
0.0 3.26862885 0.171020844115 0.0
0.0 3.269980082 0.170828659176 0.0
0.0 3.271331313 0.170637449223 0.0
0.0 3.272682544 0.170442640637 0.0
0.0 3.274033776 0.170245984791 0.0
0.0 3.275385007 0.170051124516 0.0
0.0 3.276736239 0.16985877181 0.0
0.0 3.27808747 0.169664185895 0.0
0.0 3.279438702 0.169472179254 0.0
0.0 3.280789933 0.169282930143 0.0
0.0 3.282141165 0.169092060832 0.0
0.0 3.283492396 0.168899840213 0.0
0.0 3.284843627 0.168702103277 0.0
0.0 3.286194859 0.168508850315 0.0
0.0 3.28754609 0.168316283157 0.0
0.0 3.288897322 0.168124389565 0.0
0.0 3.290248553 0.16794230801 0.0
0.0 3.291599785 0.167754116997 0.0
0.0 3.292951016 0.167556849145 0.0
0.0 3.294302247 0.16735880073 0.0
0.0 3.295653479 0.167162463611 0.0
0.0 3.29700471 0.1669686332 0.0
0.0 3.298355942 0.166776605554 0.0
0.0 3.299707173 0.166584398534 0.0
0.0 3.301058405 0.166394921444 0.0
0.0 3.302409636 0.166206692179 0.0
0.0 3.303760868 0.166014048343 0.0
0.0 3.305112099 0.165818149781 0.0
0.0 3.30646333 0.165626066592 0.0
0.0 3.307814562 0.165431354978 0.0
0.0 3.309165793 0.16524029461 0.0
0.0 3.310517025 0.165053758108 0.0
0.0 3.311868256 0.164864245753 0.0
0.0 3.313219488 0.164667313051 0.0
0.0 3.314570719 0.164470606067 0.0
0.0 3.315921951 0.164279221621 0.0
0.0 3.317273182 0.164089165022 0.0
0.0 3.318624413 0.16389529326 0.0
0.0 3.319975645 0.163699827955 0.0
0.0 3.321326876 0.163508604843 0.0
0.0 3.322678108 0.163313424931 0.0
0.0 3.324029339 0.163121953313 0.0
0.0 3.325380571 0.162929975941 0.0
0.0 3.326731802 0.162739167307 0.0
0.0 3.328083033 0.162546989613 0.0
0.0 3.329434265 0.162355568959 0.0
0.0 3.330785496 0.162161941853 0.0
0.0 3.332136728 0.161968582274 0.0
0.0 3.333487959 0.161776646521 0.0
0.0 3.334839191 0.161584802734 0.0
0.0 3.336190422 0.161394370597 0.0
0.0 3.337541654 0.161202818678 0.0
0.0 3.338892885 0.161011578849 0.0
0.0 3.340244116 0.16082386437 0.0
0.0 3.341595348 0.160632703396 0.0
0.0 3.342946579 0.160443392166 0.0
0.0 3.344297811 0.16025107975 0.0
0.0 3.345649042 0.160057162748 0.0
0.0 3.347000274 0.159865086572 0.0
0.0 3.348351505 0.159671235413 0.0
0.0 3.349702736 0.159480648832 0.0
0.0 3.351053968 0.159291816228 0.0
0.0 3.352405199 0.15909977868 0.0
0.0 3.353756431 0.158906079026 0.0
0.0 3.355107662 0.158713918243 0.0
0.0 3.356458894 0.158523144927 0.0
0.0 3.357810125 0.158331358757 0.0
0.0 3.359161357 0.158139814465 0.0
0.0 3.360512588 0.157948381874 0.0
0.0 3.361863819 0.157757905938 0.0
0.0 3.363215051 0.157567401869 0.0
0.0 3.364566282 0.157378392118 0.0
0.0 3.365917514 0.157187529186 0.0
0.0 3.367268745 0.156996760834 0.0
0.0 3.368619977 0.156806466927 0.0
0.0 3.369971208 0.156614966584 0.0
0.0 3.371322439 0.156426815084 0.0
0.0 3.372673671 0.156237153735 0.0
0.0 3.374024902 0.156044621941 0.0
0.0 3.375376134 0.155853704584 0.0
0.0 3.376727365 0.155664353881 0.0
0.0 3.378078597 0.155473206675 0.0
0.0 3.379429828 0.155282341003 0.0
0.0 3.38078106 0.15509241714 0.0
0.0 3.382132291 0.154900430674 0.0
0.0 3.383483522 0.154710026377 0.0
0.0 3.384834754 0.154520956636 0.0
0.0 3.386185985 0.154331503281 0.0
0.0 3.387537217 0.154142319805 0.0
0.0 3.388888448 0.153952968201 0.0
0.0 3.39023968 0.153762935956 0.0
0.0 3.391590911 0.153572511872 0.0
0.0 3.392942143 0.153383202101 0.0
0.0 3.394293374 0.153193984282 0.0
0.0 3.395644605 0.153004874122 0.0
0.0 3.396995837 0.152817439921 0.0
0.0 3.398347068 0.15262903669 0.0
0.0 3.3996983 0.15244403283 0.0
0.0 3.401049531 0.152252734168 0.0
0.0 3.402400763 0.152062431928 0.0
0.0 3.403751994 0.151874606474 0.0
0.0 3.405103225 0.151686294037 0.0
0.0 3.406454457 0.151498377071 0.0
0.0 3.407805688 0.151309004573 0.0
0.0 3.40915692 0.151120003409 0.0
0.0 3.410508151 0.150932368085 0.0
0.0 3.411859383 0.150742669898 0.0
0.0 3.413210614 0.15055505289 0.0
0.0 3.414561846 0.1503681661 0.0
0.0 3.415913077 0.150180304869 0.0
0.0 3.417264308 0.149991138777 0.0
0.0 3.41861554 0.149803598193 0.0
0.0 3.419966771 0.149616173852 0.0
0.0 3.421318003 0.149428861281 0.0
0.0 3.422669234 0.149242752925 0.0
0.0 3.424020466 0.149058640782 0.0
0.0 3.425371697 0.148872266981 0.0
0.0 3.426722928 0.148684534458 0.0
0.0 3.42807416 0.148494104035 0.0
0.0 3.429425391 0.148307232788 0.0
0.0 3.430776623 0.148122844316 0.0
0.0 3.432127854 0.147939124867 0.0
0.0 3.433479086 0.147750426764 0.0
0.0 3.434830317 0.147562847265 0.0
0.0 3.436181549 0.147380293541 0.0
0.0 3.43753278 0.147197008172 0.0
0.0 3.438884011 0.147009162449 0.0
0.0 3.440235243 0.146822132742 0.0
0.0 3.441586474 0.146637457636 0.0
0.0 3.442937706 0.1464516312 0.0
0.0 3.444288937 0.146265505648 0.0
0.0 3.445640169 0.146080756602 0.0
0.0 3.4469914 0.145899052443 0.0
0.0 3.448342631 0.14571489033 0.0
0.0 3.449693863 0.145526905022 0.0
0.0 3.451045094 0.145340552362 0.0
0.0 3.452396326 0.145156368122 0.0
0.0 3.453747557 0.144971404471 0.0
0.0 3.455098789 0.144788543353 0.0
0.0 3.45645002 0.144606503123 0.0
0.0 3.457801252 0.144423474301 0.0
0.0 3.459152483 0.144239159978 0.0
0.0 3.460503714 0.144056961523 0.0
0.0 3.461854946 0.143874713578 0.0
0.0 3.463206177 0.143688990666 0.0
0.0 3.464557409 0.143503212353 0.0
0.0 3.46590864 0.143320201586 0.0
0.0 3.467259872 0.143135393553 0.0
0.0 3.468611103 0.1429516979 0.0
0.0 3.469962335 0.142770107066 0.0
0.0 3.471313566 0.142588456036 0.0
0.0 3.472664797 0.142408867453 0.0
0.0 3.474016029 0.142224201825 0.0
0.0 3.47536726 0.142043041112 0.0
0.0 3.476718492 0.141859986488 0.0
0.0 3.478069723 0.141674225653 0.0
0.0 3.479420955 0.14149199976 0.0
0.0 3.480772186 0.141312111209 0.0
0.0 3.482123417 0.141135635684 0.0
0.0 3.483474649 0.140959990655 0.0
0.0 3.48482588 0.140783144345 0.0
0.0 3.486177112 0.140605993556 0.0
0.0 3.487528343 0.140428530875 0.0
0.0 3.488879575 0.140252005017 0.0
0.0 3.490230806 0.140074584595 0.0
0.0 3.491582038 0.13989733337 0.0
0.0 3.492933269 0.139720377424 0.0
0.0 3.4942845 0.139539256129 0.0
0.0 3.495635732 0.139356268497 0.0
0.0 3.496986963 0.139176031764 0.0
0.0 3.498338195 0.139000127837 0.0
0.0 3.499689426 0.138825547688 0.0
0.0 3.501040658 0.138647575048 0.0
0.0 3.502391889 0.138467385984 0.0
0.0 3.50374312 0.138283981837 0.0
0.0 3.505094352 0.138099941264 0.0
0.0 3.506445583 0.137919967497 0.0
0.0 3.507796815 0.13773919028 0.0
0.0 3.509148046 0.137555006564 0.0
0.0 3.510499278 0.137371199497 0.0
0.0 3.511850509 0.137189417781 0.0
0.0 3.513201741 0.137010441603 0.0
0.0 3.514552972 0.136832738432 0.0
0.0 3.515904203 0.136653762164 0.0
0.0 3.517255435 0.136474862505 0.0
0.0 3.518606666 0.136295989221 0.0
0.0 3.519957898 0.136116774645 0.0
0.0 3.521309129 0.135937386008 0.0
0.0 3.522660361 0.135757730593 0.0
0.0 3.524011592 0.135580698448 0.0
0.0 3.525362824 0.13540478628 0.0
0.0 3.526714055 0.135230583015 0.0
0.0 3.528065286 0.135055205601 0.0
0.0 3.529416518 0.134879035237 0.0
0.0 3.530767749 0.134704842642 0.0
0.0 3.532118981 0.134533427734 0.0
0.0 3.533470212 0.13436232358 0.0
0.0 3.534821444 0.134190335368 0.0
0.0 3.536172675 0.13401595473 0.0
0.0 3.537523906 0.133836309261 0.0
0.0 3.538875138 0.133658906966 0.0
0.0 3.540226369 0.133484805281 0.0
0.0 3.541577601 0.133310469123 0.0
0.0 3.542928832 0.133136890207 0.0
0.0 3.544280064 0.132961820616 0.0
0.0 3.545631295 0.132787390028 0.0
0.0 3.546982527 0.132614231054 0.0
0.0 3.548333758 0.132441521632 0.0
0.0 3.549684989 0.132269023216 0.0
0.0 3.551036221 0.132097351432 0.0
0.0 3.552387452 0.131925973898 0.0
0.0 3.553738684 0.13175545569 0.0
0.0 3.555089915 0.131586769502 0.0
0.0 3.556441147 0.131417703153 0.0
0.0 3.557792378 0.131247010168 0.0
0.0 3.559143609 0.131074612749 0.0
0.0 3.560494841 0.130903795969 0.0
0.0 3.561846072 0.130734973582 0.0
0.0 3.563197304 0.130565622473 0.0
0.0 3.564548535 0.130394754659 0.0
0.0 3.565899767 0.130223039572 0.0
0.0 3.567250998 0.130053425254 0.0
0.0 3.56860223 0.129884616486 0.0
0.0 3.569953461 0.129715718747 0.0
0.0 3.571304692 0.129544982338 0.0
0.0 3.572655924 0.129373533863 0.0
0.0 3.574007155 0.129201974745 0.0
0.0 3.575358387 0.129032731955 0.0
0.0 3.576709618 0.128865087368 0.0
0.0 3.57806085 0.128697390859 0.0
0.0 3.579412081 0.128531805135 0.0
0.0 3.580763312 0.128367055452 0.0
0.0 3.582114544 0.128199607998 0.0
0.0 3.583465775 0.12802916888 0.0
0.0 3.584817007 0.127859877617 0.0
0.0 3.586168238 0.127693331046 0.0
0.0 3.58751947 0.127528456981 0.0
0.0 3.588870701 0.127366847963 0.0
0.0 3.590221933 0.127203533818 0.0
0.0 3.591573164 0.127035810794 0.0
0.0 3.592924395 0.126869286791 0.0
0.0 3.594275627 0.12670461752 0.0
0.0 3.595626858 0.126538969115 0.0
0.0 3.59697809 0.126373213548 0.0
0.0 3.598329321 0.126211353588 0.0
0.0 3.599680553 0.126051519319 0.0
0.0 3.601031784 0.1258912381 0.0
0.0 3.602383016 0.125728513975 0.0
0.0 3.603734247 0.125564295624 0.0
0.0 3.605085478 0.125397693472 0.0
0.0 3.60643671 0.125232042722 0.0
0.0 3.607787941 0.125068193737 0.0
0.0 3.609139173 0.124905420282 0.0
0.0 3.610490404 0.124743637345 0.0
0.0 3.611841636 0.124583259231 0.0
0.0 3.613192867 0.124423540507 0.0
0.0 3.614544098 0.124262517364 0.0
0.0 3.61589533 0.124098378076 0.0
0.0 3.617246561 0.123935746382 0.0
0.0 3.618597793 0.123775093901 0.0
0.0 3.619949024 0.123614046568 0.0
0.0 3.621300256 0.123454549945 0.0
0.0 3.622651487 0.123296604773 0.0
0.0 3.624002719 0.123137193821 0.0
0.0 3.62535395 0.122976889987 0.0
0.0 3.626705181 0.122818455363 0.0
0.0 3.628056413 0.122661014917 0.0
0.0 3.629407644 0.122504974417 0.0
0.0 3.630758876 0.122347416855 0.0
0.0 3.632110107 0.122187012655 0.0
0.0 3.633461339 0.122028180854 0.0
0.0 3.63481257 0.121871702981 0.0
0.0 3.636163801 0.121711740817 0.0
0.0 3.637515033 0.121553510525 0.0
0.0 3.638866264 0.121396191567 0.0
0.0 3.640217496 0.121242527818 0.0
0.0 3.641568727 0.121088455757 0.0
0.0 3.642919959 0.120933797106 0.0
0.0 3.64427119 0.120779172567 0.0
0.0 3.645622422 0.120625920728 0.0
0.0 3.646973653 0.120474544726 0.0
0.0 3.648324884 0.120320447743 0.0
0.0 3.649676116 0.120163473196 0.0
0.0 3.651027347 0.120009627623 0.0
0.0 3.652378579 0.11985995033 0.0
0.0 3.65372981 0.119712066723 0.0
0.0 3.655081042 0.119563039927 0.0
0.0 3.656432273 0.119410014808 0.0
0.0 3.657783504 0.119256603808 0.0
0.0 3.659134736 0.119106035957 0.0
0.0 3.660485967 0.118955888202 0.0
0.0 3.661837199 0.118805364364 0.0
0.0 3.66318843 0.118655081591 0.0
0.0 3.664539662 0.118505142407 0.0
0.0 3.665890893 0.118355653338 0.0
0.0 3.667242125 0.118205392141 0.0
0.0 3.668593356 0.118053451223 0.0
0.0 3.669944587 0.117902309581 0.0
0.0 3.671295819 0.117752242444 0.0
0.0 3.67264705 0.117603313739 0.0
0.0 3.673998282 0.117457435031 0.0
0.0 3.675349513 0.117314149785 0.0
0.0 3.676700745 0.117169924571 0.0
0.0 3.678051976 0.117022798695 0.0
0.0 3.679403208 0.116874569181 0.0
0.0 3.680754439 0.116727013585 0.0
0.0 3.68210567 0.116580228699 0.0
0.0 3.683456902 0.116435463198 0.0
0.0 3.684808133 0.116291432742 0.0
0.0 3.686159365 0.116143938671 0.0
0.0 3.687510596 0.115995608257 0.0
0.0 3.688861828 0.115849164618 0.0
0.0 3.690213059 0.115702099683 0.0
0.0 3.69156429 0.115555394308 0.0
0.0 3.692915522 0.115409445958 0.0
0.0 3.694266753 0.11526074291 0.0
0.0 3.695617985 0.115111259291 0.0
0.0 3.696969216 0.114965745616 0.0
0.0 3.698320448 0.114823136782 0.0
0.0 3.699671679 0.114679859377 0.0
0.0 3.701022911 0.11453477017 0.0
0.0 3.702374142 0.114391012068 0.0
0.0 3.703725373 0.114249714337 0.0
0.0 3.705076605 0.11410677765 0.0
0.0 3.706427836 0.113961175372 0.0
0.0 3.707779068 0.113817547931 0.0
0.0 3.709130299 0.113676411095 0.0
0.0 3.710481531 0.113535684687 0.0
0.0 3.711832762 0.113393716213 0.0
0.0 3.713183993 0.11324972061 0.0
0.0 3.714535225 0.113107049049 0.0
0.0 3.715886456 0.112966283534 0.0
0.0 3.717237688 0.112826364524 0.0
0.0 3.718588919 0.112689371074 0.0
0.0 3.719940151 0.112550252724 0.0
0.0 3.721291382 0.112410885545 0.0
0.0 3.722642614 0.112274957827 0.0
0.0 3.723993845 0.112139459627 0.0
0.0 3.725345076 0.112001638678 0.0
0.0 3.726696308 0.111863907221 0.0
0.0 3.728047539 0.111729043331 0.0
0.0 3.729398771 0.111594647522 0.0
0.0 3.730750002 0.111457378314 0.0
0.0 3.732101234 0.111319733427 0.0
0.0 3.733452465 0.111185066485 0.0
0.0 3.734803696 0.111050612581 0.0
0.0 3.736154928 0.110920644717 0.0
0.0 3.737506159 0.110788218003 0.0
0.0 3.738857391 0.110655571319 0.0
0.0 3.740208622 0.110521859082 0.0
0.0 3.741559854 0.110385270898 0.0
0.0 3.742911085 0.110251492906 0.0
0.0 3.744262317 0.110120396981 0.0
0.0 3.745613548 0.10998763098 0.0
0.0 3.746964779 0.109856634132 0.0
0.0 3.748316011 0.109726680349 0.0
0.0 3.749667242 0.109596921345 0.0
0.0 3.751018474 0.109466673441 0.0
0.0 3.752369705 0.109336910469 0.0
0.0 3.753720937 0.109207293296 0.0
0.0 3.755072168 0.109078049074 0.0
0.0 3.7564234 0.108949565722 0.0
0.0 3.757774631 0.108821461087 0.0
0.0 3.759125862 0.108693785549 0.0
0.0 3.760477094 0.108566477356 0.0
0.0 3.761828325 0.108441100973 0.0
0.0 3.763179557 0.108313351402 0.0
0.0 3.764530788 0.108186530243 0.0
0.0 3.76588202 0.108060652838 0.0
0.0 3.767233251 0.107935189821 0.0
0.0 3.768584482 0.107810422874 0.0
0.0 3.769935714 0.107685757391 0.0
0.0 3.771286945 0.107560989958 0.0
0.0 3.772638177 0.107437003143 0.0
0.0 3.773989408 0.107313415857 0.0
0.0 3.77534064 0.107190211832 0.0
0.0 3.776691871 0.107067392315 0.0
0.0 3.778043103 0.106944958182 0.0
0.0 3.779394334 0.106822910675 0.0
0.0 3.780745565 0.106701250769 0.0
0.0 3.782096797 0.106579979436 0.0
0.0 3.783448028 0.106459097919 0.0
0.0 3.78479926 0.106338607099 0.0
0.0 3.786150491 0.106218508219 0.0
0.0 3.787501723 0.106098802161 0.0
0.0 3.788852954 0.105979490168 0.0
0.0 3.790204185 0.105860573211 0.0
0.0 3.791555417 0.105742052264 0.0
0.0 3.792906648 0.105623928566 0.0
0.0 3.79425788 0.105506206215 0.0
0.0 3.795609111 0.105389559392 0.0
0.0 3.796960343 0.105272226821 0.0
0.0 3.798311574 0.10515556461 0.0
0.0 3.799662806 0.105039304424 0.0
0.0 3.801014037 0.104923586006 0.0
0.0 3.802365268 0.104808272186 0.0
0.0 3.8037165 0.104693363942 0.0
0.0 3.805067731 0.104579396267 0.0
0.0 3.806418963 0.104467056245 0.0
0.0 3.807770194 0.104353404982 0.0
0.0 3.809121426 0.104239319863 0.0
0.0 3.810472657 0.10412616493 0.0
0.0 3.811823889 0.104013589537 0.0
0.0 3.81317512 0.103901174096 0.0
0.0 3.814526351 0.103789130258 0.0
0.0 3.815877583 0.103678562632 0.0
0.0 3.817228814 0.103566859427 0.0
0.0 3.818580046 0.103456492779 0.0
0.0 3.819931277 0.103347438326 0.0
0.0 3.821282509 0.103239782558 0.0
0.0 3.82263374 0.103132951 0.0
0.0 3.823984971 0.103023137437 0.0
0.0 3.825336203 0.102913547238 0.0
0.0 3.826687434 0.102804235937 0.0
0.0 3.828038666 0.102696565282 0.0
0.0 3.829389897 0.102590617577 0.0
0.0 3.830741129 0.102487097942 0.0
0.0 3.83209236 0.102379702587 0.0
0.0 3.833443592 0.102273822987 0.0
0.0 3.834794823 0.102169106951 0.0
0.0 3.836146054 0.102063028003 0.0
0.0 3.837497286 0.101957305423 0.0
0.0 3.838848517 0.101854189747 0.0
0.0 3.840199749 0.101751579423 0.0
0.0 3.84155098 0.101648432115 0.0
0.0 3.842902212 0.101544980255 0.0
0.0 3.844253443 0.101441901396 0.0
0.0 3.845604674 0.101341909952 0.0
0.0 3.846955906 0.101241642509 0.0
0.0 3.848307137 0.101141425132 0.0
0.0 3.849658369 0.101041291363 0.0
0.0 3.8510096 0.100942002071 0.0
0.0 3.852360832 0.100842273208 0.0
0.0 3.853712063 0.100741972815 0.0
0.0 3.855063295 0.10064315702 0.0
0.0 3.856414526 0.100543753267 0.0
0.0 3.857765757 0.100444876756 0.0
0.0 3.859116989 0.100347757033 0.0
0.0 3.86046822 0.100251461602 0.0
0.0 3.861819452 0.10015467143 0.0
0.0 3.863170683 0.100056930391 0.0
0.0 3.864521915 0.0999605172915 0.0
0.0 3.865873146 0.099867986112 0.0
0.0 3.867224377 0.0997756086479 0.0
0.0 3.868575609 0.0996824644109 0.0
0.0 3.86992684 0.0995888679588 0.0
0.0 3.871278072 0.0994961594322 0.0
0.0 3.872629303 0.0994005746105 0.0
0.0 3.873980535 0.0993069539167 0.0
0.0 3.875331766 0.0992155625158 0.0
0.0 3.876682998 0.0991256258811 0.0
0.0 3.878034229 0.0990350127874 0.0
0.0 3.87938546 0.0989436676151 0.0
0.0 3.880736692 0.098853890399 0.0
0.0 3.882087923 0.0987634408349 0.0
0.0 3.883439155 0.0986732603455 0.0
0.0 3.884790386 0.098585013459 0.0
0.0 3.886141618 0.0984971239455 0.0
0.0 3.887492849 0.098411404545 0.0
0.0 3.888844081 0.0983272043179 0.0
0.0 3.890195312 0.0982434296307 0.0
0.0 3.891546543 0.098159781473 0.0
0.0 3.892897775 0.0980725182789 0.0
0.0 3.894249006 0.0979853234386 0.0
0.0 3.895600238 0.0979008685723 0.0
0.0 3.896951469 0.0978174395868 0.0
0.0 3.898302701 0.0977311207097 0.0
0.0 3.899653932 0.0976460098214 0.0
0.0 3.901005163 0.097562979094 0.0
0.0 3.902356395 0.097481741557 0.0
0.0 3.903707626 0.0974015893568 0.0
0.0 3.905058858 0.0973206980475 0.0
0.0 3.906410089 0.0972378046979 0.0
0.0 3.907761321 0.0971553020426 0.0
0.0 3.909112552 0.097074234506 0.0
0.0 3.910463784 0.0969943957321 0.0
0.0 3.911815015 0.0969157490659 0.0
0.0 3.913166246 0.0968363488237 0.0
0.0 3.914517478 0.0967572520392 0.0
0.0 3.915868709 0.0966821978144 0.0
0.0 3.917219941 0.0966078098718 0.0
0.0 3.918571172 0.0965295385978 0.0
0.0 3.919922404 0.0964505800834 0.0
0.0 3.921273635 0.0963733779336 0.0
0.0 3.922624866 0.0962975459291 0.0
0.0 3.923976098 0.0962225793035 0.0
0.0 3.925327329 0.0961498990343 0.0
0.0 3.926678561 0.0960791966323 0.0
0.0 3.928029792 0.0960075083287 0.0
0.0 3.929381024 0.0959339306247 0.0
0.0 3.930732255 0.0958602173161 0.0
0.0 3.932083487 0.0957863358966 0.0
0.0 3.933434718 0.0957145726344 0.0
0.0 3.934785949 0.0956447131326 0.0
0.0 3.936137181 0.0955745373991 0.0
0.0 3.937488412 0.0955038494968 0.0
0.0 3.938839644 0.0954367766792 0.0
0.0 3.940190875 0.0953683242497 0.0
0.0 3.941542107 0.0953000504143 0.0
0.0 3.942893338 0.0952321495099 0.0
0.0 3.944244569 0.0951651320065 0.0
0.0 3.945595801 0.0950994655814 0.0
0.0 3.946947032 0.0950351642412 0.0
0.0 3.948298264 0.0949694855478 0.0
0.0 3.949649495 0.0949035501272 0.0
0.0 3.951000727 0.0948388276508 0.0
0.0 3.952351958 0.0947746815203 0.0
0.0 3.95370319 0.0947119850644 0.0
0.0 3.955054421 0.0946519308361 0.0
0.0 3.956405652 0.0945902742979 0.0
0.0 3.957756884 0.0945259179176 0.0
0.0 3.959108115 0.0944636821708 0.0
0.0 3.960459347 0.0944075572214 0.0
0.0 3.961810578 0.0943547596544 0.0
0.0 3.96316181 0.0943029944073 0.0
0.0 3.964513041 0.0942500864285 0.0
0.0 3.965864273 0.09419380831 0.0
0.0 3.967215504 0.0941341407877 0.0
0.0 3.968566735 0.0940733319196 0.0
0.0 3.969917967 0.094011957662 0.0
0.0 3.971269198 0.0939488557365 0.0
0.0 3.97262043 0.0938883677229 0.0
0.0 3.973971661 0.0938314755794 0.0
0.0 3.975322893 0.0937735940814 0.0
0.0 3.976674124 0.0937156874832 0.0
0.0 3.978025355 0.0936607131976 0.0
0.0 3.979376587 0.0936075249337 0.0
0.0 3.980727818 0.0935560496334 0.0
0.0 3.98207905 0.0935050220875 0.0
0.0 3.983430281 0.0934535193171 0.0
0.0 3.984781513 0.0934022022794 0.0
0.0 3.986132744 0.0933549706862 0.0
0.0 3.987483976 0.0933077432042 0.0
0.0 3.988835207 0.0932572604995 0.0
0.0 3.990186438 0.0932069011405 0.0
0.0 3.99153767 0.0931595171429 0.0
0.0 3.992888901 0.0931119498544 0.0
0.0 3.994240133 0.093064408435 0.0
0.0 3.995591364 0.0930182399196 0.0
0.0 3.996942596 0.0929717132136 0.0
0.0 3.998293827 0.0929263812056 0.0
0.0 3.999645058 0.0928785150795 0.0
0.0 4.00099629 0.0928329185233 0.0
0.0 4.002347521 0.0927887058857 0.0
0.0 4.003698753 0.0927455187123 0.0
0.0 4.005049984 0.0927032969026 0.0
0.0 4.006401216 0.0926632655256 0.0
0.0 4.007752447 0.092622798402 0.0
0.0 4.009103679 0.0925820307067 0.0
0.0 4.01045491 0.0925414854067 0.0
0.0 4.011806141 0.0925011750498 0.0
0.0 4.013157373 0.0924616080815 0.0
0.0 4.014508604 0.0924258231432 0.0
0.0 4.015859836 0.092388976382 0.0
0.0 4.017211067 0.0923491560667 0.0
0.0 4.018562299 0.0923095573282 0.0
0.0 4.01991353 0.0922719755802 0.0
0.0 4.021264761 0.0922361432508 0.0
0.0 4.022615993 0.0922010867144 0.0
0.0 4.023967224 0.0921668976965 0.0
0.0 4.025318456 0.0921331721041 0.0
0.0 4.026669687 0.0921007124929 0.0
0.0 4.028020919 0.0920682518189 0.0
0.0 4.02937215 0.0920360287199 0.0
0.0 4.030723382 0.0920066021257 0.0
0.0 4.032074613 0.0919767636573 0.0
0.0 4.033425844 0.0919438082175 0.0
0.0 4.034777076 0.0919119576407 0.0
0.0 4.036128307 0.0918831843096 0.0
0.0 4.037479539 0.091855332322 0.0
0.0 4.03883077 0.0918277898119 0.0
0.0 4.040182002 0.0918002608439 0.0
0.0 4.041533233 0.0917729702261 0.0
0.0 4.042884465 0.0917455129641 0.0
0.0 4.044235696 0.0917210919821 0.0
0.0 4.045586927 0.0916962178098 0.0
0.0 4.046938159 0.0916715638856 0.0
0.0 4.04828939 0.0916492875251 0.0
0.0 4.049640622 0.0916287192693 0.0
0.0 4.050991853 0.091607394074 0.0
0.0 4.052343085 0.0915843731719 0.0
0.0 4.053694316 0.0915626134603 0.0
0.0 4.055045547 0.0915440253297 0.0
0.0 4.056396779 0.0915265447586 0.0
0.0 4.05774801 0.0915061548277 0.0
0.0 4.059099242 0.0914847800339 0.0
0.0 4.060450473 0.091464984209 0.0
0.0 4.061801705 0.0914469962598 0.0
0.0 4.063152936 0.0914301973113 0.0
0.0 4.064504168 0.0914108301791 0.0
0.0 4.065855399 0.0913929023803 0.0
0.0 4.06720663 0.0913782387847 0.0
0.0 4.068557862 0.0913652217029 0.0
0.0 4.069909093 0.0913530696421 0.0
0.0 4.071260325 0.0913395507757 0.0
0.0 4.072611556 0.0913280555292 0.0
0.0 4.073962788 0.0913176341145 0.0
0.0 4.075314019 0.0913084497466 0.0
0.0 4.07666525 0.0913012770262 0.0
0.0 4.078016482 0.0912933973842 0.0
0.0 4.079367713 0.0912837694725 0.0
0.0 4.080718945 0.0912729733177 0.0
0.0 4.082070176 0.091263656922 0.0
0.0 4.083421408 0.0912555649429 0.0
0.0 4.084772639 0.0912480121006 0.0
0.0 4.086123871 0.0912407974675 0.0
0.0 4.087475102 0.091231974005 0.0
0.0 4.088826333 0.0912226514561 0.0
0.0 4.090177565 0.0912162506329 0.0
0.0 4.091528796 0.0912130027249 0.0
0.0 4.092880028 0.0912110280612 0.0
0.0 4.094231259 0.0912094822164 0.0
0.0 4.095582491 0.0912070342925 0.0
0.0 4.096933722 0.0912029290753 0.0
0.0 4.098284953 0.0911988375492 0.0
0.0 4.099636185 0.0911996700704 0.0
0.0 4.100987416 0.0912032650999 0.0
0.0 4.102338648 0.0912069033714 0.0
0.0 4.103689879 0.091209329829 0.0
0.0 4.105041111 0.0912108535012 0.0
0.0 4.106392342 0.0912103377502 0.0
0.0 4.107743574 0.0912099986654 0.0
0.0 4.109094805 0.0912134656982 0.0
0.0 4.110446036 0.0912188305491 0.0
0.0 4.111797268 0.0912235983807 0.0
0.0 4.113148499 0.0912263503485 0.0
0.0 4.114499731 0.0912302293077 0.0
0.0 4.115850962 0.0912364687907 0.0
0.0 4.117202194 0.0912443451587 0.0
0.0 4.118553425 0.0912543663963 0.0
0.0 4.119904657 0.0912653585296 0.0
0.0 4.121255888 0.0912749005632 0.0
0.0 4.122607119 0.091283808695 0.0
0.0 4.123958351 0.091295306878 0.0
0.0 4.125309582 0.0913114690909 0.0
0.0 4.126660814 0.0913252091636 0.0
0.0 4.128012045 0.0913376404649 0.0
0.0 4.129363277 0.0913515668727 0.0
0.0 4.130714508 0.0913650170998 0.0
0.0 4.132065739 0.0913792349226 0.0
0.0 4.133416971 0.0913952357013 0.0
0.0 4.134768202 0.0914146672159 0.0
0.0 4.136119434 0.0914335847162 0.0
0.0 4.137470665 0.091451081804 0.0
0.0 4.138821897 0.0914686142472 0.0
0.0 4.140173128 0.0914880146297 0.0
0.0 4.14152436 0.0915052738991 0.0
0.0 4.142875591 0.0915234975546 0.0
0.0 4.144226822 0.0915439800018 0.0
0.0 4.145578054 0.0915655189805 0.0
0.0 4.146929285 0.0915902408607 0.0
0.0 4.148280517 0.0916174663612 0.0
0.0 4.149631748 0.0916421474668 0.0
0.0 4.15098298 0.0916664197744 0.0
0.0 4.152334211 0.0916907206419 0.0
0.0 4.153685442 0.0917157814585 0.0
0.0 4.155036674 0.0917410975386 0.0
0.0 4.156387905 0.0917673866271 0.0
0.0 4.157739137 0.0917954899417 0.0
0.0 4.159090368 0.0918264094384 0.0
0.0 4.1604416 0.091856935955 0.0
0.0 4.161792831 0.0918849181413 0.0
0.0 4.163144063 0.0919127365772 0.0
0.0 4.164495294 0.0919435618825 0.0
0.0 4.165846525 0.0919771713821 0.0
0.0 4.167197757 0.0920110273978 0.0
0.0 4.168548988 0.0920441142194 0.0
0.0 4.16990022 0.0920794661119 0.0
0.0 4.171251451 0.0921164181209 0.0
0.0 4.172602683 0.0921550708425 0.0
0.0 4.173953914 0.0921948807614 0.0
0.0 4.175305146 0.0922352760315 0.0
0.0 4.176656377 0.0922751148186 0.0
0.0 4.178007608 0.0923111663079 0.0
0.0 4.17935884 0.0923451510752 0.0
0.0 4.180710071 0.0923830127438 0.0
0.0 4.182061303 0.092423337517 0.0
0.0 4.183412534 0.0924642042263 0.0
0.0 4.184763766 0.0925062802438 0.0
0.0 4.186114997 0.0925497552911 0.0
0.0 4.187466228 0.092590688254 0.0
0.0 4.18881746 0.092629986344 0.0
0.0 4.190168691 0.092673401879 0.0
0.0 4.191519923 0.0927194484847 0.0
0.0 4.192871154 0.0927685200842 0.0
0.0 4.194222386 0.0928168071761 0.0
0.0 4.195573617 0.0928638758353 0.0
0.0 4.196924849 0.0929118001728 0.0
0.0 4.19827608 0.0929587080733 0.0
0.0 4.199627311 0.0930090159016 0.0
0.0 4.200978543 0.0930626890247 0.0
0.0 4.202329774 0.0931158080102 0.0
0.0 4.203681006 0.0931688116233 0.0
0.0 4.205032237 0.0932223080975 0.0
0.0 4.206383469 0.093276853234 0.0
0.0 4.2077347 0.0933312276742 0.0
0.0 4.209085931 0.0933873663796 0.0
0.0 4.210437163 0.0934443620329 0.0
0.0 4.211788394 0.0935019162494 0.0
0.0 4.213139626 0.0935585194656 0.0
0.0 4.214490857 0.0936156638416 0.0
0.0 4.215842089 0.093673333426 0.0
0.0 4.21719332 0.0937315943407 0.0
0.0 4.218544552 0.0937914587807 0.0
0.0 4.219895783 0.0938543506886 0.0
0.0 4.221247014 0.0939162248479 0.0
0.0 4.222598246 0.0939760659381 0.0
0.0 4.223949477 0.0940369430606 0.0
0.0 4.225300709 0.0940992271128 0.0
0.0 4.22665194 0.09416122741 0.0
0.0 4.228003172 0.0942261521296 0.0
0.0 4.229354403 0.0942925109418 0.0
0.0 4.230705634 0.0943606392577 0.0
0.0 4.232056866 0.0944282282417 0.0
0.0 4.233408097 0.0944947639667 0.0
0.0 4.234759329 0.0945616794756 0.0
0.0 4.23611056 0.0946317564261 0.0
0.0 4.237461792 0.0947017168262 0.0
0.0 4.238813023 0.0947712375925 0.0
0.0 4.240164255 0.0948411002632 0.0
0.0 4.241515486 0.0949107024917 0.0
0.0 4.242866717 0.094981393887 0.0
0.0 4.244217949 0.0950544450944 0.0
0.0 4.24556918 0.095130329671 0.0
0.0 4.246920412 0.0952074813125 0.0
0.0 4.248271643 0.0952852489677 0.0
0.0 4.249622875 0.0953665257267 0.0
0.0 4.250974106 0.0954462386739 0.0
0.0 4.252325338 0.0955253502467 0.0
0.0 4.253676569 0.0956061217733 0.0
0.0 4.2550278 0.0956900954718 0.0
0.0 4.256379032 0.0957736023377 0.0
0.0 4.257730263 0.0958504946727 0.0
0.0 4.259081495 0.0959268191878 0.0
0.0 4.260432726 0.0960056748636 0.0
0.0 4.261783958 0.0960885535634 0.0
0.0 4.263135189 0.0961738499034 0.0
0.0 4.26448642 0.0962608744587 0.0
0.0 4.265837652 0.0963491765597 0.0
0.0 4.267188883 0.0964375050253 0.0
0.0 4.268540115 0.0965240128225 0.0
0.0 4.269891346 0.0966123214537 0.0
0.0 4.271242578 0.0967019962853 0.0
0.0 4.272593809 0.0967921954646 0.0
0.0 4.273945041 0.096881718667 0.0
0.0 4.275296272 0.0969730740117 0.0
0.0 4.276647503 0.0970660245688 0.0
0.0 4.277998735 0.0971601179038 0.0
0.0 4.279349966 0.0972546008374 0.0
0.0 4.280701198 0.0973492923707 0.0
0.0 4.282052429 0.0974443723551 0.0
0.0 4.283403661 0.0975405263101 0.0
0.0 4.284754892 0.0976385878127 0.0
0.0 4.286106123 0.0977383589481 0.0
0.0 4.287457355 0.0978371032989 0.0
0.0 4.288808586 0.0979353857056 0.0
0.0 4.290159818 0.0980336306656 0.0
0.0 4.291511049 0.0981324685379 0.0
0.0 4.292862281 0.0982322196794 0.0
0.0 4.294213512 0.0983339379947 0.0
0.0 4.295564744 0.0984378231701 0.0
0.0 4.296915975 0.0985421855568 0.0
0.0 4.298267206 0.0986444423235 0.0
0.0 4.299618438 0.098747991391 0.0
0.0 4.300969669 0.0988531912461 0.0
0.0 4.302320901 0.0989589030969 0.0
0.0 4.303672132 0.0990617405269 0.0
0.0 4.305023364 0.0991701061664 0.0
0.0 4.306374595 0.0992797720266 0.0
0.0 4.307725826 0.0993902747111 0.0
0.0 4.309077058 0.099501580456 0.0
0.0 4.310428289 0.0996136901568 0.0
0.0 4.311779521 0.0997266050428 0.0
0.0 4.313130752 0.0998403260093 0.0
0.0 4.314481984 0.0999548542879 0.0
0.0 4.315833215 0.100070190769 0.0
0.0 4.317184447 0.100186336688 0.0
0.0 4.318535678 0.100303292935 0.0
0.0 4.319886909 0.100421060656 0.0
0.0 4.321238141 0.100539641003 0.0
0.0 4.322589372 0.100659034864 0.0
0.0 4.323940604 0.100779243475 0.0
0.0 4.325291835 0.100900267724 0.0
0.0 4.326643067 0.101022108849 0.0
0.0 4.327994298 0.101144767735 0.0
0.0 4.32934553 0.101268245624 0.0
0.0 4.330696761 0.101392543395 0.0
0.0 4.332047992 0.101517662204 0.0
0.0 4.333399224 0.101643603204 0.0
0.0 4.334750455 0.101770367273 0.0
0.0 4.336101687 0.101897955661 0.0
0.0 4.337452918 0.102026369239 0.0
0.0 4.33880415 0.102155609262 0.0
0.0 4.340155381 0.1022856766 0.0
0.0 4.341506612 0.102416572412 0.0
0.0 4.342857844 0.102548324386 0.0
0.0 4.344209075 0.1026832698 0.0
0.0 4.345560307 0.102818802619 0.0
0.0 4.346911538 0.102955018068 0.0
0.0 4.34826277 0.10309614378 0.0
0.0 4.349614001 0.103234746934 0.0
0.0 4.350965233 0.103371382948 0.0
0.0 4.352316464 0.103509308033 0.0
0.0 4.353667695 0.10364734849 0.0
0.0 4.355018927 0.103785523645 0.0
0.0 4.356370158 0.103923450567 0.0
0.0 4.35772139 0.104063523991 0.0
0.0 4.359072621 0.104207545369 0.0
0.0 4.360423853 0.104351686055 0.0
0.0 4.361775084 0.104495639482 0.0
0.0 4.363126315 0.104642081238 0.0
0.0 4.364477547 0.104790562527 0.0
0.0 4.365828778 0.10494023142 0.0
0.0 4.36718001 0.105089894623 0.0
0.0 4.368531241 0.105239085414 0.0
0.0 4.369882473 0.105387753443 0.0
0.0 4.371233704 0.105536193267 0.0
0.0 4.372584936 0.105689639031 0.0
0.0 4.373936167 0.105846619197 0.0
0.0 4.375287398 0.106006880152 0.0
0.0 4.37663863 0.106164849529 0.0
0.0 4.377989861 0.106321460987 0.0
0.0 4.379341093 0.106477756779 0.0
0.0 4.380692324 0.106634332414 0.0
0.0 4.382043556 0.106791487756 0.0
0.0 4.383394787 0.106950511274 0.0
0.0 4.384746018 0.107111427742 0.0
0.0 4.38609725 0.107274156569 0.0
0.0 4.387448481 0.10743808598 0.0
0.0 4.388799713 0.107602512712 0.0
0.0 4.390150944 0.107766964829 0.0
0.0 4.391502176 0.107929755379 0.0
0.0 4.392853407 0.10809493052 0.0
0.0 4.394204639 0.108263249712 0.0
0.0 4.39555587 0.1084356304 0.0
0.0 4.396907101 0.108608964584 0.0
0.0 4.398258333 0.108784618137 0.0
0.0 4.399609564 0.108962678883 0.0
0.0 4.400960796 0.109143261724 0.0
0.0 4.402312027 0.109320688184 0.0
0.0 4.403663259 0.10949779768 0.0
0.0 4.40501449 0.109675364872 0.0
0.0 4.406365722 0.109856231919 0.0
0.0 4.407716953 0.110037980831 0.0
0.0 4.409068184 0.11022206441 0.0
0.0 4.410419416 0.110410138727 0.0
0.0 4.411770647 0.110601814336 0.0
0.0 4.413121879 0.1107934367 0.0
0.0 4.41447311 0.110985453946 0.0
0.0 4.415824342 0.111180773673 0.0
0.0 4.417175573 0.111381006224 0.0
0.0 4.418526804 0.111584000545 0.0
0.0 4.419878036 0.11178844462 0.0
0.0 4.421229267 0.111996566639 0.0
0.0 4.422580499 0.112207388873 0.0
0.0 4.42393173 0.112420473919 0.0
0.0 4.425282962 0.112634021365 0.0
0.0 4.426634193 0.112852873646 0.0
0.0 4.427985425 0.113075857912 0.0
0.0 4.429336656 0.113302635779 0.0
0.0 4.430687887 0.113529801887 0.0
0.0 4.432039119 0.113762547939 0.0
0.0 4.43339035 0.114001163691 0.0
0.0 4.434741582 0.114245881471 0.0
0.0 4.436092813 0.114495230342 0.0
0.0 4.437444045 0.114750814027 0.0
0.0 4.438795276 0.115013954187 0.0
0.0 4.440146507 0.1152811683 0.0
0.0 4.441497739 0.115554091281 0.0
0.0 4.44284897 0.115834280741 0.0
0.0 4.444200202 0.116127465536 0.0
0.0 4.445551433 0.116430973835 0.0
0.0 4.446902665 0.116744492104 0.0
0.0 4.448253896 0.117068004926 0.0
0.0 4.449605128 0.117405168309 0.0
0.0 4.450956359 0.117755332421 0.0
0.0 4.45230759 0.118119876261 0.0
0.0 4.453658822 0.118503536002 0.0
0.0 4.455010053 0.118909649149 0.0
0.0 4.456361285 0.119338348749 0.0
0.0 4.457712516 0.119790482028 0.0
0.0 4.459063748 0.120269162604 0.0
0.0 4.460414979 0.120776891897 0.0
0.0 4.461766211 0.121316992729 0.0
0.0 4.463117442 0.121893646688 0.0
0.0 4.464468673 0.122511515141 0.0
0.0 4.465819905 0.123175312725 0.0
0.0 4.467171136 0.123893300617 0.0
0.0 4.468522368 0.124672900805 0.0
0.0 4.469873599 0.12552062775 0.0
0.0 4.471224831 0.126448130595 0.0
0.0 4.472576062 0.127461653539 0.0
0.0 4.473927293 0.128568469276 0.0
0.0 4.475278525 0.129780648992 0.0
0.0 4.476629756 0.13113941993 0.0
0.0 4.477980988 0.132640130403 0.0
0.0 4.479332219 0.134296960672 0.0
0.0 4.480683451 0.136139059551 0.0
0.0 4.482034682 0.138195581647 0.0
0.0 4.483385914 0.140489499296 0.0
0.0 4.484737145 0.143076599895 0.0
0.0 4.486088376 0.14598276493 0.0
0.0 4.487439608 0.149242613352 0.0
0.0 4.488790839 0.152914558586 0.0
0.0 4.490142071 0.157074644085 0.0
0.0 4.491493302 0.161770234472 0.0
0.0 4.492844534 0.167077678382 0.0
0.0 4.494195765 0.173110995808 0.0
0.0 4.495546996 0.179941093902 0.0
0.0 4.496898228 0.187666443548 0.0
0.0 4.498249459 0.196411737891 0.0
0.0 4.499600691 0.206277801257 0.0
0.0 4.500951922 0.217382203426 0.0
0.0 4.502303154 0.229851518726 0.0
0.0 4.503654385 0.243718688697 0.0
0.0 4.505005617 0.259113872999 0.0
0.0 4.506356848 0.276153944928 0.0
0.0 4.507708079 0.294486312944 0.0
0.0 4.509059311 0.314300963179 0.0
0.0 4.510410542 0.335600742714 0.0
0.0 4.511761774 0.357581355102 0.0
0.0 4.513113005 0.380184044207 0.0
0.0 4.514464237 0.403409689741 0.0
0.0 4.515815468 0.42613201833 0.0
0.0 4.517166699 0.447837080237 0.0
0.0 4.518517931 0.468887475475 0.0
0.0 4.519869162 0.488280258955 0.0
0.0 4.521220394 0.505160545993 0.0
0.0 4.522571625 0.520533569011 0.0
0.0 4.523922857 0.533883101627 0.0
0.0 4.525274088 0.544222960782 0.0
0.0 4.52662532 0.553063418433 0.0
0.0 4.527976551 0.560345588166 0.0
0.0 4.529327782 0.565146800719 0.0
0.0 4.530679014 0.568943584582 0.0
0.0 4.532030245 0.571750834645 0.0
0.0 4.533381477 0.573230217768 0.0
0.0 4.534732708 0.574097933435 0.0
0.0 4.53608394 0.57447741983 0.0
0.0 4.537435171 0.574334292133 0.0
0.0 4.538786403 0.573963990304 0.0
0.0 4.540137634 0.573447463508 0.0
0.0 4.541488865 0.572796506741 0.0
0.0 4.542840097 0.572172101325 0.0
0.0 4.544191328 0.571581780012 0.0
0.0 4.54554256 0.571061415842 0.0
0.0 4.546893791 0.570639755493 0.0
0.0 4.548245023 0.570312247715 0.0
0.0 4.549596254 0.570136510083 0.0
0.0 4.550947485 0.570119003824 0.0
0.0 4.552298717 0.570194980175 0.0
0.0 4.553649948 0.570384477811 0.0
0.0 4.55500118 0.570745007821 0.0
0.0 4.556352411 0.571177922547 0.0
0.0 4.557703643 0.571685719998 0.0
0.0 4.559054874 0.572280170243 0.0
0.0 4.560406106 0.572924156808 0.0
0.0 4.561757337 0.573986959436 0.0
0.0 4.563108568 0.574813972067 0.0
0.0 4.5644598 0.575531909235 0.0
0.0 4.565811031 0.57625810265 0.0
0.0 4.567162263 0.577005918494 0.0
0.0 4.568513494 0.577727333872 0.0
0.0 4.569864726 0.578418280575 0.0
0.0 4.571215957 0.579168953418 0.0
0.0 4.572567188 0.580179650229 0.0
0.0 4.57391842 0.580771562559 0.0
0.0 4.575269651 0.581259181221 0.0
0.0 4.576620883 0.581716252836 0.0
0.0 4.577972114 0.58214277016 0.0
0.0 4.579323346 0.582509459975 0.0
0.0 4.580674577 0.582822132302 0.0
0.0 4.582025809 0.58308279068 0.0
0.0 4.58337704 0.583290603095 0.0
0.0 4.584728271 0.583467293226 0.0
0.0 4.586079503 0.583612773773 0.0
0.0 4.587430734 0.58367589445 0.0
0.0 4.588781966 0.58373001753 0.0
0.0 4.590133197 0.583773908041 0.0
0.0 4.591484429 0.583772598718 0.0
0.0 4.59283566 0.583746382198 0.0
0.0 4.594186891 0.583694407143 0.0
0.0 4.595538123 0.583659692125 0.0
0.0 4.596889354 0.583615314413 0.0
0.0 4.598240586 0.583561683153 0.0
0.0 4.599591817 0.583489851198 0.0
0.0 4.600943049 0.583438175597 0.0
0.0 4.60229428 0.583408742349 0.0
0.0 4.603645512 0.583381996093 0.0
0.0 4.604996743 0.583358327805 0.0
0.0 4.606347974 0.583338656645 0.0
0.0 4.607699206 0.583363686391 0.0
0.0 4.609050437 0.583386603054 0.0
0.0 4.610401669 0.583421497255 0.0
0.0 4.6117529 0.583510470697 0.0
0.0 4.613104132 0.583618631234 0.0
0.0 4.614455363 0.583756502456 0.0
0.0 4.615806595 0.583892872865 0.0
0.0 4.617157826 0.584035260638 0.0
0.0 4.618509057 0.584190991101 0.0
0.0 4.619860289 0.584369980078 0.0
0.0 4.62121152 0.58448384785 0.0
0.0 4.622562752 0.584569167679 0.0
0.0 4.623913983 0.584661797106 0.0
0.0 4.625265215 0.584759111229 0.0
0.0 4.626616446 0.584867331181 0.0
0.0 4.627967677 0.5849495491 0.0
0.0 4.629318909 0.585021479762 0.0
0.0 4.63067014 0.58509665771 0.0
0.0 4.632021372 0.585160496563 0.0
0.0 4.633372603 0.585209852998 0.0
0.0 4.634723835 0.585210902321 0.0
0.0 4.636075066 0.585212523618 0.0
0.0 4.637426298 0.585212897695 0.0
0.0 4.638777529 0.585196750288 0.0
0.0 4.64012876 0.585153005357 0.0
0.0 4.641479992 0.585088262091 0.0
0.0 4.642831223 0.58501984486 0.0
0.0 4.644182455 0.584933120094 0.0
0.0 4.645533686 0.584825894291 0.0
0.0 4.646884918 0.584682275296 0.0
0.0 4.648236149 0.584538784595 0.0
0.0 4.64958738 0.584401165072 0.0
0.0 4.650938612 0.584224896026 0.0
0.0 4.652289843 0.584493203702 0.0
0.0 4.653641075 0.584262556475 0.0
0.0 4.654992306 0.584035979936 0.0
0.0 4.656343538 0.583802521464 0.0
0.0 4.657694769 0.583532760786 0.0
0.0 4.659046001 0.583247111919 0.0
0.0 4.660397232 0.582956050505 0.0
0.0 4.661748463 0.582685250711 0.0
0.0 4.663099695 0.582397181232 0.0
0.0 4.664450926 0.582093549536 0.0
0.0 4.665802158 0.581779771501 0.0
0.0 4.667153389 0.581470447556 0.0
0.0 4.668504621 0.58116723032 0.0
0.0 4.669855852 0.580825784155 0.0
0.0 4.671207083 0.58048115328 0.0
0.0 4.672558315 0.580136061445 0.0
0.0 4.673909546 0.579799405506 0.0
0.0 4.675260778 0.579456152525 0.0
0.0 4.676612009 0.579079938113 0.0
0.0 4.677963241 0.578700326181 0.0
0.0 4.679314472 0.578319632591 0.0
0.0 4.680665704 0.577924945106 0.0
0.0 4.682016935 0.577499806817 0.0
0.0 4.683368166 0.577051563054 0.0
0.0 4.684719398 0.576596178683 0.0
0.0 4.686070629 0.576130621151 0.0
0.0 4.687421861 0.575650045788 0.0
0.0 4.688773092 0.575114109414 0.0
0.0 4.690124324 0.574560942014 0.0
0.0 4.691475555 0.573988876315 0.0
0.0 4.692826787 0.573368703049 0.0
0.0 4.694178018 0.57271830953 0.0
0.0 4.695529249 0.571984431179 0.0
0.0 4.696880481 0.571215634098 0.0
0.0 4.698231712 0.570874541896 0.0
0.0 4.699582944 0.569944262013 0.0
0.0 4.700934175 0.5689511053 0.0
0.0 4.702285407 0.56786260433 0.0
0.0 4.703636638 0.566648350127 0.0
0.0 4.704987869 0.565353185905 0.0
0.0 4.706339101 0.56387943981 0.0
0.0 4.707690332 0.562228102639 0.0
0.0 4.709041564 0.560469443244 0.0
0.0 4.710392795 0.558451758016 0.0
0.0 4.711744027 0.556273982047 0.0
0.0 4.713095258 0.553897900413 0.0
0.0 4.71444649 0.551099383808 0.0
0.0 4.715797721 0.548108377561 0.0
0.0 4.717148952 0.544780063986 0.0
0.0 4.718500184 0.540981947018 0.0
0.0 4.719851415 0.536940393387 0.0
0.0 4.721202647 0.532258081239 0.0
0.0 4.722553878 0.527161919536 0.0
0.0 4.72390511 0.521773889634 0.0
0.0 4.725256341 0.515509995704 0.0
0.0 4.726607572 0.508943591413 0.0
0.0 4.727958804 0.501860969929 0.0
0.0 4.729310035 0.494066745089 0.0
0.0 4.730661267 0.48601283424 0.0
0.0 4.732012498 0.477190125806 0.0
0.0 4.73336373 0.467926160543 0.0
0.0 4.734714961 0.45869633009 0.0
0.0 4.736066193 0.448448900688 0.0
0.0 4.737417424 0.438039421455 0.0
0.0 4.738768655 0.427335146522 0.0
0.0 4.740119887 0.416238832991 0.0
0.0 4.741471118 0.405261243103 0.0
0.0 4.74282235 0.393984838504 0.0
0.0 4.744173581 0.382769614928 0.0
0.0 4.745524813 0.371804978925 0.0
0.0 4.746876044 0.360717690858 0.0
0.0 4.748227276 0.350059636006 0.0
0.0 4.749578507 0.339671380525 0.0
0.0 4.750929738 0.329562525301 0.0
0.0 4.75228097 0.319975706708 0.0
0.0 4.753632201 0.31070830998 0.0
0.0 4.754983433 0.301955501499 0.0
0.0 4.756334664 0.293723753632 0.0
0.0 4.757685896 0.285908031573 0.0
0.0 4.759037127 0.278657150372 0.0
0.0 4.760388358 0.271887231403 0.0
0.0 4.76173959 0.265601779126 0.0
0.0 4.763090821 0.25981270681 0.0
0.0 4.764442053 0.254448615234 0.0
0.0 4.765793284 0.249543916348 0.0
0.0 4.767144516 0.24505833683 0.0
0.0 4.768495747 0.240959081769 0.0
0.0 4.769846979 0.237232571312 0.0
0.0 4.77119821 0.233842531528 0.0
0.0 4.772549441 0.230776717446 0.0
0.0 4.773900673 0.228007795238 0.0
0.0 4.775251904 0.225518364074 0.0
0.0 4.776603136 0.22328012077 0.0
0.0 4.777954367 0.221274195107 0.0
0.0 4.779305599 0.219483632354 0.0
0.0 4.78065683 0.217885126669 0.0
0.0 4.782008061 0.216470938013 0.0
0.0 4.783359293 0.21521850082 0.0
0.0 4.784710524 0.214115680162 0.0
0.0 4.786061756 0.213155205857 0.0
0.0 4.787412987 0.212315743269 0.0
0.0 4.788764219 0.211591327322 0.0
0.0 4.79011545 0.210966246454 0.0
0.0 4.791466682 0.210431881363 0.0
0.0 4.792817913 0.20998885736 0.0
0.0 4.794169144 0.209622371604 0.0
0.0 4.795520376 0.20933049679 0.0
0.0 4.796871607 0.209102488655 0.0
0.0 4.798222839 0.208931482389 0.0
0.0 4.79957407 0.208820247087 0.0
0.0 4.800925302 0.208757003381 0.0
0.0 4.802276533 0.208740515092 0.0
0.0 4.803627764 0.208763143684 0.0
0.0 4.804978996 0.208820924484 0.0
0.0 4.806330227 0.208913000672 0.0
0.0 4.807681459 0.209035092338 0.0
0.0 4.80903269 0.209190357594 0.0
0.0 4.810383922 0.209369265746 0.0
0.0 4.811735153 0.209572765289 0.0
0.0 4.813086385 0.209805268549 0.0
0.0 4.814437616 0.210057570236 0.0
0.0 4.815788847 0.210328755409 0.0
0.0 4.817140079 0.210615588817 0.0
0.0 4.81849131 0.21091727252 0.0
0.0 4.819842542 0.21123449778 0.0
0.0 4.821193773 0.211565045639 0.0
0.0 4.822545005 0.211908140737 0.0
0.0 4.823896236 0.212263820091 0.0
0.0 4.825247468 0.212630131977 0.0
0.0 4.826598699 0.213006737645 0.0
0.0 4.82794993 0.213391977054 0.0
0.0 4.829301162 0.213785378854 0.0
0.0 4.830652393 0.214190875354 0.0
0.0 4.832003625 0.214604846507 0.0
0.0 4.833354856 0.215028465279 0.0
0.0 4.834706088 0.215456628132 0.0
0.0 4.836057319 0.215889140598 0.0
0.0 4.83740855 0.216329178849 0.0
0.0 4.838759782 0.216775233066 0.0
0.0 4.840111013 0.217229164457 0.0
0.0 4.841462245 0.217686136787 0.0
0.0 4.842813476 0.218145997122 0.0
0.0 4.844164708 0.218609845035 0.0
0.0 4.845515939 0.219077784096 0.0
0.0 4.846867171 0.219550591104 0.0
0.0 4.848218402 0.220026542469 0.0
0.0 4.849569633 0.220505464147 0.0
0.0 4.850920865 0.22098867959 0.0
0.0 4.852272096 0.221475391934 0.0
0.0 4.853623328 0.221965735107 0.0
0.0 4.854974559 0.222459581195 0.0
0.0 4.856325791 0.222957060043 0.0
0.0 4.857677022 0.223459468309 0.0
0.0 4.859028253 0.223964952427 0.0
0.0 4.860379485 0.224469552151 0.0
0.0 4.861730716 0.224975596326 0.0
0.0 4.863081948 0.225482379669 0.0
0.0 4.864433179 0.225994338959 0.0
0.0 4.865784411 0.226509845038 0.0
0.0 4.867135642 0.227027456393 0.0
0.0 4.868486874 0.227546937249 0.0
0.0 4.869838105 0.228068055305 0.0
0.0 4.871189336 0.22859306964 0.0
0.0 4.872540568 0.229121172264 0.0
0.0 4.873891799 0.229649127568 0.0
0.0 4.875243031 0.230178326756 0.0
0.0 4.876594262 0.230708243675 0.0
0.0 4.877945494 0.231241327573 0.0
0.0 4.879296725 0.231777237955 0.0
0.0 4.880647956 0.232313522498 0.0
0.0 4.881999188 0.232851217949 0.0
0.0 4.883350419 0.233390594121 0.0
0.0 4.884701651 0.233932821008 0.0
0.0 4.886052882 0.234478292634 0.0
0.0 4.887404114 0.235023382942 0.0
0.0 4.888755345 0.235569272478 0.0
0.0 4.890106577 0.236115457511 0.0
0.0 4.891457808 0.236663915534 0.0
0.0 4.892809039 0.237215383747 0.0
0.0 4.894160271 0.23776786554 0.0
0.0 4.895511502 0.2383215598 0.0
0.0 4.896862734 0.238877135418 0.0
0.0 4.898213965 0.239434197298 0.0
0.0 4.899565197 0.23999240753 0.0
0.0 4.900916428 0.240550578008 0.0
0.0 4.90226766 0.241108616617 0.0
0.0 4.903618891 0.24166952307 0.0
0.0 4.904970122 0.242232571973 0.0
0.0 4.906321354 0.242799263185 0.0
0.0 4.907672585 0.243366674571 0.0
0.0 4.909023817 0.243934124891 0.0
0.0 4.910375048 0.244503903345 0.0
0.0 4.91172628 0.245075650499 0.0
0.0 4.913077511 0.24565106177 0.0
0.0 4.914428742 0.246228168962 0.0
0.0 4.915779974 0.246806339745 0.0
0.0 4.917131205 0.24738590107 0.0
0.0 4.918482437 0.247966822696 0.0
0.0 4.919833668 0.248548985731 0.0
0.0 4.9211849 0.24913242594 0.0
0.0 4.922536131 0.249717791386 0.0
0.0 4.923887363 0.250304833592 0.0
0.0 4.925238594 0.250894312884 0.0
0.0 4.926589825 0.251484206407 0.0
0.0 4.927941057 0.252074454704 0.0
0.0 4.929292288 0.252664932387 0.0
0.0 4.93064352 0.253256417194 0.0
0.0 4.931994751 0.253849211059 0.0
0.0 4.933345983 0.254442603916 0.0
0.0 4.934697214 0.255035588122 0.0
0.0 4.936048445 0.255629831079 0.0
0.0 4.937399677 0.256225411483 0.0
0.0 4.938750908 0.256823711261 0.0
0.0 4.94010214 0.257423615794 0.0
0.0 4.941453371 0.258023746087 0.0
0.0 4.942804603 0.258625646282 0.0
0.0 4.944155834 0.2592293274 0.0
0.0 4.945507066 0.259835709703 0.0
0.0 4.946858297 0.26044437051 0.0
0.0 4.948209528 0.261054141249 0.0
0.0 4.94956076 0.26166522058 0.0
0.0 4.950911991 0.26227775751 0.0
0.0 4.952263223 0.262891556462 0.0
0.0 4.953614454 0.263506526549 0.0
0.0 4.954965686 0.264122533272 0.0
0.0 4.956316917 0.264739778902 0.0
0.0 4.957668148 0.26535927649 0.0
0.0 4.95901938 0.265980190982 0.0
0.0 4.960370611 0.266600720595 0.0
0.0 4.961721843 0.267222003421 0.0
0.0 4.963073074 0.267843552906 0.0
0.0 4.964424306 0.268467605693 0.0
0.0 4.965775537 0.26909375265 0.0
0.0 4.967126769 0.269720482228 0.0
0.0 4.968478 0.270348566841 0.0
0.0 4.969829231 0.270978353787 0.0
0.0 4.971180463 0.271610710835 0.0
0.0 4.972531694 0.272247186638 0.0
0.0 4.973882926 0.272883977942 0.0
0.0 4.975234157 0.27352102088 0.0
0.0 4.976585389 0.274157087241 0.0
0.0 4.97793662 0.274794033124 0.0
0.0 4.979287852 0.275434146097 0.0
0.0 4.980639083 0.276075521152 0.0
0.0 4.981990314 0.276717779444 0.0
0.0 4.983341546 0.277361484925 0.0
0.0 4.984692777 0.278006768441 0.0
0.0 4.986044009 0.278654762135 0.0
0.0 4.98739524 0.279304803442 0.0
0.0 4.988746472 0.279953451041 0.0
0.0 4.990097703 0.280603688439 0.0
0.0 4.991448934 0.281255233081 0.0
0.0 4.992800166 0.281909623302 0.0
0.0 4.994151397 0.282567677215 0.0
0.0 4.995502629 0.283225539967 0.0
0.0 4.99685386 0.283883171322 0.0
0.0 4.998205092 0.284539076249 0.0
0.0 4.999556323 0.28519655126 0.0
0.0 5.000907555 0.285854694291 0.0
0.0 5.002258786 0.286517412537 0.0
0.0 5.003610017 0.287181729891 0.0
0.0 5.004961249 0.287847782545 0.0
0.0 5.00631248 0.288515742126 0.0
0.0 5.007663712 0.289185464958 0.0
0.0 5.009014943 0.289856920773 0.0
0.0 5.010366175 0.29052761469 0.0
0.0 5.011717406 0.29119939319 0.0
0.0 5.013068637 0.291872100773 0.0
0.0 5.014419869 0.292547126539 0.0
0.0 5.0157711 0.293224789743 0.0
0.0 5.017122332 0.293903902979 0.0
0.0 5.018473563 0.29458390329 0.0
0.0 5.019824795 0.295265221964 0.0
0.0 5.021176026 0.295947949073 0.0
0.0 5.022527258 0.296630853558 0.0
0.0 5.023878489 0.297314316431 0.0
0.0 5.02522972 0.297997539737 0.0
0.0 5.026580952 0.298685154928 0.0
0.0 5.027932183 0.299374144482 0.0
0.0 5.029283415 0.300064734632 0.0
0.0 5.030634646 0.30075573721 0.0
0.0 5.031985878 0.301446781414 0.0
0.0 5.033337109 0.302141685983 0.0
0.0 5.034688341 0.302838921872 0.0
0.0 5.036039572 0.303537489905 0.0
0.0 5.037390803 0.304236517328 0.0
0.0 5.038742035 0.304936995282 0.0
0.0 5.040093266 0.305638700364 0.0
0.0 5.041444498 0.306341872405 0.0
0.0 5.042795729 0.307046592973 0.0
0.0 5.044146961 0.307752086316 0.0
0.0 5.045498192 0.308458565017 0.0
0.0 5.046849423 0.309166421685 0.0
0.0 5.048200655 0.309875740776 0.0
0.0 5.049551886 0.31058597076 0.0
0.0 5.050903118 0.311297803239 0.0
0.0 5.052254349 0.312010602329 0.0
0.0 5.053605581 0.312725145524 0.0
0.0 5.054956812 0.313441628638 0.0
0.0 5.056308044 0.314159705988 0.0
0.0 5.057659275 0.314879180303 0.0
0.0 5.059010506 0.315600047195 0.0
0.0 5.060361738 0.316322308261 0.0
0.0 5.061712969 0.31704600005 0.0
0.0 5.063064201 0.317772654035 0.0
0.0 5.064415432 0.318500204995 0.0
0.0 5.065766664 0.319229170742 0.0
0.0 5.067117895 0.319957250965 0.0
0.0 5.068469126 0.320685699237 0.0
0.0 5.069820358 0.321417478964 0.0
0.0 5.071171589 0.322152303721 0.0
0.0 5.072522821 0.322887900226 0.0
0.0 5.073874052 0.323622697092 0.0
0.0 5.075225284 0.324359649533 0.0
0.0 5.076576515 0.325098543565 0.0
0.0 5.077927747 0.325839003073 0.0
0.0 5.079278978 0.326580886115 0.0
0.0 5.080630209 0.327324178731 0.0
0.0 5.081981441 0.328068882536 0.0
0.0 5.083332672 0.328814997491 0.0
0.0 5.084683904 0.32956252576 0.0
0.0 5.086035135 0.330311467302 0.0
0.0 5.087386367 0.331061824285 0.0
0.0 5.088737598 0.331813596663 0.0
0.0 5.090088829 0.332566786051 0.0
0.0 5.091440061 0.333321394073 0.0
0.0 5.092791292 0.334077420672 0.0
0.0 5.094142524 0.334834868032 0.0
0.0 5.095493755 0.335593736091 0.0
0.0 5.096844987 0.336354027036 0.0
0.0 5.098196218 0.337115741808 0.0
0.0 5.09954745 0.337878902862 0.0
