0 0
0.379 0
0.1895 0.32822363
-0.1895 0.32822363
-0.379 0
-0.1895 -0.32822363
0.1895 -0.32822363
0.841 0
0.4205 0.72832736
-0.4205 0.72832736
-0.841 0
-0.4205 -0.72832736
0.4205 -0.72832736
1.237 0
0.6185 1.0712734
-0.6185 1.0712734
-1.237 0
-0.6185 -1.0712734
0.6185 -1.0712734
1.535 0
0.7675 1.329349
-0.7675 1.329349
-1.535 0
-0.7675 -1.329349
0.7675 -1.329349
1.708 0
0.854 1.4791714
-0.854 1.4791714
-1.708 0
-0.854 -1.4791714
0.854 -1.4791714
1.185 1.185
-1.185 1.185
1.185 -1.185
-1.185 -1.185
