# Column 0: Name
# Column 1: Type
# Column 2: Curvature R (mm)
# Column 3: Thickness dz (mm)
# Column 4: Outer Radius (mm)
# Column 5: Inner Radius (mm)
# Column 6: Conic Constant Kappa
# Column 7 - 14: Aspheric Coefficient a_3 - a_10 (a_n r^n in meters)
# Column 15: Coating file
# Column 16: Medium file
# (0)   	(1)     (2)                   (3)     (4)    		(5)     (6)	    (7)  (8)  (9)  (10) (11) (12) (13) (14)(15) (16)     
primary  	mirror	15879.72199999988776  	0.0	3302.6	  	705.0	-0.9966605  0.0  0.0  0.0  0.0  0.0  0.0  0.0  0.0 none vacuum
secondary  	mirror	1778.912670000002707	0.0	369.0   	0.0	-1.65981    0.0  0.0  0.0  0.0  0.0  0.0  0.0  0.0 none vacuum
tertiarySq  	mirror	3016.226999999546513  	0.0	351      	0.0	-0.6595364  0.0  0.0  0.0  0.0  0.0  0.0  0.0  0.0 none vacuum
FSM      	mirror	0.0  			0.0	86.25  		0.0	0.0         0.0  0.0  0.0  0.0  0.0  0.0  0.0  0.0 none vacuum
POMSq      	mirror	1554.999999999896665 	0.0	63.15    	0.0	0.0         0.0  0.0  0.0  0.0  0.0  0.0  0.0  0.0 none vacuum
FFF  		mirror 	475281.9971999999522	0.0	46.81130624213 	0.0	0.0         0.0  0.0  0.0  0.0  0.0  0.0  0.0  0.0 none vacuum
col11		lens	122.9010899999999949	0.0	43.5	 	0.0	0.0         0.0  0.0  0.0  0.0  0.0  0.0  0.0  0.0 none ZnSe_37K.txt
col12		lens	136.6041800000000103	0.0	43.35479374842	0.0	0.0         0.0  0.0  0.0  0.0  0.0  0.0  0.0  0.0 none vacuum
col21		lens	-184.2484099999999985	0.0	43.3086027514	0.0	0.0         0.0  0.0  0.0  0.0  0.0  0.0  0.0  0.0 none BaF2_37K.txt
col22		lens	0.0			0.0	42.3444940007	0.0	0.0         0.0  0.0  0.0  0.0  0.0  0.0  0.0  0.0 none vacuum
col31		lens	0.0			0.0	41.89314247646	0.0	0.0         0.0  0.0  0.0  0.0  0.0  0.0  0.0  0.0 none LiF2_37K.txt
col32		lens	-1096.182019999999991	0.0	40.88842822985	0.0	0.0         0.0  0.0  0.0  0.0  0.0  0.0  0.0  0.0 none vacuum
DBS1		lens	0.0			0.0	31.79786904571	0.0	0.0         0.0  0.0  0.0  0.0  0.0  0.0  0.0  0.0 none Si_30K.txt
DBS2		lens	0.0			0.0	32.15700401958	0.0	0.0         0.0  0.0  0.0  0.0  0.0  0.0  0.0  0.0 none vacuum
LWP1		lens	0.0			0.0	17.97842394889 	0.0	0.0         0.0  0.0  0.0  0.0  0.0  0.0  0.0  0.0 none vacuum
LWP2		lens	0.0			0.0	17.49913283627	0.0	0.0         0.0  0.0  0.0  0.0  0.0  0.0  0.0  0.0 none vacuum
LWF1		filter	0.0			0.0	17.83715226261  0.0	0.0         0.0  0.0  0.0  0.0  0.0  0.0  0.0  0.0 throughput/F405N_A.txt Si_30K.txt
LWF2		filter	0.0			0.0	18.02019641833	0.0	0.0         0.0  0.0  0.0  0.0  0.0  0.0  0.0  0.0 none vacuum
LW11		lens	42.27479999999999990	0.0	24.0 		0.0	0.0         0.0  0.0  0.0  0.0  0.0  0.0  0.0  0.0 none LiF2_37K.txt
LW12		lens	57.02590000000000023 	0.0	23.24667628549 	0.0	0.0         0.0  0.0  0.0  0.0  0.0  0.0  0.0  0.0 none vacuum
LW21		lens	454.6290200000000561	0.0	24.65014075324	0.0	0.0         0.0  0.0  0.0  0.0  0.0  0.0  0.0  0.0 none BaF2_37K.txt
LW22		lens	59.90059000000000634	0.0	26.06114241729	0.0	0.0         0.0  0.0  0.0  0.0  0.0  0.0  0.0  0.0 none vacuum
LW31       	lens  	57.08559999999999757  	0.0 	25.85334537745	0.0    	0.0         0.0  0.0  0.0  0.0  0.0  0.0  0.0  0.0 none ZnSe_37K.txt
LW32		lens	66.39339999999999967	0.0	28.43158531549 	0.0	-.017627939 0.0 1.004637e-11 0.0 3.813024e-15 0.0 -1.425781e-18 0.0 6.494986e-22 none vacuum
LWFPMSq		mirror	0.0			0.0	37.3		0.0	0.0         0.0  0.0  0.0  0.0  0.0  0.0  0.0  0.0 none vacuum
LWFPA		det	0.0			0.0	27.23884760803	0.0	0.0         0.0  0.0  0.0  0.0  0.0  0.0  0.0  0.0 none vacuum