SMz                                1       body  5 random          0  0.0          7169.041556  0.0  0.0  0.0  0.0  1.0                  0.0                  0.0  
TMy                                2       body  4 random          1  0.0                -.186  0.0  0.0  0.0  0.0  1.0                  0.0                  0.0  
TMz                                2       body  5 random          2  0.0         -796.2719229  0.0  0.0  0.0  0.0  1.0                  0.0                  0.0  
FSMy                               3       body  4 random          3  0.0         -2.356548000  0.0  0.0  0.0  0.0  1.0                  0.0                  0.0  
FSMz                               3       body  5 random          4  0.0          1047.847900  0.0  0.0  0.0  0.0  1.0                  0.0                  0.0  
POMx                               4       body  3 random          5  0.0         -54.76313800  0.0  0.0  0.0  0.0  1.0                  0.0                  0.0  
POMy                               4       body  4 random          6  0.0         -306.8260525  0.0  0.0  0.0  0.0  1.0                  0.0                  0.0  
POMz                               4       body  5 random          7  0.0         -1889.002471  0.0  0.0  0.0  0.0  1.0                  0.0                  0.0  
POMphi                             4       body  0 random          8  0.0                  1.0  0.0  0.0  0.0  0.0  0.0        0.16477716547                  0.0  
POMtheta                           4       body  2 random          9  0.0        5.98158192792  0.0  0.0  0.0  0.0  1.0                  0.0                  0.0  
FFFx                               5       body  3 random         10  0.0         -112.4997852  0.0  0.0  0.0  0.0  1.0                  0.0                  0.0  
FFFy                               5       body  4 random         11  0.0         -68.06801797  0.0  0.0  0.0  0.0  1.0                  0.0                  0.0  
FFFz                               5       body  5 random         12  0.0         -1445.119442  0.0  0.0  0.0  0.0  1.0                  0.0                  0.0  
FFFphi                             5       body  0 random         13  0.0                  1.0  0.0  0.0  0.0  0.0  0.0        1.84950606131                  0.0  
FFFtheta                           5       body  2 random         14  0.0        6.21522201243  0.0  0.0  0.0  0.0  1.0                  0.0                  0.0  
col11x                             6       body  3 random         15  0.0         -112.4997609  0.0  0.0  0.0  0.0  1.0                  0.0                  0.0  
col11y                             6       body  4 random         16  0.0         -15.39201909  0.0  0.0  0.0  0.0  1.0                  0.0                  0.0  
col11z                             6       body  5 random         17  0.0         -1535.583489  0.0  0.0  0.0  0.0  1.0                  0.0                  0.0  
col12x                             7       body  3 random         18  0.0         -112.4997342  0.0  0.0  0.0  0.0  1.0                  0.0                  0.0  
col12y                             7       body  4 random         19  0.0         -8.951113973  0.0  0.0  0.0  0.0  1.0                  0.0                  0.0  
col12z                             7       body  5 random         20  0.0         -1546.644896  0.0  0.0  0.0  0.0  1.0                  0.0                  0.0  
col21x                             8       body  3 random         21  0.0         -112.4997300  0.0  0.0  0.0  0.0  1.0                  0.0                  0.0  
col21y                             8       body  4 random         22  0.0         -7.944722549  0.0  0.0  0.0  0.0  1.0                  0.0                  0.0  
col21z                             8       body  5 random         23  0.0         -1548.373241  0.0  0.0  0.0  0.0  1.0                  0.0                  0.0  
col22x                             9       body  3 random         24  0.0         -112.4996935  0.0  0.0  0.0  0.0  1.0                  0.0                  0.0  
col22y                             9       body  4 random         25  0.0          .8612024152  0.0  0.0  0.0  0.0  1.0                  0.0                  0.0  
col22z                             9       body  5 random         26  0.0         -1563.496260  0.0  0.0  0.0  0.0  1.0                  0.0                  0.0  
col31x                            10       body  3 random         27  0.0         -112.4996852  0.0  0.0  0.0  0.0  1.0                  0.0                  0.0  
col31y                            10       body  4 random         28  0.0          2.873985264  0.0  0.0  0.0  0.0  1.0                  0.0                  0.0  
col31z                            10       body  5 random         29  0.0         -1566.952950  0.0  0.0  0.0  0.0  1.0                  0.0                  0.0  
col32x                            11       body  3 random         30  0.0         -112.4996620  0.0  0.0  0.0  0.0  1.0                  0.0                  0.0  
col32y                            11       body  4 random         31  0.0          8.459457670  0.0  0.0  0.0  0.0  1.0                  0.0                  0.0  
col32z                            11       body  5 random         32  0.0         -1576.545264  0.0  0.0  0.0  0.0  1.0                  0.0                  0.0  
colphi                 6|7|8|9|10|11       body  0 random         33  0.0                  1.0  0.0  0.0  0.0  0.0  0.0        3.14158850968                  0.0  
coltheta               6|7|8|9|10|11       body  2 random         34  0.0        5.75589249333  0.0  0.0  0.0  0.0  1.0                  0.0                  0.0  
DBS1x                             12       body  3 random         35  0.0         -112.4993949  0.0  0.0  0.0  0.0  1.0                  0.0                  0.0  
DBS1y                             12       body  4 random         36  0.0          72.91882841  0.0  0.0  0.0  0.0  1.0                  0.0                  0.0  
DBS1z                             12       body  5 random         37  0.0         -1687.245759  0.0  0.0  0.0  0.0  1.0                  0.0                  0.0  
DBS2x                             13       body  3 random         38  0.0         -112.4992935  0.0  0.0  0.0  0.0  1.0                  0.0                  0.0  
DBS2y                             13       body  4 random         39  0.0          71.65959557  0.0  0.0  0.0  0.0  1.0                  0.0                  0.0  
DBS2z                             13       body  5 random         40  0.0         -1702.192810  0.0  0.0  0.0  0.0  1.0                  0.0                  0.0  
DBSphi                         12|13       body  0 random         41  0.0                  1.0  0.0  0.0  0.0  0.0  0.0    8.05395133621e-05                  0.0  
DBStheta                       12|13       body  2 random         42  0.0        6.19913753355  0.0  0.0  0.0  0.0  1.0                  0.0                  0.0  
LWP1x                             14       body  3 random         43  0.0         -112.4999297  0.0  0.0  0.0  0.0  1.0                  0.0                  0.0  
LWP1y                             14       body  4 random         44  0.0          123.7925201  0.0  0.0  0.0  0.0  1.0                  0.0                  0.0  
LWP1z                             14       body  5 random         45  0.0         -1787.555472  0.0  0.0  0.0  0.0  1.0                  0.0                  0.0  
LWP2x                             15       body  3 random         46  0.0         -112.4983746  0.0  0.0  0.0  0.0  1.0                  0.0                  0.0  
LWP2y                             15       body  4 random         47  0.0          126.3078625  0.0  0.0  0.0  0.0  1.0                  0.0                  0.0  
LWP2z                             15       body  5 random         48  0.0         -1791.876704  0.0  0.0  0.0  0.0  1.0                  0.0                  0.0  
LWPphi                         14|15       body  0 random         49  0.0                  1.0  0.0  0.0  0.0  0.0  0.0        3.14097440425                  0.0  
LWPtheta                       14|15       body  2 random         50  0.0        5.75603959334  0.0  0.0  0.0  0.0  1.0                  0.0                  0.0  
LWF1x                             16       body  3 random         51  0.0         -112.4941727  0.0  0.0  0.0  0.0  1.0                  0.0                  0.0  
LWF1y                             16       body  4 random         52  0.0          133.1043178  0.0  0.0  0.0  0.0  1.0                  0.0                  0.0  
LWF1z                             16       body  5 random         53  0.0         -1803.552674  0.0  0.0  0.0  0.0  1.0                  0.0                  0.0  
LWF2x                             17       body  3 random         54  0.0         -112.1439979  0.0  0.0  0.0  0.0  1.0                  0.0                  0.0  
LWF2y                             17       body  4 random         55  0.0          135.6225741  0.0  0.0  0.0  0.0  1.0                  0.0                  0.0  
LWF2z                             17       body  5 random         56  0.0         -1807.857992  0.0  0.0  0.0  0.0  1.0                  0.0                  0.0  
LWFphi                         16|17       body  0 random         57  0.0                  1.0  0.0  0.0  0.0  0.0  0.0        3.00342416494                  0.0  
LWFtheta                       16|17       body  2 random         58  0.0        5.74974659872  0.0  0.0  0.0  0.0  1.0                  0.0                  0.0  
LW11x                             18       body  3 random         59  0.0         -112.2190553  0.0  0.0  0.0  0.0  1.0                  0.0                  0.0  
LW11y                             18       body  4 random         60  0.0          157.1706992  0.0  0.0  0.0  0.0  1.0                  0.0                  0.0  
LW11z                             18       body  5 random         61  0.0         -1844.908291  0.0  0.0  0.0  0.0  1.0                  0.0                  0.0  
LW12x                             19       body  3 random         62  0.0         -112.2167226  0.0  0.0  0.0  0.0  1.0                  0.0                  0.0  
LW12y                             19       body  4 random         63  0.0          160.9437129  0.0  0.0  0.0  0.0  1.0                  0.0                  0.0  
LW12z                             19       body  5 random         64  0.0         -1851.390139  0.0  0.0  0.0  0.0  1.0                  0.0                  0.0  
LW21x                             20       body  3 random         65  0.0         -112.2149908  0.0  0.0  0.0  0.0  1.0                  0.0                  0.0  
LW21y                             20       body  4 random         66  0.0          163.7449286  0.0  0.0  0.0  0.0  1.0                  0.0                  0.0  
LW21z                             20       body  5 random         67  0.0         -1856.202488  0.0  0.0  0.0  0.0  1.0                  0.0                  0.0  
LW22x                             21       body  3 random         68  0.0         -112.2095012  0.0  0.0  0.0  0.0  1.0                  0.0                  0.0  
LW22y                             21       body  4 random         69  0.0          172.6240874  0.0  0.0  0.0  0.0  1.0                  0.0                  0.0  
LW22z                             21       body  5 random         70  0.0         -1871.456438  0.0  0.0  0.0  0.0  1.0                  0.0                  0.0  
LW31x                             22       body  3 random         71  0.0         -112.2082572  0.0  0.0  0.0  0.0  1.0                  0.0                  0.0  
LW31y                             22       body  4 random         72  0.0          174.6363614  0.0  0.0  0.0  0.0  1.0                  0.0                  0.0  
LW31z                             22       body  5 random         73  0.0         -1874.913424  0.0  0.0  0.0  0.0  1.0                  0.0                  0.0  
LW32x                             23       body  3 random         74  0.0         -112.2052091  0.0  0.0  0.0  0.0  1.0                  0.0                  0.0  
LW32y                             23       body  4 random         75  0.0          179.5664326  0.0  0.0  0.0  0.0  1.0                  0.0                  0.0  
LW32z                             23       body  5 random         76  0.0         -1883.383040  0.0  0.0  0.0  0.0  1.0                  0.0                  0.0  
LW32phi            18|19|20|21|22|23       body  0 random         77  0.0                  1.0  0.0  0.0  0.0  0.0  0.0        3.14097440425                  0.0  
LW32theta          18|19|20|21|22|23       body  2 random         78  0.0        5.75603959334  0.0  0.0  0.0  0.0  1.0                  0.0                  0.0  
LWFPMx                            24       body  3 random         79  0.0         -112.1332923  0.0  0.0  0.0  0.0  1.0                  0.0                  0.0  
LWFPMy                            24       body  4 random         80  0.0          295.8898027  0.0  0.0  0.0  0.0  1.0                  0.0                  0.0  
LWFPMz                            24       body  5 random         81  0.0         -2083.220768  0.0  0.0  0.0  0.0  1.0                  0.0                  0.0  
LWFPMphi                          24       body  0 random         82  0.0                  1.0  0.0  0.0  0.0  0.0  0.0        2.03660358779                  0.0  
LWFPMtheta                        24       body  2 random         83  0.0        5.36957399386  0.0  0.0  0.0  0.0  1.0                  0.0                  0.0  
LWFPAx                            25       body  3 random         79  0.0         -198.1410122  0.0  0.0  0.0  0.0  1.0                  0.0                  0.0  
LWFPAy                            25       body  4 random         80  0.0          295.9836497  0.0  0.0  0.0  0.0  1.0                  0.0                  0.0  
LWFPAz                            25       body  5 random         81  0.0         -2083.298528  0.0  0.0  0.0  0.0  1.0                  0.0                  0.0  
LWFPAphi                          25       body  0 random         82  0.0                  1.0  0.0  0.0  0.0  0.0  0.0        1.55435694024                  0.0  
LWFPApsi                          25       body  1 random         83  0.0                  1.0  0.0  0.0  0.0  0.0  0.0         4.2155523449                  0.0  
LWFPAtheta                        25       body  2 random         83  0.0         4.7151199699  0.0  0.0  0.0  0.0  1.0                  0.0                  0.0  