0.50   2.70628907655
0.51   2.68828203882
0.52   2.67239237176
0.53   2.65822963401
0.54   2.6455006648
0.55   2.63397998003
0.56   2.62349053285
0.57   2.61389080857
0.58   2.60506592628
0.59   2.59692135219
0.60   2.58937836113
0.61   2.58237069649
0.62   2.57584206895
0.63   2.56974425397
0.64   2.56403562408
0.65   2.55868000169
0.66   2.55364575214
0.67   2.54890505857
0.68   2.54443333669
0.69   2.54020875797
0.70   2.53621185795
0.71   2.53242521199
0.72   2.52883316491
0.73   2.525421604
0.74   2.52217776741
0.75   2.51909008128
0.76   2.5161480207
0.77   2.51334199037
0.78   2.51066322169
0.79   2.50810368359
0.80   2.50565600505
0.81   2.50331340736
0.82   2.50106964485
0.83   2.49891895271
0.84   2.496856001
0.85   2.49487585392
0.86   2.49297393372
0.87   2.49114598852
0.88   2.48938806363
0.89   2.48769647588
0.90   2.48606779067
0.91   2.48449880123
0.92   2.48298651008
0.93   2.48152811217
0.94   2.48012097973
0.95   2.4787626485
0.96   2.47745080527
0.97   2.4761832765
0.98   2.47495801803
0.99   2.47377310561
1.00   2.47262672633
1.01   2.47151717073
1.02   2.4704428256
1.03   2.46940216735
1.04   2.46839375598
1.05   2.46741622941
1.06   2.46646829843
1.07   2.46554874189
1.08   2.46465640235
1.09   2.46379018204
1.10   2.46294903911
1.11   2.46213198418
1.12   2.4613380771
1.13   2.46056642403
1.14   2.45981617461
1.15   2.45908651942
1.16   2.45837668762
1.17   2.45768594465
1.18   2.45701359022
1.19   2.45635895637
1.20   2.45572140561
1.21   2.45510032931
1.22   2.45449514605
1.23   2.45390530018
1.24   2.45333026046
1.25   2.45276951872
1.26   2.45222258868
1.27   2.45168900478
1.28   2.45116832114
1.29   2.45066011056
1.30   2.45016396353
1.31   2.4496794874
1.32   2.44920630551
1.33   2.44874405641
1.34   2.44829239311
1.35   2.44785098241
1.36   2.4474195042
1.37   2.44699765087
1.38   2.44658512671
1.39   2.44618164737
1.40   2.44578693928
1.41   2.44540073923
1.42   2.44502279386
1.43   2.44465285921
1.44   2.44429070031
1.45   2.44393609078
1.46   2.44358881245
1.47   2.44324865502
1.48   2.44291541568
1.49   2.44258889881
1.50   2.44226891568
1.51   2.44195528416
1.52   2.44164782841
1.53   2.44134637865
1.54   2.44105077092
1.55   2.44076084678
1.56   2.44047645316
1.57   2.44019744209
1.58   2.43992367052
1.59   2.43965500011
1.60   2.43939129705
1.61   2.43913243189
1.62   2.43887827934
1.63   2.43862871814
1.64   2.4383836309
1.65   2.43814290393
1.66   2.43790642713
1.67   2.43767409383
1.68   2.43744580066
1.69   2.43722144745
1.70   2.4370009371
1.71   2.43678417546
1.72   2.43657107121
1.73   2.4363615358
1.74   2.43615548331
1.75   2.43595283038
1.76   2.4357534961
1.77   2.43555740192
1.78   2.43536447161
1.79   2.43517463112
1.80   2.43498780853
1.81   2.43480393401
1.82   2.43462293967
1.83   2.43444475958
1.84   2.43426932964
1.85   2.43409658754
1.86   2.43392647273
1.87   2.43375892629
1.88   2.43359389095
1.89   2.43343131099
1.90   2.4332711322
1.91   2.43311330186
1.92   2.43295776863
1.93   2.43280448255
1.94   2.43265339502
1.95   2.43250445867
1.96   2.43235762742
1.97   2.43221285636
1.98   2.43207010178
1.99   2.43192932107
2.00   2.43179047272
2.01   2.43165351631
2.02   2.43151841242
2.03   2.43138512262
2.04   2.43125360948
2.05   2.43112383648
2.06   2.43099576802
2.07   2.43086936938
2.08   2.4307446067
2.09   2.43062144695
2.10   2.4304998579
2.11   2.43037980811
2.12   2.4302612669
2.13   2.43014420433
2.14   2.43002859115
2.15   2.42991439885
2.16   2.42980159956
2.17   2.42969016609
2.18   2.42958007187
2.19   2.42947129097
2.20   2.42936379804
2.21   2.42925756833
2.22   2.42915257766
2.23   2.4290488024
2.24   2.42894621947
2.25   2.4288448063
2.26   2.42874454082
2.27   2.42864540149
2.28   2.42854736723
2.29   2.42845041742
2.30   2.42835453192
2.31   2.42825969102
2.32   2.42816587545
2.33   2.42807306636
2.34   2.42798124531
2.35   2.42789039426
2.36   2.42780049556
2.37   2.42771153193
2.38   2.42762348648
2.39   2.42753634267
2.40   2.42745008429
2.41   2.42736469551
2.42   2.42728016081
2.43   2.427196465
2.44   2.4271135932
2.45   2.42703153085
2.46   2.42695026369
2.47   2.42686977774
2.48   2.42679005932
2.49   2.42671109503
2.50   2.42663287173
2.51   2.42655537655
2.52   2.4264785969
2.53   2.42640252041
2.54   2.42632713498
2.55   2.42625242874
2.56   2.42617839007
2.57   2.42610500755
2.58   2.42603227002
2.59   2.42596016652
2.60   2.4258886863
2.61   2.42581781882
2.62   2.42574755376
2.63   2.42567788099
2.64   2.42560879056
2.65   2.42554027273
2.66   2.42547231793
2.67   2.42540491679
2.68   2.42533806011
2.69   2.42527173885
2.70   2.42520594415
2.71   2.42514066732
2.72   2.42507589983
2.73   2.4250116333
2.74   2.42494785951
2.75   2.42488457039
2.76   2.42482175803
2.77   2.42475941464
2.78   2.42469753259
2.79   2.42463610439
2.80   2.42457512267
2.81   2.42451458021
2.82   2.42445446991
2.83   2.42439478479
2.84   2.42433551801
2.85   2.42427666284
2.86   2.42421821268
2.87   2.42416016103
2.88   2.42410250151
2.89   2.42404522787
2.90   2.42398833393
2.91   2.42393181366
2.92   2.4238756611
2.93   2.42381987042
2.94   2.42376443587
2.95   2.42370935181
2.96   2.42365461268
2.97   2.42360021304
2.98   2.42354614752
2.99   2.42349241085
3.00   2.42343899785
3.01   2.42338590342
3.02   2.42333312255
3.03   2.42328065031
3.04   2.42322848187
3.05   2.42317661244
3.06   2.42312503736
3.07   2.42307375199
3.08   2.42302275182
3.09   2.42297203237
3.10   2.42292158926
3.11   2.42287141817
3.12   2.42282151486
3.13   2.42277187514
3.14   2.42272249491
3.15   2.4226733701
3.16   2.42262449675
3.17   2.42257587093
3.18   2.42252748879
3.19   2.42247934652
3.20   2.42243144039
3.21   2.42238376673
3.22   2.42233632191
3.23   2.42228910236
3.24   2.42224210458
3.25   2.42219532511
3.26   2.42214876055
3.27   2.42210240755
3.28   2.42205626281
3.29   2.42201032309
3.30   2.42196458517
3.31   2.42191904593
3.32   2.42187370224
3.33   2.42182855105
3.34   2.42178358937
3.35   2.42173881421
3.36   2.42169422266
3.37   2.42164981184
3.38   2.42160557892
3.39   2.4215615211
3.40   2.42151763564
3.41   2.42147391981
3.42   2.42143037096
3.43   2.42138698644
3.44   2.42134376366
3.45   2.42130070007
3.46   2.42125779315
3.47   2.42121504041
3.48   2.42117243941
3.49   2.42112998773
3.50   2.42108768299
3.51   2.42104552286
3.52   2.42100350501
3.53   2.42096162718
3.54   2.42091988712
3.55   2.4208782826
3.56   2.42083681145
3.57   2.42079547152
3.58   2.42075426068
3.59   2.42071317684
3.60   2.42067221794
3.61   2.42063138193
3.62   2.42059066682
3.63   2.42055007062
3.64   2.42050959137
3.65   2.42046922716
3.66   2.42042897608
3.67   2.42038883626
3.68   2.42034880585
3.69   2.42030888302
3.70   2.42026906598
3.71   2.42022935295
3.72   2.42018974218
3.73   2.42015023194
3.74   2.42011082053
3.75   2.42007150626
3.76   2.42003228747
3.77   2.41999316253
3.78   2.41995412982
3.79   2.41991518773
3.80   2.41987633471
3.81   2.41983756919
3.82   2.41979888963
3.83   2.41976029453
3.84   2.4197217824
3.85   2.41968335174
3.86   2.41964500112
3.87   2.41960672909
3.88   2.41956853422
3.89   2.41953041513
3.90   2.41949237042
3.91   2.41945439874
3.92   2.41941649872
3.93   2.41937866905
3.94   2.4193409084
3.95   2.41930321548
3.96   2.419265589
3.97   2.4192280277
3.98   2.41919053033
3.99   2.41915309565
4.00   2.41911572244
4.01   2.4190784095
4.02   2.41904115563
4.03   2.41900395967
4.04   2.41896682044
4.05   2.41892973681
4.06   2.41889270764
4.07   2.41885573181
4.08   2.41881880822
4.09   2.41878193576
4.10   2.41874511337
4.11   2.41870833998
4.12   2.41867161453
4.13   2.41863493598
4.14   2.4185983033
4.15   2.41856171548
4.16   2.4185251715
4.17   2.41848867039
4.18   2.41845221115
4.19   2.41841579282
4.20   2.41837941444
4.21   2.41834307506
4.22   2.41830677374
4.23   2.41827050957
4.24   2.41823428162
4.25   2.41819808899
4.26   2.41816193078
4.27   2.41812580612
4.28   2.41808971413
4.29   2.41805365394
4.30   2.41801762471
4.31   2.41798162559
4.32   2.41794565574
4.33   2.41790971433
4.34   2.41787380056
4.35   2.41783791362
4.36   2.41780205271
4.37   2.41776621703
4.38   2.41773040581
4.39   2.41769461828
4.40   2.41765885368
4.41   2.41762311125
4.42   2.41758739024
4.43   2.41755168992
4.44   2.41751600955
4.45   2.41748034842
4.46   2.4174447058
4.47   2.417409081
4.48   2.41737347332
4.49   2.41733788206
4.50   2.41730230654
4.51   2.41726674608
4.52   2.41723120001
4.53   2.41719566768
4.54   2.41716014842
4.55   2.41712464159
4.56   2.41708914655
4.57   2.41705366266
4.58   2.41701818929
4.59   2.41698272583
4.60   2.41694727165
4.61   2.41691182616
4.62   2.41687638874
4.63   2.4168409588
4.64   2.41680553576
4.65   2.41677011902
4.66   2.41673470802
4.67   2.41669930217
4.68   2.41666390092
4.69   2.4166285037
4.70   2.41659310995
4.71   2.41655771914
4.72   2.41652233072
4.73   2.41648694414
4.74   2.41645155888
4.75   2.41641617441
4.76   2.4163807902
4.77   2.41634540575
4.78   2.41631002054
4.79   2.41627463406
4.80   2.41623924581
4.81   2.41620385529
4.82   2.41616846202
4.83   2.41613306551
4.84   2.41609766528
4.85   2.41606226084
4.86   2.41602685172
4.87   2.41599143746
4.88   2.4159560176
4.89   2.41592059167
4.90   2.41588515922
4.91   2.4158497198
4.92   2.41581427297
4.93   2.41577881827
4.94   2.41574335528
4.95   2.41570788356
4.96   2.41567240268
4.97   2.41563691222
4.98   2.41560141175
4.99   2.41556590086
5.00   2.41553037913
5.01   2.41549484616
5.02   2.41545930153
5.03   2.41542374485
5.04   2.41538817572
5.05   2.41535259374
5.06   2.41531699853
5.07   2.41528138969
5.08   2.41524576684
5.09   2.41521012959
5.10   2.41517447759
5.11   2.41513881044
5.12   2.41510312778
5.13   2.41506742924
5.14   2.41503171446
5.15   2.41499598308
5.16   2.41496023474
5.17   2.41492446909
5.18   2.41488868577
5.19   2.41485288444
5.20   2.41481706475
5.21   2.41478122637
5.22   2.41474536894
5.23   2.41470949215
5.24   2.41467359564
5.25   2.41463767911
5.26   2.4146017422
5.27   2.41456578462
5.28   2.41452980602
5.29   2.41449380609
5.30   2.41445778452
5.31   2.41442174099
5.32   2.4143856752
5.33   2.41434958682
5.34   2.41431347557
5.35   2.41427734113
5.36   2.41424118321
5.37   2.4142050015
5.38   2.41416879571
5.39   2.41413256555
5.40   2.41409631073
5.41   2.41406003096
5.42   2.41402372595
5.43   2.41398739542
5.44   2.4139510391
5.45   2.41391465669
5.46   2.41387824792
5.47   2.41384181253
5.48   2.41380535023
5.49   2.41376886075
5.50   2.41373234384
5.51   2.41369579922
5.52   2.41365922663
5.53   2.41362262581
5.54   2.41358599649
5.55   2.41354933843
5.56   2.41351265136
5.57   2.41347593504
5.58   2.4134391892
5.59   2.41340241361
5.60   2.41336560802