0.0 0.551150024414 0.309215392537 0.0
0.0 0.552150024414 0.309066081219 0.0
0.0 0.553150024414 0.308916535086 0.0
0.0 0.554150024414 0.308766753209 0.0
0.0 0.555150024414 0.308616737208 0.0
0.0 0.556150024414 0.308466487621 0.0
0.0 0.557150024414 0.308316006444 0.0
0.0 0.558150024414 0.308165292977 0.0
0.0 0.559150024414 0.308014346395 0.0
0.0 0.560150024414 0.307863167287 0.0
0.0 0.561150024414 0.307711757662 0.0
0.0 0.562150024414 0.307560117796 0.0
0.0 0.563150024414 0.307408248597 0.0
0.0 0.564150024414 0.30725614963 0.0
0.0 0.565150024414 0.307103822378 0.0
0.0 0.566150024414 0.306951266863 0.0
0.0 0.567150024414 0.306798482576 0.0
0.0 0.568150024414 0.306645471874 0.0
0.0 0.569150024414 0.306492232073 0.0
0.0 0.570150024414 0.306338768324 0.0
0.0 0.571150024414 0.306185076883 0.0
0.0 0.572150024414 0.306031161664 0.0
0.0 0.573150024414 0.305877017867 0.0
0.0 0.574150024414 0.305722652403 0.0
0.0 0.575150024414 0.305568062899 0.0
0.0 0.576150024414 0.305413252592 0.0
0.0 0.577150024414 0.305258218796 0.0
0.0 0.578150024414 0.305102962771 0.0
0.0 0.579150024414 0.304947485963 0.0
0.0 0.580150024414 0.304791789336 0.0
0.0 0.581150024414 0.304635871213 0.0
0.0 0.582150024414 0.304479730177 0.0
0.0 0.583150024414 0.304323367188 0.0
0.0 0.584150024414 0.304166783535 0.0
0.0 0.585150024414 0.304009981731 0.0
0.0 0.586150024414 0.303852961816 0.0
0.0 0.587150024414 0.303695731355 0.0
0.0 0.588150024414 0.303538279391 0.0
0.0 0.589150024414 0.303380610901 0.0
0.0 0.590150024414 0.303222727454 0.0
0.0 0.591150024414 0.303064623602 0.0
0.0 0.592150024414 0.302906310753 0.0
0.0 0.593150024414 0.302747776743 0.0
0.0 0.594150024414 0.302589040679 0.0
0.0 0.595150024414 0.302430082545 0.0
0.0 0.596150024414 0.302270913626 0.0
0.0 0.597150024414 0.302111545011 0.0
0.0 0.598150024414 0.301952012711 0.0
0.0 0.599150024414 0.301792514158 0.0
0.0 0.600150024414 0.301633809274 0.0
0.0 0.601150024414 0.301478485752 0.0
0.0 0.602150024414 0.301333612972 0.0
0.0 0.603150024414 0.301259293943 0.0
0.0 0.604150024414 0.301441527412 0.0
0.0 0.605150024414 0.302283922022 0.0
0.0 0.606150024414 0.305125986617 0.0
0.0 0.607150024414 0.311453073634 0.0
0.0 0.608150024414 0.322582753073 0.0
0.0 0.609150024414 0.337996081945 0.0
0.0 0.610150024414 0.355330280117 0.0
0.0 0.611150024414 0.3716472243 0.0
0.0 0.612150024414 0.384059827414 0.0
0.0 0.613150024414 0.391554589792 0.0
0.0 0.614150024414 0.39535334156 0.0
0.0 0.615150024414 0.396870006586 0.0
0.0 0.616150024414 0.398736465459 0.0
0.0 0.617150024414 0.401964626603 0.0
0.0 0.618150024414 0.406202881829 0.0
0.0 0.619150024414 0.411062726468 0.0
0.0 0.620150024414 0.415578535775 0.0
0.0 0.621150024414 0.41973920758 0.0
0.0 0.622150024414 0.423422793259 0.0
0.0 0.623150024414 0.426348519845 0.0
0.0 0.624150024414 0.428685273602 0.0
0.0 0.625150024414 0.430208594051 0.0
0.0 0.626150024414 0.431327461121 0.0
0.0 0.627150024414 0.431933929004 0.0
0.0 0.628150024414 0.432187408935 0.0
0.0 0.629150024414 0.432174150878 0.0
0.0 0.630150024414 0.431835232401 0.0
0.0 0.631150024414 0.431263447104 0.0
0.0 0.632150024414 0.430373848257 0.0
0.0 0.633150024414 0.43047600476 0.0
0.0 0.634150024414 0.431808804545 0.0
0.0 0.635150024414 0.434095479577 0.0
0.0 0.636150024414 0.437328069692 0.0
0.0 0.637150024414 0.440515968786 0.0
0.0 0.638150024414 0.443186300932 0.0
0.0 0.639150024414 0.445416703698 0.0
0.0 0.640150024414 0.446789984243 0.0
0.0 0.641150024414 0.448090019561 0.0
0.0 0.642150024414 0.449400501943 0.0
0.0 0.643150024414 0.450678699269 0.0
0.0 0.644150024414 0.45213967465 0.0
0.0 0.645150024414 0.453302880883 0.0
0.0 0.646150024414 0.453924680858 0.0
0.0 0.647150024414 0.454317274163 0.0
0.0 0.648150024414 0.454719462312 0.0
0.0 0.649150024414 0.455248150545 0.0
0.0 0.650150024414 0.45622035674 0.0
0.0 0.651150024414 0.456717136505 0.0
0.0 0.652150024414 0.45706544078 0.0
0.0 0.653150024414 0.457525982816 0.0
0.0 0.654150024414 0.458061002875 0.0
0.0 0.655150024414 0.458530339437 0.0
0.0 0.656150024414 0.459167105519 0.0
0.0 0.657150024414 0.45937354522 0.0
0.0 0.658150024414 0.459688298131 0.0
0.0 0.659150024414 0.460452954279 0.0
0.0 0.660150024414 0.461729504822 0.0
0.0 0.661150024414 0.462871502059 0.0
0.0 0.662150024414 0.464325078396 0.0
0.0 0.663150024414 0.466115871319 0.0
0.0 0.664150024414 0.468414025188 0.0
0.0 0.665150024414 0.470740811657 0.0
0.0 0.666150024414 0.472900456774 0.0
0.0 0.667150024414 0.474105927639 0.0
0.0 0.668150024414 0.474490895809 0.0
0.0 0.669150024414 0.474174435256 0.0
0.0 0.670150024414 0.473152170338 0.0
0.0 0.671150024414 0.471712185608 0.0
0.0 0.672150024414 0.470206008509 0.0
0.0 0.673150024414 0.46896242278 0.0
0.0 0.674150024414 0.467814741254 0.0
0.0 0.675150024414 0.466960701411 0.0
0.0 0.676150024414 0.466977619785 0.0
0.0 0.677150024414 0.467652362422 0.0
0.0 0.678150024414 0.468544164785 0.0
0.0 0.679150024414 0.470194686195 0.0
0.0 0.680150024414 0.472689978484 0.0
0.0 0.681150024414 0.475499761714 0.0
0.0 0.682150024414 0.477913161915 0.0
0.0 0.683150024414 0.479599691632 0.0
0.0 0.684150024414 0.481253855517 0.0
0.0 0.685150024414 0.482360460668 0.0
0.0 0.686150024414 0.483401259179 0.0
0.0 0.687150024414 0.483999406275 0.0
0.0 0.688150024414 0.484611163548 0.0
0.0 0.689150024414 0.485604987286 0.0
0.0 0.690150024414 0.486513328523 0.0
0.0 0.691150024414 0.486896115739 0.0
0.0 0.692150024414 0.486244317032 0.0
0.0 0.693150024414 0.484488869277 0.0
0.0 0.694150024414 0.481962021429 0.0
0.0 0.695150024414 0.478882697093 0.0
0.0 0.696150024414 0.476287103169 0.0
0.0 0.697150024414 0.474738111559 0.0
0.0 0.698150024414 0.474536604036 0.0
0.0 0.699150024414 0.475970463784 0.0
0.0 0.700150024414 0.478798477685 0.0
0.0 0.701150024414 0.48262709475 0.0
0.0 0.702150024414 0.485837030384 0.0
0.0 0.703150024414 0.488900645495 0.0
0.0 0.704150024414 0.491099149776 0.0
0.0 0.705150024414 0.492059247666 0.0
0.0 0.706150024414 0.492848784367 0.0
0.0 0.707150024414 0.492971801912 0.0
0.0 0.708150024414 0.493440070912 0.0
0.0 0.709150024414 0.494290286001 0.0
0.0 0.710150024414 0.494541926439 0.0
0.0 0.711150024414 0.49460188183 0.0
0.0 0.712150024414 0.493254526187 0.0
0.0 0.713150024414 0.49093732567 0.0
0.0 0.714150024414 0.488271087479 0.0
0.0 0.715150024414 0.486490225426 0.0
0.0 0.716150024414 0.486134777711 0.0
0.0 0.717150024414 0.487195695926 0.0
0.0 0.718150024414 0.488598267069 0.0
0.0 0.719150024414 0.488738514265 0.0
0.0 0.720150024414 0.487150676014 0.0
0.0 0.721150024414 0.484426793017 0.0
0.0 0.722150024414 0.482558677125 0.0
0.0 0.723150024414 0.483107368172 0.0
0.0 0.724150024414 0.486247551295 0.0
0.0 0.725150024414 0.49143165152 0.0
0.0 0.726150024414 0.497240012477 0.0
0.0 0.727150024414 0.502338839531 0.0
0.0 0.728150024414 0.506049392144 0.0
0.0 0.729150024414 0.508488556184 0.0
0.0 0.730150024414 0.509934001973 0.0
0.0 0.731150024414 0.510093277176 0.0
0.0 0.732150024414 0.510363800008 0.0
0.0 0.733150024414 0.509954417418 0.0
0.0 0.734150024414 0.50838946341 0.0
0.0 0.735150024414 0.506131769596 0.0
0.0 0.736150024414 0.503506621329 0.0
0.0 0.737150024414 0.500941320749 0.0
0.0 0.738150024414 0.499376661951 0.0
0.0 0.739150024414 0.499121680735 0.0
0.0 0.740150024414 0.499717744404 0.0
0.0 0.741150024414 0.500891911453 0.0
0.0 0.742150024414 0.501355278126 0.0
0.0 0.743150024414 0.501516169044 0.0
0.0 0.744150024414 0.502334938057 0.0
0.0 0.745150024414 0.504507087839 0.0
0.0 0.746150024414 0.507470081942 0.0
0.0 0.747150024414 0.511641626066 0.0
0.0 0.748150024414 0.514886818589 0.0
0.0 0.749150024414 0.517340475015 0.0
0.0 0.750150024414 0.518236438102 0.0
0.0 0.751150024414 0.518573744597 0.0
0.0 0.752150024414 0.519148873272 0.0
0.0 0.753150024414 0.51876160123 0.0
0.0 0.754150024414 0.517663432126 0.0
0.0 0.755150024414 0.514125660129 0.0
0.0 0.756150024414 0.508789388684 0.0
0.0 0.757150024414 0.503022592316 0.0
0.0 0.758150024414 0.498777073154 0.0
0.0 0.759150024414 0.496578579652 0.0
0.0 0.760150024414 0.496852284304 0.0
0.0 0.761150024414 0.498250208091 0.0
0.0 0.762150024414 0.499286979943 0.0
0.0 0.763150024414 0.500607461485 0.0
0.0 0.764150024414 0.50222288601 0.0
0.0 0.765150024414 0.505435741599 0.0
0.0 0.766150024414 0.509714410292 0.0
0.0 0.767150024414 0.514078276126 0.0
0.0 0.768150024414 0.516395310667 0.0
0.0 0.769150024414 0.516615577765 0.0
0.0 0.770150024414 0.514916639866 0.0
0.0 0.771150024414 0.511742852209 0.0
0.0 0.772150024414 0.508077723748 0.0
0.0 0.773150024414 0.502958511993 0.0
0.0 0.774150024414 0.496444154562 0.0
0.0 0.775150024414 0.487697204756 0.0
0.0 0.776150024414 0.476693736849 0.0
0.0 0.777150024414 0.462052846924 0.0
0.0 0.778150024414 0.442162021369 0.0
0.0 0.779150024414 0.416877755344 0.0
0.0 0.780150024414 0.388266193625 0.0
0.0 0.781150024414 0.359947097534 0.0
0.0 0.782150024414 0.335040827781 0.0
0.0 0.783150024414 0.315149872897 0.0
0.0 0.784150024414 0.300321086703 0.0
0.0 0.785150024414 0.289823482965 0.0
0.0 0.786150024414 0.282537621623 0.0
0.0 0.787150024414 0.277687569177 0.0
0.0 0.788150024414 0.274422342527 0.0
0.0 0.789150024414 0.272291965218 0.0
0.0 0.790150024414 0.270789308219 0.0
0.0 0.791150024414 0.269761839555 0.0
0.0 0.792150024414 0.269030046817 0.0
0.0 0.793150024414 0.268470748914 0.0
0.0 0.794150024414 0.268010039958 0.0
0.0 0.795150024414 0.267620559447 0.0
0.0 0.796150024414 0.267283820438 0.0
0.0 0.797150024414 0.266986911702 0.0
0.0 0.798150024414 0.266716391788 0.0
0.0 0.799150024414 0.266464433211 0.0
0.0 0.800150024414 0.266226701384 0.0
0.0 0.801150024414 0.265999481758 0.0
0.0 0.802150024414 0.265779384838 0.0
0.0 0.803150024414 0.265565473178 0.0
0.0 0.804150024414 0.265355558703 0.0
0.0 0.805150024414 0.265149287605 0.0
0.0 0.806150024414 0.264945500843 0.0
0.0 0.807150024414 0.264743749872 0.0
0.0 0.808150024414 0.264543595605 0.0
0.0 0.809150024414 0.264344912936 0.0
0.0 0.810150024414 0.264147502383 0.0
0.0 0.811150024414 0.263950651414 0.0
0.0 0.812150024414 0.263754240541 0.0
0.0 0.813150024414 0.263557944864 0.0
0.0 0.814150024414 0.263362096307 0.0
0.0 0.815150024414 0.263166718804 0.0
0.0 0.816150024414 0.262971732781 0.0
0.0 0.817150024414 0.262776763391 0.0
0.0 0.818150024414 0.26258171567 0.0
0.0 0.819150024414 0.262386645475 0.0
0.0 0.820150024414 0.262191724295 0.0
0.0 0.821150024414 0.261996887639 0.0
0.0 0.822150024414 0.261801970835 0.0
0.0 0.823150024414 0.261606856988 0.0
0.0 0.824150024414 0.261411618289 0.0
0.0 0.825150024414 0.261216306715 0.0
0.0 0.826150024414 0.26102105208 0.0
0.0 0.827150024414 0.260825852658 0.0
0.0 0.828150024414 0.260630619603 0.0
0.0 0.829150024414 0.260435307258 0.0
0.0 0.830150024414 0.260239846331 0.0
0.0 0.831150024414 0.260044318859 0.0
0.0 0.832150024414 0.25984866218 0.0
0.0 0.833150024414 0.25965291993 0.0
0.0 0.834150024414 0.259457104553 0.0
0.0 0.835150024414 0.259261212215 0.0
0.0 0.836150024414 0.259065272537 0.0
0.0 0.837150024414 0.25886925637 0.0
0.0 0.838150024414 0.258673132095 0.0
0.0 0.839150024414 0.258476890187 0.0
0.0 0.840150024414 0.25828052749 0.0
0.0 0.841150024414 0.258084108127 0.0
0.0 0.842150024414 0.257887609885 0.0
0.0 0.843150024414 0.257691013942 0.0
0.0 0.844150024414 0.257494350959 0.0
0.0 0.845150024414 0.257297590612 0.0
0.0 0.846150024414 0.257100800327 0.0
0.0 0.847150024414 0.256903906526 0.0
0.0 0.848150024414 0.256706908433 0.0
0.0 0.849150024414 0.256509808278 0.0
0.0 0.850150024414 0.256312624241 0.0
0.0 0.851150024414 0.256115336426 0.0
0.0 0.852150024414 0.25591798828 0.0
0.0 0.853150024414 0.255720538857 0.0
0.0 0.854150024414 0.255523044814 0.0
0.0 0.855150024414 0.255325430211 0.0
0.0 0.856150024414 0.255127778277 0.0
0.0 0.857150024414 0.254929993432 0.0
0.0 0.858150024414 0.254732139059 0.0
0.0 0.859150024414 0.254534187404 0.0
0.0 0.860150024414 0.254336302522 0.0
0.0 0.861150024414 0.254138232812 0.0
0.0 0.862150024414 0.253940059504 0.0
0.0 0.863150024414 0.253741858284 0.0
0.0 0.864150024414 0.253543619331 0.0
0.0 0.865150024414 0.253345328535 0.0
0.0 0.866150024414 0.253146698336 0.0
0.0 0.867150024414 0.252948084669 0.0
0.0 0.868150024414 0.252749455219 0.0
0.0 0.869150024414 0.252550783699 0.0
0.0 0.870150024414 0.25235207239 0.0
0.0 0.871150024414 0.252153177692 0.0
0.0 0.872150024414 0.251954250464 0.0
0.0 0.873150024414 0.25175524271 0.0
0.0 0.874150024414 0.251556189036 0.0
0.0 0.875150024414 0.251357042466 0.0
0.0 0.876150024414 0.251157743773 0.0
0.0 0.877150024414 0.250958356476 0.0
0.0 0.878150024414 0.250758957136 0.0
0.0 0.879150024414 0.250559820014 0.0
0.0 0.880150024414 0.250360414099 0.0
0.0 0.881150024414 0.250161092105 0.0
0.0 0.882150024414 0.249961127445 0.0
0.0 0.883150024414 0.24976169543 0.0
0.0 0.884150024414 0.2495619612 0.0
0.0 0.885150024414 0.249362041881 0.0
0.0 0.886150024414 0.249161815433 0.0
0.0 0.887150024414 0.248961502267 0.0
0.0 0.888150024414 0.248761571629 0.0
0.0 0.889150024414 0.248561366223 0.0
0.0 0.890150024414 0.248361393261 0.0
0.0 0.891150024414 0.248160991923 0.0
0.0 0.892150024414 0.247960903246 0.0
0.0 0.893150024414 0.247760276772 0.0
0.0 0.894150024414 0.247559945287 0.0
0.0 0.895150024414 0.247360142611 0.0
0.0 0.896150024414 0.247160345173 0.0
0.0 0.897150024414 0.246964277795 0.0
0.0 0.898150024414 0.246767285169 0.0
0.0 0.899150024414 0.246570060721 0.0
0.0 0.900150024414 0.246368429803 0.0
0.0 0.901150024414 0.24616704308 0.0
0.0 0.902150024414 0.24596580443 0.0
0.0 0.903150024414 0.245764874612 0.0
0.0 0.904150024414 0.245563617274 0.0
0.0 0.905150024414 0.245362452781 0.0
0.0 0.906150024414 0.245161814485 0.0
0.0 0.907150024414 0.244961070243 0.0
0.0 0.908150024414 0.244759612887 0.0
0.0 0.909150024414 0.244557546261 0.0
0.0 0.910150024414 0.244355366866 0.0
0.0 0.911150024414 0.244153779194 0.0
0.0 0.912150024414 0.24395201868 0.0
0.0 0.913150024414 0.243750068213 0.0
0.0 0.914150024414 0.243548193334 0.0
0.0 0.915150024414 0.243346444203 0.0
0.0 0.916150024414 0.243144384417 0.0
0.0 0.917150024414 0.242942568495 0.0
0.0 0.918150024414 0.24274034148 0.0
0.0 0.919150024414 0.24253828943 0.0
0.0 0.920150024414 0.242335687734 0.0
0.0 0.921150024414 0.242133566871 0.0
0.0 0.922150024414 0.241931723249 0.0
0.0 0.923150024414 0.241729957269 0.0
0.0 0.924150024414 0.241527716368 0.0
0.0 0.925150024414 0.241324643364 0.0
0.0 0.926150024414 0.241122061925 0.0
0.0 0.927150024414 0.240919408623 0.0
0.0 0.928150024414 0.240717504623 0.0
0.0 0.929150024414 0.240514744701 0.0
0.0 0.930150024414 0.240312277594 0.0
0.0 0.931150024414 0.24010973218 0.0
0.0 0.932150024414 0.23990767323 0.0
0.0 0.933150024414 0.239705251953 0.0
0.0 0.934150024414 0.239502675514 0.0
0.0 0.935150024414 0.239299568939 0.0
0.0 0.936150024414 0.239096477849 0.0
0.0 0.937150024414 0.238893594408 0.0
0.0 0.938150024414 0.238690758354 0.0
0.0 0.939150024414 0.238487855046 0.0
0.0 0.940150024414 0.23828511052 0.0
0.0 0.941150024414 0.238081856198 0.0
0.0 0.942150024414 0.237879375101 0.0
0.0 0.943150024414 0.23767574546 0.0
0.0 0.944150024414 0.237472606146 0.0
0.0 0.945150024414 0.237268992591 0.0
0.0 0.946150024414 0.237065799019 0.0
0.0 0.947150024414 0.236862800114 0.0
0.0 0.948150024414 0.23665960764 0.0
0.0 0.949150024414 0.236456522342 0.0
0.0 0.950150024414 0.236253031636 0.0
0.0 0.951150024414 0.236049778736 0.0
0.0 0.952150024414 0.235846124031 0.0
0.0 0.953150024414 0.235642692704 0.0
0.0 0.954150024414 0.235438790041 0.0
0.0 0.955150024414 0.23523540694 0.0
0.0 0.956150024414 0.235032199498 0.0
0.0 0.957150024414 0.234828949767 0.0
0.0 0.958150024414 0.234625589984 0.0
0.0 0.959150024414 0.234421729259 0.0
0.0 0.960150024414 0.23421816303 0.0
0.0 0.961150024414 0.234014214504 0.0
0.0 0.962150024414 0.233810364078 0.0
0.0 0.963150024414 0.233606533465 0.0
0.0 0.964150024414 0.233402786069 0.0
0.0 0.965150024414 0.233199305322 0.0
0.0 0.966150024414 0.23299545211 0.0
0.0 0.967150024414 0.232791676501 0.0
0.0 0.968150024414 0.232587688719 0.0
0.0 0.969150024414 0.232383713274 0.0
0.0 0.970150024414 0.232179905287 0.0
0.0 0.971150024414 0.231975859127 0.0
0.0 0.972150024414 0.231771807945 0.0
0.0 0.973150024414 0.231567624721 0.0
0.0 0.974150024414 0.2313636125 0.0
0.0 0.975150024414 0.231159700636 0.0
0.0 0.976150024414 0.230955690016 0.0
0.0 0.977150024414 0.230751894674 0.0
0.0 0.978150024414 0.230547706232 0.0
0.0 0.979150024414 0.230343647976 0.0
0.0 0.980150024414 0.230139526428 0.0
0.0 0.981150024414 0.22993563962 0.0
0.0 0.982150024414 0.229731489274 0.0
0.0 0.983150024414 0.229527245941 0.0
0.0 0.984150024414 0.229323002685 0.0
0.0 0.985150024414 0.229118584567 0.0
0.0 0.986150024414 0.228914101448 0.0
0.0 0.987150024414 0.228709675374 0.0
0.0 0.988150024414 0.228505588014 0.0
0.0 0.989150024414 0.228301362885 0.0
0.0 0.990150024414 0.228097201793 0.0
0.0 0.991150024414 0.227892999679 0.0
0.0 0.992150024414 0.227688652664 0.0
0.0 0.993150024414 0.227484076122 0.0
0.0 0.994150024414 0.227279645429 0.0
0.0 0.995150024414 0.227075239944 0.0
0.0 0.996150024414 0.226871061466 0.0
0.0 0.997150024414 0.226666586635 0.0
0.0 0.998150024414 0.22646219697 0.0
0.0 0.999150024414 0.226257745092 0.0
0.0 1.00015002441 0.226053192008 0.0
0.0 1.00115002441 0.225848785618 0.0
0.0 1.00215002441 0.225644271628 0.0
0.0 1.00315002441 0.225439939005 0.0
0.0 1.00415002441 0.225235389587 0.0
0.0 1.00515002441 0.225030949897 0.0
0.0 1.00615002441 0.224826374508 0.0
0.0 1.00715002441 0.224621996214 0.0
0.0 1.00815002441 0.224417447682 0.0
0.0 1.00915002441 0.224213110242 0.0
0.0 1.01015002441 0.224008441914 0.0
0.0 1.01115002441 0.223804121286 0.0
0.0 1.01215002441 0.223599342374 0.0
0.0 1.01315002441 0.223394867154 0.0
0.0 1.01415002441 0.223190204924 0.0
0.0 1.01515002441 0.222985719459 0.0
0.0 1.01615002441 0.222781042472 0.0
0.0 1.01715002441 0.222576266689 0.0
0.0 1.01815002441 0.222371788602 0.0
0.0 1.01915002441 0.222167504331 0.0
0.0 1.02015002441 0.221963014507 0.0
0.0 1.02115002441 0.221758522106 0.0
0.0 1.02215002441 0.221553797278 0.0
0.0 1.02315002441 0.221349161598 0.0
0.0 1.02415002441 0.221144579351 0.0
0.0 1.02515002441 0.220940039788 0.0
0.0 1.02615002441 0.220735756758 0.0
0.0 1.02715002441 0.220531239126 0.0
0.0 1.02815002441 0.220326733799 0.0
0.0 1.02915002441 0.220122004841 0.0
0.0 1.03015002441 0.219917457619 0.0
0.0 1.03115002441 0.21971296989 0.0
0.0 1.03215002441 0.219508532432 0.0
0.0 1.03315002441 0.219303834348 0.0
0.0 1.03415002441 0.219099208291 0.0
0.0 1.03515002441 0.218894643803 0.0
0.0 1.03615002441 0.21869033222 0.0
0.0 1.03715002441 0.218485963283 0.0
0.0 1.03815002441 0.218281506134 0.0
0.0 1.03915002441 0.218077087385 0.0
0.0 1.04015002441 0.217872546764 0.0
0.0 1.04115002441 0.21766813572 0.0
0.0 1.04215002441 0.217463545229 0.0
0.0 1.04315002441 0.217259068718 0.0
0.0 1.04415002441 0.217054727715 0.0
0.0 1.04515002441 0.216850295897 0.0
0.0 1.04615002441 0.216645833551 0.0
0.0 1.04715002441 0.216441331854 0.0
0.0 1.04815002441 0.21623693582 0.0
0.0 1.04915002441 0.216032708891 0.0
0.0 1.05015002441 0.215828304405 0.0
0.0 1.05115002441 0.215624181814 0.0
0.0 1.05215002441 0.215419933994 0.0
0.0 1.05315002441 0.215215613492 0.0
0.0 1.05415002441 0.215011351848 0.0
0.0 1.05515002441 0.214807150621 0.0
0.0 1.05615002441 0.214603151192 0.0
0.0 1.05715002441 0.214398880183 0.0
0.0 1.05815002441 0.214194598432 0.0
0.0 1.05915002441 0.213990248462 0.0
0.0 1.06015002441 0.21378600842 0.0
0.0 1.06115002441 0.213581894652 0.0
0.0 1.06215002441 0.213377811713 0.0
0.0 1.06315002441 0.213173807604 0.0
0.0 1.06415002441 0.212969633422 0.0
0.0 1.06515002441 0.212765759344 0.0
0.0 1.06615002441 0.212561613612 0.0
0.0 1.06715002441 0.212357644549 0.0
0.0 1.06815002441 0.212153522089 0.0
0.0 1.06915002441 0.211949584285 0.0
0.0 1.07015002441 0.211745539434 0.0
0.0 1.07115002441 0.211541697784 0.0
0.0 1.07215002441 0.211337865072 0.0
0.0 1.07315002441 0.211134131912 0.0
0.0 1.07415002441 0.210930080015 0.0
0.0 1.07515002441 0.210726037198 0.0
0.0 1.07615002441 0.210522147461 0.0
0.0 1.07715002441 0.210318437825 0.0
0.0 1.07815002441 0.210114835497 0.0
0.0 1.07915002441 0.20991129098 0.0
0.0 1.08015002441 0.209707609117 0.0
0.0 1.08115002441 0.20950411154 0.0
0.0 1.08215002441 0.209300467726 0.0
0.0 1.08315002441 0.209096835141 0.0
0.0 1.08415002441 0.20889307149 0.0
0.0 1.08515002441 0.208689514929 0.0
0.0 1.08615002441 0.208486009499 0.0
0.0 1.08715002441 0.20828258845 0.0
0.0 1.08815002441 0.208078978677 0.0
0.0 1.08915002441 0.207875758462 0.0
0.0 1.09015002441 0.207672296392 0.0
0.0 1.09115002441 0.207469023784 0.0
0.0 1.09215002441 0.207265747161 0.0
0.0 1.09315002441 0.207062488438 0.0
0.0 1.09415002441 0.206859367822 0.0
0.0 1.09515002441 0.206655955628 0.0
0.0 1.09615002441 0.206452970371 0.0
0.0 1.09715002441 0.206249733011 0.0
0.0 1.09815002441 0.206046756077 0.0
0.0 1.09915002441 0.205843656871 0.0
0.0 1.10015002441 0.20564082383 0.0
0.0 1.10115002441 0.205437912566 0.0
0.0 1.10215002441 0.205235090679 0.0
0.0 1.10315002441 0.205032200049 0.0
0.0 1.10415002441 0.204829391716 0.0
0.0 1.10515002441 0.204626562482 0.0
0.0 1.10615002441 0.204423701873 0.0
0.0 1.10715002441 0.204220916689 0.0
0.0 1.10815002441 0.204018241228 0.0
0.0 1.10915002441 0.203815680797 0.0
0.0 1.11015002441 0.203613111234 0.0
0.0 1.11115002441 0.203410542427 0.0
0.0 1.11215002441 0.203208103978 0.0
0.0 1.11315002441 0.203005646259 0.0
0.0 1.11415002441 0.202803291096 0.0
0.0 1.11515002441 0.202600954106 0.0
0.0 1.11615002441 0.202398847813 0.0
0.0 1.11715002441 0.202196675857 0.0
0.0 1.11815002441 0.201994667104 0.0
0.0 1.11915002441 0.201792668867 0.0
0.0 1.12015002441 0.201590842895 0.0
0.0 1.12115002441 0.201389003506 0.0
0.0 1.12215002441 0.201187224523 0.0
0.0 1.12315002441 0.200985378097 0.0
0.0 1.12415002441 0.200783618413 0.0
0.0 1.12515002441 0.200582109784 0.0
0.0 1.12615002441 0.200380635513 0.0
0.0 1.12715002441 0.200179102594 0.0
0.0 1.12815002441 0.199977456696 0.0
0.0 1.12915002441 0.199775999675 0.0
0.0 1.13015002441 0.19957457709 0.0
0.0 1.13115002441 0.19937326112 0.0
0.0 1.13215002441 0.199172029447 0.0
0.0 1.13315002441 0.198970939886 0.0
0.0 1.13415002441 0.198769870212 0.0
0.0 1.13515002441 0.19856855937 0.0
0.0 1.13615002441 0.198367419973 0.0
0.0 1.13715002441 0.198166135098 0.0
0.0 1.13815002441 0.197965068394 0.0
0.0 1.13915002441 0.197763899214 0.0
0.0 1.14015002441 0.197562854032 0.0
0.0 1.14115002441 0.197361908856 0.0
0.0 1.14215002441 0.197160898056 0.0
0.0 1.14315002441 0.196960004566 0.0
0.0 1.14415002441 0.196758865463 0.0
0.0 1.14515002441 0.196557928408 0.0
0.0 1.14615002441 0.196357026329 0.0
0.0 1.14715002441 0.196156352192 0.0
0.0 1.14815002441 0.195955675638 0.0
0.0 1.14915002441 0.195754915839 0.0
0.0 1.15015002441 0.195554361438 0.0
0.0 1.15115002441 0.195353772065 0.0
0.0 1.15215002441 0.195153205261 0.0
0.0 1.15315002441 0.194952841243 0.0
0.0 1.15415002441 0.194752467295 0.0
0.0 1.15515002441 0.19455241072 0.0
0.0 1.15615002441 0.194352160761 0.0
0.0 1.15715002441 0.194152189863 0.0
0.0 1.15815002441 0.193952166191 0.0
0.0 1.15915002441 0.193752381459 0.0
0.0 1.16015002441 0.193552591406 0.0
0.0 1.16115002441 0.193352865825 0.0
0.0 1.16215002441 0.193153233264 0.0
0.0 1.16315002441 0.192953614333 0.0
0.0 1.16415002441 0.192754242014 0.0
0.0 1.16515002441 0.192554795904 0.0
0.0 1.16615002441 0.192355467144 0.0
0.0 1.16715002441 0.192155986115 0.0
0.0 1.16815002441 0.191956755118 0.0
0.0 1.16915002441 0.191757569277 0.0
0.0 1.17015002441 0.191558634938 0.0
0.0 1.17115002441 0.191359656106 0.0
0.0 1.17215002441 0.191160960209 0.0
0.0 1.17315002441 0.190962283226 0.0
0.0 1.17415002441 0.190763654358 0.0
0.0 1.17515002441 0.190564985996 0.0
0.0 1.17615002441 0.190366406613 0.0
0.0 1.17715002441 0.190167856989 0.0
0.0 1.17815002441 0.18996942541 0.0
0.0 1.17915002441 0.189771003785 0.0
0.0 1.18015002441 0.189572797151 0.0
0.0 1.18115002441 0.189374665696 0.0
0.0 1.18215002441 0.189176604701 0.0
0.0 1.18315002441 0.188978619926 0.0
0.0 1.18415002441 0.188780815997 0.0
0.0 1.18515002441 0.188583014061 0.0
0.0 1.18615002441 0.188385222485 0.0
0.0 1.18715002441 0.188187425481 0.0
0.0 1.18815002441 0.187989815129 0.0
0.0 1.18915002441 0.187792447789 0.0
0.0 1.19015002441 0.187595150748 0.0
0.0 1.19115002441 0.187397835611 0.0
0.0 1.19215002441 0.18720052567 0.0
0.0 1.19315002441 0.187003262765 0.0
0.0 1.19415002441 0.186806198636 0.0
0.0 1.19515002441 0.186609293646 0.0
0.0 1.19615002441 0.186412503272 0.0
0.0 1.19715002441 0.186215706542 0.0
0.0 1.19815002441 0.186018989903 0.0
0.0 1.19915002441 0.185822279352 0.0
0.0 1.20015002441 0.185625760428 0.0
0.0 1.20115002441 0.185429336749 0.0
0.0 1.20215002441 0.185232858512 0.0
0.0 1.20315002441 0.185036552741 0.0
0.0 1.20415002441 0.184840316335 0.0
0.0 1.20515002441 0.184644431116 0.0
0.0 1.20615002441 0.184448347399 0.0
0.0 1.20715002441 0.184252431623 0.0
0.0 1.20815002441 0.184056389281 0.0
0.0 1.20915002441 0.183860774879 0.0
0.0 1.21015002441 0.183664977112 0.0
0.0 1.21115002441 0.183469548725 0.0
0.0 1.21215002441 0.183274037722 0.0
0.0 1.21315002441 0.183078849616 0.0
0.0 1.21415002441 0.182883651135 0.0
0.0 1.21515002441 0.182688618082 0.0
0.0 1.21615002441 0.182493571655 0.0
0.0 1.21715002441 0.182298531055 0.0
0.0 1.21815002441 0.18210347469 0.0
0.0 1.21915002441 0.181908638549 0.0
0.0 1.22015002441 0.181713988836 0.0
0.0 1.22115002441 0.181519599117 0.0
0.0 1.22215002441 0.181325165221 0.0
0.0 1.22315002441 0.181130724394 0.0
0.0 1.22415002441 0.180936419943 0.0
0.0 1.22515002441 0.180742299122 0.0
0.0 1.22615002441 0.180548375329 0.0
0.0 1.22715002441 0.180354415418 0.0
0.0 1.22815002441 0.1801604399 0.0
0.0 1.22915002441 0.179966639667 0.0
0.0 1.23015002441 0.179772842647 0.0
0.0 1.23115002441 0.179579323851 0.0
0.0 1.23215002441 0.179385779108 0.0
0.0 1.23315002441 0.179192560629 0.0
0.0 1.23415002441 0.178999361834 0.0
0.0 1.23515002441 0.178806184968 0.0
0.0 1.23615002441 0.178613147698 0.0
0.0 1.23715002441 0.178420152993 0.0
0.0 1.23815002441 0.178227456004 0.0
0.0 1.23915002441 0.178034682564 0.0
0.0 1.24015002441 0.177842218254 0.0
0.0 1.24115002441 0.177649685816 0.0
0.0 1.24215002441 0.177457408862 0.0
0.0 1.24315002441 0.177265047867 0.0
0.0 1.24415002441 0.177072947461 0.0
0.0 1.24515002441 0.176880905924 0.0
0.0 1.24615002441 0.176689029548 0.0
0.0 1.24715002441 0.176497385799 0.0
0.0 1.24815002441 0.176305723005 0.0
0.0 1.24915002441 0.176114143032 0.0
0.0 1.25015002441 0.175922546783 0.0
0.0 1.25115002441 0.175731258247 0.0
0.0 1.25215002441 0.175540137746 0.0
0.0 1.25315002441 0.175349155581 0.0
0.0 1.25415002441 0.175158329583 0.0
0.0 1.25515002441 0.174967601842 0.0
0.0 1.25615002441 0.174776833335 0.0
0.0 1.25715002441 0.174586256767 0.0
0.0 1.25815002441 0.17439580941 0.0
0.0 1.25915002441 0.174205593157 0.0
0.0 1.26015002441 0.174015327316 0.0
0.0 1.26115002441 0.173825194952 0.0
0.0 1.26215002441 0.173635278411 0.0
0.0 1.26315002441 0.173445442083 0.0
0.0 1.26415002441 0.173255760893 0.0
0.0 1.26515002441 0.173066080198 0.0
0.0 1.26615002441 0.172876482398 0.0
0.0 1.26715002441 0.172687042665 0.0
0.0 1.26815002441 0.17249759028 0.0
0.0 1.26915002441 0.172308395894 0.0
0.0 1.27015002441 0.172119285492 0.0
0.0 1.27115002441 0.171930374384 0.0
0.0 1.27215002441 0.171741611975 0.0
0.0 1.27315002441 0.171552866383 0.0
0.0 1.27415002441 0.171364513139 0.0
0.0 1.27515002441 0.171176036184 0.0
0.0 1.27615002441 0.170987691795 0.0
0.0 1.27715002441 0.170799293699 0.0
0.0 1.27815002441 0.170611060565 0.0
0.0 1.27915002441 0.170422993934 0.0
0.0 1.28015002441 0.170235174591 0.0
0.0 1.28115002441 0.170047542384 0.0
0.0 1.28215002441 0.169859994117 0.0
0.0 1.28315002441 0.169672549963 0.0
0.0 1.28415002441 0.16948509178 0.0
0.0 1.28515002441 0.169297939477 0.0
0.0 1.28615002441 0.169110686126 0.0
0.0 1.28715002441 0.168923935454 0.0
0.0 1.28815002441 0.168736899045 0.0
0.0 1.28915002441 0.168550402199 0.0
0.0 1.29015002441 0.168363746234 0.0
0.0 1.29115002441 0.168177595995 0.0
0.0 1.29215002441 0.167991251045 0.0
0.0 1.29315002441 0.167805348083 0.0
0.0 1.29415002441 0.167619314148 0.0
0.0 1.29515002441 0.167433568759 0.0
0.0 1.29615002441 0.167247822132 0.0
0.0 1.29715002441 0.167062412055 0.0
0.0 1.29815002441 0.166877053681 0.0
0.0 1.29915002441 0.16669193032 0.0
0.0 1.30015002441 0.166506848554 0.0
0.0 1.30115002441 0.166321972555 0.0
0.0 1.30215002441 0.166137174686 0.0
0.0 1.30315002441 0.165952432614 0.0
0.0 1.30415002441 0.165767881041 0.0
0.0 1.30515002441 0.165583524065 0.0
0.0 1.30615002441 0.165399505032 0.0
0.0 1.30715002441 0.165215548572 0.0
0.0 1.30815002441 0.165031610743 0.0
0.0 1.30915002441 0.164848069766 0.0
0.0 1.31015002441 0.164664564762 0.0
0.0 1.31115002441 0.164481246996 0.0
0.0 1.31215002441 0.164297796806 0.0
0.0 1.31315002441 0.164114632609 0.0
0.0 1.31415002441 0.16393165105 0.0
0.0 1.31515002441 0.163748854898 0.0
0.0 1.31615002441 0.163566162543 0.0
0.0 1.31715002441 0.163383550159 0.0
0.0 1.31815002441 0.16320100234 0.0
0.0 1.31915002441 0.163018739691 0.0
0.0 1.32015002441 0.162836497184 0.0
0.0 1.32115002441 0.162654430798 0.0
0.0 1.32215002441 0.162472420187 0.0
0.0 1.32315002441 0.162290734931 0.0
0.0 1.32415002441 0.162109173026 0.0
0.0 1.32515002441 0.161927641688 0.0
0.0 1.32615002441 0.161746088045 0.0
0.0 1.32715002441 0.161564847644 0.0
0.0 1.32815002441 0.161383835095 0.0
0.0 1.32915002441 0.161203021433 0.0
0.0 1.33015002441 0.161022242603 0.0
0.0 1.33115002441 0.16084155142 0.0
0.0 1.33215002441 0.160661135906 0.0
0.0 1.33315002441 0.160480687938 0.0
0.0 1.33415002441 0.160300462441 0.0
0.0 1.33515002441 0.160120354296 0.0
0.0 1.33615002441 0.159940628513 0.0
0.0 1.33715002441 0.159761053448 0.0
0.0 1.33815002441 0.159581448598 0.0
0.0 1.33915002441 0.159402148686 0.0
0.0 1.34015002441 0.159222934976 0.0
0.0 1.34115002441 0.159044021369 0.0
0.0 1.34215002441 0.158865097611 0.0
0.0 1.34315002441 0.158686427656 0.0
0.0 1.34415002441 0.15850792703 0.0
0.0 1.34515002441 0.158329552616 0.0
0.0 1.34615002441 0.158151420027 0.0
0.0 1.34715002441 0.157973429165 0.0
0.0 1.34815002441 0.157795737866 0.0
0.0 1.34915002441 0.157618139789 0.0
0.0 1.35015002441 0.157440724551 0.0
0.0 1.35115002441 0.157263248722 0.0
0.0 1.35215002441 0.157086186507 0.0
0.0 1.35315002441 0.156909184897 0.0
0.0 1.35415002441 0.156732455099 0.0
0.0 1.35515002441 0.156555819471 0.0
0.0 1.35615002441 0.156379371972 0.0
0.0 1.35715002441 0.156203217645 0.0
0.0 1.35815002441 0.156026869172 0.0
0.0 1.35915002441 0.155850829215 0.0
0.0 1.36015002441 0.155674990489 0.0
0.0 1.36115002441 0.155499446805 0.0
0.0 1.36215002441 0.155323912913 0.0
0.0 1.36315002441 0.155148636582 0.0
0.0 1.36415002441 0.154973508562 0.0
0.0 1.36515002441 0.15479892406 0.0
0.0 1.36615002441 0.154624042329 0.0
0.0 1.36715002441 0.154449545545 0.0
0.0 1.36815002441 0.15427474153 0.0
0.0 1.36915002441 0.154100545146 0.0
0.0 1.37015002441 0.153926586629 0.0
0.0 1.37115002441 0.153753069481 0.0
0.0 1.37215002441 0.153579306668 0.0
0.0 1.37315002441 0.153405637349 0.0
0.0 1.37415002441 0.1532321899 0.0
0.0 1.37515002441 0.153059427433 0.0
0.0 1.37615002441 0.15288672073 0.0
0.0 1.37715002441 0.152713846605 0.0
0.0 1.37815002441 0.152541156061 0.0
0.0 1.37915002441 0.152368406594 0.0
0.0 1.38015002441 0.152196051253 0.0
0.0 1.38115002441 0.152023850577 0.0
0.0 1.38215002441 0.151852045456 0.0
0.0 1.38315002441 0.151680509212 0.0
0.0 1.38415002441 0.151508878361 0.0
0.0 1.38515002441 0.151337368896 0.0
0.0 1.38615002441 0.151166098052 0.0
0.0 1.38715002441 0.15099503522 0.0
0.0 1.38815002441 0.150824196684 0.0
0.0 1.38915002441 0.150653229187 0.0
0.0 1.39015002441 0.150482471257 0.0
0.0 1.39115002441 0.150311979063 0.0
0.0 1.39215002441 0.150141859865 0.0
0.0 1.39315002441 0.149971977607 0.0
0.0 1.39415002441 0.149802240957 0.0
0.0 1.39515002441 0.149632698687 0.0
0.0 1.39615002441 0.149463105945 0.0
0.0 1.39715002441 0.149293783253 0.0
0.0 1.39815002441 0.149124507352 0.0
0.0 1.39915002441 0.148955752005 0.0
0.0 1.40015002441 0.148786960753 0.0
0.0 1.40115002441 0.148618610393 0.0
0.0 1.40215002441 0.148450209864 0.0
0.0 1.40315002441 0.14828206839 0.0
0.0 1.40415002441 0.14811397777 0.0
0.0 1.40515002441 0.14794613475 0.0
0.0 1.40615002441 0.147778620898 0.0
0.0 1.40715002441 0.147611278733 0.0
0.0 1.40815002441 0.147444306302 0.0
0.0 1.40915002441 0.14727724635 0.0
0.0 1.41015002441 0.147110704692 0.0
0.0 1.41115002441 0.146944019107 0.0
0.0 1.41215002441 0.146777654379 0.0
0.0 1.41315002441 0.146611419567 0.0
0.0 1.41415002441 0.14644552792 0.0
0.0 1.41515002441 0.146279822231 0.0
0.0 1.41615002441 0.146114120838 0.0
0.0 1.41715002441 0.145948668227 0.0
0.0 1.41815002441 0.145783585015 0.0
0.0 1.41915002441 0.145618749595 0.0
0.0 1.42015002441 0.145454093395 0.0
0.0 1.42115002441 0.145289503617 0.0
0.0 1.42215002441 0.145125114645 0.0
0.0 1.42315002441 0.144960854299 0.0
0.0 1.42415002441 0.14479711116 0.0
0.0 1.42515002441 0.144633155457 0.0
0.0 1.42615002441 0.144469578413 0.0
0.0 1.42715002441 0.144306040617 0.0
0.0 1.42815002441 0.144143097356 0.0
0.0 1.42915002441 0.143980204253 0.0
0.0 1.43015002441 0.143817419362 0.0
0.0 1.43115002441 0.143654921387 0.0
0.0 1.43215002441 0.143492565778 0.0
0.0 1.43315002441 0.143330538172 0.0
0.0 1.43415002441 0.143168829704 0.0
0.0 1.43515002441 0.143007377126 0.0
0.0 1.43615002441 0.142846069867 0.0
0.0 1.43715002441 0.14268455164 0.0
0.0 1.43815002441 0.142523308353 0.0
0.0 1.43915002441 0.142362195267 0.0
0.0 1.44015002441 0.142201766824 0.0
0.0 1.44115002441 0.142041367307 0.0
0.0 1.44215002441 0.141881224709 0.0
0.0 1.44315002441 0.141720954913 0.0
0.0 1.44415002441 0.141561013965 0.0
0.0 1.44515002441 0.141401512263 0.0
0.0 1.44615002441 0.141242078835 0.0
0.0 1.44715002441 0.141082995982 0.0
0.0 1.44815002441 0.140923950023 0.0
0.0 1.44915002441 0.140765084317 0.0
0.0 1.45015002441 0.140606508289 0.0
0.0 1.45115002441 0.140448144031 0.0
0.0 1.45215002441 0.140290182741 0.0
0.0 1.45315002441 0.140132234738 0.0
0.0 1.45415002441 0.139974410386 0.0
0.0 1.45515002441 0.139817019047 0.0
0.0 1.45615002441 0.139659829436 0.0
0.0 1.45715002441 0.139502967197 0.0
0.0 1.45815002441 0.139346347841 0.0
0.0 1.45915002441 0.139189816924 0.0
0.0 1.46015002441 0.139033526507 0.0
0.0 1.46115002441 0.138877172277 0.0
0.0 1.46215002441 0.138721315562 0.0
0.0 1.46315002441 0.138565409188 0.0
0.0 1.46415002441 0.13841009699 0.0
0.0 1.46515002441 0.138254765214 0.0
0.0 1.46615002441 0.138099967799 0.0
0.0 1.46715002441 0.137944997683 0.0
0.0 1.46815002441 0.137790423857 0.0
0.0 1.46915002441 0.137636170453 0.0
0.0 1.47015002441 0.137482050228 0.0
0.0 1.47115002441 0.13732812488 0.0
0.0 1.47215002441 0.137174270945 0.0
0.0 1.47315002441 0.13702088486 0.0
0.0 1.47415002441 0.136867524416 0.0
0.0 1.47515002441 0.136714423625 0.0
0.0 1.47615002441 0.136561554871 0.0
0.0 1.47715002441 0.136409188533 0.0
0.0 1.47815002441 0.136256881299 0.0
0.0 1.47915002441 0.136104765008 0.0
0.0 1.48015002441 0.135952876015 0.0
0.0 1.48115002441 0.135801158028 0.0
0.0 1.48215002441 0.1356497023 0.0
0.0 1.48315002441 0.135498440207 0.0
0.0 1.48415002441 0.13534754527 0.0
0.0 1.48515002441 0.135196804164 0.0
0.0 1.48615002441 0.13504654098 0.0
0.0 1.48715002441 0.134896330145 0.0
0.0 1.48815002441 0.13474656538 0.0
0.0 1.48915002441 0.134596724356 0.0
0.0 1.49015002441 0.134447184501 0.0
0.0 1.49115002441 0.134297768647 0.0
0.0 1.49215002441 0.134148697594 0.0
0.0 1.49315002441 0.133999974829 0.0
0.0 1.49415002441 0.133851464843 0.0
0.0 1.49515002441 0.133703157734 0.0
0.0 1.49615002441 0.133554903672 0.0
0.0 1.49715002441 0.133406894412 0.0
0.0 1.49815002441 0.133259065857 0.0
0.0 1.49915002441 0.133111663311 0.0
0.0 1.50015002441 0.132964506066 0.0
0.0 1.50115002441 0.132817638066 0.0
0.0 1.50215002441 0.132670911796 0.0
0.0 1.50315002441 0.132524502344 0.0
0.0 1.50415002441 0.132378210787 0.0
0.0 1.50515002441 0.132232410095 0.0
0.0 1.50615002441 0.132086765483 0.0
0.0 1.50715002441 0.131941452713 0.0
0.0 1.50815002441 0.131796185789 0.0
0.0 1.50915002441 0.131651193417 0.0
0.0 1.51015002441 0.13150641779 0.0
0.0 1.51115002441 0.131361788524 0.0
0.0 1.51215002441 0.131217378274 0.0
0.0 1.51315002441 0.131073390511 0.0
0.0 1.51415002441 0.130929764923 0.0
0.0 1.51515002441 0.130786448232 0.0
0.0 1.51615002441 0.130643277426 0.0
0.0 1.51715002441 0.130500303093 0.0
0.0 1.51815002441 0.130357397517 0.0
0.0 1.51915002441 0.130214776816 0.0
0.0 1.52015002441 0.130072603016 0.0
0.0 1.52115002441 0.129930801613 0.0
0.0 1.52215002441 0.12978895205 0.0
0.0 1.52315002441 0.129647368155 0.0
0.0 1.52415002441 0.129505917086 0.0
0.0 1.52515002441 0.1293648909 0.0
0.0 1.52615002441 0.129224092691 0.0
0.0 1.52715002441 0.129083624417 0.0
0.0 1.52815002441 0.128943329196 0.0
0.0 1.52915002441 0.128803166353 0.0
0.0 1.53015002441 0.128663162342 0.0
0.0 1.53115002441 0.128523719944 0.0
0.0 1.53215002441 0.128384588645 0.0
0.0 1.53315002441 0.128245790969 0.0
0.0 1.53415002441 0.128107041043 0.0
0.0 1.53515002441 0.127968372245 0.0
0.0 1.53615002441 0.127830146496 0.0
0.0 1.53715002441 0.1276921794 0.0
0.0 1.53815002441 0.127554814864 0.0
0.0 1.53915002441 0.127417468168 0.0
0.0 1.54015002441 0.127280151071 0.0
0.0 1.54115002441 0.127143024098 0.0
0.0 1.54215002441 0.127006324289 0.0
0.0 1.54315002441 0.126870137973 0.0
0.0 1.54415002441 0.126733964909 0.0
0.0 1.54515002441 0.126598015415 0.0
0.0 1.54615002441 0.126462201863 0.0
0.0 1.54715002441 0.126326754751 0.0
0.0 1.54815002441 0.126191631771 0.0
0.0 1.54915002441 0.126056961587 0.0
0.0 1.55015002441 0.125922552819 0.0
0.0 1.55115002441 0.125788321126 0.0
0.0 1.55215002441 0.125654386304 0.0
0.0 1.55315002441 0.125520629988 0.0
0.0 1.55415002441 0.125387318272 0.0
0.0 1.55515002441 0.125253791252 0.0
0.0 1.55615002441 0.125120934606 0.0
0.0 1.55715002441 0.124988007412 0.0
0.0 1.55815002441 0.124855941532 0.0
0.0 1.55915002441 0.124723850044 0.0
0.0 1.56015002441 0.124592040818 0.0
0.0 1.56115002441 0.124460622115 0.0
0.0 1.56215002441 0.124329165489 0.0
0.0 1.56315002441 0.124198265661 0.0
0.0 1.56415002441 0.124067141243 0.0
0.0 1.56515002441 0.123936573792 0.0
0.0 1.56615002441 0.123806042289 0.0
0.0 1.56715002441 0.123675886467 0.0
0.0 1.56815002441 0.12354617662 0.0
0.0 1.56915002441 0.123416871557 0.0
0.0 1.57015002441 0.123287813474 0.0
0.0 1.57115002441 0.123158883202 0.0
0.0 1.57215002441 0.12303038101 0.0
0.0 1.57315002441 0.12290220763 0.0
0.0 1.57415002441 0.122774205936 0.0
0.0 1.57515002441 0.122646331992 0.0
0.0 1.57615002441 0.122518833924 0.0
0.0 1.57715002441 0.1223917486 0.0
0.0 1.57815002441 0.1222646329 0.0
0.0 1.57915002441 0.122137796921 0.0
0.0 1.58015002441 0.122011497325 0.0
0.0 1.58115002441 0.12188556665 0.0
0.0 1.58215002441 0.121760014582 0.0
0.0 1.58315002441 0.121634212555 0.0
0.0 1.58415002441 0.121508953485 0.0
0.0 1.58515002441 0.121383710784 0.0
0.0 1.58615002441 0.121259220811 0.0
0.0 1.58715002441 0.121134458425 0.0
0.0 1.58815002441 0.121010210319 0.0
0.0 1.58915002441 0.120886315905 0.0
0.0 1.59015002441 0.120763195927 0.0
0.0 1.59115002441 0.120640014852 0.0
0.0 1.59215002441 0.120516949023 0.0
0.0 1.59315002441 0.120394099781 0.0
0.0 1.59415002441 0.120271848891 0.0
0.0 1.59515002441 0.120149751606 0.0
0.0 1.59615002441 0.120027785472 0.0
0.0 1.59715002441 0.119905986221 0.0
0.0 1.59815002441 0.119784659342 0.0
0.0 1.59915002441 0.119663698856 0.0
0.0 1.60015002441 0.11954335118 0.0
0.0 1.60115002441 0.119422900069 0.0
0.0 1.60215002441 0.11930272928 0.0
0.0 1.60315002441 0.119182704926 0.0
0.0 1.60415002441 0.119063035655 0.0
0.0 1.60515002441 0.118943864309 0.0
0.0 1.60615002441 0.118824698068 0.0
0.0 1.60715002441 0.118706318552 0.0
0.0 1.60815002441 0.118588246094 0.0
0.0 1.60915002441 0.118470453912 0.0
0.0 1.61015002441 0.11835274207 0.0
0.0 1.61115002441 0.118235109958 0.0
0.0 1.61215002441 0.118118038646 0.0
0.0 1.61315002441 0.11800093846 0.0
0.0 1.61415002441 0.117884400409 0.0
0.0 1.61515002441 0.117768000882 0.0
0.0 1.61615002441 0.117652150151 0.0
0.0 1.61715002441 0.117536546837 0.0
0.0 1.61815002441 0.117421239472 0.0
0.0 1.61915002441 0.117306217741 0.0
0.0 1.62015002441 0.117191361254 0.0
0.0 1.62115002441 0.117076742121 0.0
0.0 1.62215002441 0.116962569793 0.0
0.0 1.62315002441 0.116848928563 0.0
0.0 1.62415002441 0.116735800396 0.0
0.0 1.62515002441 0.116623052452 0.0
0.0 1.62615002441 0.116510034782 0.0
0.0 1.62715002441 0.11639700635 0.0
0.0 1.62815002441 0.116284315923 0.0
0.0 1.62915002441 0.116172228775 0.0
0.0 1.63015002441 0.116060799604 0.0
0.0 1.63115002441 0.115949211957 0.0
0.0 1.63215002441 0.115838276173 0.0
0.0 1.63315002441 0.115727315979 0.0
0.0 1.63415002441 0.115616768855 0.0
0.0 1.63515002441 0.115506419406 0.0
0.0 1.63615002441 0.115396491242 0.0
0.0 1.63715002441 0.115287089995 0.0
0.0 1.63815002441 0.115177822352 0.0
0.0 1.63915002441 0.115069242426 0.0
0.0 1.64015002441 0.114960405604 0.0
0.0 1.64115002441 0.114851672327 0.0
0.0 1.64215002441 0.11474315328 0.0
0.0 1.64315002441 0.11463547236 0.0
0.0 1.64415002441 0.114528364426 0.0
0.0 1.64515002441 0.114421444622 0.0
0.0 1.64615002441 0.114314505273 0.0
0.0 1.64715002441 0.114207878261 0.0
0.0 1.64815002441 0.114101556619 0.0
0.0 1.64915002441 0.113995451706 0.0
0.0 1.65015002441 0.113889941909 0.0
0.0 1.65115002441 0.11378459146 0.0
0.0 1.65215002441 0.113680018731 0.0
0.0 1.65315002441 0.113575325289 0.0
0.0 1.65415002441 0.113470894887 0.0
0.0 1.65515002441 0.113366544877 0.0
0.0 1.65615002441 0.113262515373 0.0
0.0 1.65715002441 0.113158906013 0.0
0.0 1.65815002441 0.113055630799 0.0
0.0 1.65915002441 0.112952851548 0.0
0.0 1.66015002441 0.112850863322 0.0
0.0 1.66115002441 0.112749318646 0.0
0.0 1.66215002441 0.112648130139 0.0
0.0 1.66315002441 0.112546667585 0.0
0.0 1.66415002441 0.112445224173 0.0
0.0 1.66515002441 0.112344107492 0.0
0.0 1.66615002441 0.112243162464 0.0
0.0 1.66715002441 0.112143286454 0.0
0.0 1.66815002441 0.112043360148 0.0
0.0 1.66915002441 0.111944304961 0.0
0.0 1.67015002441 0.111845075691 0.0
0.0 1.67115002441 0.111746397218 0.0
0.0 1.67215002441 0.111647772878 0.0
0.0 1.67315002441 0.111549284165 0.0
0.0 1.67415002441 0.111451512278 0.0
0.0 1.67515002441 0.111353832826 0.0
0.0 1.67615002441 0.111256647846 0.0
0.0 1.67715002441 0.111159617276 0.0
0.0 1.67815002441 0.111063132275 0.0
0.0 1.67915002441 0.110966880346 0.0
0.0 1.68015002441 0.110870654095 0.0
0.0 1.68115002441 0.110775002903 0.0
0.0 1.68215002441 0.110679986191 0.0
0.0 1.68315002441 0.110585392089 0.0
0.0 1.68415002441 0.110491037587 0.0
0.0 1.68515002441 0.110396646019 0.0
0.0 1.68615002441 0.110303170877 0.0
0.0 1.68715002441 0.110209575033 0.0
0.0 1.68815002441 0.110116296955 0.0
0.0 1.68915002441 0.110023001611 0.0
0.0 1.69015002441 0.109930332132 0.0
0.0 1.69115002441 0.109837781422 0.0
0.0 1.69215002441 0.109745951719 0.0
0.0 1.69315002441 0.109654338657 0.0
0.0 1.69415002441 0.109563600962 0.0
0.0 1.69515002441 0.109472613641 0.0
0.0 1.69615002441 0.109382034798 0.0
0.0 1.69715002441 0.109291843329 0.0
0.0 1.69815002441 0.109201901287 0.0
0.0 1.69915002441 0.109112245217 0.0
0.0 1.70015002441 0.10902286967 0.0
0.0 1.70115002441 0.108933929692 0.0
0.0 1.70215002441 0.10884561248 0.0
0.0 1.70315002441 0.108757362469 0.0
0.0 1.70415002441 0.108669588436 0.0
0.0 1.70515002441 0.108581986837 0.0
0.0 1.70615002441 0.108495045841 0.0
0.0 1.70715002441 0.108407874432 0.0
0.0 1.70815002441 0.108321750686 0.0
0.0 1.70915002441 0.108235742894 0.0
0.0 1.71015002441 0.108150116049 0.0
0.0 1.71115002441 0.108064495084 0.0
0.0 1.71215002441 0.10797964011 0.0
0.0 1.71315002441 0.107895351674 0.0
0.0 1.71415002441 0.107811057982 0.0
0.0 1.71515002441 0.107727140134 0.0
0.0 1.71615002441 0.107643571354 0.0
0.0 1.71715002441 0.107560016257 0.0
0.0 1.71815002441 0.107476569052 0.0
0.0 1.71915002441 0.10739379613 0.0
0.0 1.72015002441 0.107311805942 0.0
0.0 1.72115002441 0.107229677017 0.0
0.0 1.72215002441 0.107148282175 0.0
0.0 1.72315002441 0.107066775791 0.0
0.0 1.72415002441 0.106986254133 0.0
0.0 1.72515002441 0.106905377633 0.0
0.0 1.72615002441 0.106825126873 0.0
0.0 1.72715002441 0.106745589305 0.0
0.0 1.72815002441 0.106666172796 0.0
0.0 1.72915002441 0.106586940585 0.0
0.0 1.73015002441 0.106507551031 0.0
0.0 1.73115002441 0.106429059168 0.0
0.0 1.73215002441 0.106351054107 0.0
0.0 1.73315002441 0.106273613358 0.0
0.0 1.73415002441 0.106196278258 0.0
0.0 1.73515002441 0.106119796847 0.0
0.0 1.73615002441 0.10604328384 0.0
0.0 1.73715002441 0.105967266398 0.0
0.0 1.73815002441 0.105891612525 0.0
0.0 1.73915002441 0.105815858838 0.0
0.0 1.74015002441 0.105740129714 0.0
0.0 1.74115002441 0.105664686141 0.0
0.0 1.74215002441 0.105589827335 0.0
0.0 1.74315002441 0.105515933936 0.0
0.0 1.74415002441 0.105442580005 0.0
0.0 1.74515002441 0.105369777357 0.0
0.0 1.74615002441 0.105297223908 0.0
0.0 1.74715002441 0.105223868832 0.0
0.0 1.74815002441 0.105151316798 0.0
0.0 1.74915002441 0.105079176114 0.0
0.0 1.75015002441 0.10500822206 0.0
0.0 1.75115002441 0.104937100015 0.0
0.0 1.75215002441 0.104865832538 0.0
0.0 1.75315002441 0.104795534397 0.0
0.0 1.75415002441 0.104725236752 0.0
0.0 1.75515002441 0.104655823902 0.0
0.0 1.75615002441 0.104586184995 0.0
0.0 1.75715002441 0.104517238126 0.0
0.0 1.75815002441 0.104448585945 0.0
0.0 1.75915002441 0.104380309563 0.0
0.0 1.76015002441 0.104312180195 0.0
0.0 1.76115002441 0.104245036231 0.0
0.0 1.76215002441 0.104177323913 0.0
0.0 1.76315002441 0.104110958055 0.0
0.0 1.76415002441 0.104044108675 0.0
0.0 1.76515002441 0.103978540415 0.0
0.0 1.76615002441 0.103913059781 0.0
0.0 1.76715002441 0.103847940434 0.0
0.0 1.76815002441 0.103783072981 0.0
0.0 1.76915002441 0.103718448919 0.0
0.0 1.77015002441 0.103653803938 0.0
0.0 1.77115002441 0.10359030531 0.0
0.0 1.77215002441 0.103526963313 0.0
0.0 1.77315002441 0.103464041963 0.0
0.0 1.77415002441 0.103401194371 0.0
0.0 1.77515002441 0.103338671606 0.0
0.0 1.77615002441 0.103277334051 0.0
0.0 1.77715002441 0.1032154247 0.0
0.0 1.77815002441 0.103154312275 0.0
0.0 1.77915002441 0.103093232063 0.0
0.0 1.78015002441 0.103033072574 0.0
0.0 1.78115002441 0.102972848894 0.0
0.0 1.78215002441 0.102913356534 0.0
0.0 1.78315002441 0.102854586624 0.0
0.0 1.78415002441 0.102796303455 0.0
0.0 1.78515002441 0.102737514785 0.0
0.0 1.78615002441 0.102678807505 0.0
0.0 1.78715002441 0.102621015081 0.0
0.0 1.78815002441 0.102564088051 0.0
0.0 1.78915002441 0.102507447407 0.0
0.0 1.79015002441 0.102450369299 0.0
0.0 1.79115002441 0.102393861194 0.0
0.0 1.79215002441 0.102338130526 0.0
0.0 1.79315002441 0.10228291309 0.0
0.0 1.79415002441 0.102227856818 0.0
0.0 1.79515002441 0.102173238888 0.0
0.0 1.79615002441 0.1021190626 0.0
0.0 1.79715002441 0.102065523827 0.0
0.0 1.79815002441 0.102011799191 0.0
0.0 1.79915002441 0.101958485096 0.0
0.0 1.80015002441 0.101905742809 0.0
0.0 1.80115002441 0.10185397257 0.0
0.0 1.80215002441 0.101802642485 0.0
0.0 1.80315002441 0.101751106343 0.0
0.0 1.80415002441 0.10169958397 0.0
0.0 1.80515002441 0.101648751213 0.0
0.0 1.80615002441 0.101598565746 0.0
0.0 1.80715002441 0.101549159532 0.0
0.0 1.80815002441 0.101499326765 0.0
0.0 1.80915002441 0.101449899157 0.0
0.0 1.81015002441 0.101401093193 0.0
0.0 1.81115002441 0.101353321611 0.0
0.0 1.81215002441 0.101305413678 0.0
0.0 1.81315002441 0.101257876348 0.0
0.0 1.81415002441 0.1012107307 0.0
0.0 1.81515002441 0.101164849502 0.0
0.0 1.81615002441 0.101117888622 0.0
0.0 1.81715002441 0.101071588819 0.0
0.0 1.81815002441 0.101025616825 0.0
0.0 1.81915002441 0.10098124232 0.0
0.0 1.82015002441 0.100937185111 0.0
0.0 1.82115002441 0.100892658109 0.0
0.0 1.82215002441 0.10084859039 0.0
0.0 1.82315002441 0.100804509619 0.0
0.0 1.82415002441 0.100761547887 0.0
0.0 1.82515002441 0.100719028412 0.0
0.0 1.82615002441 0.100677137788 0.0
0.0 1.82715002441 0.100635327178 0.0
0.0 1.82815002441 0.1005938276 0.0
0.0 1.82915002441 0.100552340154 0.0
0.0 1.83015002441 0.100511402639 0.0
0.0 1.83115002441 0.100471094667 0.0
0.0 1.83215002441 0.100431378287 0.0
0.0 1.83315002441 0.100392826187 0.0
0.0 1.83415002441 0.100353347752 0.0
0.0 1.83515002441 0.10031501116 0.0
0.0 1.83615002441 0.100275599108 0.0
0.0 1.83715002441 0.100237834488 0.0
0.0 1.83815002441 0.100199521672 0.0
0.0 1.83915002441 0.100162697745 0.0
0.0 1.84015002441 0.100126756349 0.0
0.0 1.84115002441 0.100091128812 0.0
0.0 1.84215002441 0.10005583288 0.0
0.0 1.84315002441 0.10001963113 0.0
0.0 1.84415002441 0.0999843316622 0.0
0.0 1.84515002441 0.0999490049546 0.0
0.0 1.84615002441 0.0999143264781 0.0
0.0 1.84715002441 0.0998801455918 0.0
0.0 1.84815002441 0.0998475308277 0.0
0.0 1.84915002441 0.0998152462767 0.0
0.0 1.85015002441 0.0997827003699 0.0
0.0 1.85115002441 0.0997501862563 0.0
0.0 1.85215002441 0.0997185768888 0.0
0.0 1.85315002441 0.0996876686905 0.0
0.0 1.85415002441 0.0996568740783 0.0
0.0 1.85515002441 0.0996259682043 0.0
0.0 1.85615002441 0.0995962798495 0.0
0.0 1.85715002441 0.0995665761848 0.0
0.0 1.85815002441 0.0995379666673 0.0
0.0 1.85915002441 0.099508609145 0.0
0.0 1.86015002441 0.0994801757558 0.0
0.0 1.86115002441 0.0994521995957 0.0
0.0 1.86215002441 0.0994251486849 0.0
0.0 1.86315002441 0.0993980480012 0.0
0.0 1.86415002441 0.0993710558677 0.0
0.0 1.86515002441 0.0993442506333 0.0
0.0 1.86615002441 0.0993181303921 0.0
0.0 1.86715002441 0.09929182362 0.0
0.0 1.86815002441 0.0992673356661 0.0
0.0 1.86915002441 0.0992421868134 0.0
0.0 1.87015002441 0.0992194301268 0.0
0.0 1.87115002441 0.0991951176734 0.0
0.0 1.87215002441 0.0991722686922 0.0
0.0 1.87315002441 0.0991485693271 0.0
0.0 1.87415002441 0.0991257831212 0.0
0.0 1.87515002441 0.0991037012865 0.0
0.0 1.87615002441 0.0990818056389 0.0
0.0 1.87715002441 0.0990610726595 0.0
0.0 1.87815002441 0.0990404222452 0.0
0.0 1.87915002441 0.0990194439231 0.0
0.0 1.88015002441 0.0989990411571 0.0
0.0 1.88115002441 0.0989792035354 0.0
0.0 1.88215002441 0.0989605851818 0.0
0.0 1.88315002441 0.0989424194663 0.0
0.0 1.88415002441 0.098924334521 0.0
0.0 1.88515002441 0.0989066162709 0.0
0.0 1.88615002441 0.0988896318099 0.0
0.0 1.88715002441 0.0988729263391 0.0
0.0 1.88815002441 0.0988568606715 0.0
0.0 1.88915002441 0.098840825603 0.0
0.0 1.89015002441 0.0988253794877 0.0
0.0 1.89115002441 0.0988106282945 0.0
0.0 1.89215002441 0.0987952534965 0.0
0.0 1.89315002441 0.0987820294007 0.0
0.0 1.89415002441 0.098767472817 0.0
0.0 1.89515002441 0.0987540596455 0.0
0.0 1.89615002441 0.0987397369752 0.0
0.0 1.89715002441 0.098727633179 0.0
0.0 1.89815002441 0.098716458842 0.0
0.0 1.89915002441 0.0987049754951 0.0
0.0 1.90015002441 0.0986935978794 0.0
0.0 1.90115002441 0.0986822224019 0.0
0.0 1.90215002441 0.0986723468985 0.0
0.0 1.90315002441 0.0986624269233 0.0
0.0 1.90415002441 0.0986539643953 0.0
0.0 1.90515002441 0.0986445770144 0.0
0.0 1.90615002441 0.0986359296147 0.0
0.0 1.90715002441 0.0986276662941 0.0
0.0 1.90815002441 0.0986198963987 0.0
0.0 1.90915002441 0.0986133490505 0.0
0.0 1.91015002441 0.0986055027934 0.0
0.0 1.91115002441 0.0985989462815 0.0
0.0 1.91215002441 0.0985920877797 0.0
0.0 1.91315002441 0.0985860465051 0.0
0.0 1.91415002441 0.0985818011267 0.0
0.0 1.91515002441 0.0985774243255 0.0
0.0 1.91615002441 0.0985739991814 0.0
0.0 1.91715002441 0.0985699672554 0.0
0.0 1.91815002441 0.0985676258926 0.0
0.0 1.91915002441 0.098565813285 0.0
0.0 1.92015002441 0.0985638896326 0.0
0.0 1.92115002441 0.0985619708753 0.0
0.0 1.92215002441 0.0985600301242 0.0
0.0 1.92315002441 0.0985592514892 0.0
0.0 1.92415002441 0.0985583579844 0.0
0.0 1.92515002441 0.0985581591398 0.0
0.0 1.92615002441 0.0985581095333 0.0
0.0 1.92715002441 0.098559710954 0.0
0.0 1.92815002441 0.0985616537798 0.0
0.0 1.92915002441 0.0985641729978 0.0
0.0 1.93015002441 0.098565887433 0.0
0.0 1.93115002441 0.0985688909313 0.0
0.0 1.93215002441 0.0985713486668 0.0
0.0 1.93315002441 0.0985749169615 0.0
0.0 1.93415002441 0.0985783018393 0.0
0.0 1.93515002441 0.0985830199463 0.0
0.0 1.93615002441 0.0985889412654 0.0
0.0 1.93715002441 0.0985948302407 0.0
0.0 1.93815002441 0.0986005148922 0.0
0.0 1.93915002441 0.0986065278178 0.0
0.0 1.94015002441 0.0986139551656 0.0
0.0 1.94115002441 0.0986222706346 0.0
0.0 1.94215002441 0.0986304852377 0.0
0.0 1.94315002441 0.098638347694 0.0
0.0 1.94415002441 0.0986461003054 0.0
0.0 1.94515002441 0.098655361125 0.0
0.0 1.94615002441 0.0986656919178 0.0
0.0 1.94715002441 0.0986768983687 0.0
0.0 1.94815002441 0.0986865825658 0.0
0.0 1.94915002441 0.0986972946141 0.0
0.0 1.95015002441 0.0987088587415 0.0
0.0 1.95115002441 0.0987212780641 0.0
0.0 1.95215002441 0.0987340811548 0.0
0.0 1.95315002441 0.0987462963127 0.0
0.0 1.95415002441 0.0987595554068 0.0
0.0 1.95515002441 0.098772376675 0.0
0.0 1.95615002441 0.0987866990284 0.0
0.0 1.95715002441 0.0988024599359 0.0
0.0 1.95815002441 0.0988184063757 0.0
0.0 1.95915002441 0.0988341360805 0.0
0.0 1.96015002441 0.0988501366326 0.0
0.0 1.96115002441 0.0988660733738 0.0
0.0 1.96215002441 0.0988838286571 0.0
0.0 1.96315002441 0.0989010938467 0.0
0.0 1.96415002441 0.0989198152984 0.0
0.0 1.96515002441 0.0989380459402 0.0
0.0 1.96615002441 0.0989563042782 0.0
0.0 1.96715002441 0.0989756709324 0.0
0.0 1.96815002441 0.0989951603817 0.0
0.0 1.96915002441 0.0990158279222 0.0
0.0 1.97015002441 0.0990350232429 0.0
0.0 1.97115002441 0.0990557500207 0.0
0.0 1.97215002441 0.0990769482077 0.0
0.0 1.97315002441 0.0991003076648 0.0
0.0 1.97415002441 0.0991234215352 0.0
0.0 1.97515002441 0.0991467163716 0.0
0.0 1.97615002441 0.0991697349793 0.0
0.0 1.97715002441 0.0991938247801 0.0
0.0 1.97815002441 0.099218291316 0.0
0.0 1.97915002441 0.0992434183501 0.0
0.0 1.98015002441 0.0992680443174 0.0
0.0 1.98115002441 0.0992943042259 0.0
0.0 1.98215002441 0.0993214055665 0.0
0.0 1.98315002441 0.0993502960202 0.0
0.0 1.98415002441 0.0993776742282 0.0
0.0 1.98515002441 0.0994047101943 0.0
0.0 1.98615002441 0.0994310237765 0.0
0.0 1.98715002441 0.0994598002579 0.0
0.0 1.98815002441 0.0994894491515 0.0
0.0 1.98915002441 0.0995209089093 0.0
0.0 1.99015002441 0.0995522605262 0.0
0.0 1.99115002441 0.0995838941732 0.0
0.0 1.99215002441 0.0996140944375 0.0
0.0 1.99315002441 0.0996451289539 0.0
0.0 1.99415002441 0.0996773675634 0.0
0.0 1.99515002441 0.0997106167011 0.0
0.0 1.99615002441 0.099743878146 0.0
0.0 1.99715002441 0.0997773462 0.0
0.0 1.99815002441 0.0998112767493 0.0
0.0 1.99915002441 0.0998468694726 0.0
0.0 2.00015002441 0.0998817272971 0.0
0.0 2.00115002441 0.0999188990758 0.0
0.0 2.00215002441 0.0999546027727 0.0
0.0 2.00315002441 0.0999919777487 0.0
0.0 2.00415002441 0.100028208218 0.0
0.0 2.00515002441 0.100065414056 0.0
0.0 2.00615002441 0.100103834952 0.0
0.0 2.00715002441 0.100143805412 0.0
0.0 2.00815002441 0.100182967234 0.0
0.0 2.00915002441 0.10022306318 0.0
0.0 2.01015002441 0.100262635424 0.0
0.0 2.01115002441 0.100303808465 0.0
0.0 2.01215002441 0.100344528858 0.0
0.0 2.01315002441 0.100386175452 0.0
0.0 2.01415002441 0.100428626704 0.0
0.0 2.01515002441 0.100472119263 0.0
0.0 2.01615002441 0.100515791325 0.0
0.0 2.01715002441 0.100559107229 0.0
0.0 2.01815002441 0.100601882957 0.0
0.0 2.01915002441 0.100647062972 0.0
0.0 2.02015002441 0.100692509831 0.0
0.0 2.02115002441 0.100739384333 0.0
0.0 2.02215002441 0.100784106533 0.0
0.0 2.02315002441 0.100831493136 0.0
0.0 2.02415002441 0.100878296363 0.0
0.0 2.02515002441 0.100927098173 0.0
0.0 2.02615002441 0.100975161047 0.0
0.0 2.02715002441 0.101024469907 0.0
0.0 2.02815002441 0.101073446973 0.0
0.0 2.02915002441 0.101123275088 0.0
0.0 2.03015002441 0.101172429752 0.0
0.0 2.03115002441 0.101224089264 0.0
0.0 2.03215002441 0.101275338945 0.0
0.0 2.03315002441 0.101327526267 0.0
0.0 2.03415002441 0.101379189471 0.0
0.0 2.03515002441 0.101432420343 0.0
0.0 2.03615002441 0.101487175482 0.0
0.0 2.03715002441 0.101540778807 0.0
0.0 2.03815002441 0.101594961368 0.0
0.0 2.03915002441 0.101648563056 0.0
0.0 2.04015002441 0.10170488084 0.0
0.0 2.04115002441 0.101760827839 0.0
0.0 2.04215002441 0.101817542223 0.0
0.0 2.04315002441 0.101873719112 0.0
0.0 2.04415002441 0.101930643392 0.0
0.0 2.04515002441 0.101987991175 0.0
0.0 2.04615002441 0.102046419689 0.0
0.0 2.04715002441 0.102105593541 0.0
0.0 2.04814990234 0.102165762095 0.0
0.0 2.04914990234 0.102225581378 0.0
0.0 2.05014990234 0.102286227173 0.0
0.0 2.05114990234 0.10234662779 0.0
0.0 2.05214990234 0.102407660114 0.0
0.0 2.05314990234 0.102469106816 0.0
0.0 2.05414990234 0.102532968129 0.0
0.0 2.05514990234 0.102597212212 0.0
0.0 2.05614990234 0.102661192291 0.0
0.0 2.05714990234 0.102724996975 0.0
0.0 2.05814990234 0.102789320272 0.0
0.0 2.05914990234 0.102855052473 0.0
0.0 2.06014990234 0.102918985423 0.0
0.0 2.06114990234 0.102984328959 0.0
0.0 2.06214990234 0.103051237697 0.0
0.0 2.06314990234 0.103119706701 0.0
0.0 2.06414990234 0.103188539032 0.0
0.0 2.06514990234 0.103256309504 0.0
0.0 2.06614990234 0.10332578846 0.0
0.0 2.06714990234 0.103394179255 0.0
0.0 2.06814990234 0.103464480175 0.0
0.0 2.06914990234 0.10353477492 0.0
0.0 2.07014990234 0.103606141581 0.0
0.0 2.07114990234 0.103677173369 0.0
0.0 2.07214990234 0.103749273806 0.0
0.0 2.07314990234 0.10382174873 0.0
0.0 2.07414990234 0.103893803177 0.0
0.0 2.07514990234 0.103966344715 0.0
0.0 2.07614990234 0.104040524924 0.0
0.0 2.07714990234 0.10411606287 0.0
0.0 2.07814990234 0.104191420335 0.0
0.0 2.07914990234 0.104267833018 0.0
0.0 2.08014990234 0.104344334043 0.0
0.0 2.08114990234 0.104420437702 0.0
0.0 2.08214990234 0.104496733973 0.0
0.0 2.08314990234 0.104574385151 0.0
0.0 2.08414990234 0.1046538335 0.0
0.0 2.08514990234 0.104732469584 0.0
0.0 2.08614990234 0.104812489151 0.0
0.0 2.08714990234 0.104892552646 0.0
0.0 2.08814990234 0.104972910651 0.0
0.0 2.08914990234 0.105052588016 0.0
0.0 2.09014990234 0.105133675002 0.0
0.0 2.09114990234 0.105216313398 0.0
0.0 2.09214990234 0.105297962788 0.0
0.0 2.09314990234 0.105381270161 0.0
0.0 2.09414990234 0.105464981119 0.0
0.0 2.09514990234 0.105550469058 0.0
0.0 2.09614990234 0.105634300147 0.0
0.0 2.09714990234 0.10571979032 0.0
0.0 2.09814990234 0.105804841394 0.0
0.0 2.09914990234 0.105892418647 0.0
0.0 2.10014990234 0.105979437956 0.0
0.0 2.10114990234 0.10606794937 0.0
0.0 2.10214990234 0.106155029023 0.0
0.0 2.10314990234 0.106243304929 0.0
0.0 2.10414990234 0.106332206723 0.0
0.0 2.10514990234 0.106421806019 0.0
0.0 2.10614990234 0.106511455701 0.0
0.0 2.10714990234 0.106602055244 0.0
0.0 2.10814990234 0.106694434114 0.0
0.0 2.10914990234 0.106785722379 0.0
0.0 2.11014990234 0.106877263432 0.0
0.0 2.11114990234 0.106970156994 0.0
0.0 2.11214990234 0.107064129724 0.0
0.0 2.11314990234 0.107157846056 0.0
0.0 2.11414990234 0.107251598281 0.0
0.0 2.11514990234 0.107346309248 0.0
0.0 2.11614990234 0.107442692034 0.0
0.0 2.11714990234 0.107539347806 0.0
0.0 2.11814990234 0.107636244993 0.0
0.0 2.11914990234 0.107733954444 0.0
0.0 2.12014990234 0.107830488493 0.0
0.0 2.12114990234 0.107929330924 0.0
0.0 2.12214990234 0.108027408539 0.0
0.0 2.12314990234 0.108127381819 0.0
0.0 2.12414990234 0.108227270777 0.0
0.0 2.12514990234 0.108328233414 0.0
0.0 2.12614990234 0.108430971543 0.0
0.0 2.12714990234 0.108534118307 0.0
0.0 2.12814990234 0.108635097133 0.0
0.0 2.12914990234 0.108737193552 0.0
0.0 2.13014990234 0.108839431179 0.0
0.0 2.13114990234 0.108944308043 0.0
0.0 2.13214990234 0.109046863268 0.0
0.0 2.13314990234 0.109151412623 0.0
0.0 2.13414990234 0.109256465292 0.0
0.0 2.13514990234 0.109363412638 0.0
0.0 2.13614990234 0.109469926776 0.0
0.0 2.13714990234 0.10957745205 0.0
0.0 2.13814990234 0.10968598565 0.0
0.0 2.13914990234 0.109795188831 0.0
0.0 2.14014990234 0.109904903802 0.0
0.0 2.14114990234 0.110014381441 0.0
0.0 2.14214990234 0.110124370828 0.0
0.0 2.14314990234 0.110235295815 0.0
0.0 2.14414990234 0.110346852094 0.0
0.0 2.14514990234 0.110458304996 0.0
0.0 2.14614990234 0.11057082286 0.0
0.0 2.14714990234 0.110683724908 0.0
0.0 2.14814990234 0.110797490008 0.0
0.0 2.14914990234 0.110909749847 0.0
0.0 2.15014990234 0.111023716358 0.0
0.0 2.15114990234 0.11113811915 0.0
0.0 2.15214990234 0.111254348289 0.0
0.0 2.15314990234 0.111370942628 0.0
0.0 2.15414990234 0.111488213145 0.0
0.0 2.15514990234 0.111607293125 0.0
0.0 2.15614990234 0.111723633045 0.0
0.0 2.15714990234 0.111839881909 0.0
0.0 2.15814990234 0.111958384695 0.0
0.0 2.15914990234 0.112078441408 0.0
0.0 2.16014990234 0.11220047449 0.0
0.0 2.16114990234 0.112321676431 0.0
0.0 2.16214990234 0.11244452713 0.0
0.0 2.16314990234 0.112566528712 0.0
0.0 2.16414990234 0.11268800669 0.0
0.0 2.16514990234 0.112809594419 0.0
0.0 2.16614990234 0.112933486441 0.0
0.0 2.16714990234 0.113057871971 0.0
0.0 2.16814990234 0.113184403852 0.0
0.0 2.16914990234 0.113308290221 0.0
0.0 2.17014990234 0.113433473289 0.0
0.0 2.17114990234 0.113560149115 0.0
0.0 2.17214990234 0.113687488054 0.0
0.0 2.17314990234 0.113815351036 0.0
0.0 2.17414990234 0.113941374502 0.0
0.0 2.17514990234 0.114069579383 0.0
0.0 2.17614990234 0.114198490513 0.0
0.0 2.17714990234 0.114329393723 0.0
0.0 2.17814990234 0.11446054424 0.0
0.0 2.17914990234 0.114591527148 0.0
0.0 2.18014990234 0.114722122566 0.0
0.0 2.18114990234 0.114854326226 0.0
0.0 2.18214990234 0.114986981428 0.0
0.0 2.18314990234 0.11512078307 0.0
0.0 2.18414990234 0.115255305316 0.0
0.0 2.18514990234 0.115390648139 0.0
0.0 2.18614990234 0.115525792502 0.0
0.0 2.18714990234 0.11566155987 0.0
0.0 2.18814990234 0.115797158928 0.0
0.0 2.18914990234 0.115934300168 0.0
0.0 2.19014990234 0.116073572205 0.0
0.0 2.19114990234 0.116210492129 0.0
0.0 2.19214990234 0.116348082617 0.0
0.0 2.19314990234 0.116485717748 0.0
0.0 2.19414990234 0.116627563574 0.0
0.0 2.19514990234 0.116770055839 0.0
0.0 2.19614990234 0.116911927446 0.0
0.0 2.19714990234 0.117054718107 0.0
0.0 2.19814990234 0.11719675932 0.0
0.0 2.19914990234 0.117341172554 0.0
0.0 2.20014990234 0.117484815858 0.0
0.0 2.20114990234 0.117629585434 0.0
0.0 2.20214990234 0.117774010261 0.0
0.0 2.20314990234 0.117919570355 0.0
0.0 2.20414990234 0.11806541068 0.0
0.0 2.20514990234 0.118213405598 0.0
0.0 2.20614990234 0.118358840245 0.0
0.0 2.20714990234 0.118506136676 0.0
0.0 2.20814990234 0.118653241379 0.0
0.0 2.20914990234 0.118805772804 0.0
0.0 2.21014990234 0.118956569505 0.0
0.0 2.21114990234 0.119107196945 0.0
0.0 2.21214990234 0.119256148396 0.0
0.0 2.21314990234 0.119405989526 0.0
0.0 2.21414990234 0.119556749153 0.0
0.0 2.21514990234 0.119710050573 0.0
0.0 2.21614990234 0.119864417555 0.0
0.0 2.21714990234 0.120018876926 0.0
0.0 2.21814990234 0.120170337348 0.0
0.0 2.21914990234 0.120324966333 0.0
0.0 2.22014990234 0.120480489424 0.0
0.0 2.22114990234 0.120638459092 0.0
0.0 2.22214990234 0.120795250974 0.0
0.0 2.22314990234 0.120951347957 0.0
0.0 2.22414990234 0.121109665145 0.0
0.0 2.22514990234 0.121269301488 0.0
0.0 2.22614990234 0.121429014034 0.0
0.0 2.22714990234 0.121587977512 0.0
0.0 2.22814990234 0.121747072621 0.0
0.0 2.22914990234 0.121908471028 0.0
0.0 2.23014990234 0.122070464791 0.0
0.0 2.23114990234 0.122232447975 0.0
0.0 2.23214990234 0.122394337022 0.0
0.0 2.23314990234 0.122558207618 0.0
0.0 2.23414990234 0.122722692158 0.0
0.0 2.23514990234 0.122885885728 0.0
0.0 2.23614990234 0.123048268045 0.0
0.0 2.23714990234 0.123214933248 0.0
0.0 2.23814990234 0.123382769748 0.0
0.0 2.23914990234 0.123551278788 0.0
0.0 2.24014990234 0.123719319685 0.0
0.0 2.24114990234 0.123889616081 0.0
0.0 2.24214990234 0.124060987177 0.0
0.0 2.24314990234 0.124230141229 0.0
0.0 2.24414990234 0.124398450108 0.0
0.0 2.24514990234 0.124566985522 0.0
0.0 2.24614990234 0.124739332625 0.0
0.0 2.24714990234 0.124912277568 0.0
0.0 2.24814990234 0.125086415399 0.0
0.0 2.24914990234 0.125256491743 0.0
0.0 2.25014990234 0.1254300737 0.0
0.0 2.25114990234 0.12560531955 0.0
0.0 2.25214990234 0.125782830459 0.0
0.0 2.25314990234 0.125957917697 0.0
0.0 2.25414990234 0.126132430041 0.0
0.0 2.25514990234 0.126308980449 0.0
0.0 2.25614990234 0.126485871789 0.0
0.0 2.25714990234 0.126664882964 0.0
0.0 2.25814990234 0.12684013299 0.0
0.0 2.25914990234 0.127019641672 0.0
0.0 2.26014990234 0.127197785846 0.0
0.0 2.26114990234 0.127379851982 0.0
0.0 2.26214990234 0.127561944314 0.0
0.0 2.26314990234 0.127744219394 0.0
0.0 2.26414990234 0.12792700201 0.0
0.0 2.26514990234 0.128108350585 0.0
0.0 2.26614990234 0.128292643931 0.0
0.0 2.26714990234 0.128478093399 0.0
0.0 2.26814990234 0.128661154718 0.0
0.0 2.26914990234 0.128845697583 0.0
0.0 2.27014990234 0.129028035802 0.0
0.0 2.27114990234 0.129215414515 0.0
0.0 2.27214990234 0.129400723476 0.0
0.0 2.27314990234 0.129588089928 0.0
0.0 2.27414990234 0.129777227586 0.0
0.0 2.27514990234 0.129964687122 0.0
0.0 2.27614990234 0.130154143043 0.0
0.0 2.27714990234 0.130342437154 0.0
0.0 2.27814990234 0.130534033878 0.0
0.0 2.27914990234 0.130724236336 0.0
0.0 2.28014990234 0.130913571079 0.0
0.0 2.28114990234 0.131104175223 0.0
0.0 2.28214990234 0.131296279216 0.0
0.0 2.28314990234 0.131492112556 0.0
0.0 2.28414990234 0.13168641963 0.0
0.0 2.28514990234 0.131880351777 0.0
0.0 2.28614990234 0.132073928555 0.0
0.0 2.28714990234 0.132270955456 0.0
0.0 2.28814990234 0.132469122591 0.0
0.0 2.28914990234 0.132666142225 0.0
0.0 2.29014990234 0.132863517301 0.0
0.0 2.29114990234 0.13306194077 0.0
0.0 2.29214990234 0.133261552791 0.0
0.0 2.29314990234 0.133461167171 0.0
0.0 2.29414990234 0.133660277141 0.0
0.0 2.29514990234 0.13386041769 0.0
0.0 2.29614990234 0.134060899116 0.0
0.0 2.29714990234 0.134265382735 0.0
0.0 2.29814990234 0.134469086349 0.0
0.0 2.29914990234 0.134674743334 0.0
0.0 2.30014990234 0.134876995332 0.0
0.0 2.30114990234 0.135081840968 0.0
0.0 2.30214990234 0.135286397067 0.0
0.0 2.30314990234 0.135494257042 0.0
0.0 2.30414990234 0.135701326564 0.0
0.0 2.30514990234 0.135909228108 0.0
0.0 2.30614990234 0.136117721226 0.0
0.0 2.30714990234 0.136327718429 0.0
0.0 2.30814990234 0.136537206838 0.0
0.0 2.30914990234 0.136747399788 0.0
0.0 2.31014990234 0.136957607448 0.0
0.0 2.31114990234 0.137169114839 0.0
0.0 2.31214990234 0.137381104389 0.0
0.0 2.31314990234 0.137594069668 0.0
0.0 2.31414990234 0.137808619651 0.0
0.0 2.31514990234 0.138023596529 0.0
0.0 2.31614990234 0.138239111378 0.0
0.0 2.31714990234 0.138454207777 0.0
0.0 2.31814990234 0.138669327969 0.0
0.0 2.31914990234 0.138886258342 0.0
0.0 2.32014990234 0.139104302285 0.0
0.0 2.32114990234 0.13932267186 0.0
0.0 2.32214990234 0.139540999274 0.0
0.0 2.32314990234 0.139759862663 0.0
0.0 2.32414990234 0.139979998125 0.0
0.0 2.32514990234 0.140200937228 0.0
0.0 2.32614990234 0.140421837684 0.0
0.0 2.32714990234 0.140643612146 0.0
0.0 2.32814990234 0.140866128778 0.0
0.0 2.32914990234 0.141089542596 0.0
0.0 2.33014990234 0.141313995471 0.0
0.0 2.33114990234 0.141538294567 0.0
0.0 2.33214990234 0.141763543384 0.0
0.0 2.33314990234 0.141989091519 0.0
0.0 2.33414990234 0.142215965876 0.0
0.0 2.33514990234 0.142443422665 0.0
0.0 2.33614990234 0.142671441788 0.0
0.0 2.33714990234 0.142900023963 0.0
0.0 2.33814990234 0.143129232525 0.0
0.0 2.33914990234 0.143359517194 0.0
0.0 2.34014990234 0.143590207705 0.0
0.0 2.34114990234 0.143821594715 0.0
0.0 2.34214990234 0.144053490755 0.0
0.0 2.34314990234 0.14428640589 0.0
0.0 2.34414990234 0.144519969061 0.0
0.0 2.34514990234 0.144754196816 0.0
0.0 2.34614990234 0.144989031813 0.0
0.0 2.34714990234 0.145224587392 0.0
0.0 2.34814990234 0.145460580459 0.0
0.0 2.34914990234 0.145697502172 0.0
0.0 2.35014990234 0.14593520809 0.0
0.0 2.35114990234 0.146173730448 0.0
0.0 2.35214990234 0.146412311747 0.0
0.0 2.35314990234 0.146651712796 0.0
0.0 2.35414990234 0.146891799001 0.0
0.0 2.35514990234 0.147132835186 0.0
0.0 2.35614990234 0.147374434178 0.0
0.0 2.35714990234 0.147616469367 0.0
0.0 2.35814990234 0.147859262117 0.0
0.0 2.35914990234 0.148102443608 0.0
0.0 2.36014990234 0.148346468453 0.0
0.0 2.36114990234 0.148591018238 0.0
0.0 2.36214990234 0.148836497842 0.0
0.0 2.36314990234 0.14908278684 0.0
0.0 2.36414990234 0.149329670175 0.0
0.0 2.36514990234 0.149576970867 0.0
0.0 2.36614990234 0.149824857462 0.0
0.0 2.36714990234 0.150073533099 0.0
0.0 2.36814990234 0.150322969687 0.0
0.0 2.36914990234 0.150573128183 0.0
0.0 2.37014990234 0.150823949365 0.0
0.0 2.37114990234 0.151075503826 0.0
0.0 2.37214990234 0.151327674853 0.0
0.0 2.37314990234 0.151580575176 0.0
0.0 2.37414990234 0.151834088404 0.0
0.0 2.37514990234 0.15208835909 0.0
0.0 2.37614990234 0.152343325002 0.0
0.0 2.37714990234 0.152599056988 0.0
0.0 2.37814990234 0.15285542663 0.0
0.0 2.37914990234 0.153112502334 0.0
0.0 2.38014990234 0.165966768668 0.0
0.0 2.38114990234 0.245565906045 0.0
0.0 2.38214990234 0.317568810388 0.0
0.0 2.38314990234 0.382700354836 0.0
0.0 2.38414990234 0.441616228352 0.0
0.0 2.38514990234 0.494909545091 0.0
0.0 2.38614990234 0.543116859186 0.0
0.0 2.38714990234 0.586723513089 0.0
0.0 2.38814990234 0.626168525577 0.0
0.0 2.38914990234 0.66184902601 0.0
0.0 2.39014990234 0.694124256384 0.0
0.0 2.39114990234 0.723319198482 0.0
0.0 2.39214990234 0.749727800576 0.0
0.0 2.39314990234 0.773615965745 0.0
0.0 2.39414990234 0.795224213886 0.0
0.0 2.39514990234 0.814770126673 0.0
0.0 2.39614990234 0.832450535805 0.0
0.0 2.39714990234 0.848443470731 0.0
0.0 2.39814990234 0.862909969872 0.0
0.0 2.39914990234 0.875995714515 0.0
0.0 2.40014990234 0.887832476781 0.0
0.0 2.40114990234 0.898539465732 0.0
0.0 2.40214990234 0.908224496184 0.0
0.0 2.40314990234 0.916985104093 0.0
0.0 2.40414990234 0.924909522542 0.0
0.0 2.40514990234 0.932077554786 0.0
0.0 2.40614990234 0.938561395064 0.0
0.0 2.40714990234 0.944426340651 0.0
0.0 2.40814990234 0.949731464671 0.0
0.0 2.40914990234 0.954530201109 0.0
0.0 2.41014990234 0.958870875295 0.0
0.0 2.41114990234 0.962797214014 0.0
0.0 2.41214990234 0.966348759163 0.0
0.0 2.41314990234 0.969561289467 0.0
0.0 2.41414990234 0.972467158321 0.0
0.0 2.41514990234 0.975095638274 0.0
0.0 2.41614990234 0.97747320605 0.0
0.0 2.41714990234 0.979623812126 0.0
0.0 2.41814990234 0.981569120622 0.0
0.0 2.41914990234 0.983328727315 0.0
0.0 2.42014990234 0.984920357738 0.0
0.0 2.42114990234 0.986360045893 0.0
0.0 2.42214990234 0.987662295352 0.0
0.0 2.42314990234 0.988840225684 0.0
0.0 2.42414990234 0.989905704185 0.0
0.0 2.42514990234 0.990869464873 0.0
0.0 2.42614990234 0.991741218012 0.0
0.0 2.42714990234 0.992529746021 0.0
0.0 2.42814990234 0.993242994201 0.0
0.0 2.42914990234 0.993888148307 0.0
0.0 2.43014990234 0.994471709213 0.0
0.0 2.43114990234 0.994999556308 0.0
0.0 2.43214990234 0.995477008432 0.0
0.0 2.43314990234 0.995908876378 0.0
0.0 2.43414990234 0.996299512029 0.0
0.0 2.43514990234 0.996652851669 0.0
0.0 2.43614990234 0.996972455755 0.0
0.0 2.43714990234 0.997261545008 0.0
0.0 2.43814990234 0.997523032536 0.0
0.0 2.43914990234 0.997759553557 0.0
0.0 2.44014990234 0.997973491629 0.0
0.0 2.44114990234 0.998167002827 0.0
0.0 2.44214990234 0.998342037284 0.0
0.0 2.44314990234 0.998500359063 0.0
0.0 2.44414990234 0.998643563718 0.0
0.0 2.44514990234 0.998773094614 0.0
0.0 2.44614990234 0.998890257267 0.0
0.0 2.44714990234 0.99899623253 0.0
0.0 2.44814990234 0.999092088537 0.0
0.0 2.44914990234 0.999178791444 0.0
0.0 2.45014990234 0.999257215247 0.0
0.0 2.45114990234 0.999328150406 0.0
0.0 2.45214990234 0.999392311956 0.0
0.0 2.45314990234 0.999450346608 0.0
0.0 2.45414990234 0.999502839407 0.0
0.0 2.45514990234 0.999550319511 0.0
0.0 2.45614990234 0.999593265564 0.0
0.0 2.45714990234 0.999632110486 0.0
0.0 2.45814990234 0.999667245868 0.0
0.0 2.45914990234 0.999699025946 0.0
0.0 2.46014990234 0.999727771117 0.0
0.0 2.46114990234 0.999753771164 0.0
0.0 2.46214990234 0.999777288219 0.0
0.0 2.46314990234 0.999798559394 0.0
0.0 2.46414990234 0.999817799155 0.0
0.0 2.46514990234 0.999835201476 0.0
0.0 2.46614990234 0.999850941822 0.0
0.0 2.46714990234 0.999865178905 0.0
0.0 2.46814990234 0.999878056281 0.0
0.0 2.46914990234 0.999889703791 0.0
0.0 2.47014990234 0.999900238888 0.0
0.0 2.47114990234 0.999909767808 0.0
0.0 2.47214990234 0.999918386636 0.0
0.0 2.47314990234 0.999926182284 0.0
0.0 2.47414990234 0.999933233365 0.0
0.0 2.47514990234 0.99993961099 0.0
0.0 2.47614990234 0.999945379475 0.0
0.0 2.47714990234 0.999950596993 0.0
0.0 2.47814990234 0.999955316165 0.0
0.0 2.47914990234 0.999959584585 0.0
0.0 2.48014990234 0.999963445305 0.0
0.0 2.48114990234 0.999966937261 0.0
0.0 2.48214990234 0.999970095673 0.0
0.0 2.48314990234 0.999972952397 0.0
0.0 2.48414990234 0.999975536248 0.0
0.0 2.48514990234 0.999977873288 0.0
0.0 2.48614990234 0.99997998709 0.0
0.0 2.48714990234 0.999981898976 0.0
0.0 2.48814990234 0.999983628232 0.0
0.0 2.48914990234 0.999985192302 0.0
0.0 2.49014990234 0.999986606964 0.0
0.0 2.49114990234 0.999987886489 0.0
0.0 2.49214990234 0.999989043784 0.0
0.0 2.49314990234 0.999990090525 0.0
0.0 2.49414990234 0.999991037272 0.0
0.0 2.49514990234 0.999991893575 0.0
0.0 2.49614990234 0.999992668075 0.0
0.0 2.49714990234 0.999993368586 0.0
0.0 2.49814990234 0.999994002175 0.0
0.0 2.49914990234 0.999994575235 0.0
0.0 2.50014990234 0.999995093547 0.0
0.0 2.50114990234 0.999995562342 0.0
0.0 2.50214990234 0.999995986351 0.0
0.0 2.50314990234 0.99999636985 0.0
0.0 2.50414990234 0.99999671671 0.0
0.0 2.50514990234 0.999997030431 0.0
0.0 2.50614990234 0.99999731418 0.0
0.0 2.50714990234 0.999997570818 0.0
0.0 2.50814990234 0.999997802935 0.0
0.0 2.50914990234 0.999998012877 0.0
0.0 2.51014990234 0.999998202759 0.0
0.0 2.51114990234 0.999998374498 0.0
0.0 2.51214990234 0.999998529828 0.0
0.0 2.51314990234 0.999998670316 0.0
0.0 2.51414990234 0.999998797381 0.0
0.0 2.51514990234 0.999998912305 0.0
0.0 2.51614990234 0.999999016247 0.0
0.0 2.51714990234 0.999999110258 0.0
0.0 2.51814990234 0.999999195285 0.0
0.0 2.51914990234 0.999999272188 0.0
0.0 2.52014990234 0.999999341743 0.0
0.0 2.52114990234 0.99999940465 0.0
0.0 2.52214990234 0.999999461546 0.0
0.0 2.52314990234 0.999999513005 0.0
0.0 2.52414990234 0.999999559547 0.0
0.0 2.52514990234 0.999999601641 0.0
0.0 2.52614990234 0.999999639714 0.0
0.0 2.52714990234 0.999999674147 0.0
0.0 2.52814990234 0.999999705289 0.0
0.0 2.52914990234 0.999999733457 0.0
0.0 2.53014990234 0.999999758931 0.0
0.0 2.53114990234 0.999999781972 0.0
0.0 2.53214990234 0.99999980281 0.0
0.0 2.53314990234 0.999999821658 0.0
0.0 2.53414990234 0.999999838704 0.0
0.0 2.53514990234 0.99999985412 0.0
0.0 2.53614990234 0.999999868064 0.0
0.0 2.53714990234 0.999999880675 0.0
0.0 2.53814990234 0.999999892081 0.0
0.0 2.53914990234 0.999999902395 0.0
0.0 2.54014990234 0.999999911725 0.0
0.0 2.54114990234 0.999999920163 0.0
0.0 2.54214990234 0.999999927795 0.0
0.0 2.54314990234 0.999999934697 0.0
0.0 2.54414990234 0.999999940939 0.0
0.0 2.54514990234 0.999999946585 0.0
0.0 2.54614990234 0.999999951691 0.0
0.0 2.54714990234 0.999999956309 0.0
0.0 2.54814990234 0.999999960486 0.0
0.0 2.54914990234 0.999999964264 0.0
0.0 2.55014990234 0.99999996768 0.0
0.0 2.55114990234 0.99999997077 0.0
0.0 2.55214990234 0.999999973564 0.0
0.0 2.55314990234 0.999999976092 0.0
0.0 2.55414990234 0.999999978377 0.0
0.0 2.55514990234 0.999999980445 0.0
0.0 2.55614990234 0.999999982314 0.0
0.0 2.55714990234 0.999999984004 0.0
0.0 2.55814990234 0.999999985534 0.0
0.0 2.55914990234 0.999999986917 0.0
0.0 2.56014990234 0.999999988168 0.0
0.0 2.56114990234 0.999999989299 0.0
0.0 2.56214990234 0.999999990322 0.0
0.0 2.56314990234 0.999999991247 0.0
0.0 2.56414990234 0.999999992084 0.0
0.0 2.56514990234 0.999999992841 0.0
0.0 2.56614990234 0.999999993526 0.0
0.0 2.56714990234 0.999999994145 0.0
0.0 2.56814990234 0.999999994704 0.0
0.0 2.56914990234 0.999999995211 0.0
0.0 2.57014990234 0.999999995669 0.0
0.0 2.57114990234 0.999999996083 0.0
0.0 2.57214990234 0.999999996457 0.0
0.0 2.57314990234 0.999999996796 0.0
0.0 2.57414990234 0.999999997103 0.0
0.0 2.57514990234 0.99999999738 0.0
0.0 2.57614990234 0.99999999763 0.0
0.0 2.57714990234 0.999999997857 0.0
0.0 2.57814990234 0.999999998062 0.0
0.0 2.57914990234 0.999999998247 0.0
0.0 2.58014990234 0.999999998415 0.0
0.0 2.58114990234 0.999999998566 0.0
0.0 2.58214990234 0.999999998703 0.0
0.0 2.58314990234 0.999999998827 0.0
0.0 2.58414990234 0.99999999894 0.0
0.0 2.58514990234 0.999999999041 0.0
0.0 2.58614990234 0.999999999133 0.0
0.0 2.58714990234 0.999999999216 0.0
0.0 2.58814990234 0.999999999291 0.0
0.0 2.58914990234 0.999999999359 0.0
0.0 2.59014990234 0.99999999942 0.0
0.0 2.59114990234 0.999999999475 0.0
0.0 2.59214990234 0.999999999526 0.0
0.0 2.59314990234 0.999999999571 0.0
0.0 2.59414990234 0.999999999612 0.0
0.0 2.59514990234 0.999999999649 0.0
0.0 2.59614990234 0.999999999683 0.0
0.0 2.59714990234 0.999999999713 0.0
0.0 2.59814990234 0.99999999974 0.0
0.0 2.59914990234 0.999999999765 0.0
