0.0 0.551789978027 0.309119865506 0.0
0.0 0.552789978027 0.308970401997 0.0
0.0 0.553789978027 0.308820704253 0.0
0.0 0.554789978027 0.30867077499 0.0
0.0 0.555789978027 0.308520607862 0.0
0.0 0.556789978027 0.308370209521 0.0
0.0 0.557789978027 0.308219577348 0.0
0.0 0.558789978027 0.308068716204 0.0
0.0 0.559789978027 0.30791762171 0.0
0.0 0.560789978027 0.307766292637 0.0
0.0 0.561789978027 0.307614735708 0.0
0.0 0.562789978027 0.307462948766 0.0
0.0 0.563789978027 0.307310933275 0.0
0.0 0.564789978027 0.30715868725 0.0
0.0 0.565789978027 0.30700621495 0.0
0.0 0.566789978027 0.306853509586 0.0
0.0 0.567789978027 0.306700582891 0.0
0.0 0.568789978027 0.306547422915 0.0
0.0 0.569789978027 0.306394038779 0.0
0.0 0.570789978027 0.306240430904 0.0
0.0 0.571789978027 0.306086592599 0.0
0.0 0.572789978027 0.305932531689 0.0
0.0 0.573789978027 0.30577824945 0.0
0.0 0.574789978027 0.305623738711 0.0
0.0 0.575789978027 0.305469005217 0.0
0.0 0.576789978027 0.305314047821 0.0
0.0 0.577789978027 0.305158871801 0.0
0.0 0.578789978027 0.305003470417 0.0
0.0 0.579789978027 0.304847845921 0.0
0.0 0.580789978027 0.304692004865 0.0
0.0 0.581789978027 0.3045359367 0.0
0.0 0.582789978027 0.304379654572 0.0
0.0 0.583789978027 0.304223155203 0.0
0.0 0.584789978027 0.304066431665 0.0
0.0 0.585789978027 0.303909488525 0.0
0.0 0.586789978027 0.303752323912 0.0
0.0 0.587789978027 0.303594944099 0.0
0.0 0.588789978027 0.303437355158 0.0
0.0 0.589789978027 0.303279545785 0.0
0.0 0.590789978027 0.303121510308 0.0
0.0 0.591789978027 0.302963272705 0.0
0.0 0.592789978027 0.302804815178 0.0
0.0 0.593789978027 0.302646147888 0.0
0.0 0.594789978027 0.302487257569 0.0
0.0 0.595789978027 0.302328172449 0.0
0.0 0.596789978027 0.302168843228 0.0
0.0 0.597789978027 0.30200931607 0.0
0.0 0.598789978027 0.30184958208 0.0
0.0 0.599789978027 0.301689619874 0.0
0.0 0.600789978027 0.301529459184 0.0
0.0 0.601789978027 0.301369103964 0.0
0.0 0.602789978027 0.30120852284 0.0
0.0 0.603789978027 0.301047729453 0.0
0.0 0.604789978027 0.300886715196 0.0
0.0 0.605789978027 0.300725510716 0.0
0.0 0.606789978027 0.300564107794 0.0
0.0 0.607789978027 0.300402475705 0.0
0.0 0.608789978027 0.300240632518 0.0
0.0 0.609789978027 0.300078600503 0.0
0.0 0.610789978027 0.299916346731 0.0
0.0 0.611789978027 0.299753898228 0.0
0.0 0.612789978027 0.299591241168 0.0
0.0 0.613789978027 0.299428381249 0.0
0.0 0.614789978027 0.299265317388 0.0
0.0 0.615789978027 0.299102072965 0.0
0.0 0.616789978027 0.298938593294 0.0
0.0 0.617789978027 0.298774927265 0.0
0.0 0.618789978027 0.298611058352 0.0
0.0 0.619789978027 0.29844696463 0.0
0.0 0.620789978027 0.298282700963 0.0
0.0 0.621789978027 0.29811821175 0.0
0.0 0.622789978027 0.297953537985 0.0
0.0 0.623789978027 0.297788681874 0.0
0.0 0.624789978027 0.29762357565 0.0
0.0 0.625789978027 0.297458294677 0.0
0.0 0.626789978027 0.297292854593 0.0
0.0 0.627789978027 0.297127143343 0.0
0.0 0.628789978027 0.296961275324 0.0
0.0 0.629789978027 0.29679522105 0.0
0.0 0.630789978027 0.296628951416 0.0
0.0 0.631789978027 0.296462494579 0.0
0.0 0.632789978027 0.296295847286 0.0
0.0 0.633789978027 0.296128997474 0.0
0.0 0.634789978027 0.295961956306 0.0
0.0 0.635789978027 0.295794740162 0.0
0.0 0.636789978027 0.295627303931 0.0
0.0 0.637789978027 0.295459678044 0.0
0.0 0.638789978027 0.295291865586 0.0
0.0 0.639789978027 0.295123862207 0.0
0.0 0.640789978027 0.294955668511 0.0
0.0 0.641789978027 0.294787295531 0.0
0.0 0.642789978027 0.294618728343 0.0
0.0 0.643789978027 0.294449947884 0.0
0.0 0.644789978027 0.294280998845 0.0
0.0 0.645789978027 0.294111848722 0.0
0.0 0.646789978027 0.293942506692 0.0
0.0 0.647789978027 0.293773018622 0.0
0.0 0.648789978027 0.293603303501 0.0
0.0 0.649789978027 0.293433397577 0.0
0.0 0.650789978027 0.293263334057 0.0
0.0 0.651789978027 0.293093072544 0.0
0.0 0.652789978027 0.292922623113 0.0
0.0 0.653789978027 0.292751976555 0.0
0.0 0.654789978027 0.292581156588 0.0
0.0 0.655789978027 0.292410169313 0.0
0.0 0.656789978027 0.292239017619 0.0
0.0 0.657789978027 0.292067656404 0.0
0.0 0.658789978027 0.291896064602 0.0
0.0 0.659789978027 0.291724362245 0.0
0.0 0.660789978027 0.29155244503 0.0
0.0 0.661789978027 0.291380354304 0.0
0.0 0.662789978027 0.291208069065 0.0
0.0 0.663789978027 0.291035629005 0.0
0.0 0.664789978027 0.290863019572 0.0
0.0 0.665789978027 0.290690177614 0.0
0.0 0.666789978027 0.290517232186 0.0
0.0 0.667789978027 0.29034409551 0.0
0.0 0.668789978027 0.290170738806 0.0
0.0 0.669789978027 0.289997208369 0.0
0.0 0.670789978027 0.28982351839 0.0
0.0 0.671789978027 0.289649617851 0.0
0.0 0.672789978027 0.289475636292 0.0
0.0 0.673789978027 0.289301379942 0.0
0.0 0.674789978027 0.289126983997 0.0
0.0 0.675789978027 0.288952401887 0.0
0.0 0.676789978027 0.288777689805 0.0
0.0 0.677789978027 0.288602763086 0.0
0.0 0.678789978027 0.28842770758 0.0
0.0 0.679789978027 0.288252439704 0.0
0.0 0.680789978027 0.28807700459 0.0
0.0 0.681789978027 0.287901434451 0.0
0.0 0.682789978027 0.287725647194 0.0
0.0 0.683789978027 0.287549695381 0.0
0.0 0.684789978027 0.287373612428 0.0
0.0 0.685789978027 0.287197349249 0.0
0.0 0.686789978027 0.2870208631 0.0
0.0 0.687789978027 0.286844248513 0.0
0.0 0.688789978027 0.286667478959 0.0
0.0 0.689789978027 0.286490576443 0.0
0.0 0.690789978027 0.286313440706 0.0
0.0 0.691789978027 0.286136163264 0.0
0.0 0.692789978027 0.285958732395 0.0
0.0 0.693789978027 0.285781137163 0.0
0.0 0.694789978027 0.285603359925 0.0
0.0 0.695789978027 0.285425471348 0.0
0.0 0.696789978027 0.285247341353 0.0
0.0 0.697789978027 0.2850691168 0.0
0.0 0.698789978027 0.284890678727 0.0
0.0 0.699789978027 0.284712063874 0.0
0.0 0.700789978027 0.284533319218 0.0
0.0 0.701789978027 0.284354463678 0.0
0.0 0.702789978027 0.284175357917 0.0
0.0 0.703789978027 0.283996160904 0.0
0.0 0.704789978027 0.283816762919 0.0
0.0 0.705789978027 0.283637241387 0.0
0.0 0.706789978027 0.283457537407 0.0
0.0 0.707789978027 0.283277708094 0.0
0.0 0.708789978027 0.283097669516 0.0
0.0 0.709789978027 0.282917489981 0.0
0.0 0.710789978027 0.282737170502 0.0
0.0 0.711789978027 0.282556673784 0.0
0.0 0.712789978027 0.282376030129 0.0
0.0 0.713789978027 0.282195257506 0.0
0.0 0.714789978027 0.28201432011 0.0
0.0 0.715789978027 0.281833253785 0.0
0.0 0.716789978027 0.281652007105 0.0
0.0 0.717789978027 0.281470580205 0.0
0.0 0.718789978027 0.281289000549 0.0
0.0 0.719789978027 0.281107326248 0.0
0.0 0.720789978027 0.280925448544 0.0
0.0 0.721789978027 0.280743498941 0.0
0.0 0.722789978027 0.280561302724 0.0
0.0 0.723789978027 0.280379002158 0.0
0.0 0.724789978027 0.280196570061 0.0
0.0 0.725789978027 0.280013972421 0.0
0.0 0.726789978027 0.279831179945 0.0
0.0 0.727789978027 0.279648291554 0.0
0.0 0.728789978027 0.279465218356 0.0
0.0 0.729789978027 0.27928201458 0.0
0.0 0.730789978027 0.279098682886 0.0
0.0 0.731789978027 0.278915237304 0.0
0.0 0.732789978027 0.278731623761 0.0
0.0 0.733789978027 0.278547826786 0.0
0.0 0.734789978027 0.278363931358 0.0
0.0 0.735789978027 0.278179841628 0.0
0.0 0.736789978027 0.277995655128 0.0
0.0 0.737789978027 0.277811318955 0.0
0.0 0.738789978027 0.277626820988 0.0
0.0 0.739789978027 0.277442181306 0.0
0.0 0.740789978027 0.277257415396 0.0
0.0 0.741789978027 0.277072480968 0.0
0.0 0.742789978027 0.276887462404 0.0
0.0 0.743789978027 0.276702235932 0.0
0.0 0.744789978027 0.27651691009 0.0
0.0 0.745789978027 0.276331450662 0.0
0.0 0.746789978027 0.27614583654 0.0
0.0 0.747789978027 0.275960100724 0.0
0.0 0.748789978027 0.275774238246 0.0
0.0 0.749789978027 0.275588228175 0.0
0.0 0.750789978027 0.275402102198 0.0
0.0 0.751789978027 0.275215832495 0.0
0.0 0.752789978027 0.275029345209 0.0
0.0 0.753789978027 0.274842826889 0.0
0.0 0.754789978027 0.274656123212 0.0
0.0 0.755789978027 0.274469261818 0.0
0.0 0.756789978027 0.274282336448 0.0
0.0 0.757789978027 0.27409523054 0.0
0.0 0.758789978027 0.273907999705 0.0
0.0 0.759789978027 0.27372065409 0.0
0.0 0.760789978027 0.273533158471 0.0
0.0 0.761789978027 0.2733455325 0.0
0.0 0.762789978027 0.273157824031 0.0
0.0 0.763789978027 0.272969917657 0.0
0.0 0.764789978027 0.272781925806 0.0
0.0 0.765789978027 0.272593848352 0.0
0.0 0.766789978027 0.272405569191 0.0
0.0 0.767789978027 0.272217203308 0.0
0.0 0.768789978027 0.272028663235 0.0
0.0 0.769789978027 0.271840014588 0.0
0.0 0.770789978027 0.271651262028 0.0
0.0 0.771789978027 0.271462394574 0.0
0.0 0.772789978027 0.271273336872 0.0
0.0 0.773789978027 0.271084160176 0.0
0.0 0.774789978027 0.270894881925 0.0
0.0 0.775789978027 0.270705514213 0.0
0.0 0.776789978027 0.270515976006 0.0
0.0 0.777789978027 0.270326381768 0.0
0.0 0.778789978027 0.270136574322 0.0
0.0 0.779789978027 0.26994674833 0.0
0.0 0.780789978027 0.269756721709 0.0
0.0 0.781789978027 0.26956665073 0.0
0.0 0.782789978027 0.269376372405 0.0
0.0 0.783789978027 0.269186053295 0.0
0.0 0.784789978027 0.268995526011 0.0
0.0 0.785789978027 0.268804918104 0.0
0.0 0.786789978027 0.268614184083 0.0
0.0 0.787789978027 0.268423361836 0.0
0.0 0.788789978027 0.268232411439 0.0
0.0 0.789789978027 0.268041340938 0.0
0.0 0.790789978027 0.267850161098 0.0
0.0 0.791789978027 0.267658892083 0.0
0.0 0.792789978027 0.267467445568 0.0
0.0 0.793789978027 0.267275938129 0.0
0.0 0.794789978027 0.267084292913 0.0
0.0 0.795789978027 0.26689253368 0.0
0.0 0.796789978027 0.266700683103 0.0
0.0 0.797789978027 0.266508719353 0.0
0.0 0.798789978027 0.266316608941 0.0
0.0 0.799789978027 0.266124435565 0.0
0.0 0.800789978027 0.265932138539 0.0
0.0 0.801789978027 0.265739718163 0.0
0.0 0.802789978027 0.265547153773 0.0
0.0 0.803789978027 0.265354537928 0.0
0.0 0.804789978027 0.265161741925 0.0
0.0 0.805789978027 0.264968915795 0.0
0.0 0.806789978027 0.264775934769 0.0
0.0 0.807789978027 0.26458285063 0.0
0.0 0.808789978027 0.264389690988 0.0
0.0 0.809789978027 0.264196379054 0.0
0.0 0.810789978027 0.264003022182 0.0
0.0 0.811789978027 0.263809469491 0.0
0.0 0.812789978027 0.26361592787 0.0
0.0 0.813789978027 0.26342219611 0.0
0.0 0.814789978027 0.263228404635 0.0
0.0 0.815789978027 0.263034523566 0.0
0.0 0.816789978027 0.26284044916 0.0
0.0 0.817789978027 0.262646325584 0.0
0.0 0.818789978027 0.262452114449 0.0
0.0 0.819789978027 0.262257817589 0.0
0.0 0.820789978027 0.262063359501 0.0
0.0 0.821789978027 0.261868878778 0.0
0.0 0.822789978027 0.261674255963 0.0
0.0 0.823789978027 0.261479470474 0.0
0.0 0.824789978027 0.261284661552 0.0
0.0 0.825789978027 0.261089753734 0.0
0.0 0.826789978027 0.260894677034 0.0
0.0 0.827789978027 0.260699585258 0.0
0.0 0.828789978027 0.260504411174 0.0
0.0 0.829789978027 0.260309100713 0.0
0.0 0.830789978027 0.260113682794 0.0
0.0 0.831789978027 0.259918176672 0.0
0.0 0.832789978027 0.259722588828 0.0
0.0 0.833789978027 0.259526940594 0.0
0.0 0.834789978027 0.25933117157 0.0
0.0 0.835789978027 0.259135317048 0.0
0.0 0.836789978027 0.25893928475 0.0
0.0 0.837789978027 0.258743197517 0.0
0.0 0.838789978027 0.258547102272 0.0
0.0 0.839789978027 0.258350869356 0.0
0.0 0.840789978027 0.258154491873 0.0
0.0 0.841789978027 0.257958004768 0.0
0.0 0.842789978027 0.257761528271 0.0
0.0 0.843789978027 0.257564950399 0.0
0.0 0.844789978027 0.257368247709 0.0
0.0 0.845789978027 0.257171495446 0.0
0.0 0.846789978027 0.256974562842 0.0
0.0 0.847789978027 0.25677764542 0.0
0.0 0.848789978027 0.256580631007 0.0
0.0 0.849789978027 0.256383446768 0.0
0.0 0.850789978027 0.256186244757 0.0
0.0 0.851789978027 0.255988958202 0.0
0.0 0.852789978027 0.255791535008 0.0
0.0 0.853789978027 0.255594017983 0.0
0.0 0.854789978027 0.255396585704 0.0
0.0 0.855789978027 0.255198919083 0.0
0.0 0.856789978027 0.255001188933 0.0
0.0 0.857789978027 0.254803351484 0.0
0.0 0.858789978027 0.25460535889 0.0
0.0 0.859789978027 0.254407498491 0.0
0.0 0.860789978027 0.254209543891 0.0
0.0 0.861789978027 0.254011386028 0.0
0.0 0.862789978027 0.253813145287 0.0
0.0 0.863789978027 0.253614798135 0.0
0.0 0.864789978027 0.253416417727 0.0
0.0 0.865789978027 0.253217944208 0.0
0.0 0.866789978027 0.253019444923 0.0
0.0 0.867789978027 0.252820765952 0.0
0.0 0.868789978027 0.252622160109 0.0
0.0 0.869789978027 0.252423333023 0.0
0.0 0.870789978027 0.252224502555 0.0
0.0 0.871789978027 0.252025596754 0.0
0.0 0.872789978027 0.251826700171 0.0
0.0 0.873789978027 0.25162756115 0.0
0.0 0.874789978027 0.25142853602 0.0
0.0 0.875789978027 0.251229517981 0.0
0.0 0.876789978027 0.251030300784 0.0
0.0 0.877789978027 0.250830607977 0.0
0.0 0.878789978027 0.250631188863 0.0
0.0 0.879789978027 0.250432056069 0.0
0.0 0.880789978027 0.250232221532 0.0
0.0 0.881789978027 0.250032582427 0.0
0.0 0.882789978027 0.249833095237 0.0
0.0 0.883789978027 0.249633337122 0.0
0.0 0.884789978027 0.249433435469 0.0
0.0 0.885789978027 0.249233939477 0.0
0.0 0.886789978027 0.249033746388 0.0
0.0 0.887789978027 0.248833275448 0.0
0.0 0.888789978027 0.248633788166 0.0
0.0 0.889789978027 0.2484329813 0.0
0.0 0.890789978027 0.248233622077 0.0
0.0 0.891789978027 0.248032432061 0.0
0.0 0.892789978027 0.247832059971 0.0
0.0 0.893789978027 0.247632420735 0.0
0.0 0.894789978027 0.247431123356 0.0
0.0 0.895789978027 0.247232006236 0.0
0.0 0.896789978027 0.2470299335 0.0
0.0 0.897789978027 0.246829375343 0.0
0.0 0.898789978027 0.246628533554 0.0
0.0 0.899789978027 0.246427796435 0.0
0.0 0.900789978027 0.24622683014 0.0
0.0 0.901789978027 0.246025950631 0.0
0.0 0.902789978027 0.24582491488 0.0
0.0 0.903789978027 0.245623917423 0.0
0.0 0.904789978027 0.245422857342 0.0
0.0 0.905789978027 0.245221689393 0.0
0.0 0.906789978027 0.245020421273 0.0
0.0 0.907789978027 0.244819100993 0.0
0.0 0.908789978027 0.244617797599 0.0
0.0 0.909789978027 0.244416422051 0.0
0.0 0.910789978027 0.244214868598 0.0
0.0 0.911789978027 0.244013454254 0.0
0.0 0.912789978027 0.243811966641 0.0
0.0 0.913789978027 0.243610242899 0.0
0.0 0.914789978027 0.24340862075 0.0
0.0 0.915789978027 0.243206848387 0.0
0.0 0.916789978027 0.243005119462 0.0
0.0 0.917789978027 0.242803275346 0.0
0.0 0.918789978027 0.242601348254 0.0
0.0 0.919789978027 0.242399502392 0.0
0.0 0.920789978027 0.242197475914 0.0
0.0 0.921789978027 0.241995448592 0.0
0.0 0.922789978027 0.241793413732 0.0
0.0 0.923789978027 0.241591228619 0.0
0.0 0.924789978027 0.241389087733 0.0
0.0 0.925789978027 0.241186844957 0.0
0.0 0.926789978027 0.240984497981 0.0
0.0 0.927789978027 0.240782275185 0.0
0.0 0.928789978027 0.240579964801 0.0
0.0 0.929789978027 0.240377549472 0.0
0.0 0.930789978027 0.240174968791 0.0
0.0 0.931789978027 0.239972547707 0.0
0.0 0.932789978027 0.239770027431 0.0
0.0 0.933789978027 0.239567330362 0.0
0.0 0.934789978027 0.239364756266 0.0
0.0 0.935789978027 0.239162083385 0.0
0.0 0.936789978027 0.238959371671 0.0
0.0 0.937789978027 0.238756558577 0.0
0.0 0.938789978027 0.238553795723 0.0
0.0 0.939789978027 0.238350854669 0.0
0.0 0.940789978027 0.238147981444 0.0
0.0 0.941789978027 0.237945017291 0.0
0.0 0.942789978027 0.237742107739 0.0
0.0 0.943789978027 0.237539084156 0.0
0.0 0.944789978027 0.237335982548 0.0
0.0 0.945789978027 0.237132849915 0.0
0.0 0.946789978027 0.236929834716 0.0
0.0 0.947789978027 0.236726678279 0.0
0.0 0.948789978027 0.236523470661 0.0
0.0 0.949789978027 0.236320149296 0.0
0.0 0.950789978027 0.236116981867 0.0
0.0 0.951789978027 0.235913643376 0.0
0.0 0.952789978027 0.235710327702 0.0
0.0 0.953789978027 0.235507004681 0.0
0.0 0.954789978027 0.23530351832 0.0
0.0 0.955789978027 0.235100071555 0.0
0.0 0.956789978027 0.234896615778 0.0
0.0 0.957789978027 0.234693188123 0.0
0.0 0.958789978027 0.234489579056 0.0
0.0 0.959789978027 0.234285935598 0.0
0.0 0.960789978027 0.234082355012 0.0
0.0 0.961789978027 0.233878737001 0.0
0.0 0.962789978027 0.233674971237 0.0
0.0 0.963789978027 0.233471354518 0.0
0.0 0.964789978027 0.233267621332 0.0
0.0 0.965789978027 0.233063929835 0.0
0.0 0.966789978027 0.232860114543 0.0
0.0 0.967789978027 0.232656266197 0.0
0.0 0.968789978027 0.232452564298 0.0
0.0 0.969789978027 0.232248662874 0.0
0.0 0.970789978027 0.232044754599 0.0
0.0 0.971789978027 0.231840876929 0.0
0.0 0.972789978027 0.231636980246 0.0
0.0 0.973789978027 0.231432927008 0.0
0.0 0.974789978027 0.23122894822 0.0
0.0 0.975789978027 0.231024996078 0.0
0.0 0.976789978027 0.230820921485 0.0
0.0 0.977789978027 0.230616821158 0.0
0.0 0.978789978027 0.230412684775 0.0
0.0 0.979789978027 0.230208694584 0.0
0.0 0.980789978027 0.230004557532 0.0
0.0 0.981789978027 0.229800455364 0.0
0.0 0.982789978027 0.229596216149 0.0
0.0 0.983789978027 0.229392063715 0.0
0.0 0.984789978027 0.229187904127 0.0
0.0 0.985789978027 0.228983726556 0.0
0.0 0.986789978027 0.228779566153 0.0
0.0 0.987789978027 0.228575173207 0.0
0.0 0.988789978027 0.228371010169 0.0
0.0 0.989789978027 0.228166787483 0.0
0.0 0.990789978027 0.22796244588 0.0
0.0 0.991789978027 0.22775808656 0.0
0.0 0.992789978027 0.22755378087 0.0
0.0 0.993789978027 0.227349458434 0.0
0.0 0.994789978027 0.227145135157 0.0
0.0 0.995789978027 0.226940767684 0.0
0.0 0.996789978027 0.226736369541 0.0
0.0 0.997789978027 0.226531990848 0.0
0.0 0.998789978027 0.226328866036 0.0
0.0 0.999789978027 0.226124248798 0.0
0.0 1.00078997803 0.225920418497 0.0
0.0 1.00178997803 0.2257156883 0.0
0.0 1.00278997803 0.225511217995 0.0
0.0 1.00378997803 0.225307067522 0.0
0.0 1.00478997803 0.22510220388 0.0
0.0 1.00578997803 0.224897881241 0.0
0.0 1.00678997803 0.224692772302 0.0
0.0 1.00778997803 0.224488729416 0.0
0.0 1.00878997803 0.224284167794 0.0
0.0 1.00978997803 0.224079872872 0.0
0.0 1.01078997803 0.223875358534 0.0
0.0 1.01178997803 0.223670430027 0.0
0.0 1.01278997803 0.223466231536 0.0
0.0 1.01378997803 0.223261779301 0.0
0.0 1.01478997803 0.223057766164 0.0
0.0 1.01578997803 0.222852800869 0.0
0.0 1.01678997803 0.222648488378 0.0
0.0 1.01778997803 0.222443616683 0.0
0.0 1.01878997803 0.222239449249 0.0
0.0 1.01978997803 0.222034666324 0.0
0.0 1.02078997803 0.221829950604 0.0
0.0 1.02178997803 0.221625595462 0.0
0.0 1.02278997803 0.221421082329 0.0
0.0 1.02378997803 0.221216463511 0.0
0.0 1.02479003906 0.22101190935 0.0
0.0 1.02579003906 0.220807222674 0.0
0.0 1.02679003906 0.220602763513 0.0
0.0 1.02779003906 0.220398207907 0.0
0.0 1.02879003906 0.220193587604 0.0
0.0 1.02979003906 0.219989342666 0.0
0.0 1.03079003906 0.219784654481 0.0
0.0 1.03179003906 0.219580150687 0.0
0.0 1.03279003906 0.219375309108 0.0
0.0 1.03379003906 0.219171013401 0.0
0.0 1.03479003906 0.218966624824 0.0
0.0 1.03579003906 0.218762024514 0.0
0.0 1.03679003906 0.218557800574 0.0
0.0 1.03779003906 0.218353336306 0.0
0.0 1.03879003906 0.218148801948 0.0
0.0 1.03979003906 0.217944079364 0.0
0.0 1.04079003906 0.217739501327 0.0
0.0 1.04179003906 0.217534963014 0.0
0.0 1.04279003906 0.217330917933 0.0
0.0 1.04379003906 0.217126651972 0.0
0.0 1.04479003906 0.216922138447 0.0
0.0 1.04579003906 0.216717794857 0.0
0.0 1.04679003906 0.216513579812 0.0
0.0 1.04779003906 0.216308989294 0.0
0.0 1.04879003906 0.216104659282 0.0
0.0 1.04979003906 0.215899417444 0.0
0.0 1.05079003906 0.215695740147 0.0
0.0 1.05179003906 0.215491301308 0.0
0.0 1.05279003906 0.215287169727 0.0
0.0 1.05379003906 0.215082949782 0.0
0.0 1.05479003906 0.214878922426 0.0
0.0 1.05579003906 0.214674406767 0.0
0.0 1.05679003906 0.214470294389 0.0
0.0 1.05779003906 0.214266220482 0.0
0.0 1.05879003906 0.214061614167 0.0
0.0 1.05979003906 0.213858007675 0.0
0.0 1.06079003906 0.213653695558 0.0
0.0 1.06179003906 0.213449595638 0.0
0.0 1.06279003906 0.213244947427 0.0
0.0 1.06379003906 0.213041153595 0.0
0.0 1.06479003906 0.212837004745 0.0
0.0 1.06579003906 0.212633180531 0.0
0.0 1.06679003906 0.21242956837 0.0
0.0 1.06779003906 0.212225274054 0.0
0.0 1.06879003906 0.212021044018 0.0
0.0 1.06979003906 0.211817049647 0.0
0.0 1.07079003906 0.211613114702 0.0
0.0 1.07179003906 0.21140918077 0.0
0.0 1.07279003906 0.211205226105 0.0
0.0 1.07379003906 0.21100157204 0.0
0.0 1.07479003906 0.210797625176 0.0
0.0 1.07579003906 0.210593652885 0.0
0.0 1.07679003906 0.210390554161 0.0
0.0 1.07779003906 0.210186216812 0.0
0.0 1.07879003906 0.209982580972 0.0
0.0 1.07979003906 0.209779253259 0.0
0.0 1.08079003906 0.209575442926 0.0
0.0 1.08179003906 0.209371994885 0.0
0.0 1.08279003906 0.209167985138 0.0
0.0 1.08379003906 0.208964762481 0.0
0.0 1.08479003906 0.208761228772 0.0
0.0 1.08579003906 0.20855715923 0.0
0.0 1.08679003906 0.208353945138 0.0
0.0 1.08779003906 0.208150639357 0.0
0.0 1.08879003906 0.20794727272 0.0
0.0 1.08979003906 0.207743432441 0.0
0.0 1.09079003906 0.207540312669 0.0
0.0 1.09179003906 0.207337072089 0.0
0.0 1.09279003906 0.207134301212 0.0
0.0 1.09379003906 0.206930898865 0.0
0.0 1.09479003906 0.206727508788 0.0
0.0 1.09579003906 0.206524487355 0.0
0.0 1.09679003906 0.206321146485 0.0
0.0 1.09779003906 0.206118386582 0.0
0.0 1.09879003906 0.205915040804 0.0
0.0 1.09979003906 0.205711743398 0.0
0.0 1.10079003906 0.205509330745 0.0
0.0 1.10179003906 0.205306432703 0.0
0.0 1.10279003906 0.205103131283 0.0
0.0 1.10379003906 0.204900040286 0.0
0.0 1.10479003906 0.204697969535 0.0
0.0 1.10579003906 0.204494971023 0.0
0.0 1.10679003906 0.204292268722 0.0
0.0 1.10779003906 0.204089621914 0.0
0.0 1.10879003906 0.203887091934 0.0
0.0 1.10979003906 0.203684212969 0.0
0.0 1.11079003906 0.203481654944 0.0
0.0 1.11179003906 0.203279436617 0.0
0.0 1.11279003906 0.203076545071 0.0
0.0 1.11379003906 0.202874185115 0.0
0.0 1.11479003906 0.202672295217 0.0
0.0 1.11579003906 0.202469619138 0.0
0.0 1.11679003906 0.202267745691 0.0
0.0 1.11779003906 0.202065296844 0.0
0.0 1.11879003906 0.201863175051 0.0
0.0 1.11979003906 0.201660686266 0.0
0.0 1.12079003906 0.201458557232 0.0
0.0 1.12179003906 0.201256620051 0.0
0.0 1.12279003906 0.201054943284 0.0
0.0 1.12379003906 0.200853011645 0.0
0.0 1.12479003906 0.20065086958 0.0
0.0 1.12579003906 0.200449113616 0.0
0.0 1.12679003906 0.20024743613 0.0
0.0 1.12779003906 0.200045696819 0.0
0.0 1.12879003906 0.199844251863 0.0
0.0 1.12979003906 0.199642739799 0.0
0.0 1.13079003906 0.199441231492 0.0
0.0 1.13179003906 0.199239627934 0.0
0.0 1.13279003906 0.199038279612 0.0
0.0 1.13379003906 0.198836677432 0.0
0.0 1.13479003906 0.198635728423 0.0
0.0 1.13579003906 0.198433929027 0.0
0.0 1.13679003906 0.198232925985 0.0
0.0 1.13779003906 0.198031452517 0.0
0.0 1.13879003906 0.197830694171 0.0
0.0 1.13979003906 0.197629826518 0.0
0.0 1.14079003906 0.197428789782 0.0
0.0 1.14179003906 0.197227496961 0.0
0.0 1.14279003906 0.197026905094 0.0
0.0 1.14379003906 0.196826135165 0.0
0.0 1.14479003906 0.196625292883 0.0
0.0 1.14579003906 0.196424526138 0.0
0.0 1.14679003906 0.196224205012 0.0
0.0 1.14779003906 0.19602355433 0.0
0.0 1.14879003906 0.195822933834 0.0
0.0 1.14979003906 0.195622242485 0.0
0.0 1.15079003906 0.195422180865 0.0
0.0 1.15179003906 0.195221871512 0.0
0.0 1.15279003906 0.195021970966 0.0
0.0 1.15379003906 0.194821931566 0.0
0.0 1.15479003906 0.194621645666 0.0
0.0 1.15579003906 0.19442191094 0.0
0.0 1.15679003906 0.1942217434 0.0
0.0 1.15779003906 0.194021452562 0.0
0.0 1.15879003906 0.193821980342 0.0
0.0 1.15979003906 0.193621836795 0.0
0.0 1.16079003906 0.193422494462 0.0
0.0 1.16179003906 0.19322257959 0.0
0.0 1.16279003906 0.193023450671 0.0
0.0 1.16379003906 0.192823655731 0.0
0.0 1.16479003906 0.192624400515 0.0
0.0 1.16579003906 0.19242477188 0.0
0.0 1.16679003906 0.192225877286 0.0
0.0 1.16779003906 0.192026179959 0.0
0.0 1.16879003906 0.191827367342 0.0
0.0 1.16979003906 0.191628595718 0.0
0.0 1.17079003906 0.191429400039 0.0
0.0 1.17179003906 0.191230515315 0.0
0.0 1.17279003906 0.191032005953 0.0
0.0 1.17379003906 0.190832947737 0.0
0.0 1.17479003906 0.190634565329 0.0
0.0 1.17579003906 0.190436128269 0.0
0.0 1.17679003906 0.190237743844 0.0
0.0 1.17779003906 0.19003898351 0.0
0.0 1.17879003906 0.189840532793 0.0
0.0 1.17979003906 0.18964233903 0.0
0.0 1.18079003906 0.189443993706 0.0
0.0 1.18179003906 0.189246045677 0.0
0.0 1.18279003906 0.189047781265 0.0
0.0 1.18379003906 0.188849987273 0.0
0.0 1.18479003906 0.188651909691 0.0
0.0 1.18579003906 0.188454095187 0.0
0.0 1.18679003906 0.188256746618 0.0
0.0 1.18779003906 0.188059209432 0.0
0.0 1.18879003906 0.187861627245 0.0
0.0 1.18979003906 0.187664295713 0.0
0.0 1.19079003906 0.187466892404 0.0
0.0 1.19179003906 0.187269317197 0.0
0.0 1.19279003906 0.18707216842 0.0
0.0 1.19379003906 0.186875352808 0.0
0.0 1.19479003906 0.186677819237 0.0
0.0 1.19579003906 0.186481430555 0.0
0.0 1.19679003906 0.186284628775 0.0
0.0 1.19779003906 0.186087339651 0.0
0.0 1.19879003906 0.185891248348 0.0
0.0 1.19979003906 0.185694568448 0.0
0.0 1.20079003906 0.185498003779 0.0
0.0 1.20179003906 0.185301309683 0.0
0.0 1.20279003906 0.185105372566 0.0
0.0 1.20379003906 0.184908607752 0.0
0.0 1.20479003906 0.184713022622 0.0
0.0 1.20579003906 0.184516765533 0.0
0.0 1.20679003906 0.184320911286 0.0
0.0 1.20779003906 0.184124704439 0.0
0.0 1.20879003906 0.183929211849 0.0
0.0 1.20979003906 0.183733727969 0.0
0.0 1.21079003906 0.183537695245 0.0
0.0 1.21179003906 0.183342573072 0.0
0.0 1.21279003906 0.183147164336 0.0
0.0 1.21379003906 0.182951759753 0.0
0.0 1.21479003906 0.182757048138 0.0
0.0 1.21579003906 0.182561684528 0.0
0.0 1.21679003906 0.18236660476 0.0
0.0 1.21779003906 0.182171924518 0.0
0.0 1.21879003906 0.181977348308 0.0
0.0 1.21979003906 0.181782526328 0.0
0.0 1.22079003906 0.181587917566 0.0
0.0 1.22179003906 0.181393656793 0.0
0.0 1.22279003906 0.181199277334 0.0
0.0 1.22379003906 0.181005118905 0.0
0.0 1.22479003906 0.180810712981 0.0
0.0 1.22579003906 0.180616600846 0.0
0.0 1.22679003906 0.180422822402 0.0
0.0 1.22779003906 0.180228491074 0.0
0.0 1.22879003906 0.180035005029 0.0
0.0 1.22979003906 0.179841399246 0.0
0.0 1.23079003906 0.179648140021 0.0
0.0 1.23179003906 0.17945440469 0.0
0.0 1.23279003906 0.179260811779 0.0
0.0 1.23379003906 0.179067981766 0.0
0.0 1.23479003906 0.178875129255 0.0
0.0 1.23579003906 0.178682045982 0.0
0.0 1.23679003906 0.178489456623 0.0
0.0 1.23779003906 0.178296416009 0.0
0.0 1.23879003906 0.1781035257 0.0
0.0 1.23979003906 0.177911465889 0.0
0.0 1.24079003906 0.177718595365 0.0
0.0 1.24179003906 0.177527108737 0.0
0.0 1.24279003906 0.177335005852 0.0
0.0 1.24379003906 0.177142356201 0.0
0.0 1.24479003906 0.176950711947 0.0
0.0 1.24579003906 0.176758835656 0.0
0.0 1.24679003906 0.176567442918 0.0
0.0 1.24779003906 0.176376049512 0.0
0.0 1.24879003906 0.176184630334 0.0
0.0 1.24979003906 0.17599345313 0.0
0.0 1.25079003906 0.175802410052 0.0
0.0 1.25179003906 0.175611934528 0.0
0.0 1.25279003906 0.175421405152 0.0
0.0 1.25379003906 0.175230168544 0.0
0.0 1.25479003906 0.175040450372 0.0
0.0 1.25579003906 0.174850416022 0.0
0.0 1.25679003906 0.174660362365 0.0
0.0 1.25779003906 0.174470333194 0.0
0.0 1.25879003906 0.174280616669 0.0
0.0 1.25979003906 0.174091219164 0.0
0.0 1.26079003906 0.173902259141 0.0
0.0 1.26179003906 0.173713269185 0.0
0.0 1.26279003906 0.173524601503 0.0
0.0 1.26379003906 0.173336123315 0.0
0.0 1.26479003906 0.173148003023 0.0
0.0 1.26579003906 0.172960431596 0.0
0.0 1.26679003906 0.172772985241 0.0
0.0 1.26779003906 0.172586217264 0.0
0.0 1.26879003906 0.172399720326 0.0
0.0 1.26979003906 0.172212892322 0.0
0.0 1.27079003906 0.172027814326 0.0
0.0 1.27179003906 0.1718426749 0.0
0.0 1.27279003906 0.171658963821 0.0
0.0 1.27379003906 0.171475243716 0.0
0.0 1.27479003906 0.1712930042 0.0
0.0 1.27579003906 0.171112058731 0.0
0.0 1.27679003906 0.170931853579 0.0
0.0 1.27779003906 0.170753276065 0.0
0.0 1.27879003906 0.170576426377 0.0
0.0 1.27979003906 0.17040142451 0.0
0.0 1.28079003906 0.17022903164 0.0
0.0 1.28179003906 0.170058584676 0.0
0.0 1.28279003906 0.169890920741 0.0
0.0 1.28379003906 0.169726796095 0.0
0.0 1.28479003906 0.169565513481 0.0
0.0 1.28579003906 0.169408390587 0.0
0.0 1.28679003906 0.169257731895 0.0
0.0 1.28779003906 0.169109886919 0.0
0.0 1.28879003906 0.168972263974 0.0
0.0 1.28979003906 0.168841024135 0.0
0.0 1.29079003906 0.168718151751 0.0
0.0 1.29179003906 0.168606142878 0.0
0.0 1.29279003906 0.168516910447 0.0
0.0 1.29379003906 0.168434098347 0.0
0.0 1.29479003906 0.168374161884 0.0
0.0 1.29579003906 0.168354236705 0.0
0.0 1.29679003906 0.168355517705 0.0
0.0 1.29779003906 0.168397228053 0.0
0.0 1.29879003906 0.168505521768 0.0
0.0 1.29979003906 0.168673003613 0.0
0.0 1.30079003906 0.168907493826 0.0
0.0 1.30179003906 0.169269467935 0.0
0.0 1.30279003906 0.169742167935 0.0
0.0 1.30379003906 0.170346818472 0.0
0.0 1.30479003906 0.171148963081 0.0
0.0 1.30579003906 0.172213050658 0.0
0.0 1.30679003906 0.173374412758 0.0
0.0 1.30779003906 0.174379545648 0.0
0.0 1.30879003906 0.175261068717 0.0
0.0 1.30979003906 0.175630413843 0.0
0.0 1.31079003906 0.176468050104 0.0
0.0 1.31179003906 0.17777614658 0.0
0.0 1.31279003906 0.17893453854 0.0
0.0 1.31379003906 0.180341999326 0.0
0.0 1.31479003906 0.182464246573 0.0
0.0 1.31579003906 0.184201382896 0.0
0.0 1.31679003906 0.186879936665 0.0
0.0 1.31779003906 0.189700993619 0.0
0.0 1.31879003906 0.193573685904 0.0
0.0 1.31979003906 0.197400781533 0.0
0.0 1.32079003906 0.203761778879 0.0
0.0 1.32179003906 0.210845733238 0.0
0.0 1.32279003906 0.219506338584 0.0
0.0 1.32379003906 0.228786430699 0.0
0.0 1.32479003906 0.241539018902 0.0
0.0 1.32579003906 0.254025318167 0.0
0.0 1.32679003906 0.269319668041 0.0
0.0 1.32779003906 0.286062433947 0.0
0.0 1.32879003906 0.305707058927 0.0
0.0 1.32979003906 0.327302744858 0.0
0.0 1.33079003906 0.351849456693 0.0
0.0 1.33179003906 0.376369813791 0.0
0.0 1.33279003906 0.402177297055 0.0
0.0 1.33379003906 0.427669321533 0.0
0.0 1.33479003906 0.44990165121 0.0
0.0 1.33579003906 0.472459243697 0.0
0.0 1.33679003906 0.489938387469 0.0
0.0 1.33779003906 0.505080435148 0.0
0.0 1.33879003906 0.516508739857 0.0
0.0 1.33979003906 0.526093405412 0.0
0.0 1.34079003906 0.532665758079 0.0
0.0 1.34179003906 0.536486080005 0.0
0.0 1.34279003906 0.539342519623 0.0
0.0 1.34379003906 0.542846709702 0.0
0.0 1.34479003906 0.542341971098 0.0
0.0 1.34579003906 0.542855900623 0.0
0.0 1.34679003906 0.546168455139 0.0
0.0 1.34779003906 0.545767579569 0.0
0.0 1.34879003906 0.54697316892 0.0
0.0 1.34979003906 0.547508946823 0.0
0.0 1.35079003906 0.548878900906 0.0
0.0 1.35179003906 0.550184150819 0.0
0.0 1.35279003906 0.550236328974 0.0
0.0 1.35379003906 0.550905466742 0.0
0.0 1.35479003906 0.550193349918 0.0
0.0 1.35579003906 0.550366481787 0.0
0.0 1.35679003906 0.550560176839 0.0
0.0 1.35779003906 0.549703434094 0.0
0.0 1.35879003906 0.549451203081 0.0
0.0 1.35979003906 0.549258517272 0.0
0.0 1.36079003906 0.548313632806 0.0
0.0 1.36179003906 0.54808955313 0.0
0.0 1.36279003906 0.545774151445 0.0
0.0 1.36379003906 0.547573672547 0.0
0.0 1.36479003906 0.546449479244 0.0
0.0 1.36579003906 0.545736674165 0.0
0.0 1.36679003906 0.544433425753 0.0
0.0 1.36779003906 0.543187526832 0.0
0.0 1.36879003906 0.545125003955 0.0
0.0 1.36979003906 0.543497533043 0.0
0.0 1.37079003906 0.544442589081 0.0
0.0 1.37179003906 0.544879511735 0.0
0.0 1.37279003906 0.542906451942 0.0
0.0 1.37379003906 0.54324167999 0.0
0.0 1.37479003906 0.542995732448 0.0
0.0 1.37579003906 0.542298102975 0.0
0.0 1.37679003906 0.542398645605 0.0
0.0 1.37779003906 0.542531304992 0.0
0.0 1.37879003906 0.541457032283 0.0
0.0 1.37979003906 0.540612968731 0.0
0.0 1.38079003906 0.540664356246 0.0
0.0 1.38179003906 0.540554799239 0.0
0.0 1.38279003906 0.540984921351 0.0
0.0 1.38379003906 0.540569402843 0.0
0.0 1.38479003906 0.54101309048 0.0
0.0 1.38579003906 0.539967597142 0.0
0.0 1.38679003906 0.540530289894 0.0
0.0 1.38779003906 0.539622764983 0.0
0.0 1.38879003906 0.539457715273 0.0
0.0 1.38979003906 0.53953794938 0.0
0.0 1.39079003906 0.539780913892 0.0
0.0 1.39179003906 0.539703211244 0.0
0.0 1.39279003906 0.540541376832 0.0
0.0 1.39379003906 0.540714617649 0.0
0.0 1.39479003906 0.540566102771 0.0
0.0 1.39579003906 0.542179871916 0.0
0.0 1.39679003906 0.542114820232 0.0
0.0 1.39779003906 0.543367137642 0.0
0.0 1.39879003906 0.543746981282 0.0
0.0 1.39979003906 0.545066671531 0.0
0.0 1.40079003906 0.54585778675 0.0
0.0 1.40179003906 0.546864140747 0.0
0.0 1.40279003906 0.547880091152 0.0
0.0 1.40379003906 0.547827218415 0.0
0.0 1.40479003906 0.548071902372 0.0
0.0 1.40579003906 0.549769518852 0.0
0.0 1.40679003906 0.550494028229 0.0
0.0 1.40779003906 0.549965702249 0.0
0.0 1.40879003906 0.552357939134 0.0
0.0 1.40979003906 0.552446669859 0.0
0.0 1.41079003906 0.551503243924 0.0
0.0 1.41179003906 0.552428620212 0.0
0.0 1.41279003906 0.553470197573 0.0
0.0 1.41379003906 0.554080088938 0.0
0.0 1.41479003906 0.553925360601 0.0
0.0 1.41579003906 0.554555037186 0.0
0.0 1.41679003906 0.555739206106 0.0
0.0 1.41779003906 0.555895053926 0.0
0.0 1.41879003906 0.556407724946 0.0
0.0 1.41979003906 0.556231962092 0.0
0.0 1.42079003906 0.556188264484 0.0
0.0 1.42179003906 0.559121340603 0.0
0.0 1.42279003906 0.556949559993 0.0
0.0 1.42379003906 0.558607825084 0.0
0.0 1.42479003906 0.558504168364 0.0
0.0 1.42579003906 0.556620710779 0.0
0.0 1.42679003906 0.559422426602 0.0
0.0 1.42779003906 0.558482437432 0.0
0.0 1.42879003906 0.558725563282 0.0
0.0 1.42979003906 0.56095377477 0.0
0.0 1.43079003906 0.559794868797 0.0
0.0 1.43179003906 0.560430739733 0.0
0.0 1.43279003906 0.559384947752 0.0
0.0 1.43379003906 0.560874652479 0.0
0.0 1.43479003906 0.560760207058 0.0
0.0 1.43579003906 0.558729477807 0.0
0.0 1.43679003906 0.559725518448 0.0
0.0 1.43779003906 0.560987387869 0.0
0.0 1.43879003906 0.560476986294 0.0
0.0 1.43979003906 0.56120517058 0.0
0.0 1.44079003906 0.561029782701 0.0
0.0 1.44179003906 0.560382410776 0.0
0.0 1.44279003906 0.560495901414 0.0
0.0 1.44379003906 0.562118690312 0.0
0.0 1.44479003906 0.562026566048 0.0
0.0 1.44579003906 0.560298835754 0.0
0.0 1.44679003906 0.561115209139 0.0
0.0 1.44779003906 0.561251304511 0.0
0.0 1.44879003906 0.561361085102 0.0
0.0 1.44979003906 0.55926679103 0.0
0.0 1.45079003906 0.560406156289 0.0
0.0 1.45179003906 0.560661782148 0.0
0.0 1.45279003906 0.559346531824 0.0
0.0 1.45379003906 0.55863754792 0.0
0.0 1.45479003906 0.557489031931 0.0
0.0 1.45579003906 0.558471999582 0.0
0.0 1.45679003906 0.557941986162 0.0
0.0 1.45779003906 0.557218864168 0.0
0.0 1.45879003906 0.55738799364 0.0
0.0 1.45979003906 0.556287766991 0.0
0.0 1.46079003906 0.554961693843 0.0
0.0 1.46179003906 0.552851072714 0.0
0.0 1.46279003906 0.552051372398 0.0
0.0 1.46379003906 0.551029415136 0.0
0.0 1.46479003906 0.551288627596 0.0
0.0 1.46579003906 0.551802179732 0.0
0.0 1.46679003906 0.549223745139 0.0
0.0 1.46779003906 0.549360763707 0.0
0.0 1.46879003906 0.549112367062 0.0
0.0 1.46979003906 0.54756707638 0.0
0.0 1.47079003906 0.545619501394 0.0
0.0 1.47179003906 0.546444907821 0.0
0.0 1.47279003906 0.546716425216 0.0
0.0 1.47379003906 0.54550636828 0.0
0.0 1.47479003906 0.546468512542 0.0
0.0 1.47579003906 0.545279613047 0.0
0.0 1.47679003906 0.544105085726 0.0
0.0 1.47779003906 0.546479040411 0.0
0.0 1.47879003906 0.545902769224 0.0
0.0 1.47979003906 0.545959504848 0.0
0.0 1.48079003906 0.544872997492 0.0
0.0 1.48179003906 0.54704386317 0.0
0.0 1.48279003906 0.546411310865 0.0
0.0 1.48379003906 0.546024713474 0.0
0.0 1.48479003906 0.546975849173 0.0
0.0 1.48579003906 0.550317507241 0.0
0.0 1.48679003906 0.549322155008 0.0
0.0 1.48779003906 0.550477445455 0.0
0.0 1.48879003906 0.550721252283 0.0
0.0 1.48979003906 0.551081491329 0.0
0.0 1.49079003906 0.552455413431 0.0
0.0 1.49179003906 0.553062317934 0.0
0.0 1.49279003906 0.553968855872 0.0
0.0 1.49379003906 0.553768337691 0.0
0.0 1.49479003906 0.555790256903 0.0
0.0 1.49579003906 0.55681181094 0.0
0.0 1.49679003906 0.557679253253 0.0
0.0 1.49779003906 0.55743423156 0.0
0.0 1.49879003906 0.558290478433 0.0
0.0 1.49979003906 0.559905909927 0.0
0.0 1.50079003906 0.561612390457 0.0
0.0 1.50179003906 0.561041883911 0.0
0.0 1.50279003906 0.561784151523 0.0
0.0 1.50379003906 0.562771363257 0.0
0.0 1.50479003906 0.562220154054 0.0
0.0 1.50579003906 0.563572858003 0.0
0.0 1.50679003906 0.564031330643 0.0
0.0 1.50779003906 0.564806199584 0.0
0.0 1.50879003906 0.566044424475 0.0
0.0 1.50979003906 0.567085116453 0.0
0.0 1.51079003906 0.566837365618 0.0
0.0 1.51179003906 0.567029564504 0.0
0.0 1.51279003906 0.56805777179 0.0
0.0 1.51379003906 0.568849483088 0.0
0.0 1.51479003906 0.566413756951 0.0
0.0 1.51579003906 0.567615363407 0.0
0.0 1.51679003906 0.566332028518 0.0
0.0 1.51779003906 0.567911420052 0.0
0.0 1.51879003906 0.567105154448 0.0
0.0 1.51979003906 0.567355404804 0.0
0.0 1.52079003906 0.566480938269 0.0
0.0 1.52179003906 0.566535753993 0.0
0.0 1.52279003906 0.566388348175 0.0
0.0 1.52379003906 0.567517838565 0.0
0.0 1.52479003906 0.565572332852 0.0
0.0 1.52579003906 0.566164648462 0.0
0.0 1.52679003906 0.565493482677 0.0
0.0 1.52779003906 0.5653348776 0.0
0.0 1.52879003906 0.56523395063 0.0
0.0 1.52979003906 0.562348848364 0.0
0.0 1.53079003906 0.564931007151 0.0
0.0 1.53179003906 0.563097498066 0.0
0.0 1.53279003906 0.561763526665 0.0
0.0 1.53379003906 0.559511286472 0.0
0.0 1.53479003906 0.562449753799 0.0
0.0 1.53579003906 0.561095344695 0.0
0.0 1.53679003906 0.560096396721 0.0
0.0 1.53779003906 0.560315983074 0.0
0.0 1.53879003906 0.559809960264 0.0
0.0 1.53979003906 0.558290253237 0.0
0.0 1.54079003906 0.557714304349 0.0
0.0 1.54179003906 0.55785297711 0.0
0.0 1.54279003906 0.557180602271 0.0
0.0 1.54379003906 0.556476014803 0.0
0.0 1.54479003906 0.558484509071 0.0
0.0 1.54579003906 0.555613288059 0.0
0.0 1.54679003906 0.555548211269 0.0
0.0 1.54779003906 0.554947984183 0.0
0.0 1.54879003906 0.556784375028 0.0
0.0 1.54979003906 0.555252889348 0.0
0.0 1.55079003906 0.554649330169 0.0
0.0 1.55179003906 0.551560261456 0.0
0.0 1.55279003906 0.553057516027 0.0
0.0 1.55379003906 0.551866213638 0.0
0.0 1.55479003906 0.551500482259 0.0
0.0 1.55579003906 0.550400961958 0.0
0.0 1.55679003906 0.548784320714 0.0
0.0 1.55779003906 0.548176533135 0.0
0.0 1.55879003906 0.547998438171 0.0
0.0 1.55979003906 0.547372613899 0.0
0.0 1.56079003906 0.545671541525 0.0
0.0 1.56179003906 0.546714503713 0.0
0.0 1.56279003906 0.544421506852 0.0
0.0 1.56379003906 0.546086822792 0.0
0.0 1.56479003906 0.545802091476 0.0
0.0 1.56579003906 0.545537393565 0.0
0.0 1.56679003906 0.546411370818 0.0
0.0 1.56779003906 0.545102666363 0.0
0.0 1.56879003906 0.546493146747 0.0
0.0 1.56979003906 0.548001234561 0.0
0.0 1.57079003906 0.547162099641 0.0
0.0 1.57179003906 0.549498225048 0.0
0.0 1.57279003906 0.551548889563 0.0
0.0 1.57379003906 0.551526840668 0.0
0.0 1.57479003906 0.552449729277 0.0
0.0 1.57579003906 0.551711503079 0.0
0.0 1.57679003906 0.55415757788 0.0
0.0 1.57779003906 0.554812113997 0.0
0.0 1.57879003906 0.554936051534 0.0
0.0 1.57979003906 0.557221656224 0.0
0.0 1.58079003906 0.559135351217 0.0
0.0 1.58179003906 0.558577732929 0.0
0.0 1.58279003906 0.559416229485 0.0
0.0 1.58379003906 0.561668525449 0.0
0.0 1.58479003906 0.562105367666 0.0
0.0 1.58579003906 0.56340647343 0.0
0.0 1.58679003906 0.561431450846 0.0
0.0 1.58779003906 0.563775317926 0.0
0.0 1.58879003906 0.562736660191 0.0
0.0 1.58979003906 0.565226279917 0.0
0.0 1.59079003906 0.564022366 0.0
0.0 1.59179003906 0.565098417988 0.0
0.0 1.59279003906 0.564583233657 0.0
0.0 1.59379003906 0.564555918711 0.0
0.0 1.59479003906 0.564299452507 0.0
0.0 1.59579003906 0.563225123431 0.0
0.0 1.59679003906 0.5661651424 0.0
0.0 1.59779003906 0.565193004043 0.0
0.0 1.59879003906 0.565307808574 0.0
0.0 1.59979003906 0.563850151905 0.0
0.0 1.60079003906 0.567222761151 0.0
0.0 1.60179003906 0.564482341903 0.0
0.0 1.60279003906 0.565319528211 0.0
0.0 1.60379003906 0.564781844015 0.0
0.0 1.60479003906 0.567719531161 0.0
0.0 1.60579003906 0.567262725446 0.0
0.0 1.60679003906 0.56651603877 0.0
0.0 1.60779003906 0.564712257025 0.0
0.0 1.60879003906 0.566337140591 0.0
0.0 1.60979003906 0.566876821693 0.0
0.0 1.61079003906 0.566038420038 0.0
0.0 1.61179003906 0.56643620993 0.0
0.0 1.61279003906 0.565080729232 0.0
0.0 1.61379003906 0.566228246593 0.0
0.0 1.61479003906 0.567105876612 0.0
0.0 1.61579003906 0.566193595629 0.0
0.0 1.61679003906 0.567032350547 0.0
0.0 1.61779003906 0.566797563555 0.0
0.0 1.61879003906 0.562794253684 0.0
0.0 1.61979003906 0.564491497043 0.0
0.0 1.62079003906 0.561498781643 0.0
0.0 1.62179003906 0.563209828068 0.0
0.0 1.62279003906 0.560290183993 0.0
0.0 1.62379003906 0.561187709242 0.0
0.0 1.62479003906 0.559829524155 0.0
0.0 1.62579003906 0.558204203739 0.0
0.0 1.62679003906 0.556768235551 0.0
0.0 1.62779003906 0.557970204943 0.0
0.0 1.62879003906 0.554917449101 0.0
0.0 1.62979003906 0.55385694361 0.0
0.0 1.63079003906 0.553148216794 0.0
0.0 1.63179003906 0.553071354106 0.0
0.0 1.63279003906 0.554400960815 0.0
0.0 1.63379003906 0.552908341931 0.0
0.0 1.63479003906 0.553730220544 0.0
0.0 1.63579003906 0.555612203279 0.0
0.0 1.63679003906 0.555224001146 0.0
0.0 1.63779003906 0.555985870479 0.0
0.0 1.63879003906 0.55715493453 0.0
0.0 1.63979003906 0.558123449313 0.0
0.0 1.64079003906 0.557973287529 0.0
0.0 1.64179003906 0.559809918816 0.0
0.0 1.64279003906 0.558580099506 0.0
0.0 1.64379003906 0.560574308231 0.0
0.0 1.64479003906 0.557259328016 0.0
0.0 1.64579003906 0.561544394363 0.0
0.0 1.64679003906 0.560522944673 0.0
0.0 1.64779003906 0.561708118128 0.0
0.0 1.64879003906 0.560287455751 0.0
0.0 1.64979003906 0.562509635092 0.0
0.0 1.65079003906 0.562439040491 0.0
0.0 1.65179003906 0.56330348836 0.0
0.0 1.65279003906 0.565819721018 0.0
0.0 1.65379003906 0.566179977828 0.0
0.0 1.65479003906 0.566092362751 0.0
0.0 1.65579003906 0.563977962871 0.0
0.0 1.65679003906 0.563799739059 0.0
0.0 1.65779003906 0.561330149374 0.0
0.0 1.65879003906 0.556541982727 0.0
0.0 1.65979003906 0.548080856192 0.0
0.0 1.66079003906 0.540122406433 0.0
0.0 1.66179003906 0.524300787677 0.0
0.0 1.66279003906 0.508441813758 0.0
0.0 1.66379003906 0.484223074066 0.0
0.0 1.66479003906 0.460116417657 0.0
0.0 1.66579003906 0.433270099057 0.0
0.0 1.66679003906 0.404912469144 0.0
0.0 1.66779003906 0.377929014327 0.0
0.0 1.66879003906 0.347960364085 0.0
0.0 1.66979003906 0.318386600943 0.0
0.0 1.67079003906 0.29321951731 0.0
0.0 1.67179003906 0.267737020034 0.0
0.0 1.67279003906 0.245970475965 0.0
0.0 1.67379003906 0.22562192713 0.0
0.0 1.67479003906 0.209243627963 0.0
0.0 1.67579003906 0.196175296249 0.0
0.0 1.67679003906 0.184739736768 0.0
0.0 1.67779003906 0.176123790495 0.0
0.0 1.67879003906 0.167478650263 0.0
0.0 1.67979003906 0.160391013065 0.0
0.0 1.68079003906 0.154122163263 0.0
0.0 1.68179003906 0.149233268782 0.0
0.0 1.68279003906 0.144345258138 0.0
0.0 1.68379003906 0.140863612255 0.0
0.0 1.68479003906 0.13726534274 0.0
0.0 1.68579003906 0.133493126989 0.0
0.0 1.68679003906 0.130018283566 0.0
0.0 1.68779003906 0.126817894028 0.0
0.0 1.68879003906 0.124004286686 0.0
0.0 1.68979003906 0.121739963513 0.0
0.0 1.69079003906 0.119793848768 0.0
0.0 1.69179003906 0.1181768815 0.0
0.0 1.69279003906 0.116719079689 0.0
0.0 1.69379003906 0.115570185682 0.0
0.0 1.69479003906 0.114556511866 0.0
0.0 1.69579003906 0.113671639639 0.0
0.0 1.69679003906 0.112961161818 0.0
0.0 1.69779003906 0.112318562436 0.0
0.0 1.69879003906 0.111778749457 0.0
0.0 1.69979003906 0.111312596441 0.0
0.0 1.70079003906 0.110907260796 0.0
0.0 1.70179003906 0.110540961415 0.0
0.0 1.70279003906 0.110226805801 0.0
0.0 1.70379003906 0.109945989491 0.0
0.0 1.70479003906 0.109686765023 0.0
0.0 1.70579003906 0.109462871844 0.0
0.0 1.70679003906 0.109257317362 0.0
0.0 1.70779003906 0.10906713573 0.0
0.0 1.70879003906 0.108891758023 0.0
0.0 1.70979003906 0.108730167946 0.0
0.0 1.71079003906 0.108577518307 0.0
0.0 1.71179003906 0.108432509185 0.0
0.0 1.71279003906 0.108300401067 0.0
0.0 1.71379003906 0.108170783407 0.0
0.0 1.71479003906 0.108050708201 0.0
0.0 1.71579003906 0.107934207487 0.0
0.0 1.71679003906 0.107822132927 0.0
0.0 1.71779003906 0.107712287957 0.0
0.0 1.71879003906 0.107609133968 0.0
0.0 1.71979003906 0.10750724396 0.0
0.0 1.72079003906 0.107407621004 0.0
0.0 1.72179003906 0.107311045936 0.0
0.0 1.72279003906 0.107215828488 0.0
0.0 1.72379003906 0.107123425868 0.0
0.0 1.72479003906 0.107031283486 0.0
0.0 1.72579003906 0.106942439549 0.0
0.0 1.72679003906 0.106852725082 0.0
0.0 1.72779003906 0.106766684433 0.0
0.0 1.72879003906 0.106679263983 0.0
0.0 1.72979003906 0.106594927545 0.0
0.0 1.73079003906 0.106511121564 0.0
0.0 1.73179003906 0.106426563658 0.0
0.0 1.73279003906 0.106346428757 0.0
0.0 1.73379003906 0.106262450454 0.0
0.0 1.73479003906 0.106181882046 0.0
0.0 1.73579003906 0.106102687836 0.0
0.0 1.73679003906 0.106022225523 0.0
0.0 1.73779003906 0.105944192571 0.0
0.0 1.73879003906 0.105867020779 0.0
0.0 1.73979003906 0.105788336719 0.0
0.0 1.74079003906 0.105710861477 0.0
0.0 1.74179003906 0.105634837186 0.0
0.0 1.74279003906 0.105558436219 0.0
0.0 1.74379003906 0.105482983323 0.0
0.0 1.74479003906 0.10540759598 0.0
0.0 1.74579003906 0.105333354146 0.0
0.0 1.74679003906 0.105258768922 0.0
0.0 1.74779003906 0.105185756469 0.0
0.0 1.74879003906 0.105113197457 0.0
0.0 1.74979003906 0.105040332029 0.0
0.0 1.75079003906 0.104967717062 0.0
0.0 1.75179003906 0.104896315122 0.0
0.0 1.75279003906 0.104824556606 0.0
0.0 1.75379003906 0.104753602231 0.0
0.0 1.75479003906 0.104683290801 0.0
0.0 1.75579003906 0.10461276002 0.0
0.0 1.75679003906 0.104543718921 0.0
0.0 1.75779003906 0.104475645506 0.0
0.0 1.75879003906 0.104405893185 0.0
0.0 1.75979003906 0.104335696308 0.0
0.0 1.76079003906 0.104270063713 0.0
0.0 1.76179003906 0.104200212126 0.0
0.0 1.76279003906 0.104133318241 0.0
0.0 1.76379003906 0.104067966722 0.0
0.0 1.76479003906 0.104001262832 0.0
0.0 1.76579003906 0.103935425435 0.0
0.0 1.76679003906 0.103868781078 0.0
0.0 1.76779003906 0.103803579616 0.0
0.0 1.76879003906 0.103737324336 0.0
0.0 1.76979003906 0.103675823042 0.0
0.0 1.77079003906 0.103609033448 0.0
0.0 1.77179003906 0.103546407612 0.0
0.0 1.77279003906 0.103483077298 0.0
0.0 1.77379003906 0.103419805607 0.0
0.0 1.77479003906 0.103357746196 0.0
0.0 1.77579003906 0.103294168094 0.0
0.0 1.77679003906 0.103233627215 0.0
0.0 1.77779003906 0.103173251391 0.0
0.0 1.77879003906 0.103111875923 0.0
0.0 1.77979003906 0.103051793445 0.0
0.0 1.78079003906 0.102989852678 0.0
0.0 1.78179003906 0.102931256647 0.0
0.0 1.78279003906 0.102870805266 0.0
0.0 1.78379003906 0.102813725071 0.0
0.0 1.78479003906 0.102752846285 0.0
0.0 1.78579003906 0.102696043399 0.0
0.0 1.78679003906 0.10263618743 0.0
0.0 1.78779003906 0.102579514611 0.0
0.0 1.78879003906 0.102522951484 0.0
0.0 1.78979003906 0.102466889121 0.0
0.0 1.79079003906 0.102409530201 0.0
0.0 1.79179003906 0.102352231351 0.0
0.0 1.79279003906 0.102298604494 0.0
0.0 1.79379003906 0.10224215329 0.0
0.0 1.79479003906 0.10218834657 0.0
0.0 1.79579003906 0.102133445958 0.0
0.0 1.79679003906 0.10207763825 0.0
0.0 1.79779003906 0.1020255272 0.0
0.0 1.79879003906 0.101971662376 0.0
0.0 1.79979003906 0.101918424134 0.0
0.0 1.80079003906 0.101865760963 0.0
0.0 1.80179003906 0.101816698155 0.0
0.0 1.80279003906 0.101762668443 0.0
0.0 1.80379003906 0.101711418088 0.0
0.0 1.80479003906 0.101659432197 0.0
0.0 1.80579003906 0.101609712837 0.0
0.0 1.80679003906 0.101561261964 0.0
0.0 1.80779003906 0.10151138753 0.0
0.0 1.80879003906 0.101462154353 0.0
0.0 1.80979003906 0.101412421474 0.0
0.0 1.81079003906 0.101364153901 0.0
0.0 1.81179003906 0.101317720646 0.0
0.0 1.81279003906 0.10126732214 0.0
0.0 1.81379003906 0.101220987978 0.0
0.0 1.81479003906 0.101173956644 0.0
0.0 1.81579003906 0.101127597418 0.0
0.0 1.81679003906 0.101081007865 0.0
0.0 1.81779003906 0.101035019612 0.0
0.0 1.81879003906 0.100989957972 0.0
0.0 1.81979003906 0.100946029674 0.0
0.0 1.82079003906 0.100899378292 0.0
0.0 1.82179003906 0.100856631851 0.0
0.0 1.82279003906 0.10081301988 0.0
0.0 1.82379003906 0.100770495012 0.0
0.0 1.82479003906 0.10072607253 0.0
0.0 1.82579003906 0.100685344393 0.0
0.0 1.82679003906 0.100641021842 0.0
0.0 1.82779003906 0.100599641361 0.0
0.0 1.82879003906 0.100559180901 0.0
0.0 1.82979003906 0.100518603058 0.0
0.0 1.83079003906 0.100477753984 0.0
0.0 1.83179003906 0.100436442018 0.0
0.0 1.83279003906 0.100396330498 0.0
0.0 1.83379003906 0.100357505227 0.0
0.0 1.83479003906 0.10032000262 0.0
0.0 1.83579003906 0.100280822295 0.0
0.0 1.83679003906 0.100241971278 0.0
0.0 1.83779003906 0.100203964261 0.0
0.0 1.83879003906 0.100167933603 0.0
0.0 1.83979003906 0.100130437773 0.0
0.0 1.84079003906 0.100095510219 0.0
0.0 1.84179003906 0.100057201179 0.0
0.0 1.84279003906 0.100022251305 0.0
0.0 1.84379003906 0.0999881728303 0.0
0.0 1.84479003906 0.0999522773481 0.0
0.0 1.84579003906 0.0999158759208 0.0
0.0 1.84679003906 0.0998841378332 0.0
0.0 1.84779003906 0.0998525059874 0.0
0.0 1.84879003906 0.0998167157875 0.0
0.0 1.84979003906 0.0997866145343 0.0
0.0 1.85079003906 0.099752261427 0.0
0.0 1.85179003906 0.0997190194095 0.0
0.0 1.85279003906 0.0996886039758 0.0
0.0 1.85379003906 0.0996568479359 0.0
0.0 1.85479003906 0.0996277164638 0.0
0.0 1.85579003906 0.0995989811815 0.0
0.0 1.85679003906 0.099566780586 0.0
0.0 1.85779003906 0.0995372438513 0.0
0.0 1.85879003906 0.0995091525925 0.0
0.0 1.85979003906 0.0994798605584 0.0
0.0 1.86079003906 0.0994521911972 0.0
0.0 1.86179003906 0.0994242296668 0.0
0.0 1.86279003906 0.0993956827922 0.0
0.0 1.86379003906 0.0993710005383 0.0
0.0 1.86479003906 0.0993453177443 0.0
0.0 1.86579003906 0.0993175681202 0.0
0.0 1.86679003906 0.0992924821748 0.0
0.0 1.86779003906 0.0992684005562 0.0
0.0 1.86879003906 0.0992429454414 0.0
0.0 1.86979003906 0.0992185048985 0.0
0.0 1.87079003906 0.0991946181194 0.0
0.0 1.87179003906 0.099169455895 0.0
0.0 1.87279003906 0.0991445855895 0.0
0.0 1.87379003906 0.0991222778208 0.0
0.0 1.87479003906 0.0991015784209 0.0
0.0 1.87579003906 0.0990805135418 0.0
0.0 1.87679003906 0.0990613932335 0.0
0.0 1.87779003906 0.099039575604 0.0
0.0 1.87879003906 0.0990199806604 0.0
0.0 1.87979003906 0.0989989285305 0.0
0.0 1.88079003906 0.0989781164395 0.0
0.0 1.88179003906 0.0989595468962 0.0
0.0 1.88279003906 0.0989405144928 0.0
0.0 1.88379003906 0.0989209005382 0.0
0.0 1.88479003906 0.0989069771054 0.0
0.0 1.88579003906 0.0988869601864 0.0
0.0 1.88679003906 0.0988722829542 0.0
0.0 1.88779003906 0.0988533308178 0.0
0.0 1.88879003906 0.0988373054312 0.0
0.0 1.88979003906 0.0988211362315 0.0
0.0 1.89079003906 0.0988057404585 0.0
0.0 1.89179003906 0.0987923462594 0.0
0.0 1.89279003906 0.0987765679011 0.0
0.0 1.89379003906 0.0987622761625 0.0
0.0 1.89479003906 0.0987503969388 0.0
0.0 1.89579003906 0.0987371749219 0.0
0.0 1.89679003906 0.0987208919798 0.0
0.0 1.89779003906 0.0987125142346 0.0
0.0 1.89879003906 0.0986983910841 0.0
0.0 1.89979003906 0.0986876938824 0.0
0.0 1.90079003906 0.0986756101526 0.0
0.0 1.90179003906 0.0986665891665 0.0
0.0 1.90279003906 0.0986583250593 0.0
0.0 1.90379003906 0.0986469293519 0.0
0.0 1.90479003906 0.0986372788292 0.0
0.0 1.90579003906 0.0986288479434 0.0
0.0 1.90679003906 0.0986215039974 0.0
0.0 1.90779003906 0.0986136794203 0.0
0.0 1.90879003906 0.0986036776819 0.0
0.0 1.90979003906 0.0986001848923 0.0
0.0 1.91079003906 0.0985921462206 0.0
0.0 1.91179003906 0.0985859331346 0.0
0.0 1.91279003906 0.0985815577785 0.0
0.0 1.91379003906 0.0985740582251 0.0
0.0 1.91479003906 0.0985690471546 0.0
0.0 1.91579003906 0.0985673830479 0.0
0.0 1.91679003906 0.098561213701 0.0
0.0 1.91779003906 0.0985596844439 0.0
0.0 1.91879003906 0.0985546845836 0.0
0.0 1.91979003906 0.0985561363012 0.0
0.0 1.92079003906 0.0985529999495 0.0
0.0 1.92179003906 0.0985516731986 0.0
0.0 1.92279003906 0.0985497828216 0.0
0.0 1.92379003906 0.0985473391984 0.0
0.0 1.92479003906 0.0985485922999 0.0
0.0 1.92579003906 0.0985485301943 0.0
0.0 1.92679003906 0.0985491333365 0.0
0.0 1.92779003906 0.0985501743285 0.0
0.0 1.92879003906 0.0985520847603 0.0
0.0 1.92979003906 0.098553012498 0.0
0.0 1.93079003906 0.0985570699504 0.0
0.0 1.93179003906 0.0985585531306 0.0
0.0 1.93279003906 0.0985611866357 0.0
0.0 1.93379003906 0.0985680687585 0.0
0.0 1.93479003906 0.0985718285412 0.0
0.0 1.93579003906 0.0985763424187 0.0
0.0 1.93679003906 0.098581754965 0.0
0.0 1.93779003906 0.0985887977251 0.0
0.0 1.93879003906 0.098593252711 0.0
0.0 1.93979003906 0.0985987764547 0.0
0.0 1.94079003906 0.0986087863252 0.0
0.0 1.94179003906 0.0986155234396 0.0
0.0 1.94279003906 0.0986225860737 0.0
0.0 1.94379003906 0.0986314973467 0.0
0.0 1.94479003906 0.0986435463185 0.0
0.0 1.94579003906 0.09864921876 0.0
0.0 1.94679003906 0.0986602832214 0.0
0.0 1.94779003906 0.0986713830926 0.0
0.0 1.94879003906 0.0986807675216 0.0
0.0 1.94979003906 0.0986925241354 0.0
0.0 1.95079003906 0.0987046028661 0.0
0.0 1.95179003906 0.0987156061435 0.0
0.0 1.95279003906 0.0987309016757 0.0
0.0 1.95379003906 0.0987408980258 0.0
0.0 1.95479003906 0.0987560767437 0.0
0.0 1.95579003906 0.0987679034423 0.0
0.0 1.95679003906 0.0987838723558 0.0
0.0 1.95779003906 0.0987995587381 0.0
0.0 1.95879003906 0.0988145461182 0.0
0.0 1.95979003906 0.0988310631821 0.0
0.0 1.96079003906 0.0988462913188 0.0
0.0 1.96179003906 0.0988637436144 0.0
0.0 1.96279003906 0.0988807266947 0.0
0.0 1.96379003906 0.0988977360918 0.0
0.0 1.96479003906 0.0989174626538 0.0
0.0 1.96579003906 0.0989364091786 0.0
0.0 1.96679003906 0.0989535918732 0.0
0.0 1.96779003906 0.0989749558555 0.0
0.0 1.96879003906 0.0989946777677 0.0
0.0 1.96979003906 0.0990171513667 0.0
0.0 1.97079003906 0.0990373051286 0.0
0.0 1.97179003906 0.0990586317512 0.0
0.0 1.97279003906 0.0990792409046 0.0
0.0 1.97379003906 0.0991020769759 0.0
0.0 1.97479003906 0.0991266370939 0.0
0.0 1.97579003906 0.0991494294298 0.0
0.0 1.97679003906 0.0991738038615 0.0
0.0 1.97779003906 0.0991970708929 0.0
0.0 1.97879003906 0.0992224457852 0.0
0.0 1.97979003906 0.0992478344173 0.0
0.0 1.98079003906 0.0992745807962 0.0
0.0 1.98179003906 0.099300030926 0.0
0.0 1.98279003906 0.0993286659085 0.0
0.0 1.98379003906 0.0993538591748 0.0
0.0 1.98479003906 0.099384663872 0.0
0.0 1.98579003906 0.0994102597589 0.0
0.0 1.98679003906 0.0994377040827 0.0
0.0 1.98779003906 0.0994678811453 0.0
0.0 1.98879003906 0.0994984555957 0.0
0.0 1.98979003906 0.0995300611989 0.0
0.0 1.99079003906 0.0995584441269 0.0
0.0 1.99179003906 0.0995936876297 0.0
0.0 1.99279003906 0.0996234336733 0.0
0.0 1.99379003906 0.0996541300738 0.0
0.0 1.99479003906 0.099686973569 0.0
0.0 1.99579003906 0.0997199080731 0.0
0.0 1.99679003906 0.0997547537529 0.0
0.0 1.99779003906 0.0997895890196 0.0
0.0 1.99879003906 0.0998239065131 0.0
0.0 1.99979003906 0.0998606073364 0.0
0.0 2.00079003906 0.0998944185385 0.0
0.0 2.00179003906 0.0999307435464 0.0
0.0 2.00279003906 0.0999670106051 0.0
0.0 2.00379003906 0.100004616164 0.0
0.0 2.00479003906 0.100042291726 0.0
0.0 2.00579003906 0.100080618347 0.0
0.0 2.00679003906 0.100120871179 0.0
0.0 2.00779003906 0.100158632959 0.0
0.0 2.00879003906 0.100198658516 0.0
0.0 2.00979003906 0.100238866321 0.0
0.0 2.01079003906 0.100277751522 0.0
0.0 2.01179003906 0.100319884672 0.0
0.0 2.01279003906 0.100363024349 0.0
0.0 2.01379003906 0.100400906497 0.0
0.0 2.01479003906 0.100447354399 0.0
0.0 2.01579003906 0.100489318375 0.0
0.0 2.01679003906 0.100530085494 0.0
0.0 2.01779003906 0.100576687599 0.0
0.0 2.01879003906 0.100619738065 0.0
0.0 2.01979003906 0.100668680516 0.0
0.0 2.02079003906 0.100709704714 0.0
0.0 2.02179003906 0.100757625977 0.0
0.0 2.02279003906 0.100804497087 0.0
0.0 2.02379003906 0.100852157032 0.0
0.0 2.02479003906 0.10089724745 0.0
0.0 2.02579003906 0.100943522208 0.0
0.0 2.02679003906 0.100995255885 0.0
0.0 2.02779003906 0.101044334482 0.0
0.0 2.02879003906 0.101095956907 0.0
0.0 2.02979003906 0.101140593453 0.0
0.0 2.03079003906 0.101194579357 0.0
0.0 2.03179003906 0.10124644592 0.0
0.0 2.03279003906 0.101294995679 0.0
0.0 2.03379003906 0.101351989169 0.0
0.0 2.03479003906 0.101401873027 0.0
0.0 2.03579003906 0.101455915357 0.0
0.0 2.03679003906 0.101507670477 0.0
0.0 2.03779003906 0.101562105058 0.0
0.0 2.03879003906 0.101614573411 0.0
0.0 2.03979003906 0.101673895078 0.0
0.0 2.04079003906 0.101726561286 0.0
0.0 2.04179003906 0.101786077319 0.0
0.0 2.04279003906 0.101839254329 0.0
0.0 2.04379003906 0.101897996624 0.0
0.0 2.04479003906 0.101954169781 0.0
0.0 2.04579003906 0.102016997727 0.0
0.0 2.04679003906 0.10207460552 0.0
0.0 2.04779003906 0.102132254801 0.0
0.0 2.04879003906 0.102193086749 0.0
0.0 2.04979003906 0.102249785198 0.0
0.0 2.05079003906 0.102316162906 0.0
0.0 2.05179003906 0.102373145465 0.0
0.0 2.05279003906 0.102437309006 0.0
0.0 2.05379003906 0.102498261859 0.0
0.0 2.05479003906 0.102560730849 0.0
0.0 2.05579003906 0.102627936816 0.0
0.0 2.05679003906 0.102687139185 0.0
0.0 2.05779003906 0.102751318681 0.0
0.0 2.05879003906 0.102818624123 0.0
0.0 2.05979003906 0.102884819451 0.0
0.0 2.06079003906 0.102949066595 0.0
0.0 2.06179003906 0.103016742283 0.0
0.0 2.06279003906 0.103083873118 0.0
0.0 2.06379003906 0.103152714481 0.0
0.0 2.06479003906 0.10321904762 0.0
0.0 2.06579003906 0.103285853204 0.0
0.0 2.06679003906 0.103355353801 0.0
0.0 2.06779003906 0.103425524917 0.0
0.0 2.06879003906 0.103495920097 0.0
0.0 2.06979003906 0.103567625808 0.0
0.0 2.07079003906 0.103636306304 0.0
0.0 2.07179003906 0.103713765021 0.0
0.0 2.07279003906 0.103780674363 0.0
0.0 2.07379003906 0.103854831531 0.0
0.0 2.07479003906 0.103931333688 0.0
0.0 2.07579003906 0.104000372963 0.0
0.0 2.07679003906 0.104078328147 0.0
0.0 2.07779003906 0.104149698127 0.0
0.0 2.07879003906 0.104225116778 0.0
0.0 2.07979003906 0.10430342803 0.0
0.0 2.08079003906 0.104377124137 0.0
0.0 2.08179003906 0.104455584444 0.0
0.0 2.08279003906 0.104532979847 0.0
0.0 2.08379003906 0.104612633127 0.0
0.0 2.08479003906 0.104690784068 0.0
0.0 2.08579003906 0.104772087467 0.0
0.0 2.08679003906 0.10485006575 0.0
0.0 2.08779003906 0.104927873904 0.0
0.0 2.08879003906 0.105011406903 0.0
0.0 2.08979003906 0.105094654708 0.0
0.0 2.09079003906 0.105171781683 0.0
0.0 2.09179003906 0.105254246865 0.0
0.0 2.09279003906 0.105338914553 0.0
0.0 2.09379003906 0.10542042738 0.0
0.0 2.09479003906 0.105507286335 0.0
0.0 2.09579003906 0.105589802107 0.0
0.0 2.09679003906 0.105674714044 0.0
0.0 2.09779003906 0.105759365887 0.0
0.0 2.09879003906 0.105845054393 0.0
0.0 2.09979003906 0.105932414299 0.0
0.0 2.10079003906 0.106020432105 0.0
0.0 2.10179003906 0.106109177778 0.0
0.0 2.10279003906 0.10619746803 0.0
0.0 2.10379003906 0.106288480349 0.0
0.0 2.10479003906 0.106373193682 0.0
0.0 2.10579003906 0.106463029265 0.0
0.0 2.10679003906 0.106553608696 0.0
0.0 2.10779003906 0.106644242376 0.0
0.0 2.10879003906 0.106737072789 0.0
0.0 2.10979003906 0.106830177254 0.0
0.0 2.11079003906 0.106921471135 0.0
0.0 2.11179003906 0.107017822968 0.0
0.0 2.11279003906 0.107110179863 0.0
0.0 2.11379003906 0.107204966235 0.0
0.0 2.11479003906 0.107301777015 0.0
0.0 2.11579003906 0.107394076103 0.0
0.0 2.11679003906 0.107490296916 0.0
0.0 2.11779003906 0.107585800722 0.0
0.0 2.11879003906 0.107686571949 0.0
0.0 2.11979003906 0.10778134316 0.0
0.0 2.12079003906 0.107876896529 0.0
0.0 2.12179003906 0.107974816969 0.0
0.0 2.12279003906 0.108076784598 0.0
0.0 2.12379003906 0.108176151141 0.0
0.0 2.12479003906 0.108278272762 0.0
0.0 2.12579003906 0.108378447553 0.0
0.0 2.12679003906 0.108481723179 0.0
0.0 2.12779003906 0.108583989343 0.0
0.0 2.12879003906 0.108686344457 0.0
0.0 2.12979003906 0.108789894541 0.0
0.0 2.13079003906 0.108893575381 0.0
0.0 2.13179003906 0.108993614497 0.0
0.0 2.13279003906 0.109103249276 0.0
0.0 2.13379003906 0.109207431272 0.0
0.0 2.13479003906 0.109307339726 0.0
0.0 2.13579003906 0.109418245815 0.0
0.0 2.13679003906 0.109526876904 0.0
0.0 2.13779003906 0.109628608803 0.0
0.0 2.13879003906 0.109743846405 0.0
0.0 2.13979003906 0.109849384135 0.0
0.0 2.14079003906 0.109960356669 0.0
0.0 2.14179003906 0.110070300038 0.0
0.0 2.14279003906 0.11018098101 0.0
0.0 2.14379003906 0.110293131126 0.0
0.0 2.14479003906 0.110400393053 0.0
0.0 2.14579003906 0.110515812948 0.0
0.0 2.14679003906 0.11062548622 0.0
0.0 2.14779003906 0.110741058435 0.0
0.0 2.14879003906 0.110856084459 0.0
0.0 2.14979003906 0.110967792225 0.0
0.0 2.15079003906 0.111080225279 0.0
0.0 2.15179003906 0.111200509217 0.0
0.0 2.15279003906 0.111315016694 0.0
0.0 2.15379003906 0.111436339157 0.0
0.0 2.15479003906 0.111548511044 0.0
0.0 2.15579003906 0.11166861979 0.0
0.0 2.15679003906 0.111785253201 0.0
0.0 2.15779003906 0.111904560429 0.0
0.0 2.15879003906 0.112022196455 0.0
0.0 2.15979003906 0.112140554248 0.0
0.0 2.16079003906 0.112262881521 0.0
0.0 2.16179003906 0.112382016995 0.0
0.0 2.16279003906 0.112502597738 0.0
0.0 2.16379003906 0.112628555974 0.0
0.0 2.16479003906 0.112749793737 0.0
0.0 2.16579003906 0.112869787773 0.0
0.0 2.16679003906 0.112997461386 0.0
0.0 2.16779003906 0.113120189478 0.0
0.0 2.16879003906 0.113248931081 0.0
0.0 2.16979003906 0.113373426068 0.0
0.0 2.17079003906 0.113498851561 0.0
0.0 2.17179003906 0.113627608132 0.0
0.0 2.17279003906 0.113756496213 0.0
0.0 2.17379003906 0.113883274458 0.0
0.0 2.17479003906 0.114010916187 0.0
0.0 2.17579003906 0.114138774368 0.0
0.0 2.17679003906 0.114263252731 0.0
0.0 2.17779003906 0.114399670566 0.0
0.0 2.17879003906 0.114526762855 0.0
0.0 2.17979003906 0.114660979457 0.0
0.0 2.18079003906 0.114792040932 0.0
0.0 2.18179003906 0.114925078395 0.0
0.0 2.18279003906 0.115059674292 0.0
0.0 2.18379003906 0.115193314225 0.0
0.0 2.18479003906 0.115330463359 0.0
0.0 2.18579003906 0.115460940415 0.0
0.0 2.18679003906 0.115600013802 0.0
0.0 2.18779003906 0.115731119277 0.0
0.0 2.18879003906 0.115871243608 0.0
0.0 2.18979003906 0.116009905258 0.0
0.0 2.19079003906 0.116145739755 0.0
0.0 2.19179003906 0.116287337506 0.0
0.0 2.19279003906 0.116422380267 0.0
0.0 2.19379003906 0.1165621574 0.0
0.0 2.19479003906 0.116704220778 0.0
0.0 2.19579003906 0.116843744552 0.0
0.0 2.19679003906 0.116988392179 0.0
0.0 2.19779003906 0.117128069092 0.0
0.0 2.19879003906 0.117271305979 0.0
0.0 2.19979003906 0.117415459717 0.0
0.0 2.20079003906 0.117556474512 0.0
0.0 2.20179003906 0.117702536733 0.0
0.0 2.20279003906 0.117850204247 0.0
0.0 2.20379003906 0.117996032006 0.0
0.0 2.20479003906 0.118138745163 0.0
0.0 2.20579003906 0.118287818003 0.0
0.0 2.20679003906 0.118437397811 0.0
0.0 2.20779003906 0.118583460442 0.0
0.0 2.20879003906 0.118730850208 0.0
0.0 2.20979003906 0.118884303795 0.0
0.0 2.21079003906 0.119029171882 0.0
0.0 2.21179003906 0.11918581826 0.0
0.0 2.21279003906 0.11933151713 0.0
0.0 2.21379003906 0.119484951884 0.0
0.0 2.21479003906 0.119639712983 0.0
0.0 2.21579003906 0.119788084442 0.0
0.0 2.21679003906 0.119940877911 0.0
0.0 2.21779003906 0.120096168565 0.0
0.0 2.21879003906 0.120246843064 0.0
0.0 2.21979003906 0.120405551814 0.0
0.0 2.22079003906 0.120557254037 0.0
0.0 2.22179003906 0.120718340189 0.0
0.0 2.22279003906 0.120870387665 0.0
0.0 2.22379003906 0.121029063082 0.0
0.0 2.22479003906 0.121191563155 0.0
0.0 2.22579003906 0.121348369887 0.0
0.0 2.22679003906 0.121504193568 0.0
0.0 2.22779003906 0.12166988564 0.0
0.0 2.22879003906 0.121824063937 0.0
0.0 2.22979003906 0.121988604572 0.0
0.0 2.23079003906 0.122149658127 0.0
0.0 2.23179003906 0.122312408029 0.0
0.0 2.23279003906 0.122475751103 0.0
0.0 2.23379003906 0.122644532765 0.0
0.0 2.23479003906 0.122806864017 0.0
0.0 2.23579003906 0.12296441412 0.0
0.0 2.23679003906 0.123129277662 0.0
0.0 2.23779003906 0.123299866647 0.0
0.0 2.23879003906 0.123465712163 0.0
0.0 2.23979003906 0.123634940891 0.0
0.0 2.24079003906 0.123798290388 0.0
0.0 2.24179003906 0.123968516423 0.0
0.0 2.24279003906 0.124142976012 0.0
0.0 2.24379003906 0.124308958283 0.0
0.0 2.24479003906 0.124485251257 0.0
0.0 2.24579003906 0.124648167495 0.0
0.0 2.24679003906 0.124821070502 0.0
0.0 2.24779003906 0.125001627636 0.0
0.0 2.24879003906 0.125166442544 0.0
0.0 2.24979003906 0.125344495685 0.0
0.0 2.25079003906 0.125516238092 0.0
0.0 2.25179003906 0.125685779407 0.0
0.0 2.25279003906 0.125867185174 0.0
0.0 2.25379003906 0.126037805916 0.0
0.0 2.25479003906 0.126213323202 0.0
0.0 2.25579003906 0.126393064126 0.0
0.0 2.25679003906 0.126569022406 0.0
0.0 2.25779003906 0.126750955037 0.0
0.0 2.25879003906 0.126927189016 0.0
0.0 2.25979003906 0.127109142383 0.0
0.0 2.26079003906 0.127282730511 0.0
0.0 2.26179003906 0.127472158263 0.0
0.0 2.26279003906 0.127648758137 0.0
0.0 2.26379003906 0.127835536079 0.0
0.0 2.26479003906 0.128015654854 0.0
0.0 2.26579003906 0.128202254732 0.0
0.0 2.26679003906 0.128386267728 0.0
0.0 2.26779003906 0.128573346637 0.0
0.0 2.26879003906 0.128753493982 0.0
0.0 2.26979003906 0.128937143995 0.0
0.0 2.27079003906 0.129126207958 0.0
0.0 2.27179003906 0.129310469038 0.0
0.0 2.27279003906 0.129500423367 0.0
0.0 2.27379003906 0.129685947342 0.0
0.0 2.27479003906 0.129874737208 0.0
0.0 2.27579003906 0.130065089156 0.0
0.0 2.27679003906 0.130255618108 0.0
0.0 2.27779003906 0.130442001672 0.0
0.0 2.27879003906 0.130636028965 0.0
0.0 2.27979003906 0.130824774443 0.0
0.0 2.28079003906 0.131019443564 0.0
0.0 2.28179003906 0.131208020639 0.0
0.0 2.28279003906 0.131400753144 0.0
0.0 2.28379003906 0.131596866955 0.0
0.0 2.28479003906 0.131791390005 0.0
0.0 2.28579003906 0.131988707772 0.0
0.0 2.28679003906 0.132183769551 0.0
0.0 2.28779003906 0.132377750941 0.0
0.0 2.28879003906 0.132582446017 0.0
0.0 2.28979003906 0.132773809867 0.0
0.0 2.29079003906 0.132977518685 0.0
0.0 2.29179003906 0.133172705824 0.0
0.0 2.29279003906 0.133372768809 0.0
0.0 2.29379003906 0.133576508488 0.0
0.0 2.29479003906 0.133774126176 0.0
0.0 2.29579003906 0.133974129786 0.0
0.0 2.29679003906 0.134178043967 0.0
0.0 2.29779003906 0.134379561296 0.0
0.0 2.29879003906 0.134586743854 0.0
0.0 2.29979003906 0.134790298526 0.0
0.0 2.30079003906 0.134995265559 0.0
0.0 2.30179003906 0.1352039442 0.0
0.0 2.30279003906 0.135408203358 0.0
0.0 2.30379003906 0.135616550237 0.0
0.0 2.30479003906 0.13582269893 0.0
0.0 2.30579003906 0.13603192512 0.0
0.0 2.30679003906 0.136239464964 0.0
0.0 2.30779003906 0.136449694107 0.0
0.0 2.30879003906 0.136661218661 0.0
0.0 2.30979003906 0.136870016377 0.0
0.0 2.31079003906 0.137084352764 0.0
0.0 2.31179003906 0.137297466513 0.0
0.0 2.31279003906 0.137508463515 0.0
0.0 2.31379003906 0.137720777477 0.0
0.0 2.31479003906 0.137936587806 0.0
0.0 2.31579003906 0.138152436906 0.0
0.0 2.31679003906 0.13836763722 0.0
0.0 2.31779003906 0.138581042587 0.0
0.0 2.31879003906 0.138799197918 0.0
0.0 2.31979003906 0.139017296413 0.0
0.0 2.32079003906 0.139234827037 0.0
0.0 2.32179003906 0.139454304611 0.0
0.0 2.32279003906 0.139673957079 0.0
0.0 2.32379003906 0.139892324244 0.0
0.0 2.32479003906 0.140113609681 0.0
0.0 2.32579003906 0.140335782479 0.0
0.0 2.32679003906 0.140557241865 0.0
0.0 2.32779003906 0.140779783094 0.0
0.0 2.32879003906 0.141003664366 0.0
0.0 2.32979003906 0.141228063628 0.0
0.0 2.33079003906 0.141451592706 0.0
0.0 2.33179003906 0.141677116893 0.0
0.0 2.33279003906 0.141903665756 0.0
0.0 2.33379003906 0.142130172455 0.0
0.0 2.33479003906 0.142357077338 0.0
0.0 2.33579003906 0.142584993217 0.0
0.0 2.33679003906 0.142813449757 0.0
0.0 2.33779003906 0.143043590244 0.0
0.0 2.33879003906 0.143272910304 0.0
0.0 2.33979003906 0.143504010105 0.0
0.0 2.34079003906 0.143734535637 0.0
0.0 2.34179003906 0.143967173584 0.0
0.0 2.34279003906 0.144199797307 0.0
0.0 2.34379003906 0.144432671439 0.0
0.0 2.34479003906 0.144667039378 0.0
0.0 2.34579003906 0.14490160168 0.0
0.0 2.34679003906 0.145137282158 0.0
0.0 2.34779003906 0.145372840613 0.0
0.0 2.34879003906 0.145609346459 0.0
0.0 2.34979003906 0.145846961608 0.0
0.0 2.35079003906 0.146084600307 0.0
0.0 2.35179003906 0.146323302816 0.0
0.0 2.35279003906 0.146563105597 0.0
0.0 2.35379003906 0.146803055369 0.0
0.0 2.35479003906 0.147043509852 0.0
0.0 2.35579003906 0.147283831585 0.0
0.0 2.35679003906 0.147527076253 0.0
0.0 2.35779003906 0.147769387407 0.0
0.0 2.35879003906 0.148012357819 0.0
0.0 2.35979003906 0.148257058458 0.0
0.0 2.36079003906 0.148501552607 0.0
0.0 2.36179003906 0.148746349106 0.0
0.0 2.36279003906 0.148992411684 0.0
0.0 2.36379003906 0.14923903819 0.0
0.0 2.36479003906 0.149486236731 0.0
0.0 2.36579003906 0.149734395348 0.0
0.0 2.36679003906 0.149982672519 0.0
0.0 2.36779003906 0.150232031305 0.0
0.0 2.36879003906 0.150482050721 0.0
0.0 2.36979003906 0.150732759409 0.0
0.0 2.37079003906 0.150984128062 0.0
0.0 2.37179003906 0.151236160515 0.0
0.0 2.37279003906 0.151488967527 0.0
0.0 2.37379003906 0.151742209626 0.0
0.0 2.37479003906 0.151996377474 0.0
0.0 2.37579003906 0.152251182485 0.0
0.0 2.37679003906 0.152506564348 0.0
0.0 2.37779003906 0.152762735311 0.0
0.0 2.37879003906 0.153019607435 0.0
0.0 2.37979003906 0.153277134484 0.0
0.0 2.38079003906 0.217835869908 0.0
0.0 2.38179003906 0.292485078719 0.0
0.0 2.38279003906 0.360010408169 0.0
0.0 2.38379003906 0.421091600627 0.0
0.0 2.38479003906 0.476343668194 0.0
0.0 2.38579003906 0.526322817857 0.0
0.0 2.38679003906 0.571532138887 0.0
0.0 2.38779003906 0.61242691739 0.0
0.0 2.38879003906 0.649418884775 0.0
0.0 2.38979003906 0.682880391439 0.0
0.0 2.39079003906 0.713148411719 0.0
0.0 2.39179003906 0.740527737128 0.0
0.0 2.39279003906 0.765293886737 0.0
0.0 2.39379003906 0.787696414607 0.0
0.0 2.39479003906 0.807960780808 0.0
0.0 2.39579003906 0.826291095062 0.0
0.0 2.39679003906 0.842871883845 0.0
0.0 2.39779003906 0.857870135847 0.0
0.0 2.39879003906 0.871436915571 0.0
0.0 2.39979003906 0.883708801943 0.0
0.0 2.40079003906 0.894809389183 0.0
0.0 2.40179003906 0.904850436494 0.0
0.0 2.40279003906 0.913933094023 0.0
0.0 2.40379003906 0.922148817002 0.0
0.0 2.40479003906 0.929580368681 0.0
0.0 2.40579003906 0.93630257497 0.0
0.0 2.40679003906 0.942383134646 0.0
0.0 2.40779003906 0.947883288384 0.0
0.0 2.40879003906 0.952858436972 0.0
0.0 2.40979003906 0.957358695051 0.0
0.0 2.41079003906 0.961429372788 0.0
0.0 2.41179003906 0.96511149472 0.0
0.0 2.41279003906 0.96844212754 0.0
0.0 2.41379003906 0.97145483518 0.0
0.0 2.41479003906 0.974179949339 0.0
0.0 2.41579003906 0.976644930603 0.0
0.0 2.41679003906 0.978874606337 0.0
0.0 2.41779003906 0.980891433417 0.0
0.0 2.41879003906 0.982715735202 0.0
0.0 2.41979003906 0.984365883345 0.0
0.0 2.42079003906 0.985858503691 0.0
0.0 2.42179003906 0.987208632471 0.0
0.0 2.42279003906 0.988429872393 0.0
0.0 2.42379003906 0.989534525321 0.0
0.0 2.42479003906 0.990533721719 0.0
0.0 2.42579003906 0.991437527902 0.0
0.0 2.42679003906 0.992255048811 0.0
0.0 2.42779003906 0.992994522689 0.0
0.0 2.42879003906 0.993663397945 0.0
0.0 2.42979003906 0.994268415639 0.0
0.0 2.43079003906 0.99481567161 0.0
0.0 2.43179003906 0.99531067967 0.0
0.0 2.43279003906 0.99575842756 0.0
0.0 2.43379003906 0.996163427395 0.0
0.0 2.43479003906 0.996529759528 0.0
0.0 2.43579003906 0.99686111571 0.0
0.0 2.43679003906 0.997160835629 0.0
0.0 2.43779003906 0.997431938612 0.0
0.0 2.43879003906 0.997677157163 0.0
0.0 2.43979003906 0.99789896245 0.0
0.0 2.44079003906 0.998099589442 0.0
0.0 2.44179003906 0.998281060677 0.0
0.0 2.44279003906 0.998445204538 0.0
0.0 2.44379003906 0.99859367557 0.0
0.0 2.44479003906 0.998727969725 0.0
0.0 2.44579003906 0.998849441295 0.0
0.0 2.44679003906 0.998959313849 0.0
0.0 2.44779003906 0.999058695128 0.0
0.0 2.44879003906 0.999148586584 0.0
0.0 2.44979003906 0.99922989469 0.0
0.0 2.45079003906 0.999303438576 0.0
0.0 2.45179003906 0.999369959846 0.0
0.0 2.45279003906 0.999430128999 0.0
0.0 2.45379003906 0.999484552392 0.0
0.0 2.45479003906 0.999533778792 0.0
0.0 2.45579003906 0.999578304376 0.0
0.0 2.45679003906 0.999618578024 0.0
0.0 2.45779003906 0.999655005731 0.0
0.0 2.45879003906 0.99968795471 0.0
0.0 2.45979003906 0.999717757179 0.0
0.0 2.46079003906 0.999744713514 0.0
0.0 2.46179003906 0.999769095615 0.0
0.0 2.46279003906 0.999791149207 0.0
0.0 2.46379003906 0.999811096635 0.0
0.0 2.46479003906 0.999829139067 0.0
0.0 2.46579003906 0.999845458421 0.0
0.0 2.46679003906 0.999860219186 0.0
0.0 2.46779003906 0.999873570246 0.0
0.0 2.46879003906 0.999885646203 0.0
0.0 2.46979003906 0.999896568829 0.0
0.0 2.47079003906 0.999906448278 0.0
0.0 2.47179003906 0.999915384147 0.0
0.0 2.47279003906 0.99992346656 0.0
0.0 2.47379003906 0.99993077703 0.0
0.0 2.47479003906 0.999937389262 0.0
0.0 2.47579003906 0.999943369953 0.0
0.0 2.47679003906 0.999948779409 0.0
0.0 2.47779003906 0.999953672184 0.0
0.0 2.47879003906 0.999958097633 0.0
0.0 2.47979003906 0.99996210038 0.0
0.0 2.48079003906 0.9999657208 0.0
0.0 2.48179003906 0.999968995407 0.0
0.0 2.48279003906 0.999971957227 0.0
0.0 2.48379003906 0.999974636136 0.0
0.0 2.48479003906 0.999977059155 0.0
0.0 2.48579003906 0.999979250724 0.0
0.0 2.48679003906 0.99998123295 0.0
0.0 2.48779003906 0.999983025828 0.0
0.0 2.48879003906 0.999984647442 0.0
0.0 2.48979003906 0.999986114152 0.0
0.0 2.49079003906 0.999987440752 0.0
0.0 2.49179003906 0.999988640628 0.0
0.0 2.49279003906 0.99998972588 0.0
0.0 2.49379003906 0.99999070746 0.0
0.0 2.49479003906 0.99999159527 0.0
0.0 2.49579003906 0.999992398267 0.0
0.0 2.49679003906 0.999993124552 0.0
0.0 2.49779003906 0.999993781453 0.0
0.0 2.49879003906 0.999994375598 0.0
0.0 2.49979003906 0.999994912982 0.0
0.0 2.50079003906 0.999995399026 0.0
0.0 2.50179003906 0.999995838635 0.0
0.0 2.50279003906 0.999996236245 0.0
0.0 2.50379003906 0.999996595868 0.0
0.0 2.50479003906 0.999996921133 0.0
0.0 2.50579003906 0.99999721532 0.0
0.0 2.50679003906 0.999997481403 0.0
0.0 2.50779003906 0.999997722062 0.0
0.0 2.50879003906 0.999997939727 0.0
0.0 2.50979003906 0.999998136598 0.0
0.0 2.51079003906 0.999998314656 0.0
0.0 2.51179003906 0.999998475702 0.0
0.0 2.51279003906 0.999998621361 0.0
0.0 2.51379003906 0.999998753102 0.0
0.0 2.51479003906 0.999998872256 0.0
0.0 2.51579003906 0.999998980024 0.0
0.0 2.51679003906 0.999999077495 0.0
0.0 2.51779003906 0.999999165653 0.0
0.0 2.51879003906 0.999999245386 0.0
0.0 2.51979003906 0.999999317501 0.0
0.0 2.52079003906 0.999999382725 0.0
0.0 2.52179003906 0.999999441716 0.0
0.0 2.52279003906 0.99999949507 0.0
0.0 2.52379003906 0.999999543326 0.0
0.0 2.52479003906 0.99999958697 0.0
0.0 2.52579003906 0.999999626444 0.0
0.0 2.52679003906 0.999999662146 0.0
0.0 2.52779003906 0.999999694436 0.0
0.0 2.52879003906 0.99999972364 0.0
0.0 2.52979003906 0.999999750053 0.0
0.0 2.53079003906 0.999999773942 0.0
0.0 2.53179003906 0.999999795548 0.0
0.0 2.53279003906 0.999999815089 0.0
0.0 2.53379003906 0.999999832763 0.0
0.0 2.53479003906 0.999999848748 0.0
0.0 2.53579003906 0.999999863205 0.0
0.0 2.53679003906 0.99999987628 0.0
0.0 2.53779003906 0.999999888106 0.0
0.0 2.53879003906 0.999999898801 0.0
0.0 2.53979003906 0.999999908474 0.0
0.0 2.54079003906 0.999999917223 0.0
0.0 2.54179003906 0.999999925135 0.0
0.0 2.54279003906 0.999999932292 0.0
0.0 2.54379003906 0.999999938764 0.0
0.0 2.54479003906 0.999999944617 0.0
0.0 2.54579003906 0.999999949912 0.0
0.0 2.54679003906 0.9999999547 0.0
0.0 2.54779003906 0.99999995903 0.0
0.0 2.54879003906 0.999999962947 0.0
0.0 2.54979003906 0.999999966489 0.0
0.0 2.55079003906 0.999999969692 0.0
0.0 2.55179003906 0.99999997259 0.0
0.0 2.55279003906 0.99999997521 0.0
0.0 2.55379003906 0.99999997758 0.0
0.0 2.55479003906 0.999999979724 0.0
0.0 2.55579003906 0.999999981662 0.0
0.0 2.55679003906 0.999999983415 0.0
0.0 2.55779003906 0.999999985001 0.0
0.0 2.55879003906 0.999999986435 0.0
0.0 2.55979003906 0.999999987732 0.0
0.0 2.56079003906 0.999999988905 0.0
0.0 2.56179003906 0.999999989966 0.0
0.0 2.56279003906 0.999999990925 0.0
0.0 2.56379003906 0.999999991793 0.0
0.0 2.56479003906 0.999999992577 0.0
0.0 2.56579003906 0.999999993287 0.0
0.0 2.56679003906 0.999999993929 0.0
0.0 2.56779003906 0.999999994509 0.0
0.0 2.56879003906 0.999999995034 0.0
0.0 2.56979003906 0.999999995509 0.0
0.0 2.57079003906 0.999999995939 0.0
0.0 2.57179003906 0.999999996327 0.0
0.0 2.57279003906 0.999999996678 0.0
0.0 2.57379003906 0.999999996996 0.0
0.0 2.57479003906 0.999999997283 0.0
0.0 2.57579003906 0.999999997543 0.0
0.0 2.57679003906 0.999999997778 0.0
0.0 2.57779003906 0.99999999799 0.0
0.0 2.57879003906 0.999999998183 0.0
0.0 2.57979003906 0.999999998356 0.0
0.0 2.58079003906 0.999999998514 0.0
0.0 2.58179003906 0.999999998656 0.0
0.0 2.58279003906 0.999999998784 0.0
0.0 2.58379003906 0.999999998901 0.0
0.0 2.58479003906 0.999999999006 0.0
0.0 2.58579003906 0.999999999101 0.0
0.0 2.58679003906 0.999999999187 0.0
0.0 2.58779003906 0.999999999265 0.0
0.0 2.58879003906 0.999999999335 0.0
0.0 2.58979003906 0.999999999398 0.0
0.0 2.59079003906 0.999999999456 0.0
0.0 2.59179003906 0.999999999508 0.0
0.0 2.59279003906 0.999999999555 0.0
0.0 2.59379003906 0.999999999598 0.0
0.0 2.59479003906 0.999999999636 0.0
0.0 2.59579003906 0.999999999671 0.0
0.0 2.59679003906 0.999999999702 0.0
0.0 2.59779003906 0.999999999731 0.0
