0.0 0.551400024414 0.309178084507 0.0
0.0 0.552400024414 0.309028713182 0.0
0.0 0.553400024414 0.308879107009 0.0
0.0 0.554400024414 0.30872926649 0.0
0.0 0.555400024414 0.308579192123 0.0
0.0 0.556400024414 0.308428884416 0.0
0.0 0.557400024414 0.30827834386 0.0
0.0 0.558400024414 0.308127570965 0.0
0.0 0.559400024414 0.307976566226 0.0
0.0 0.560400024414 0.307825330149 0.0
0.0 0.561400024414 0.307673863231 0.0
0.0 0.562400024414 0.307522165974 0.0
0.0 0.563400024414 0.30737023888 0.0
0.0 0.564400024414 0.30721808245 0.0
0.0 0.565400024414 0.307065697183 0.0
0.0 0.566400024414 0.306913083583 0.0
0.0 0.567400024414 0.306760242149 0.0
0.0 0.568400024414 0.306607173381 0.0
0.0 0.569400024414 0.306453877782 0.0
0.0 0.570400024414 0.306300355852 0.0
0.0 0.571400024414 0.306146608093 0.0
0.0 0.572400024414 0.305992635007 0.0
0.0 0.573400024414 0.305838437092 0.0
0.0 0.574400024414 0.30568401485 0.0
0.0 0.575400024414 0.305529368784 0.0
0.0 0.576400024414 0.305374499391 0.0
0.0 0.577400024414 0.305219407176 0.0
0.0 0.578400024414 0.305064092642 0.0
0.0 0.579400024414 0.304908556278 0.0
0.0 0.580400024414 0.304752798603 0.0
0.0 0.581400024414 0.304596820105 0.0
0.0 0.582400024414 0.304440621284 0.0
0.0 0.583400024414 0.304284202647 0.0
0.0 0.584400024414 0.304127564697 0.0
0.0 0.585400024414 0.303970707943 0.0
0.0 0.586400024414 0.303813632844 0.0
0.0 0.587400024414 0.30365633995 0.0
0.0 0.588400024414 0.303498829769 0.0
0.0 0.589400024414 0.303341102722 0.0
0.0 0.590400024414 0.303183159409 0.0
0.0 0.591400024414 0.303025000253 0.0
0.0 0.592400024414 0.302866625803 0.0
0.0 0.593400024414 0.302708036542 0.0
0.0 0.594400024414 0.302549232976 0.0
0.0 0.595400024414 0.302390215608 0.0
0.0 0.596400024414 0.302230984937 0.0
0.0 0.597400024414 0.30207154146 0.0
0.0 0.598400024414 0.301911885685 0.0
0.0 0.599400024414 0.301752018096 0.0
0.0 0.600400024414 0.301591939217 0.0
0.0 0.601400024414 0.301431649538 0.0
0.0 0.602400024414 0.301271149557 0.0
0.0 0.603400024414 0.301110439784 0.0
0.0 0.604400024414 0.300949520703 0.0
0.0 0.605400024414 0.300788392837 0.0
0.0 0.606400024414 0.300627056684 0.0
0.0 0.607400024414 0.300465512718 0.0
0.0 0.608400024414 0.300303761473 0.0
0.0 0.609400024414 0.300141803429 0.0
0.0 0.610400024414 0.299979639085 0.0
0.0 0.611400024414 0.299817268969 0.0
0.0 0.612400024414 0.29965469356 0.0
0.0 0.613400024414 0.299491913362 0.0
0.0 0.614400024414 0.299328928868 0.0
0.0 0.615400024414 0.2991657406 0.0
0.0 0.616400024414 0.299002349044 0.0
0.0 0.617400024414 0.298838754705 0.0
0.0 0.618400024414 0.298674958084 0.0
0.0 0.619400024414 0.29851095968 0.0
0.0 0.620400024414 0.29834676 0.0
0.0 0.621400024414 0.29818235954 0.0
0.0 0.622400024414 0.298017758791 0.0
0.0 0.623400024414 0.297852958272 0.0
0.0 0.624400024414 0.29768795848 0.0
0.0 0.625400024414 0.297522759904 0.0
0.0 0.626400024414 0.297357363074 0.0
0.0 0.627400024414 0.297191768439 0.0
0.0 0.628400024414 0.297025976553 0.0
0.0 0.629400024414 0.296859987889 0.0
0.0 0.630400024414 0.296693802955 0.0
0.0 0.631400024414 0.296527422258 0.0
0.0 0.632400024414 0.296360846326 0.0
0.0 0.633400024414 0.296194075571 0.0
0.0 0.634400024414 0.296027110525 0.0
0.0 0.635400024414 0.295859951752 0.0
0.0 0.636400024414 0.295692599715 0.0
0.0 0.637400024414 0.295525054935 0.0
0.0 0.638400024414 0.295357317857 0.0
0.0 0.639400024414 0.295189389048 0.0
0.0 0.640400024414 0.295021268948 0.0
0.0 0.641400024414 0.294852958106 0.0
0.0 0.642400024414 0.294684457004 0.0
0.0 0.643400024414 0.294515766148 0.0
0.0 0.644400024414 0.29434688603 0.0
0.0 0.645400024414 0.294177817157 0.0
0.0 0.646400024414 0.294008560017 0.0
0.0 0.647400024414 0.29383911517 0.0
0.0 0.648400024414 0.293669482999 0.0
0.0 0.649400024414 0.293499664118 0.0
0.0 0.650400024414 0.293329658984 0.0
0.0 0.651400024414 0.293159468106 0.0
0.0 0.652400024414 0.292989091957 0.0
0.0 0.653400024414 0.292818531083 0.0
0.0 0.654400024414 0.292647785956 0.0
0.0 0.655400024414 0.292476857076 0.0
0.0 0.656400024414 0.292305744961 0.0
0.0 0.657400024414 0.292134450094 0.0
0.0 0.658400024414 0.291962972986 0.0
0.0 0.659400024414 0.291791314178 0.0
0.0 0.660400024414 0.291619474069 0.0
0.0 0.661400024414 0.291447453243 0.0
0.0 0.662400024414 0.291275252188 0.0
0.0 0.663400024414 0.291102871391 0.0
0.0 0.664400024414 0.290930311339 0.0
0.0 0.665400024414 0.290757572551 0.0
0.0 0.666400024414 0.29058465555 0.0
0.0 0.667400024414 0.290411560809 0.0
0.0 0.668400024414 0.290238288822 0.0
0.0 0.669400024414 0.290064840123 0.0
0.0 0.670400024414 0.28989121518 0.0
0.0 0.671400024414 0.289717414512 0.0
0.0 0.672400024414 0.289543438636 0.0
0.0 0.673400024414 0.289369287993 0.0
0.0 0.674400024414 0.289194963164 0.0
0.0 0.675400024414 0.289020464577 0.0
0.0 0.676400024414 0.288845792777 0.0
0.0 0.677400024414 0.288670948246 0.0
0.0 0.678400024414 0.288495931516 0.0
0.0 0.679400024414 0.28832074303 0.0
0.0 0.680400024414 0.288145383354 0.0
0.0 0.681400024414 0.287969852955 0.0
0.0 0.682400024414 0.287794152317 0.0
0.0 0.683400024414 0.287618281973 0.0
0.0 0.684400024414 0.28744224241 0.0
0.0 0.685400024414 0.287266034138 0.0
0.0 0.686400024414 0.287089657624 0.0
0.0 0.687400024414 0.286913113458 0.0
0.0 0.688400024414 0.286736402035 0.0
0.0 0.689400024414 0.286559523897 0.0
0.0 0.690400024414 0.286382479572 0.0
0.0 0.691400024414 0.286205269527 0.0
0.0 0.692400024414 0.286027894257 0.0
0.0 0.693400024414 0.285850354309 0.0
0.0 0.694400024414 0.285672650163 0.0
0.0 0.695400024414 0.285494782248 0.0
0.0 0.696400024414 0.285316751209 0.0
0.0 0.697400024414 0.285138557422 0.0
0.0 0.698400024414 0.284960201442 0.0
0.0 0.699400024414 0.284781683749 0.0
0.0 0.700400024414 0.284603004879 0.0
0.0 0.701400024414 0.284424165295 0.0
0.0 0.702400024414 0.284245165553 0.0
0.0 0.703400024414 0.284066006085 0.0
0.0 0.704400024414 0.28388668747 0.0
0.0 0.705400024414 0.28370721022 0.0
0.0 0.706400024414 0.283527574806 0.0
0.0 0.707400024414 0.283347781841 0.0
0.0 0.708400024414 0.283167831867 0.0
0.0 0.709400024414 0.282987725464 0.0
0.0 0.710400024414 0.282807463196 0.0
0.0 0.711400024414 0.282627045265 0.0
0.0 0.712400024414 0.282446472064 0.0
0.0 0.713400024414 0.282265744122 0.0
0.0 0.714400024414 0.282084860707 0.0
0.0 0.715400024414 0.281903824532 0.0
0.0 0.716400024414 0.281722633746 0.0
0.0 0.717400024414 0.28154128992 0.0
0.0 0.718400024414 0.281359793894 0.0
0.0 0.719400024414 0.281178146371 0.0
0.0 0.720400024414 0.280996347893 0.0
0.0 0.721400024414 0.280814399085 0.0
0.0 0.722400024414 0.280632300091 0.0
0.0 0.723400024414 0.280450051565 0.0
0.0 0.724400024414 0.280267654079 0.0
0.0 0.725400024414 0.280085107904 0.0
0.0 0.726400024414 0.279902413589 0.0
0.0 0.727400024414 0.279719571643 0.0
0.0 0.728400024414 0.279536582515 0.0
0.0 0.729400024414 0.279353446703 0.0
0.0 0.730400024414 0.279170164775 0.0
0.0 0.731400024414 0.27898673715 0.0
0.0 0.732400024414 0.278803164381 0.0
0.0 0.733400024414 0.278619446922 0.0
0.0 0.734400024414 0.278435585311 0.0
0.0 0.735400024414 0.278251580031 0.0
0.0 0.736400024414 0.278067431588 0.0
0.0 0.737400024414 0.277883140475 0.0
0.0 0.738400024414 0.277698707237 0.0
0.0 0.739400024414 0.277514132325 0.0
0.0 0.740400024414 0.277329416261 0.0
0.0 0.741400024414 0.277144559552 0.0
0.0 0.742400024414 0.276959562701 0.0
0.0 0.743400024414 0.276774426284 0.0
0.0 0.744400024414 0.276589150554 0.0
0.0 0.745400024414 0.276403736183 0.0
0.0 0.746400024414 0.276218183372 0.0
0.0 0.747400024414 0.276032493407 0.0
0.0 0.748400024414 0.275846665932 0.0
0.0 0.749400024414 0.275660702047 0.0
0.0 0.750400024414 0.27547460175 0.0
0.0 0.751400024414 0.275288365973 0.0
0.0 0.752400024414 0.275101995385 0.0
0.0 0.753400024414 0.274915489651 0.0
0.0 0.754400024414 0.274728850305 0.0
0.0 0.755400024414 0.274542077674 0.0
0.0 0.756400024414 0.2743551705 0.0
0.0 0.757400024414 0.274168130699 0.0
0.0 0.758400024414 0.273980959252 0.0
0.0 0.759400024414 0.27379365627 0.0
0.0 0.760400024414 0.273606222132 0.0
0.0 0.761400024414 0.273418657369 0.0
0.0 0.762400024414 0.273230962477 0.0
0.0 0.763400024414 0.273043137983 0.0
0.0 0.764400024414 0.272855184323 0.0
0.0 0.765400024414 0.272667102034 0.0
0.0 0.766400024414 0.272478891614 0.0
0.0 0.767400024414 0.272290553561 0.0
0.0 0.768400024414 0.272102088375 0.0
0.0 0.769400024414 0.27191349656 0.0
0.0 0.770400024414 0.271724778612 0.0
0.0 0.771400024414 0.271535935036 0.0
0.0 0.772400024414 0.27134696633 0.0
0.0 0.773400024414 0.271157872997 0.0
0.0 0.774400024414 0.270968655538 0.0
0.0 0.775400024414 0.270779314455 0.0
0.0 0.776400024414 0.270589850246 0.0
0.0 0.777400024414 0.270400263413 0.0
0.0 0.778400024414 0.270210554457 0.0
0.0 0.779400024414 0.270020723881 0.0
0.0 0.780400024414 0.269830772189 0.0
0.0 0.781400024414 0.269640699869 0.0
0.0 0.782400024414 0.269450507433 0.0
0.0 0.783400024414 0.269260195378 0.0
0.0 0.784400024414 0.269069764215 0.0
0.0 0.785400024414 0.268879214423 0.0
0.0 0.786400024414 0.268688546527 0.0
0.0 0.787400024414 0.268497761017 0.0
0.0 0.788400024414 0.268306858386 0.0
0.0 0.789400024414 0.268115839155 0.0
0.0 0.790400024414 0.267924703816 0.0
0.0 0.791400024414 0.267733452853 0.0
0.0 0.792400024414 0.267542086783 0.0
0.0 0.793400024414 0.26735060612 0.0
0.0 0.794400024414 0.267159011328 0.0
0.0 0.795400024414 0.266967302951 0.0
0.0 0.796400024414 0.266775481436 0.0
0.0 0.797400024414 0.26658354737 0.0
0.0 0.798400024414 0.266391501477 0.0
0.0 0.799400024414 0.26619934354 0.0
0.0 0.800400024414 0.266007076809 0.0
0.0 0.801400024414 0.265814697143 0.0
0.0 0.802400024414 0.265622207523 0.0
0.0 0.803400024414 0.265429608626 0.0
0.0 0.804400024414 0.265236899334 0.0
0.0 0.805400024414 0.265044081182 0.0
0.0 0.806400024414 0.264851156308 0.0
0.0 0.807400024414 0.264658124698 0.0
0.0 0.808400024414 0.264464985786 0.0
0.0 0.809400024414 0.264271738879 0.0
0.0 0.810400024414 0.264078385988 0.0
0.0 0.811400024414 0.263884928346 0.0
0.0 0.812400024414 0.263691365802 0.0
0.0 0.813400024414 0.26349769867 0.0
0.0 0.814400024414 0.263303926929 0.0
0.0 0.815400024414 0.263110051128 0.0
0.0 0.816400024414 0.262916072323 0.0
0.0 0.817400024414 0.262721991409 0.0
0.0 0.818400024414 0.262527808262 0.0
0.0 0.819400024414 0.262333523844 0.0
0.0 0.820400024414 0.262139137787 0.0
0.0 0.821400024414 0.261944651537 0.0
0.0 0.822400024414 0.261750065316 0.0
0.0 0.823400024414 0.261555378464 0.0
0.0 0.824400024414 0.261360593286 0.0
0.0 0.825400024414 0.26116571013 0.0
0.0 0.826400024414 0.260970729208 0.0
0.0 0.827400024414 0.260775649692 0.0
0.0 0.828400024414 0.26058047293 0.0
0.0 0.829400024414 0.260385199819 0.0
0.0 0.830400024414 0.260189831108 0.0
0.0 0.831400024414 0.259994367459 0.0
0.0 0.832400024414 0.259798807664 0.0
0.0 0.833400024414 0.259603152822 0.0
0.0 0.834400024414 0.259407405062 0.0
0.0 0.835400024414 0.259211563347 0.0
0.0 0.836400024414 0.259015628098 0.0
0.0 0.837400024414 0.25881960112 0.0
0.0 0.838400024414 0.258623481793 0.0
0.0 0.839400024414 0.258427270072 0.0
0.0 0.840400024414 0.258230967752 0.0
0.0 0.841400024414 0.258034574989 0.0
0.0 0.842400024414 0.257838092721 0.0
0.0 0.843400024414 0.257641520694 0.0
0.0 0.844400024414 0.257444858778 0.0
0.0 0.845400024414 0.257248108913 0.0
0.0 0.846400024414 0.257051271009 0.0
0.0 0.847400024414 0.256854345744 0.0
0.0 0.848400024414 0.256657333327 0.0
0.0 0.849400024414 0.256460233948 0.0
0.0 0.850400024414 0.25626304884 0.0
0.0 0.851400024414 0.256065778253 0.0
0.0 0.852400024414 0.255868422848 0.0
0.0 0.853400024414 0.255670982585 0.0
0.0 0.854400024414 0.255473457984 0.0
0.0 0.855400024414 0.255275849926 0.0
0.0 0.856400024414 0.255078158765 0.0
0.0 0.857400024414 0.254880385231 0.0
0.0 0.858400024414 0.254682530135 0.0
0.0 0.859400024414 0.254484592904 0.0
0.0 0.860400024414 0.254286575021 0.0
0.0 0.861400024414 0.254088476131 0.0
0.0 0.862400024414 0.253890297112 0.0
0.0 0.863400024414 0.253692039178 0.0
0.0 0.864400024414 0.253493702436 0.0
0.0 0.865400024414 0.253295286348 0.0
0.0 0.866400024414 0.253096792447 0.0
0.0 0.867400024414 0.25289822102 0.0
0.0 0.868400024414 0.252699572732 0.0
0.0 0.869400024414 0.252500848145 0.0
0.0 0.870400024414 0.252302047051 0.0
0.0 0.871400024414 0.252103170596 0.0
0.0 0.872400024414 0.251904219164 0.0
0.0 0.873400024414 0.251705193167 0.0
0.0 0.874400024414 0.251506092951 0.0
0.0 0.875400024414 0.251306919377 0.0
0.0 0.876400024414 0.251107673047 0.0
0.0 0.877400024414 0.250908353824 0.0
0.0 0.878400024414 0.25070896256 0.0
0.0 0.879400024414 0.250509500018 0.0
0.0 0.880400024414 0.250309965926 0.0
0.0 0.881400024414 0.250110361621 0.0
0.0 0.882400024414 0.249910687465 0.0
0.0 0.883400024414 0.249710943822 0.0
0.0 0.884400024414 0.24951113091 0.0
0.0 0.885400024414 0.249311249392 0.0
0.0 0.886400024414 0.249111300188 0.0
0.0 0.887400024414 0.248911283467 0.0
0.0 0.888400024414 0.248711199531 0.0
0.0 0.889400024414 0.248511049234 0.0
0.0 0.890400024414 0.248310833049 0.0
0.0 0.891400024414 0.24811055112 0.0
0.0 0.892400024414 0.247910204449 0.0
0.0 0.893400024414 0.247709792928 0.0
0.0 0.894400024414 0.247509317949 0.0
0.0 0.895400024414 0.247308778738 0.0
0.0 0.896400024414 0.24710817706 0.0
0.0 0.897400024414 0.246907512817 0.0
0.0 0.898400024414 0.24670678634 0.0
0.0 0.899400024414 0.246505998224 0.0
0.0 0.900400024414 0.246305149525 0.0
0.0 0.901400024414 0.246104240271 0.0
0.0 0.902400024414 0.245903271016 0.0
0.0 0.903400024414 0.245702241905 0.0
0.0 0.904400024414 0.245501153456 0.0
0.0 0.905400024414 0.245300007421 0.0
0.0 0.906400024414 0.245098802717 0.0
0.0 0.907400024414 0.24489754077 0.0
0.0 0.908400024414 0.244696222084 0.0
0.0 0.909400024414 0.244494846876 0.0
0.0 0.910400024414 0.244293415467 0.0
0.0 0.911400024414 0.244091928313 0.0
0.0 0.912400024414 0.243890386553 0.0
0.0 0.913400024414 0.243688790464 0.0
0.0 0.914400024414 0.243487139997 0.0
0.0 0.915400024414 0.243285435898 0.0
0.0 0.916400024414 0.243083678986 0.0
0.0 0.917400024414 0.242881869489 0.0
0.0 0.918400024414 0.242680008284 0.0
0.0 0.919400024414 0.242478095699 0.0
0.0 0.920400024414 0.242276131881 0.0
0.0 0.921400024414 0.242074117568 0.0
0.0 0.922400024414 0.241872053524 0.0
0.0 0.923400024414 0.241669939953 0.0
0.0 0.924400024414 0.241467777383 0.0
0.0 0.925400024414 0.241265566308 0.0
0.0 0.926400024414 0.241063307344 0.0
0.0 0.927400024414 0.240861000801 0.0
0.0 0.928400024414 0.24065864735 0.0
0.0 0.929400024414 0.240456247968 0.0
0.0 0.930400024414 0.240253802225 0.0
0.0 0.931400024414 0.240051311325 0.0
0.0 0.932400024414 0.239848775403 0.0
0.0 0.933400024414 0.239646194655 0.0
0.0 0.934400024414 0.239443570002 0.0
0.0 0.935400024414 0.239240901693 0.0
0.0 0.936400024414 0.239038189825 0.0
0.0 0.937400024414 0.238835435848 0.0
0.0 0.938400024414 0.238632640004 0.0
0.0 0.939400024414 0.238429802886 0.0
0.0 0.940400024414 0.238226924299 0.0
0.0 0.941400024414 0.238024005049 0.0
0.0 0.942400024414 0.237821046237 0.0
0.0 0.943400024414 0.237618048316 0.0
0.0 0.944400024414 0.237415011731 0.0
0.0 0.945400024414 0.237211936425 0.0
0.0 0.946400024414 0.237008822594 0.0
0.0 0.947400024414 0.236805672277 0.0
0.0 0.948400024414 0.236602484336 0.0
0.0 0.949400024414 0.236399259781 0.0
0.0 0.950400024414 0.236196000273 0.0
0.0 0.951400024414 0.235992704594 0.0
0.0 0.952400024414 0.235789373757 0.0
0.0 0.953400024414 0.235586008689 0.0
0.0 0.954400024414 0.235382609949 0.0
0.0 0.955400024414 0.235179177683 0.0
0.0 0.956400024414 0.234975712337 0.0
0.0 0.957400024414 0.234772214545 0.0
0.0 0.958400024414 0.234568684695 0.0
0.0 0.959400024414 0.234365123474 0.0
0.0 0.960400024414 0.234161531256 0.0
0.0 0.961400024414 0.233957908938 0.0
0.0 0.962400024414 0.233754256235 0.0
0.0 0.963400024414 0.233550574304 0.0
0.0 0.964400024414 0.233346863601 0.0
0.0 0.965400024414 0.233143124357 0.0
0.0 0.966400024414 0.232939357018 0.0
0.0 0.967400024414 0.232735562624 0.0
0.0 0.968400024414 0.232531740932 0.0
0.0 0.969400024414 0.232327892737 0.0
0.0 0.970400024414 0.232124019193 0.0
0.0 0.971400024414 0.231920119129 0.0
0.0 0.972400024414 0.231716197272 0.0
0.0 0.973400024414 0.231512247279 0.0
0.0 0.974400024414 0.231308275582 0.0
0.0 0.975400024414 0.231104280441 0.0
0.0 0.976400024414 0.230900263093 0.0
0.0 0.977400024414 0.230696222753 0.0
0.0 0.978400024414 0.230492160717 0.0
0.0 0.979400024414 0.230288076378 0.0
0.0 0.980400024414 0.230083971872 0.0
0.0 0.981400024414 0.229879856461 0.0
0.0 0.982400024414 0.229675709452 0.0
0.0 0.983400024414 0.229471549084 0.0
0.0 0.984400024414 0.229267367734 0.0
0.0 0.985400024414 0.22906317698 0.0
0.0 0.986400024414 0.228858967243 0.0
0.0 0.987400024414 0.228654728755 0.0
0.0 0.988400024414 0.22845049517 0.0
0.0 0.989400024414 0.228246226119 0.0
0.0 0.990400024414 0.228041952357 0.0
0.0 0.991400024414 0.227837655967 0.0
0.0 0.992400024414 0.227633375449 0.0
0.0 0.993400024414 0.227429031903 0.0
0.0 0.994400024414 0.227224703813 0.0
0.0 0.995400024414 0.227020320912 0.0
0.0 0.996400024414 0.22681598248 0.0
0.0 0.997400024414 0.226611628102 0.0
0.0 0.998400024414 0.226407152808 0.0
0.0 0.999400024414 0.226202803 0.0
0.0 1.00040002441 0.225998401669 0.0
0.0 1.00140002441 0.225794274167 0.0
0.0 1.00240002441 0.225590107536 0.0
0.0 1.00340002441 0.225385211659 0.0
0.0 1.00440002441 0.225180906326 0.0
0.0 1.00540002441 0.224976593696 0.0
0.0 1.00640002441 0.224771801588 0.0
0.0 1.00740002441 0.224568093196 0.0
0.0 1.00840002441 0.224362715121 0.0
0.0 1.00940002441 0.224159361768 0.0
0.0 1.01040002441 0.223954910084 0.0
0.0 1.01140002441 0.223749546086 0.0
0.0 1.01240002441 0.223545108078 0.0
0.0 1.01340002441 0.223340413579 0.0
0.0 1.01440002441 0.22313572421 0.0
0.0 1.01540002441 0.222931334047 0.0
0.0 1.01640002441 0.222727232569 0.0
0.0 1.01740002441 0.22252297529 0.0
0.0 1.01840002441 0.222317816895 0.0
0.0 1.01940002441 0.222112898671 0.0
0.0 1.02040002441 0.221908987136 0.0
0.0 1.02140002441 0.221705132501 0.0
0.0 1.02240002441 0.221500649116 0.0
0.0 1.02340002441 0.221294842659 0.0
0.0 1.02440002441 0.221091502985 0.0
0.0 1.02540002441 0.220886233306 0.0
0.0 1.02640002441 0.220681223591 0.0
0.0 1.02740002441 0.220477208073 0.0
0.0 1.02840002441 0.220272369458 0.0
0.0 1.02940002441 0.220068795964 0.0
0.0 1.03040002441 0.219863648015 0.0
0.0 1.03140002441 0.219658893706 0.0
0.0 1.03240002441 0.219455168183 0.0
0.0 1.03340002441 0.219250092749 0.0
0.0 1.03440002441 0.219045316984 0.0
0.0 1.03540002441 0.218841475725 0.0
0.0 1.03640002441 0.218637506304 0.0
0.0 1.03740002441 0.218432207307 0.0
0.0 1.03840002441 0.218227666691 0.0
0.0 1.03940002441 0.218023186714 0.0
0.0 1.04040002441 0.217818282521 0.0
0.0 1.04140002441 0.21761548632 0.0
0.0 1.04240002441 0.217410203702 0.0
0.0 1.04340002441 0.217206141316 0.0
0.0 1.04440002441 0.217001536489 0.0
0.0 1.04540002441 0.21679645744 0.0
0.0 1.04640002441 0.216592743377 0.0
0.0 1.04740002441 0.216388007229 0.0
0.0 1.04840002441 0.216183929682 0.0
0.0 1.04940002441 0.215979132588 0.0
0.0 1.05040002441 0.21577518457 0.0
0.0 1.05140002441 0.215571538587 0.0
0.0 1.05240002441 0.215366165189 0.0
0.0 1.05340002441 0.215162712135 0.0
0.0 1.05440002441 0.2149584499 0.0
0.0 1.05540002441 0.214753220586 0.0
0.0 1.05640002441 0.214549441737 0.0
0.0 1.05740002441 0.214344707255 0.0
0.0 1.05840002441 0.214140806116 0.0
0.0 1.05940002441 0.213937071813 0.0
0.0 1.06040002441 0.213732558527 0.0
0.0 1.06140002441 0.213528180632 0.0
0.0 1.06240002441 0.213324269802 0.0
0.0 1.06340002441 0.213120095255 0.0
0.0 1.06440002441 0.212917038345 0.0
0.0 1.06540002441 0.212711880901 0.0
0.0 1.06640002441 0.212508018722 0.0
0.0 1.06740002441 0.212303657392 0.0
0.0 1.06840002441 0.212100494195 0.0
0.0 1.06940002441 0.211895871267 0.0
0.0 1.07040002441 0.211691849195 0.0
0.0 1.07140002441 0.211488394498 0.0
0.0 1.07240002441 0.211284046694 0.0
0.0 1.07340002441 0.211080343531 0.0
0.0 1.07440002441 0.210877610797 0.0
0.0 1.07540002441 0.210673786572 0.0
0.0 1.07640002441 0.210469031358 0.0
0.0 1.07740002441 0.210265585056 0.0
0.0 1.07840002441 0.210061872664 0.0
0.0 1.07940002441 0.209858478952 0.0
0.0 1.08040002441 0.209654478907 0.0
0.0 1.08140002441 0.209450373002 0.0
0.0 1.08240002441 0.209247427578 0.0
0.0 1.08340002441 0.20904306294 0.0
0.0 1.08440002441 0.208839634455 0.0
0.0 1.08540002441 0.208636500559 0.0
0.0 1.08640002441 0.208432780094 0.0
0.0 1.08740002441 0.208229707732 0.0
0.0 1.08840002441 0.2080260864 0.0
0.0 1.08940002441 0.207822619002 0.0
0.0 1.09040002441 0.20761892386 0.0
0.0 1.09140002441 0.207415950476 0.0
0.0 1.09240002441 0.207213232858 0.0
0.0 1.09340002441 0.207009290207 0.0
0.0 1.09440002441 0.206806059109 0.0
0.0 1.09540002441 0.206603187593 0.0
0.0 1.09640002441 0.206400364388 0.0
0.0 1.09740002441 0.206196625413 0.0
0.0 1.09840002441 0.205993886151 0.0
0.0 1.09940002441 0.205790524748 0.0
0.0 1.10040002441 0.20558776573 0.0
0.0 1.10140002441 0.205384818735 0.0
0.0 1.10240002441 0.205181492056 0.0
0.0 1.10340002441 0.204979249362 0.0
0.0 1.10440002441 0.204776188046 0.0
0.0 1.10540002441 0.204574148783 0.0
0.0 1.10640002441 0.20437060041 0.0
0.0 1.10740002441 0.204168179357 0.0
0.0 1.10840002441 0.203965257548 0.0
0.0 1.10940002441 0.203762503669 0.0
0.0 1.11040002441 0.203560138444 0.0
0.0 1.11140002441 0.203357844913 0.0
0.0 1.11240002441 0.203155419156 0.0
0.0 1.11340002441 0.202952581312 0.0
0.0 1.11440002441 0.202750949537 0.0
0.0 1.11540002441 0.202548288178 0.0
0.0 1.11640002441 0.2023454764 0.0
0.0 1.11740002441 0.202143563905 0.0
0.0 1.11840002441 0.201941402005 0.0
0.0 1.11940002441 0.201740224425 0.0
0.0 1.12040002441 0.201536767153 0.0
0.0 1.12140002441 0.201334932127 0.0
0.0 1.12240002441 0.201133705778 0.0
0.0 1.12340002441 0.200930996013 0.0
0.0 1.12440002441 0.200729839764 0.0
0.0 1.12540002441 0.20052722144 0.0
0.0 1.12640002441 0.200326005053 0.0
0.0 1.12740002441 0.200123821113 0.0
0.0 1.12840002441 0.199922391549 0.0
0.0 1.12940002441 0.199721157404 0.0
0.0 1.13040002441 0.199519132797 0.0
0.0 1.13140002441 0.199317137915 0.0
0.0 1.13240002441 0.199116057494 0.0
0.0 1.13340002441 0.19891549051 0.0
0.0 1.13440002441 0.198713461947 0.0
0.0 1.13540002441 0.198511921431 0.0
0.0 1.13640002441 0.198310971065 0.0
0.0 1.13740002441 0.198109352238 0.0
0.0 1.13840002441 0.197908862933 0.0
0.0 1.13940002441 0.197707287312 0.0
0.0 1.14040002441 0.197506663147 0.0
0.0 1.14140002441 0.197305348757 0.0
0.0 1.14240002441 0.197104772709 0.0
0.0 1.14340002441 0.196903509862 0.0
0.0 1.14440002441 0.196703419527 0.0
0.0 1.14540002441 0.196502626208 0.0
0.0 1.14640002441 0.196301359044 0.0
0.0 1.14740002441 0.196101485166 0.0
0.0 1.14840002441 0.1959007376 0.0
0.0 1.14940002441 0.195700067678 0.0
0.0 1.15040002441 0.19549985891 0.0
0.0 1.15140002441 0.195299463632 0.0
0.0 1.15240002441 0.195099176014 0.0
0.0 1.15340002441 0.194898790592 0.0
0.0 1.15440002441 0.194699203482 0.0
0.0 1.15540002441 0.194498493691 0.0
0.0 1.15640002441 0.194298998966 0.0
0.0 1.15740002441 0.19409898581 0.0
0.0 1.15840002441 0.193899111476 0.0
0.0 1.15940002441 0.193699206046 0.0
0.0 1.16040002441 0.193499323287 0.0
0.0 1.16140002441 0.19329999411 0.0
0.0 1.16240002441 0.193100456318 0.0
0.0 1.16340002441 0.192900949157 0.0
0.0 1.16440002441 0.192701162776 0.0
0.0 1.16540002441 0.192502522494 0.0
0.0 1.16640002441 0.192302898707 0.0
0.0 1.16740002441 0.192104606809 0.0
0.0 1.16840002441 0.191904139814 0.0
0.0 1.16940002441 0.191705617023 0.0
0.0 1.17040002441 0.191506944363 0.0
0.0 1.17140002441 0.191307410939 0.0
0.0 1.17240002441 0.191108482677 0.0
0.0 1.17340002441 0.190910558328 0.0
0.0 1.17440002441 0.190711354566 0.0
0.0 1.17540002441 0.190513309666 0.0
0.0 1.17640002441 0.190314980833 0.0
0.0 1.17740002441 0.190116066417 0.0
0.0 1.17840002441 0.189917023379 0.0
0.0 1.17940002441 0.189719140682 0.0
0.0 1.18040002441 0.189520883526 0.0
0.0 1.18140002441 0.189322245714 0.0
0.0 1.18240002441 0.189124419168 0.0
0.0 1.18340002441 0.188926770072 0.0
0.0 1.18440002441 0.188728847901 0.0
0.0 1.18540002441 0.188530947522 0.0
0.0 1.18640002441 0.188334067572 0.0
0.0 1.18740002441 0.188135173818 0.0
0.0 1.18840002441 0.187938055889 0.0
0.0 1.18940002441 0.187740341026 0.0
0.0 1.19040002441 0.187543116256 0.0
0.0 1.19140002441 0.187345583803 0.0
0.0 1.19240002441 0.187148725425 0.0
0.0 1.19340002441 0.186951088281 0.0
0.0 1.19440002441 0.186754191842 0.0
0.0 1.19540002441 0.186557306786 0.0
0.0 1.19640002441 0.186360064281 0.0
0.0 1.19740002441 0.18616351288 0.0
0.0 1.19840002441 0.185966846265 0.0
0.0 1.19940002441 0.185770513658 0.0
0.0 1.20040002441 0.185573445365 0.0
0.0 1.20140002441 0.185377462355 0.0
0.0 1.20240002441 0.185180814253 0.0
0.0 1.20340002441 0.184984499 0.0
0.0 1.20440002441 0.18478844864 0.0
0.0 1.20540002441 0.184592696577 0.0
0.0 1.20640002441 0.184396820135 0.0
0.0 1.20740002441 0.184200634219 0.0
0.0 1.20840002441 0.184004741625 0.0
0.0 1.20940002441 0.183809460718 0.0
0.0 1.21040002441 0.183613243809 0.0
0.0 1.21140002441 0.183418311539 0.0
0.0 1.21240002441 0.183222542365 0.0
0.0 1.21340002441 0.183027334377 0.0
0.0 1.21440002441 0.182831867621 0.0
0.0 1.21540002441 0.182636599178 0.0
0.0 1.21640002441 0.182441484998 0.0
0.0 1.21740002441 0.182246881652 0.0
0.0 1.21840002441 0.182052444058 0.0
0.0 1.21940002441 0.181857021892 0.0
0.0 1.22040002441 0.181662595697 0.0
0.0 1.22140002441 0.181468067468 0.0
0.0 1.22240002441 0.181273970026 0.0
0.0 1.22340002441 0.181079457518 0.0
0.0 1.22440002441 0.180885361964 0.0
0.0 1.22540002441 0.18069086529 0.0
0.0 1.22640002441 0.180497439626 0.0
0.0 1.22740002441 0.180303347817 0.0
0.0 1.22840002441 0.180109903248 0.0
0.0 1.22940002441 0.179915220677 0.0
0.0 1.23040002441 0.179721612832 0.0
0.0 1.23140002441 0.17952901632 0.0
0.0 1.23240002441 0.179334816689 0.0
0.0 1.23340002441 0.179141373788 0.0
0.0 1.23440002441 0.17894830458 0.0
0.0 1.23540002441 0.178755179738 0.0
0.0 1.23640002441 0.178562619176 0.0
0.0 1.23740002441 0.178370405795 0.0
0.0 1.23840002441 0.178176415651 0.0
0.0 1.23940002441 0.17798381357 0.0
0.0 1.24040002441 0.177791400499 0.0
0.0 1.24140002441 0.17759924456 0.0
0.0 1.24240002441 0.177407350795 0.0
0.0 1.24340002441 0.177214354061 0.0
0.0 1.24440002441 0.177022515404 0.0
0.0 1.24540002441 0.176830774515 0.0
0.0 1.24640002441 0.176638327683 0.0
0.0 1.24740002441 0.176446984356 0.0
0.0 1.24840002441 0.176255062461 0.0
0.0 1.24940002441 0.176063615021 0.0
0.0 1.25040002441 0.17587236342 0.0
0.0 1.25140002441 0.17568179788 0.0
0.0 1.25240002441 0.175490021001 0.0
0.0 1.25340002441 0.175298557252 0.0
0.0 1.25440002441 0.175107711001 0.0
0.0 1.25540002441 0.174916648625 0.0
0.0 1.25640002441 0.174726347054 0.0
0.0 1.25740002441 0.174535150692 0.0
0.0 1.25840002441 0.174345004959 0.0
0.0 1.25940002441 0.174154654089 0.0
0.0 1.26040002441 0.173964378364 0.0
0.0 1.26140002441 0.17377468882 0.0
0.0 1.26240002441 0.173584019056 0.0
0.0 1.26340002441 0.173395216398 0.0
0.0 1.26440002441 0.17320508847 0.0
0.0 1.26540002441 0.173014915978 0.0
0.0 1.26640002441 0.172825628541 0.0
0.0 1.26740002441 0.172635629263 0.0
0.0 1.26840002441 0.172447136129 0.0
0.0 1.26940002441 0.172257951413 0.0
0.0 1.27040002441 0.172068202133 0.0
0.0 1.27140002441 0.171879372813 0.0
0.0 1.27240002441 0.17169052109 0.0
0.0 1.27340002441 0.171502648674 0.0
0.0 1.27440002441 0.171313739864 0.0
0.0 1.27540002441 0.171125582474 0.0
0.0 1.27640002441 0.170936721732 0.0
0.0 1.27740002441 0.170748873548 0.0
0.0 1.27840002441 0.170560891599 0.0
0.0 1.27940002441 0.170373094564 0.0
0.0 1.28040002441 0.170185070846 0.0
0.0 1.28140002441 0.169998226227 0.0
0.0 1.28240002441 0.169809775735 0.0
0.0 1.28340002441 0.169622823187 0.0
0.0 1.28440002441 0.169436291488 0.0
0.0 1.28540002441 0.169248411114 0.0
0.0 1.28640002441 0.169061054059 0.0
0.0 1.28740002441 0.16887456508 0.0
0.0 1.28840002441 0.168688254925 0.0
0.0 1.28940002441 0.168501358132 0.0
0.0 1.29040002441 0.168315546207 0.0
0.0 1.29140002441 0.16812871767 0.0
0.0 1.29240002441 0.167942287299 0.0
0.0 1.29340002441 0.16775608031 0.0
0.0 1.29440002441 0.167571167553 0.0
0.0 1.29540002441 0.167384258965 0.0
0.0 1.29640002441 0.167199089537 0.0
0.0 1.29740002441 0.167013658132 0.0
0.0 1.29840002441 0.166827930893 0.0
0.0 1.29940002441 0.166642986199 0.0
0.0 1.30040002441 0.166457753309 0.0
0.0 1.30140002441 0.166273129237 0.0
0.0 1.30240002441 0.166088656793 0.0
0.0 1.30340002441 0.165903607101 0.0
0.0 1.30440002441 0.165719039377 0.0
0.0 1.30540002441 0.165534824571 0.0
0.0 1.30640002441 0.165350811711 0.0
0.0 1.30740002441 0.165166540917 0.0
0.0 1.30840002441 0.164982721652 0.0
0.0 1.30940002441 0.16479879632 0.0
0.0 1.31040002441 0.164614979178 0.0
0.0 1.31140002441 0.164431090147 0.0
0.0 1.31240002441 0.164248108886 0.0
0.0 1.31340002441 0.164064845616 0.0
0.0 1.31440002441 0.163881751791 0.0
0.0 1.31540002441 0.163699304868 0.0
0.0 1.31640002441 0.163516006612 0.0
0.0 1.31740002441 0.163333932851 0.0
0.0 1.31840002441 0.163151485099 0.0
0.0 1.31940002441 0.162968556682 0.0
0.0 1.32040002441 0.162786440173 0.0
0.0 1.32140002441 0.162604383455 0.0
0.0 1.32240002441 0.162422630561 0.0
0.0 1.32340002441 0.162240974258 0.0
0.0 1.32440002441 0.162059045343 0.0
0.0 1.32540002441 0.161877672936 0.0
0.0 1.32640002441 0.161696473096 0.0
0.0 1.32740002441 0.161515556865 0.0
0.0 1.32840002441 0.161334355334 0.0
0.0 1.32940002441 0.161154627347 0.0
0.0 1.33040002441 0.160973156273 0.0
0.0 1.33140002441 0.160792805791 0.0
0.0 1.33240002441 0.160612425017 0.0
0.0 1.33340002441 0.16043238448 0.0
0.0 1.33440002441 0.16025199004 0.0
0.0 1.33540002441 0.160072084634 0.0
0.0 1.33640002441 0.159892989292 0.0
0.0 1.33740002441 0.159713198604 0.0
0.0 1.33840002441 0.159533312597 0.0
0.0 1.33940002441 0.159354705214 0.0
0.0 1.34040002441 0.159175012314 0.0
0.0 1.34140002441 0.158995993702 0.0
0.0 1.34240002441 0.158817395354 0.0
0.0 1.34340002441 0.158638763288 0.0
0.0 1.34440002441 0.158460947403 0.0
0.0 1.34540002441 0.158282138542 0.0
0.0 1.34640002441 0.158104029176 0.0
0.0 1.34740002441 0.157926446273 0.0
0.0 1.34840002441 0.157748564523 0.0
0.0 1.34940002441 0.157571074526 0.0
0.0 1.35040002441 0.157393726902 0.0
0.0 1.35140002441 0.157215779595 0.0
0.0 1.35240002441 0.157038599025 0.0
0.0 1.35340002441 0.156862579312 0.0
0.0 1.35440002441 0.156684657619 0.0
0.0 1.35540002441 0.156508874956 0.0
0.0 1.35640002441 0.156331725241 0.0
0.0 1.35740002441 0.156155856765 0.0
0.0 1.35840002441 0.155979588382 0.0
0.0 1.35940002441 0.155803625999 0.0
0.0 1.36040002441 0.155627542305 0.0
0.0 1.36140002441 0.155452356572 0.0
0.0 1.36240002441 0.155277463942 0.0
0.0 1.36340002441 0.15510168898 0.0
0.0 1.36440002441 0.154926719598 0.0
0.0 1.36540002441 0.154751148878 0.0
0.0 1.36640002441 0.154577067606 0.0
0.0 1.36740002441 0.154403028528 0.0
0.0 1.36840002441 0.154227528953 0.0
0.0 1.36940002441 0.154053284134 0.0
0.0 1.37040002441 0.153879398161 0.0
0.0 1.37140002441 0.153705781559 0.0
0.0 1.37240002441 0.153531882544 0.0
0.0 1.37340002441 0.153359072769 0.0
0.0 1.37440002441 0.15318511401 0.0
0.0 1.37540002441 0.153012292095 0.0
0.0 1.37640002441 0.152838739924 0.0
0.0 1.37740002441 0.15266646521 0.0
0.0 1.37840002441 0.152493667485 0.0
0.0 1.37940002441 0.152320416311 0.0
0.0 1.38040002441 0.152148996803 0.0
0.0 1.38140002441 0.151976174179 0.0
0.0 1.38240002441 0.151805121718 0.0
0.0 1.38340002441 0.151632504349 0.0
0.0 1.38440002441 0.151460975569 0.0
0.0 1.38540002441 0.151289584906 0.0
0.0 1.38640002441 0.151118502828 0.0
0.0 1.38740002441 0.150948266387 0.0
0.0 1.38840002441 0.150776776794 0.0
0.0 1.38940002441 0.150605827289 0.0
0.0 1.39040002441 0.150436860852 0.0
0.0 1.39140002441 0.15026562156 0.0
0.0 1.39240002441 0.150094979027 0.0
0.0 1.39340002441 0.14992535333 0.0
0.0 1.39440002441 0.149755470149 0.0
0.0 1.39540002441 0.149586986697 0.0
0.0 1.39640002441 0.149417100534 0.0
0.0 1.39740002441 0.149247829001 0.0
0.0 1.39840002441 0.149078399499 0.0
0.0 1.39940002441 0.148910058885 0.0
0.0 1.40040002441 0.148740801987 0.0
0.0 1.40140002441 0.148572692864 0.0
0.0 1.40240002441 0.148404593004 0.0
0.0 1.40340002441 0.148236705079 0.0
0.0 1.40440002441 0.148068828047 0.0
0.0 1.40540002441 0.147901501072 0.0
0.0 1.40640002441 0.147733325732 0.0
0.0 1.40740002441 0.147566503414 0.0
0.0 1.40840002441 0.147399186642 0.0
0.0 1.40940002441 0.147231867232 0.0
0.0 1.41040002441 0.147065962102 0.0
0.0 1.41140002441 0.146898967986 0.0
0.0 1.41240002441 0.146733435869 0.0
0.0 1.41340002441 0.146566668713 0.0
0.0 1.41440002441 0.146401160642 0.0
0.0 1.41540002441 0.146235273438 0.0
0.0 1.41640002441 0.146069372725 0.0
0.0 1.41740002441 0.145904287058 0.0
0.0 1.41840002441 0.145739335572 0.0
0.0 1.41940002441 0.145574493834 0.0
0.0 1.42040002441 0.145409402985 0.0
0.0 1.42140002441 0.145245697172 0.0
0.0 1.42240002441 0.145081140158 0.0
0.0 1.42340002441 0.14491723742 0.0
0.0 1.42440002441 0.14475246192 0.0
0.0 1.42540002441 0.144590284831 0.0
0.0 1.42640002441 0.144425722695 0.0
0.0 1.42740002441 0.144262763717 0.0
0.0 1.42840002441 0.144099497829 0.0
0.0 1.42940002441 0.14393637144 0.0
0.0 1.43040002441 0.14377399688 0.0
0.0 1.43140002441 0.143611220687 0.0
0.0 1.43240002441 0.143449772704 0.0
0.0 1.43340002441 0.143287123539 0.0
0.0 1.43440002441 0.143124998402 0.0
0.0 1.43540002441 0.142963620153 0.0
0.0 1.43640002441 0.14280199586 0.0
0.0 1.43740002441 0.142640990283 0.0
0.0 1.43840002441 0.142480146274 0.0
0.0 1.43940002441 0.142319032576 0.0
0.0 1.44040002441 0.142158546083 0.0
0.0 1.44140002441 0.141998815316 0.0
0.0 1.44240002441 0.141837888349 0.0
0.0 1.44340002441 0.141678941906 0.0
0.0 1.44440002441 0.141519094746 0.0
0.0 1.44540002441 0.141359752806 0.0
0.0 1.44640002441 0.141199745809 0.0
0.0 1.44740002441 0.141041030424 0.0
0.0 1.44840002441 0.140882472973 0.0
0.0 1.44940002441 0.140723320693 0.0
0.0 1.45040002441 0.140565478292 0.0
0.0 1.45140002441 0.140407139336 0.0
0.0 1.45240002441 0.140249108268 0.0
0.0 1.45340002441 0.140091563135 0.0
0.0 1.45440002441 0.139933568078 0.0
0.0 1.45540002441 0.139776910437 0.0
0.0 1.45640002441 0.13961986383 0.0
0.0 1.45740002441 0.139463395527 0.0
0.0 1.45840002441 0.139306654547 0.0
0.0 1.45940002441 0.139150062339 0.0
0.0 1.46040002441 0.138994910451 0.0
0.0 1.46140002441 0.138839364682 0.0
0.0 1.46240002441 0.138683856494 0.0
0.0 1.46340002441 0.138529114717 0.0
0.0 1.46440002441 0.138374236057 0.0
0.0 1.46540002441 0.138219826767 0.0
0.0 1.46640002441 0.138067367906 0.0
0.0 1.46740002441 0.137911944675 0.0
0.0 1.46840002441 0.137759988361 0.0
0.0 1.46940002441 0.137606654394 0.0
0.0 1.47040002441 0.137453695142 0.0
0.0 1.47140002441 0.137303339488 0.0
0.0 1.47240002441 0.13715214093 0.0
0.0 1.47340002441 0.137001216371 0.0
0.0 1.47440002441 0.136850972226 0.0
0.0 1.47540002441 0.136701534588 0.0
0.0 1.47640002441 0.136551530327 0.0
0.0 1.47740002441 0.136403834492 0.0
0.0 1.47840002441 0.136255280807 0.0
0.0 1.47940002441 0.136110025271 0.0
0.0 1.48040002441 0.135962868889 0.0
0.0 1.48140002441 0.135816210805 0.0
0.0 1.48240002441 0.135674041527 0.0
0.0 1.48340002441 0.135528693743 0.0
0.0 1.48440002441 0.135387510964 0.0
0.0 1.48540002441 0.135246375807 0.0
0.0 1.48640002441 0.135107300475 0.0
0.0 1.48740002441 0.134970908013 0.0
0.0 1.48840002441 0.134833123817 0.0
0.0 1.48940002441 0.134702891648 0.0
0.0 1.49040002441 0.134574033426 0.0
0.0 1.49140002441 0.134447801712 0.0
0.0 1.49240002441 0.134326607545 0.0
0.0 1.49340002441 0.134207399777 0.0
0.0 1.49440002441 0.13410367837 0.0
0.0 1.49540002441 0.133986672503 0.0
0.0 1.49640002441 0.133894210076 0.0
0.0 1.49740002441 0.133808978093 0.0
0.0 1.49840002441 0.133741103659 0.0
0.0 1.49940002441 0.133673852608 0.0
0.0 1.50040002441 0.13363893807 0.0
0.0 1.50140002441 0.133608928883 0.0
0.0 1.50240002441 0.133599962391 0.0
0.0 1.50340002441 0.133626006048 0.0
0.0 1.50440002441 0.133666341998 0.0
0.0 1.50540002441 0.133775002673 0.0
0.0 1.50640002441 0.133905482558 0.0
0.0 1.50740002441 0.134099778388 0.0
0.0 1.50840002441 0.134296788823 0.0
0.0 1.50940002441 0.134581320231 0.0
0.0 1.51040002441 0.134933227302 0.0
0.0 1.51140002441 0.135464075364 0.0
0.0 1.51240002441 0.135889073074 0.0
0.0 1.51340002441 0.136642332575 0.0
0.0 1.51440002441 0.137170771458 0.0
0.0 1.51540002441 0.138300624125 0.0
0.0 1.51640002441 0.139409490832 0.0
0.0 1.51740002441 0.140692791052 0.0
0.0 1.51840002441 0.142102685277 0.0
0.0 1.51940002441 0.143296049593 0.0
0.0 1.52040002441 0.144550377762 0.0
0.0 1.52140002441 0.14575708239 0.0
0.0 1.52240002441 0.147526832215 0.0
0.0 1.52340002441 0.149312857661 0.0
0.0 1.52440002441 0.150720158007 0.0
0.0 1.52540002441 0.153834556445 0.0
0.0 1.52640002441 0.156190336255 0.0
0.0 1.52740002441 0.159368597893 0.0
0.0 1.52840002441 0.163504173178 0.0
0.0 1.52940002441 0.168011117173 0.0
0.0 1.53040002441 0.173600799474 0.0
0.0 1.53140002441 0.179681962368 0.0
0.0 1.53240002441 0.1872045814 0.0
0.0 1.53340002441 0.196534046945 0.0
0.0 1.53440002441 0.205391425436 0.0
0.0 1.53540002441 0.219616948857 0.0
0.0 1.53640002441 0.231752718844 0.0
0.0 1.53740002441 0.245451633675 0.0
0.0 1.53840002441 0.27015645134 0.0
0.0 1.53940002441 0.288937621821 0.0
0.0 1.54040002441 0.313213289964 0.0
0.0 1.54140002441 0.339127448794 0.0
0.0 1.54240002441 0.36647910634 0.0
0.0 1.54340002441 0.391054047176 0.0
0.0 1.54440002441 0.417791669146 0.0
0.0 1.54540002441 0.444130683359 0.0
0.0 1.54640002441 0.462397840679 0.0
0.0 1.54740002441 0.481208038366 0.0
0.0 1.54840002441 0.495985942124 0.0
0.0 1.54940002441 0.50527457035 0.0
0.0 1.55040002441 0.511847870831 0.0
0.0 1.55140002441 0.515285121458 0.0
0.0 1.55240002441 0.521230994981 0.0
0.0 1.55340002441 0.521565096856 0.0
0.0 1.55440002441 0.525343946787 0.0
0.0 1.55540002441 0.529305549943 0.0
0.0 1.55640002441 0.529997499354 0.0
0.0 1.55740002441 0.529427566885 0.0
0.0 1.55840002441 0.52534852872 0.0
0.0 1.55940002441 0.536632773287 0.0
0.0 1.56040002441 0.531530166062 0.0
0.0 1.56140002441 0.533070461211 0.0
0.0 1.56240002441 0.540046441307 0.0
0.0 1.56340002441 0.541887432052 0.0
0.0 1.56440002441 0.535095129501 0.0
0.0 1.56540002441 0.540125844449 0.0
0.0 1.56640002441 0.536978804373 0.0
0.0 1.56740002441 0.539839657542 0.0
0.0 1.56840002441 0.539215309661 0.0
0.0 1.56940002441 0.541268167641 0.0
0.0 1.57040002441 0.538894795168 0.0
0.0 1.57140002441 0.539971630704 0.0
0.0 1.57240002441 0.543170389675 0.0
0.0 1.57340002441 0.535001798556 0.0
0.0 1.57440002441 0.543166372124 0.0
0.0 1.57540002441 0.550210037801 0.0
0.0 1.57640002441 0.54490751882 0.0
0.0 1.57740002441 0.543145770723 0.0
0.0 1.57840002441 0.54010071836 0.0
0.0 1.57940002441 0.541360847269 0.0
0.0 1.58040002441 0.558429904391 0.0
0.0 1.58140002441 0.543560944364 0.0
0.0 1.58240002441 0.556348047361 0.0
0.0 1.58340002441 0.547585933222 0.0
0.0 1.58440002441 0.545504153807 0.0
0.0 1.58540002441 0.552807946047 0.0
0.0 1.58640002441 0.547195169069 0.0
0.0 1.58740002441 0.551857531338 0.0
0.0 1.58840002441 0.545668449006 0.0
0.0 1.58940002441 0.54817594588 0.0
0.0 1.59040002441 0.548176737664 0.0
0.0 1.59140002441 0.548085887623 0.0
0.0 1.59240002441 0.543816785148 0.0
0.0 1.59340002441 0.547568485673 0.0
0.0 1.59440002441 0.54364147229 0.0
0.0 1.59540002441 0.543280274879 0.0
0.0 1.59640002441 0.542463701538 0.0
0.0 1.59740002441 0.54556639328 0.0
0.0 1.59840002441 0.540323524804 0.0
0.0 1.59940002441 0.541420505289 0.0
0.0 1.60040002441 0.541615974238 0.0
0.0 1.60140002441 0.543081887256 0.0
0.0 1.60240002441 0.543834169517 0.0
0.0 1.60340002441 0.542402267929 0.0
0.0 1.60440002441 0.544544027207 0.0
0.0 1.60540002441 0.546282836128 0.0
0.0 1.60640002441 0.538784774212 0.0
0.0 1.60740002441 0.538334028761 0.0
0.0 1.60840002441 0.540686256589 0.0
0.0 1.60940002441 0.542170638467 0.0
0.0 1.61040002441 0.538731907537 0.0
0.0 1.61140002441 0.541066624292 0.0
0.0 1.61240002441 0.535990507947 0.0
0.0 1.61340002441 0.536767196568 0.0
0.0 1.61440002441 0.531045674645 0.0
0.0 1.61540002441 0.544270155182 0.0
0.0 1.61640002441 0.531254361315 0.0
0.0 1.61740002441 0.53904051817 0.0
0.0 1.61840002441 0.531923395886 0.0
0.0 1.61940002441 0.534349637256 0.0
0.0 1.62040002441 0.539625003373 0.0
0.0 1.62140002441 0.53575297232 0.0
0.0 1.62240002441 0.532134013282 0.0
0.0 1.62340002441 0.53496313139 0.0
0.0 1.62440002441 0.535783000187 0.0
0.0 1.62540002441 0.527390050297 0.0
0.0 1.62640002441 0.548560580978 0.0
0.0 1.62740002441 0.536421420287 0.0
0.0 1.62840002441 0.539080777916 0.0
0.0 1.62940002441 0.53836758937 0.0
0.0 1.63040002441 0.539798360305 0.0
0.0 1.63140002441 0.532414361808 0.0
0.0 1.63240002441 0.540465520644 0.0
0.0 1.63340002441 0.5380498538 0.0
0.0 1.63440002441 0.534301897996 0.0
0.0 1.63540002441 0.545143128568 0.0
0.0 1.63640002441 0.545602365315 0.0
0.0 1.63740002441 0.540218658332 0.0
0.0 1.63840002441 0.542592798278 0.0
0.0 1.63940002441 0.544576452007 0.0
0.0 1.64040002441 0.545164794984 0.0
0.0 1.64140002441 0.54605463603 0.0
0.0 1.64240002441 0.546534815023 0.0
0.0 1.64340002441 0.543140107207 0.0
0.0 1.64440002441 0.549366092282 0.0
0.0 1.64540002441 0.548319153663 0.0
0.0 1.64640002441 0.544384867255 0.0
0.0 1.64740002441 0.545134728788 0.0
0.0 1.64840002441 0.548713154419 0.0
0.0 1.64940002441 0.549272412102 0.0
0.0 1.65040002441 0.54884801995 0.0
0.0 1.65140002441 0.555126262168 0.0
0.0 1.65240002441 0.546742993315 0.0
0.0 1.65340002441 0.543163829394 0.0
0.0 1.65440002441 0.549690077873 0.0
0.0 1.65540002441 0.546118557068 0.0
0.0 1.65640002441 0.544467341029 0.0
0.0 1.65740002441 0.546035307798 0.0
0.0 1.65840002441 0.541861066845 0.0
0.0 1.65940002441 0.549665631803 0.0
0.0 1.66040002441 0.547714186599 0.0
0.0 1.66140002441 0.54343706235 0.0
0.0 1.66240002441 0.543361857718 0.0
0.0 1.66340002441 0.540701638845 0.0
0.0 1.66440002441 0.543871060201 0.0
0.0 1.66540002441 0.540676350972 0.0
0.0 1.66640002441 0.539669682477 0.0
0.0 1.66740002441 0.542940749326 0.0
0.0 1.66840002441 0.540309545815 0.0
0.0 1.66940002441 0.540242480969 0.0
0.0 1.67040002441 0.537900537169 0.0
0.0 1.67140002441 0.535420776231 0.0
0.0 1.67240002441 0.534367738918 0.0
0.0 1.67340002441 0.538943033903 0.0
0.0 1.67440002441 0.5391593075 0.0
0.0 1.67540002441 0.539861103907 0.0
0.0 1.67640002441 0.544422658377 0.0
0.0 1.67740002441 0.537873166702 0.0
0.0 1.67840002441 0.541402641525 0.0
0.0 1.67940002441 0.544833519447 0.0
0.0 1.68040002441 0.542507246765 0.0
0.0 1.68140002441 0.539341798863 0.0
0.0 1.68240002441 0.539384243858 0.0
0.0 1.68340002441 0.549783593537 0.0
0.0 1.68440002441 0.546072358857 0.0
0.0 1.68540002441 0.545952550698 0.0
0.0 1.68640002441 0.54007930158 0.0
0.0 1.68740002441 0.545099159438 0.0
0.0 1.68840002441 0.542135791845 0.0
0.0 1.68940002441 0.538000973075 0.0
0.0 1.69040002441 0.53717839566 0.0
0.0 1.69140002441 0.5457032017 0.0
0.0 1.69240002441 0.544326786943 0.0
0.0 1.69340002441 0.541296555698 0.0
0.0 1.69440002441 0.536190032884 0.0
0.0 1.69540002441 0.5471334415 0.0
0.0 1.69640002441 0.535150659015 0.0
0.0 1.69740002441 0.535175357914 0.0
0.0 1.69840002441 0.534964462141 0.0
0.0 1.69940002441 0.527520609884 0.0
0.0 1.70040002441 0.523759546442 0.0
0.0 1.70140002441 0.520260821098 0.0
0.0 1.70240002441 0.512091112909 0.0
0.0 1.70340002441 0.501786024399 0.0
0.0 1.70440002441 0.489830555704 0.0
0.0 1.70540002441 0.478180683213 0.0
0.0 1.70640002441 0.462977621237 0.0
0.0 1.70740002441 0.449253133029 0.0
0.0 1.70840002441 0.428111356248 0.0
0.0 1.70940002441 0.406318837427 0.0
0.0 1.71040002441 0.384196187003 0.0
0.0 1.71140002441 0.362713098427 0.0
0.0 1.71240002441 0.333786967308 0.0
0.0 1.71340002441 0.325747434076 0.0
0.0 1.71440002441 0.297168971366 0.0
0.0 1.71540002441 0.277842529985 0.0
0.0 1.71640002441 0.259440699436 0.0
0.0 1.71740002441 0.241613375336 0.0
0.0 1.71840002441 0.224466009549 0.0
0.0 1.71940002441 0.213013311768 0.0
0.0 1.72040002441 0.200319411068 0.0
0.0 1.72140002441 0.189367416252 0.0
0.0 1.72240002441 0.179008828649 0.0
0.0 1.72340002441 0.17128532554 0.0
0.0 1.72440002441 0.164019691332 0.0
0.0 1.72540002441 0.156409636818 0.0
0.0 1.72640002441 0.153368584184 0.0
0.0 1.72740002441 0.14822956395 0.0
0.0 1.72840002441 0.143940960857 0.0
0.0 1.72940002441 0.139888830116 0.0
0.0 1.73040002441 0.137535268904 0.0
0.0 1.73140002441 0.133852712411 0.0
0.0 1.73240002441 0.130838658886 0.0
0.0 1.73340002441 0.127575356986 0.0
0.0 1.73440002441 0.124397307427 0.0
0.0 1.73540002441 0.121657894796 0.0
0.0 1.73640002441 0.119381889761 0.0
0.0 1.73740002441 0.11701618558 0.0
0.0 1.73840002441 0.115807149271 0.0
0.0 1.73940002441 0.114175972732 0.0
0.0 1.74040002441 0.113080580501 0.0
0.0 1.74140002441 0.11182855239 0.0
0.0 1.74240002441 0.110965772796 0.0
0.0 1.74340002441 0.110129276623 0.0
0.0 1.74440002441 0.109313207234 0.0
0.0 1.74540002441 0.108769152808 0.0
0.0 1.74640002441 0.108307829808 0.0
0.0 1.74740002441 0.107888719278 0.0
0.0 1.74840002441 0.107443428279 0.0
0.0 1.74940002441 0.107093477619 0.0
0.0 1.75040002441 0.106763785178 0.0
0.0 1.75140002441 0.106491320876 0.0
0.0 1.75240002441 0.10623109112 0.0
0.0 1.75340002441 0.105992617952 0.0
0.0 1.75440002441 0.105815641601 0.0
0.0 1.75540002441 0.105594036133 0.0
0.0 1.75640002441 0.105421873822 0.0
0.0 1.75740002441 0.105284330025 0.0
0.0 1.75840002441 0.105132042352 0.0
0.0 1.75940002441 0.10499540369 0.0
0.0 1.76040002441 0.104850720617 0.0
0.0 1.76140002441 0.104734558878 0.0
0.0 1.76240002441 0.104614201417 0.0
0.0 1.76340002441 0.104499425409 0.0
0.0 1.76440002441 0.104395952323 0.0
0.0 1.76540002441 0.10430429431 0.0
0.0 1.76640002441 0.104209569979 0.0
0.0 1.76740002441 0.10411412568 0.0
0.0 1.76840002441 0.104024447973 0.0
0.0 1.76940002441 0.103937278113 0.0
0.0 1.77040002441 0.103848187596 0.0
0.0 1.77140002441 0.103768733747 0.0
0.0 1.77240002441 0.103692819914 0.0
0.0 1.77340002441 0.103612445053 0.0
0.0 1.77440002441 0.103539692016 0.0
0.0 1.77540002441 0.103457710615 0.0
0.0 1.77640002441 0.103392864163 0.0
0.0 1.77740002441 0.103314056619 0.0
0.0 1.77840002441 0.103246287847 0.0
0.0 1.77940002441 0.103178209955 0.0
0.0 1.78040002441 0.103108417095 0.0
0.0 1.78140002441 0.103044564189 0.0
0.0 1.78240002441 0.10297562353 0.0
0.0 1.78340002441 0.102910318459 0.0
0.0 1.78440002441 0.102846150588 0.0
0.0 1.78540002441 0.102781140499 0.0
0.0 1.78640002441 0.102721815994 0.0
0.0 1.78740002441 0.102655856751 0.0
0.0 1.78840002441 0.102596069083 0.0
0.0 1.78940002441 0.102535052095 0.0
0.0 1.79040002441 0.1024753853 0.0
0.0 1.79140002441 0.102414656591 0.0
0.0 1.79240002441 0.102356812205 0.0
0.0 1.79340002441 0.10230071028 0.0
0.0 1.79440002441 0.102241970221 0.0
0.0 1.79540002441 0.102182589184 0.0
0.0 1.79640002441 0.102128682479 0.0
0.0 1.79740002441 0.102073760825 0.0
0.0 1.79840002441 0.102017570768 0.0
0.0 1.79940002441 0.101962481555 0.0
0.0 1.80040002441 0.101908262588 0.0
0.0 1.80140002441 0.101856801451 0.0
0.0 1.80240002441 0.101799711139 0.0
0.0 1.80340002441 0.101746028561 0.0
0.0 1.80440002441 0.10169695459 0.0
0.0 1.80540002441 0.101644436985 0.0
0.0 1.80640002441 0.101590748611 0.0
0.0 1.80740002441 0.101543543254 0.0
0.0 1.80840002441 0.101494232388 0.0
0.0 1.80940002441 0.10144067014 0.0
0.0 1.81040002441 0.101393730779 0.0
0.0 1.81140002441 0.101344722369 0.0
0.0 1.81240002441 0.101296782555 0.0
0.0 1.81340002441 0.101246466491 0.0
0.0 1.81440002441 0.101197941735 0.0
0.0 1.81540002441 0.101155119164 0.0
0.0 1.81640002441 0.101104073934 0.0
0.0 1.81740002441 0.101061120658 0.0
0.0 1.81840002441 0.101013910285 0.0
0.0 1.81940002441 0.100965047235 0.0
0.0 1.82040002441 0.100922306539 0.0
0.0 1.82140002441 0.100879251641 0.0
0.0 1.82240002441 0.100831370283 0.0
0.0 1.82340002441 0.100789490713 0.0
0.0 1.82440002441 0.100748147471 0.0
0.0 1.82540002441 0.100702703502 0.0
0.0 1.82640002441 0.100659206383 0.0
0.0 1.82740002441 0.100616827849 0.0
0.0 1.82840002441 0.10057763166 0.0
0.0 1.82940002441 0.10053621096 0.0
0.0 1.83040002441 0.100490946084 0.0
0.0 1.83140002441 0.100455332533 0.0
0.0 1.83240002441 0.10041731035 0.0
0.0 1.83340002441 0.100374491944 0.0
0.0 1.83440002441 0.100331577765 0.0
0.0 1.83540002441 0.1002982818 0.0
0.0 1.83640002441 0.10025701759 0.0
0.0 1.83740002441 0.100220293984 0.0
0.0 1.83840002441 0.100185764303 0.0
0.0 1.83940002441 0.100146006327 0.0
0.0 1.84040002441 0.100110064879 0.0
0.0 1.84140002441 0.100070838526 0.0
0.0 1.84240002441 0.100040860858 0.0
0.0 1.84340002441 0.100001426199 0.0
0.0 1.84440002441 0.0999665833255 0.0
0.0 1.84540002441 0.099937172755 0.0
0.0 1.84640002441 0.0998937779899 0.0
0.0 1.84740002441 0.0998651354931 0.0
0.0 1.84840002441 0.0998314101018 0.0
0.0 1.84940002441 0.0997969394369 0.0
0.0 1.85040002441 0.0997637404944 0.0
0.0 1.85140002441 0.0997310776004 0.0
0.0 1.85240002441 0.0997034962577 0.0
0.0 1.85340002441 0.0996696810505 0.0
0.0 1.85440002441 0.0996356425206 0.0
0.0 1.85540002441 0.0996067360962 0.0
0.0 1.85640002441 0.0995796720902 0.0
0.0 1.85740002441 0.0995497501296 0.0
0.0 1.85840002441 0.0995169458504 0.0
0.0 1.85940002441 0.0994935090216 0.0
0.0 1.86040002441 0.0994643215623 0.0
0.0 1.86140002441 0.0994336339553 0.0
0.0 1.86240002441 0.0994073344858 0.0
0.0 1.86340002441 0.0993796319247 0.0
0.0 1.86440002441 0.0993520068529 0.0
0.0 1.86540002441 0.0993255875426 0.0
0.0 1.86640002441 0.0993046972338 0.0
0.0 1.86740002441 0.0992766074223 0.0
0.0 1.86840002441 0.0992496014842 0.0
0.0 1.86940002441 0.0992289027736 0.0
0.0 1.87040002441 0.0992038807963 0.0
0.0 1.87140002441 0.0991781520425 0.0
0.0 1.87240002441 0.0991567708671 0.0
0.0 1.87340002441 0.0991305768891 0.0
0.0 1.87440002441 0.0991111164895 0.0
0.0 1.87540002441 0.0990911619103 0.0
0.0 1.87640002441 0.0990664944725 0.0
0.0 1.87740002441 0.0990481358732 0.0
0.0 1.87840002441 0.0990271206422 0.0
0.0 1.87940002441 0.0990029019887 0.0
0.0 1.88040002441 0.0989852954036 0.0
0.0 1.88140002441 0.0989642657119 0.0
0.0 1.88240002441 0.0989442938836 0.0
0.0 1.88340002441 0.0989275926887 0.0
0.0 1.88440002441 0.0989108984352 0.0
0.0 1.88540002441 0.0988893312802 0.0
0.0 1.88640002441 0.0988743615025 0.0
0.0 1.88740002441 0.0988585240143 0.0
0.0 1.88840002441 0.0988396218965 0.0
0.0 1.88940002441 0.0988253798451 0.0
0.0 1.89040002441 0.0988123120921 0.0
0.0 1.89140002441 0.0987949582005 0.0
0.0 1.89240002441 0.0987786412253 0.0
0.0 1.89340002441 0.0987650582816 0.0
0.0 1.89440002441 0.0987549675722 0.0
0.0 1.89540002441 0.0987405549253 0.0
0.0 1.89640002441 0.0987269992968 0.0
0.0 1.89740002441 0.0987107808196 0.0
0.0 1.89840002441 0.098701263652 0.0
0.0 1.89940002441 0.0986923932367 0.0
0.0 1.90040002441 0.0986794247148 0.0
0.0 1.90140002441 0.0986682958063 0.0
0.0 1.90240002441 0.0986569799773 0.0
0.0 1.90340002441 0.0986485786426 0.0
0.0 1.90440002441 0.0986389283594 0.0
0.0 1.90540002441 0.0986317861286 0.0
0.0 1.90640002441 0.0986221565892 0.0
0.0 1.90740002441 0.0986135609572 0.0
0.0 1.90840002441 0.0986067222626 0.0
0.0 1.90940002441 0.0985971413555 0.0
0.0 1.91040002441 0.0985894894607 0.0
0.0 1.91140002441 0.0985932558394 0.0
0.0 1.91240002441 0.0985780215085 0.0
0.0 1.91340002441 0.0985748361749 0.0
0.0 1.91440002441 0.0985692587808 0.0
0.0 1.91540002441 0.0985691291772 0.0
0.0 1.91640002441 0.0985596857109 0.0
0.0 1.91740002441 0.09855823283 0.0
0.0 1.91840002441 0.0985566323926 0.0
0.0 1.91940002441 0.0985516742945 0.0
0.0 1.92040002441 0.0985496702499 0.0
0.0 1.92140002441 0.0985486676367 0.0
0.0 1.92240002441 0.0985482262129 0.0
0.0 1.92340002441 0.0985471459205 0.0
0.0 1.92440002441 0.0985445050765 0.0
0.0 1.92540002441 0.0985445177009 0.0
0.0 1.92640002441 0.0985445415158 0.0
0.0 1.92740002441 0.098545932464 0.0
0.0 1.92840002441 0.0985488395517 0.0
0.0 1.92940002441 0.0985486122988 0.0
0.0 1.93040002441 0.0985532832473 0.0
0.0 1.93140002441 0.0985549737252 0.0
0.0 1.93240002441 0.0985580781785 0.0
0.0 1.93340002441 0.0985622677102 0.0
0.0 1.93440002441 0.0985648381814 0.0
0.0 1.93540002441 0.0985721249599 0.0
0.0 1.93640002441 0.0985755467819 0.0
0.0 1.93740002441 0.0985802441303 0.0
0.0 1.93840002441 0.0985875089101 0.0
0.0 1.93940002441 0.0985920064953 0.0
0.0 1.94040002441 0.0986008564859 0.0
0.0 1.94140002441 0.0986106019629 0.0
0.0 1.94240002441 0.0986139573753 0.0
0.0 1.94340002441 0.0986225214692 0.0
0.0 1.94440002441 0.0986337441795 0.0
0.0 1.94540002441 0.0986435853441 0.0
0.0 1.94640002441 0.0986510133342 0.0
0.0 1.94740002441 0.0986626529157 0.0
0.0 1.94840002441 0.0986718438086 0.0
0.0 1.94940002441 0.09868336695 0.0
0.0 1.95040002441 0.0986960937467 0.0
0.0 1.95140002441 0.0987087423839 0.0
0.0 1.95240002441 0.0987181609014 0.0
0.0 1.95340002441 0.0987340988494 0.0
0.0 1.95440002441 0.0987468681198 0.0
0.0 1.95540002441 0.0987580927966 0.0
0.0 1.95640002441 0.0987784972168 0.0
0.0 1.95740002441 0.0987888977064 0.0
0.0 1.95840002441 0.0988025547785 0.0
0.0 1.95940002441 0.0988192193019 0.0
0.0 1.96040002441 0.0988370886618 0.0
0.0 1.96140002441 0.098852598377 0.0
0.0 1.96240002441 0.0988708867737 0.0
0.0 1.96340002441 0.0988892735218 0.0
0.0 1.96440002441 0.0989039018113 0.0
0.0 1.96540002441 0.0989240983152 0.0
0.0 1.96640002441 0.0989424045296 0.0
0.0 1.96740002441 0.0989649214803 0.0
0.0 1.96840002441 0.0989813029575 0.0
0.0 1.96940002441 0.0990054153611 0.0
0.0 1.97040002441 0.099023065673 0.0
0.0 1.97140002441 0.0990514265694 0.0
0.0 1.97240002441 0.0990700590182 0.0
0.0 1.97340002441 0.0990883993015 0.0
0.0 1.97440002441 0.0991129357191 0.0
0.0 1.97540002441 0.0991345370901 0.0
0.0 1.97640002441 0.0991608786336 0.0
0.0 1.97740002441 0.0991889325185 0.0
0.0 1.97840002441 0.0992102423027 0.0
0.0 1.97940002441 0.0992350505124 0.0
0.0 1.98040002441 0.0992591999635 0.0
0.0 1.98140002441 0.0992846104851 0.0
0.0 1.98240002441 0.099313970402 0.0
0.0 1.98340002441 0.0993387667723 0.0
0.0 1.98440002441 0.0993663547761 0.0
0.0 1.98540002441 0.0993983206382 0.0
0.0 1.98640002441 0.0994248959098 0.0
0.0 1.98740002441 0.0994517136828 0.0
0.0 1.98840002441 0.0994863266702 0.0
0.0 1.98940002441 0.099515109159 0.0
0.0 1.99040002441 0.0995458586803 0.0
0.0 1.99140002441 0.0995730238439 0.0
0.0 1.99240002441 0.0996086730399 0.0
0.0 1.99340002441 0.0996393284444 0.0
0.0 1.99440002441 0.0996723802943 0.0
0.0 1.99540002441 0.0997032931896 0.0
0.0 1.99640002441 0.0997373618453 0.0
0.0 1.99740002441 0.0997716518774 0.0
0.0 1.99840002441 0.0998088663599 0.0
0.0 1.99940002441 0.0998402444129 0.0
0.0 2.00040002441 0.0998779950082 0.0
0.0 2.00140002441 0.099911546504 0.0
0.0 2.00240002441 0.0999496454241 0.0
0.0 2.00340002441 0.0999862852077 0.0
0.0 2.00440002441 0.100024450645 0.0
0.0 2.00540002441 0.100060263135 0.0
0.0 2.00640002441 0.100101234026 0.0
0.0 2.00740002441 0.100140180044 0.0
0.0 2.00840002441 0.100175383816 0.0
0.0 2.00940002441 0.100215937227 0.0
0.0 2.01040002441 0.100257793786 0.0
0.0 2.01140002441 0.100300839212 0.0
0.0 2.01240002441 0.100339162225 0.0
0.0 2.01340002441 0.100381363608 0.0
0.0 2.01440002441 0.100422007087 0.0
0.0 2.01540002441 0.100468387575 0.0
0.0 2.01640002441 0.100513237393 0.0
0.0 2.01740002441 0.10055340258 0.0
0.0 2.01840002441 0.100597169064 0.0
0.0 2.01940002441 0.10064367146 0.0
0.0 2.02040002441 0.100686544478 0.0
0.0 2.02140002441 0.100734447864 0.0
0.0 2.02240002441 0.100783060539 0.0
0.0 2.02340002441 0.100826592421 0.0
0.0 2.02440002441 0.100875560698 0.0
0.0 2.02540002441 0.100926605828 0.0
0.0 2.02640002441 0.100969351449 0.0
0.0 2.02740002441 0.101022105029 0.0
0.0 2.02840002441 0.101071675168 0.0
0.0 2.02940002441 0.10111911605 0.0
0.0 2.03040002441 0.101173462983 0.0
0.0 2.03140002441 0.101220530385 0.0
0.0 2.03240002441 0.101271824569 0.0
0.0 2.03340002441 0.101321679816 0.0
0.0 2.03440002441 0.101376368547 0.0
0.0 2.03540002441 0.101428665017 0.0
0.0 2.03640002441 0.101480380631 0.0
0.0 2.03740002441 0.101534624612 0.0
0.0 2.03840002441 0.101593910715 0.0
0.0 2.03940002441 0.101647592052 0.0
0.0 2.04040002441 0.101702049814 0.0
0.0 2.04140002441 0.101756082744 0.0
0.0 2.04240002441 0.101813111873 0.0
0.0 2.04340002441 0.101870506808 0.0
0.0 2.04440002441 0.101928791171 0.0
0.0 2.04540002441 0.101984722326 0.0
0.0 2.04640002441 0.102047064153 0.0
0.0 2.04740002441 0.102105563429 0.0
0.0 2.04839990234 0.102164317674 0.0
0.0 2.04939990234 0.102224435918 0.0
0.0 2.05039990234 0.102282179154 0.0
0.0 2.05139990234 0.10234384898 0.0
0.0 2.05239990234 0.102407320011 0.0
0.0 2.05339990234 0.102469173586 0.0
0.0 2.05439990234 0.102533754973 0.0
0.0 2.05539990234 0.102596082435 0.0
0.0 2.05639990234 0.102656017607 0.0
0.0 2.05739990234 0.102724205873 0.0
0.0 2.05839990234 0.102784926267 0.0
0.0 2.05939990234 0.10285211752 0.0
0.0 2.06039990234 0.102922359479 0.0
0.0 2.06139990234 0.102982187948 0.0
0.0 2.06239990234 0.103051870527 0.0
0.0 2.06339990234 0.103118668 0.0
0.0 2.06439990234 0.103184789129 0.0
0.0 2.06539990234 0.10325509779 0.0
0.0 2.06639990234 0.10332738453 0.0
0.0 2.06739990234 0.103392422376 0.0
0.0 2.06839990234 0.103460795532 0.0
0.0 2.06939990234 0.103536341366 0.0
0.0 2.07039990234 0.103603314674 0.0
0.0 2.07139990234 0.103675218854 0.0
0.0 2.07239990234 0.103746416834 0.0
0.0 2.07339990234 0.103823150227 0.0
0.0 2.07439990234 0.103891967934 0.0
0.0 2.07539990234 0.10396821492 0.0
0.0 2.07639990234 0.104039869556 0.0
0.0 2.07739990234 0.104115869977 0.0
0.0 2.07839990234 0.104189071694 0.0
0.0 2.07939990234 0.104267227993 0.0
0.0 2.08039990234 0.10434372472 0.0
0.0 2.08139990234 0.104419937379 0.0
0.0 2.08239990234 0.104495904995 0.0
0.0 2.08339990234 0.104572965554 0.0
0.0 2.08439990234 0.104654331817 0.0
0.0 2.08539990234 0.104732313822 0.0
0.0 2.08639990234 0.104815125549 0.0
0.0 2.08739990234 0.104889984895 0.0
0.0 2.08839990234 0.104972020029 0.0
0.0 2.08939990234 0.10505459328 0.0
0.0 2.09039990234 0.105133491705 0.0
0.0 2.09139990234 0.105218803322 0.0
0.0 2.09239990234 0.105300146658 0.0
0.0 2.09339990234 0.105381465067 0.0
0.0 2.09439990234 0.105464660221 0.0
0.0 2.09539990234 0.105553116386 0.0
0.0 2.09639990234 0.105636572974 0.0
0.0 2.09739990234 0.105721405634 0.0
0.0 2.09839990234 0.105811306729 0.0
0.0 2.09939990234 0.105891400818 0.0
0.0 2.10039990234 0.105978900669 0.0
0.0 2.10139990234 0.106068734582 0.0
0.0 2.10239990234 0.106154542836 0.0
0.0 2.10339990234 0.106248838333 0.0
0.0 2.10439990234 0.106331903678 0.0
0.0 2.10539990234 0.106426482131 0.0
0.0 2.10639990234 0.106511542537 0.0
0.0 2.10739990234 0.106608215813 0.0
0.0 2.10839990234 0.106693619433 0.0
0.0 2.10939990234 0.106791723701 0.0
0.0 2.11039990234 0.106884538141 0.0
0.0 2.11139990234 0.106978254097 0.0
0.0 2.11239990234 0.107064313732 0.0
0.0 2.11339990234 0.107158954321 0.0
0.0 2.11439990234 0.107264108827 0.0
0.0 2.11539990234 0.107348073182 0.0
0.0 2.11639990234 0.107443755429 0.0
0.0 2.11739990234 0.107540312527 0.0
0.0 2.11839990234 0.107643485475 0.0
0.0 2.11939990234 0.107738454989 0.0
0.0 2.12039990234 0.107831978632 0.0
0.0 2.12139990234 0.107930407425 0.0
0.0 2.12239990234 0.108037257703 0.0
0.0 2.12339990234 0.108136970663 0.0
0.0 2.12439990234 0.108230038627 0.0
0.0 2.12539990234 0.108330225868 0.0
0.0 2.12639990234 0.108434860813 0.0
0.0 2.12739990234 0.108532585637 0.0
0.0 2.12839990234 0.108635234418 0.0
0.0 2.12939990234 0.108739465097 0.0
0.0 2.13039990234 0.108844823813 0.0
0.0 2.13139990234 0.108952485665 0.0
0.0 2.13239990234 0.109050431749 0.0
0.0 2.13339990234 0.109155670618 0.0
0.0 2.13439990234 0.109261156925 0.0
0.0 2.13539990234 0.109368365822 0.0
0.0 2.13639990234 0.109473297118 0.0
0.0 2.13739990234 0.109594326819 0.0
0.0 2.13839990234 0.109693800161 0.0
0.0 2.13939990234 0.109801756765 0.0
0.0 2.14039990234 0.109908868498 0.0
0.0 2.14139990234 0.110023960268 0.0
0.0 2.14239990234 0.110131398741 0.0
0.0 2.14339990234 0.1102366099 0.0
0.0 2.14439990234 0.110347467815 0.0
0.0 2.14539990234 0.110467640196 0.0
0.0 2.14639990234 0.110577147957 0.0
0.0 2.14739990234 0.110687385379 0.0
0.0 2.14839990234 0.110799562655 0.0
0.0 2.14939990234 0.110915475402 0.0
0.0 2.15039990234 0.111027216184 0.0
0.0 2.15139990234 0.111142895284 0.0
0.0 2.15239990234 0.11126271938 0.0
0.0 2.15339990234 0.111377576034 0.0
0.0 2.15439990234 0.111511382114 0.0
0.0 2.15539990234 0.111608311665 0.0
0.0 2.15639990234 0.111727025596 0.0
0.0 2.15739990234 0.111848626098 0.0
0.0 2.15839990234 0.111966344489 0.0
0.0 2.15939990234 0.112087668098 0.0
0.0 2.16039990234 0.112209288759 0.0
0.0 2.16139990234 0.11232718406 0.0
0.0 2.16239990234 0.112448244878 0.0
0.0 2.16339990234 0.11256984865 0.0
0.0 2.16439990234 0.112692323527 0.0
0.0 2.16539990234 0.112820059887 0.0
0.0 2.16639990234 0.112937914412 0.0
0.0 2.16739990234 0.113068576537 0.0
0.0 2.16839990234 0.113187503898 0.0
0.0 2.16939990234 0.113316945291 0.0
0.0 2.17039990234 0.113438681596 0.0
0.0 2.17139990234 0.113565242751 0.0
0.0 2.17239990234 0.113693589763 0.0
0.0 2.17339990234 0.113827023356 0.0
0.0 2.17439990234 0.113949021808 0.0
0.0 2.17539990234 0.114077549913 0.0
0.0 2.17639990234 0.114210670784 0.0
0.0 2.17739990234 0.114342030956 0.0
0.0 2.17839990234 0.114470094181 0.0
0.0 2.17939990234 0.114600289067 0.0
0.0 2.18039990234 0.114732642103 0.0
0.0 2.18139990234 0.114863613026 0.0
0.0 2.18239990234 0.115000376844 0.0
0.0 2.18339990234 0.115136069593 0.0
0.0 2.18439990234 0.115265027224 0.0
0.0 2.18539990234 0.115398405143 0.0
0.0 2.18639990234 0.115535332416 0.0
0.0 2.18739990234 0.115677068711 0.0
0.0 2.18839990234 0.115811782456 0.0
0.0 2.18939990234 0.11594386553 0.0
0.0 2.19039990234 0.11608334146 0.0
0.0 2.19139990234 0.116219801613 0.0
0.0 2.19239990234 0.11635779833 0.0
0.0 2.19339990234 0.116502453072 0.0
0.0 2.19439990234 0.116640699299 0.0
0.0 2.19539990234 0.116782463827 0.0
0.0 2.19639990234 0.116923757045 0.0
0.0 2.19739990234 0.117068375339 0.0
0.0 2.19839990234 0.117203013736 0.0
0.0 2.19939990234 0.117346437254 0.0
0.0 2.20039990234 0.117489836434 0.0
0.0 2.20139990234 0.117638870703 0.0
0.0 2.20239990234 0.117782360247 0.0
0.0 2.20339990234 0.117930864796 0.0
0.0 2.20439990234 0.118072097551 0.0
0.0 2.20539990234 0.118216852134 0.0
0.0 2.20639990234 0.118363015022 0.0
0.0 2.20739990234 0.118512843167 0.0
0.0 2.20839990234 0.118663609207 0.0
0.0 2.20939990234 0.118813018182 0.0
0.0 2.21039990234 0.118957325335 0.0
0.0 2.21139990234 0.119107938875 0.0
0.0 2.21239990234 0.11925798779 0.0
0.0 2.21339990234 0.119411947724 0.0
0.0 2.21439990234 0.119561141317 0.0
0.0 2.21539990234 0.119713455432 0.0
0.0 2.21639990234 0.119870971345 0.0
0.0 2.21739990234 0.120020320061 0.0
0.0 2.21839990234 0.120175752264 0.0
0.0 2.21939990234 0.12032984099 0.0
0.0 2.22039990234 0.120496476962 0.0
0.0 2.22139990234 0.120645393153 0.0
0.0 2.22239990234 0.12079911151 0.0
0.0 2.22339990234 0.120954520996 0.0
0.0 2.22439990234 0.121112359387 0.0
0.0 2.22539990234 0.121272309038 0.0
0.0 2.22639990234 0.121437169493 0.0
0.0 2.22739990234 0.121592472602 0.0
0.0 2.22839990234 0.121751184846 0.0
0.0 2.22939990234 0.121910603723 0.0
0.0 2.23039990234 0.122078102318 0.0
0.0 2.23139990234 0.122247579973 0.0
0.0 2.23239990234 0.122396927116 0.0
0.0 2.23339990234 0.122560668902 0.0
0.0 2.23439990234 0.122730479727 0.0
0.0 2.23539990234 0.12289062665 0.0
0.0 2.23639990234 0.123053583656 0.0
0.0 2.23739990234 0.1232211651 0.0
0.0 2.23839990234 0.123397562026 0.0
0.0 2.23939990234 0.123564983996 0.0
0.0 2.24039990234 0.123720686988 0.0
0.0 2.24139990234 0.123899529095 0.0
0.0 2.24239990234 0.12406675679 0.0
0.0 2.24339990234 0.124230680324 0.0
0.0 2.24439990234 0.124396386635 0.0
0.0 2.24539990234 0.124570336263 0.0
0.0 2.24639990234 0.124751468605 0.0
0.0 2.24739990234 0.124913493326 0.0
0.0 2.24839990234 0.125083964258 0.0
0.0 2.24939990234 0.125262474799 0.0
0.0 2.25039990234 0.125433522533 0.0
0.0 2.25139990234 0.125606923504 0.0
0.0 2.25239990234 0.125789596264 0.0
0.0 2.25339990234 0.125965936102 0.0
0.0 2.25439990234 0.126130076411 0.0
0.0 2.25539990234 0.126320015504 0.0
0.0 2.25639990234 0.126498522717 0.0
0.0 2.25739990234 0.126665825626 0.0
0.0 2.25839990234 0.12684124807 0.0
0.0 2.25939990234 0.127030983432 0.0
0.0 2.26039990234 0.127201842014 0.0
0.0 2.26139990234 0.127395008528 0.0
0.0 2.26239990234 0.12756470583 0.0
0.0 2.26339990234 0.127756176249 0.0
0.0 2.26439990234 0.127935947074 0.0
0.0 2.26539990234 0.128120295636 0.0
0.0 2.26639990234 0.128295534084 0.0
0.0 2.26739990234 0.128478401433 0.0
0.0 2.26839990234 0.128676354937 0.0
0.0 2.26939990234 0.128846615329 0.0
0.0 2.27039990234 0.129037990187 0.0
0.0 2.27139990234 0.129223035149 0.0
0.0 2.27239990234 0.129409086865 0.0
0.0 2.27339990234 0.129604247174 0.0
0.0 2.27439990234 0.129786891126 0.0
0.0 2.27539990234 0.129973082095 0.0
0.0 2.27639990234 0.130180624279 0.0
0.0 2.27739990234 0.130365396625 0.0
0.0 2.27839990234 0.130549721389 0.0
0.0 2.27939990234 0.130737632593 0.0
0.0 2.28039990234 0.130937115747 0.0
0.0 2.28139990234 0.131128645519 0.0
0.0 2.28239990234 0.131316168826 0.0
0.0 2.28339990234 0.131509986117 0.0
0.0 2.28439990234 0.13170418099 0.0
0.0 2.28539990234 0.13190087479 0.0
0.0 2.28639990234 0.132097811076 0.0
0.0 2.28739990234 0.132295385199 0.0
0.0 2.28839990234 0.13249024143 0.0
0.0 2.28939990234 0.132688635371 0.0
0.0 2.29039990234 0.132889044707 0.0
0.0 2.29139990234 0.133092823604 0.0
0.0 2.29239990234 0.133287879244 0.0
0.0 2.29339990234 0.133487063763 0.0
0.0 2.29439990234 0.13368832906 0.0
0.0 2.29539990234 0.133893808004 0.0
0.0 2.29639990234 0.134092709184 0.0
0.0 2.29739990234 0.1342970496 0.0
0.0 2.29839990234 0.134502773197 0.0
0.0 2.29939990234 0.134708733927 0.0
0.0 2.30039990234 0.134910499097 0.0
0.0 2.30139990234 0.135118799317 0.0
0.0 2.30239990234 0.135326053698 0.0
0.0 2.30339990234 0.135528782534 0.0
0.0 2.30439990234 0.135736181087 0.0
0.0 2.30539990234 0.135944138234 0.0
0.0 2.30639990234 0.136153676597 0.0
0.0 2.30739990234 0.136365737664 0.0
0.0 2.30839990234 0.136576896854 0.0
0.0 2.30939990234 0.136783390205 0.0
0.0 2.31039990234 0.137000344079 0.0
0.0 2.31139990234 0.137210835564 0.0
0.0 2.31239990234 0.137422018076 0.0
0.0 2.31339990234 0.137633145119 0.0
0.0 2.31439990234 0.137848655303 0.0
0.0 2.31539990234 0.138066602091 0.0
0.0 2.31639990234 0.138281061615 0.0
0.0 2.31739990234 0.138495764372 0.0
0.0 2.31839990234 0.138710124704 0.0
0.0 2.31939990234 0.138930425363 0.0
0.0 2.32039990234 0.139150415292 0.0
0.0 2.32139990234 0.139364107466 0.0
0.0 2.32239990234 0.139585602235 0.0
0.0 2.32339990234 0.139803717663 0.0
0.0 2.32439990234 0.140024365761 0.0
0.0 2.32539990234 0.140246553181 0.0
0.0 2.32639990234 0.140469713426 0.0
0.0 2.32739990234 0.140691758526 0.0
0.0 2.32839990234 0.140913577573 0.0
0.0 2.32939990234 0.141138988531 0.0
0.0 2.33039990234 0.141362796301 0.0
0.0 2.33139990234 0.141587564781 0.0
0.0 2.33239990234 0.14181252833 0.0
0.0 2.33339990234 0.142040246396 0.0
0.0 2.33439990234 0.142267503598 0.0
0.0 2.33539990234 0.14249393962 0.0
0.0 2.33639990234 0.142722885877 0.0
0.0 2.33739990234 0.142952833478 0.0
0.0 2.33839990234 0.1431839843 0.0
0.0 2.33939990234 0.143411963262 0.0
0.0 2.34039990234 0.143644598669 0.0
0.0 2.34139990234 0.143875308029 0.0
0.0 2.34239990234 0.144108516179 0.0
0.0 2.34339990234 0.144339994499 0.0
0.0 2.34439990234 0.144575054026 0.0
0.0 2.34539990234 0.144808886943 0.0
0.0 2.34639990234 0.145043741001 0.0
0.0 2.34739990234 0.145279402814 0.0
0.0 2.34839990234 0.145516253693 0.0
0.0 2.34939990234 0.145754209131 0.0
0.0 2.35039990234 0.145992096946 0.0
0.0 2.35139990234 0.146229222693 0.0
0.0 2.35239990234 0.146468793775 0.0
0.0 2.35339990234 0.146708631529 0.0
0.0 2.35439990234 0.146949619335 0.0
0.0 2.35539990234 0.147189119058 0.0
0.0 2.35639990234 0.147431979334 0.0
0.0 2.35739990234 0.147673342532 0.0
0.0 2.35839990234 0.14791742639 0.0
0.0 2.35939990234 0.148160523836 0.0
0.0 2.36039990234 0.148405278772 0.0
0.0 2.36139990234 0.148649979596 0.0
0.0 2.36239990234 0.148896298554 0.0
0.0 2.36339990234 0.149142252849 0.0
0.0 2.36439990234 0.149389243969 0.0
0.0 2.36539990234 0.149637526874 0.0
0.0 2.36639990234 0.149885424002 0.0
0.0 2.36739990234 0.150134499006 0.0
0.0 2.36839990234 0.150384013618 0.0
0.0 2.36939990234 0.150634561022 0.0
0.0 2.37039990234 0.150886058315 0.0
0.0 2.37139990234 0.151137542977 0.0
0.0 2.37239990234 0.151390458347 0.0
0.0 2.37339990234 0.151643042906 0.0
0.0 2.37439990234 0.151897211981 0.0
0.0 2.37539990234 0.15215155297 0.0
0.0 2.37639990234 0.152406842662 0.0
0.0 2.37739990234 0.152662835743 0.0
0.0 2.37839990234 0.152919269365 0.0
0.0 2.37939990234 0.153176681033 0.0
0.0 2.38039990234 0.186620813247 0.0
0.0 2.38139990234 0.26424895664 0.0
0.0 2.38239990234 0.334468865863 0.0
0.0 2.38339990234 0.397987517848 0.0
0.0 2.38439990234 0.455444471739 0.0
0.0 2.38539990234 0.507418261189 0.0
0.0 2.38639990234 0.55443171695 0.0
0.0 2.38739990234 0.596958469931 0.0
0.0 2.38839990234 0.635426584262 0.0
0.0 2.38939990234 0.670223488529 0.0
0.0 2.39039990234 0.701699466168 0.0
0.0 2.39139990234 0.73017139082 0.0
0.0 2.39239990234 0.755926003031 0.0
0.0 2.39339990234 0.779222597647 0.0
0.0 2.39439990234 0.800295712555 0.0
0.0 2.39539990234 0.819357670598 0.0
0.0 2.39639990234 0.836600148659 0.0
0.0 2.39739990234 0.852197083567 0.0
0.0 2.39839990234 0.866305303415 0.0
0.0 2.39939990234 0.879066931879 0.0
0.0 2.40039990234 0.890610564208 0.0
0.0 2.40139990234 0.901052378546 0.0
0.0 2.40239990234 0.910497571308 0.0
0.0 2.40339990234 0.919041262706 0.0
0.0 2.40439990234 0.926769388162 0.0
0.0 2.40539990234 0.933759900066 0.0
0.0 2.40639990234 0.94008315456 0.0
0.0 2.40739990234 0.945802850373 0.0
0.0 2.40839990234 0.950976594484 0.0
0.0 2.40939990234 0.955656478762 0.0
0.0 2.41039990234 0.959889644983 0.0
0.0 2.41139990234 0.963718735913 0.0
0.0 2.41239990234 0.967182323231 0.0
0.0 2.41339990234 0.970315278468 0.0
0.0 2.41439990234 0.973149176364 0.0
0.0 2.41539990234 0.975712555267 0.0
0.0 2.41639990234 0.978031233362 0.0
0.0 2.41739990234 0.980128572713 0.0
0.0 2.41839990234 0.982025698525 0.0
0.0 2.41939990234 0.98374171901 0.0
0.0 2.42039990234 0.985293923499 0.0
0.0 2.42139990234 0.986697949678 0.0
0.0 2.42239990234 0.987967940687 0.0
0.0 2.42339990234 0.98911669308 0.0
0.0 2.42439990234 0.990155779408 0.0
0.0 2.42539990234 0.991095665364 0.0
0.0 2.42639990234 0.9919458238 0.0
0.0 2.42739990234 0.992714818975 0.0
0.0 2.42839990234 0.993410398091 0.0
0.0 2.42939990234 0.994039570223 0.0
0.0 2.43039990234 0.994608674091 0.0
0.0 2.43139990234 0.9951234442 0.0
0.0 2.43239990234 0.995589069397 0.0
0.0 2.43339990234 0.996010237081 0.0
0.0 2.43439990234 0.996391195392 0.0
0.0 2.43539990234 0.996735781777 0.0
0.0 2.43639990234 0.99704746768 0.0
0.0 2.43739990234 0.997329394622 0.0
0.0 2.43839990234 0.997584404044 0.0
0.0 2.43939990234 0.99781506562 0.0
0.0 2.44039990234 0.998023702999 0.0
0.0 2.44139990234 0.998212419941 0.0
0.0 2.44239990234 0.998383117711 0.0
0.0 2.44339990234 0.998537516841 0.0
0.0 2.44439990234 0.998677173671 0.0
0.0 2.44539990234 0.998803495203 0.0
0.0 2.44639990234 0.998917754942 0.0
0.0 2.44739990234 0.999021104648 0.0
0.0 2.44839990234 0.99911458565 0.0
0.0 2.44939990234 0.999199140239 0.0
0.0 2.45039990234 0.99927562095 0.0
0.0 2.45139990234 0.999344798489 0.0
0.0 2.45239990234 0.999407370263 0.0
0.0 2.45339990234 0.999463966956 0.0
0.0 2.45439990234 0.99951515915 0.0
0.0 2.45539990234 0.999561462862 0.0
0.0 2.45639990234 0.999603344765 0.0
0.0 2.45739990234 0.999641227148 0.0
0.0 2.45839990234 0.999675491982 0.0
0.0 2.45939990234 0.999706484558 0.0
0.0 2.46039990234 0.999734517433 0.0
0.0 2.46139990234 0.999759873238 0.0
0.0 2.46239990234 0.999782807576 0.0
0.0 2.46339990234 0.999803551663 0.0
0.0 2.46439990234 0.999822314641 0.0
0.0 2.46539990234 0.999839285743 0.0
0.0 2.46639990234 0.999854636036 0.0
0.0 2.46739990234 0.999868520294 0.0
0.0 2.46839990234 0.99988107856 0.0
0.0 2.46939990234 0.999892437439 0.0
0.0 2.47039990234 0.999902711455 0.0
0.0 2.47139990234 0.999912004223 0.0
0.0 2.47239990234 0.999920409452 0.0
0.0 2.47339990234 0.999928011912 0.0
0.0 2.47439990234 0.999934888239 0.0
0.0 2.47539990234 0.999941107811 0.0
0.0 2.47639990234 0.999946733328 0.0
0.0 2.47739990234 0.999951821535 0.0
0.0 2.47839990234 0.999956423753 0.0
0.0 2.47939990234 0.999960586377 0.0
0.0 2.48039990234 0.999964351414 0.0
0.0 2.48139990234 0.999967756816 0.0
0.0 2.48239990234 0.999970836947 0.0
0.0 2.48339990234 0.999973622863 0.0
0.0 2.48439990234 0.999976142674 0.0
0.0 2.48539990234 0.999978421785 0.0
0.0 2.48639990234 0.999980483193 0.0
0.0 2.48739990234 0.999982347692 0.0
0.0 2.48839990234 0.999984034084 0.0
0.0 2.48939990234 0.999985559385 0.0
0.0 2.49039990234 0.999986938979 0.0
0.0 2.49139990234 0.999988186789 0.0
0.0 2.49239990234 0.999989315394 0.0
0.0 2.49339990234 0.999990336189 0.0
0.0 2.49439990234 0.999991259467 0.0
0.0 2.49539990234 0.999992094542 0.0
0.0 2.49639990234 0.999992849844 0.0
0.0 2.49739990234 0.999993532987 0.0
0.0 2.49839990234 0.99999415087 0.0
0.0 2.49939990234 0.999994709722 0.0
0.0 2.50039990234 0.999995215186 0.0
0.0 2.50139990234 0.999995672357 0.0
0.0 2.50239990234 0.999996085853 0.0
0.0 2.50339990234 0.999996459845 0.0
0.0 2.50439990234 0.999996798106 0.0
0.0 2.50539990234 0.999997104047 0.0
0.0 2.50639990234 0.999997380761 0.0
0.0 2.50739990234 0.999997631035 0.0
0.0 2.50839990234 0.999997857398 0.0
0.0 2.50939990234 0.999998062134 0.0
0.0 2.51039990234 0.999998247308 0.0
0.0 2.51139990234 0.999998414789 0.0
0.0 2.51239990234 0.999998566268 0.0
0.0 2.51339990234 0.999998703273 0.0
0.0 2.51439990234 0.999998827188 0.0
0.0 2.51539990234 0.999998939263 0.0
0.0 2.51639990234 0.999999040628 0.0
0.0 2.51739990234 0.999999132308 0.0
0.0 2.51839990234 0.999999215228 0.0
0.0 2.51939990234 0.999999290225 0.0
0.0 2.52039990234 0.999999358055 0.0
0.0 2.52139990234 0.999999419404 0.0
0.0 2.52239990234 0.99999947489 0.0
0.0 2.52339990234 0.999999525074 0.0
0.0 2.52439990234 0.999999570463 0.0
0.0 2.52539990234 0.999999611514 0.0
0.0 2.52639990234 0.999999648642 0.0
0.0 2.52739990234 0.999999682222 0.0
0.0 2.52839990234 0.999999712594 0.0
0.0 2.52939990234 0.999999740063 0.0
0.0 2.53039990234 0.999999764906 0.0
0.0 2.53139990234 0.999999787376 0.0
0.0 2.53239990234 0.999999807698 0.0
0.0 2.53339990234 0.999999826078 0.0
0.0 2.53439990234 0.999999842702 0.0
0.0 2.53539990234 0.999999857736 0.0
0.0 2.53639990234 0.999999871334 0.0
0.0 2.53739990234 0.999999883633 0.0
0.0 2.53839990234 0.999999894756 0.0
0.0 2.53939990234 0.999999904815 0.0
0.0 2.54039990234 0.999999913914 0.0
0.0 2.54139990234 0.999999922143 0.0
0.0 2.54239990234 0.999999929585 0.0
0.0 2.54339990234 0.999999936316 0.0
0.0 2.54439990234 0.999999942403 0.0
0.0 2.54539990234 0.999999947909 0.0
0.0 2.54639990234 0.999999952889 0.0
0.0 2.54739990234 0.999999957392 0.0
0.0 2.54839990234 0.999999961465 0.0
0.0 2.54939990234 0.999999965149 0.0
0.0 2.55039990234 0.999999968481 0.0
0.0 2.55139990234 0.999999971494 0.0
0.0 2.55239990234 0.999999974219 0.0
0.0 2.55339990234 0.999999976684 0.0
0.0 2.55439990234 0.999999978913 0.0
0.0 2.55539990234 0.999999980929 0.0
0.0 2.55639990234 0.999999982752 0.0
0.0 2.55739990234 0.999999984401 0.0
0.0 2.55839990234 0.999999985892 0.0
0.0 2.55939990234 0.999999987241 0.0
0.0 2.56039990234 0.999999988461 0.0
0.0 2.56139990234 0.999999989564 0.0
0.0 2.56239990234 0.999999990562 0.0
0.0 2.56339990234 0.999999991464 0.0
0.0 2.56439990234 0.999999992281 0.0
0.0 2.56539990234 0.999999993019 0.0
0.0 2.56639990234 0.999999993686 0.0
0.0 2.56739990234 0.99999999429 0.0
0.0 2.56839990234 0.999999994836 0.0
0.0 2.56939990234 0.99999999533 0.0
0.0 2.57039990234 0.999999995776 0.0
0.0 2.57139990234 0.99999999618 0.0
0.0 2.57239990234 0.999999996545 0.0
0.0 2.57339990234 0.999999996876 0.0
0.0 2.57439990234 0.999999997174 0.0
0.0 2.57539990234 0.999999997445 0.0
0.0 2.57639990234 0.999999997689 0.0
0.0 2.57739990234 0.99999999791 0.0
0.0 2.57839990234 0.99999999811 0.0
0.0 2.57939990234 0.999999998291 0.0
0.0 2.58039990234 0.999999998454 0.0
0.0 2.58139990234 0.999999998602 0.0
0.0 2.58239990234 0.999999998736 0.0
0.0 2.58339990234 0.999999998857 0.0
0.0 2.58439990234 0.999999998966 0.0
0.0 2.58539990234 0.999999999065 0.0
0.0 2.58639990234 0.999999999154 0.0
0.0 2.58739990234 0.999999999235 0.0
0.0 2.58839990234 0.999999999308 0.0
0.0 2.58939990234 0.999999999374 0.0
0.0 2.59039990234 0.999999999434 0.0
0.0 2.59139990234 0.999999999488 0.0
0.0 2.59239990234 0.999999999537 0.0
0.0 2.59339990234 0.999999999582 0.0
0.0 2.59439990234 0.999999999622 0.0
0.0 2.59539990234 0.999999999658 0.0
0.0 2.59639990234 0.999999999691 0.0
0.0 2.59739990234 0.99999999972 0.0
0.0 2.59839990234 0.999999999747 0.0
0.0 2.59939990234 0.999999999771 0.0
0.0 2.60039990234 0.999999999793 0.0
