0.0 0.551900024414 0.309103428232 0.0
0.0 0.552900024414 0.308953940126 0.0
0.0 0.553900024414 0.308804216117 0.0
0.0 0.554900024414 0.308654258573 0.0
0.0 0.555900024414 0.30850406827 0.0
0.0 0.556900024414 0.308353643569 0.0
0.0 0.557900024414 0.308202987123 0.0
0.0 0.558900024414 0.308052097841 0.0
0.0 0.559900024414 0.307900977852 0.0
0.0 0.560900024414 0.307749626588 0.0
0.0 0.561900024414 0.307598044463 0.0
0.0 0.562900024414 0.307446231126 0.0
0.0 0.563900024414 0.307294189301 0.0
0.0 0.564900024414 0.307141918391 0.0
0.0 0.565900024414 0.306989419211 0.0
0.0 0.566900024414 0.306836691827 0.0
0.0 0.567900024414 0.306683736151 0.0
0.0 0.568900024414 0.306530554073 0.0
0.0 0.569900024414 0.306377145712 0.0
0.0 0.570900024414 0.306223510172 0.0
0.0 0.571900024414 0.306069650276 0.0
0.0 0.572900024414 0.30591556461 0.0
0.0 0.573900024414 0.305761254286 0.0
0.0 0.574900024414 0.305606720596 0.0
0.0 0.575900024414 0.305451962428 0.0
0.0 0.576900024414 0.305296985262 0.0
0.0 0.577900024414 0.305141777954 0.0
0.0 0.578900024414 0.304986353001 0.0
0.0 0.579900024414 0.304830705076 0.0
0.0 0.580900024414 0.304674841235 0.0
0.0 0.581900024414 0.304518749977 0.0
0.0 0.582900024414 0.304362440805 0.0
0.0 0.583900024414 0.304205914677 0.0
0.0 0.584900024414 0.304049170111 0.0
0.0 0.585900024414 0.303892198807 0.0
0.0 0.586900024414 0.303735016225 0.0
0.0 0.587900024414 0.303577618326 0.0
0.0 0.588900024414 0.303419993305 0.0
0.0 0.589900024414 0.303262158261 0.0
0.0 0.590900024414 0.303104111706 0.0
0.0 0.591900024414 0.30294584054 0.0
0.0 0.592900024414 0.302787363941 0.0
0.0 0.593900024414 0.302628661524 0.0
0.0 0.594900024414 0.30246975677 0.0
0.0 0.595900024414 0.302310630675 0.0
0.0 0.596900024414 0.302151290605 0.0
0.0 0.597900024414 0.301991754013 0.0
0.0 0.598900024414 0.301831978341 0.0
0.0 0.599900024414 0.301672009533 0.0
0.0 0.600900024414 0.301511830461 0.0
0.0 0.601900024414 0.301351432684 0.0
0.0 0.602900024414 0.301190826734 0.0
0.0 0.603900024414 0.301030021894 0.0
0.0 0.604900024414 0.300868985353 0.0
0.0 0.605900024414 0.30070775332 0.0
0.0 0.606900024414 0.300546310643 0.0
0.0 0.607900024414 0.300384666547 0.0
0.0 0.608900024414 0.300222811212 0.0
0.0 0.609900024414 0.300060754417 0.0
0.0 0.610900024414 0.299898493823 0.0
0.0 0.611900024414 0.299736006899 0.0
0.0 0.612900024414 0.299573334872 0.0
0.0 0.613900024414 0.299410447897 0.0
0.0 0.614900024414 0.299247363464 0.0
0.0 0.615900024414 0.299084083145 0.0
0.0 0.616900024414 0.298920577203 0.0
0.0 0.617900024414 0.298756889116 0.0
0.0 0.618900024414 0.298592985995 0.0
0.0 0.619900024414 0.298428885726 0.0
0.0 0.620900024414 0.298264585943 0.0
0.0 0.621900024414 0.298100087291 0.0
0.0 0.622900024414 0.297935396942 0.0
0.0 0.623900024414 0.297770487885 0.0
0.0 0.624900024414 0.297605385857 0.0
0.0 0.625900024414 0.297440089372 0.0
0.0 0.626900024414 0.297274607984 0.0
0.0 0.627900024414 0.297108900381 0.0
0.0 0.628900024414 0.296943007599 0.0
0.0 0.629900024414 0.296776919933 0.0
0.0 0.630900024414 0.296610653609 0.0
0.0 0.631900024414 0.296444162577 0.0
0.0 0.632900024414 0.296277486169 0.0
0.0 0.633900024414 0.296110617296 0.0
0.0 0.634900024414 0.2959435768 0.0
0.0 0.635900024414 0.295776308369 0.0
0.0 0.636900024414 0.295608866143 0.0
0.0 0.637900024414 0.295441229766 0.0
0.0 0.638900024414 0.295273382054 0.0
0.0 0.639900024414 0.295105352905 0.0
0.0 0.640900024414 0.29493713735 0.0
0.0 0.641900024414 0.294768738276 0.0
0.0 0.642900024414 0.294600151909 0.0
0.0 0.643900024414 0.29443135385 0.0
0.0 0.644900024414 0.294262394857 0.0
0.0 0.645900024414 0.294093234105 0.0
0.0 0.646900024414 0.293923874889 0.0
0.0 0.647900024414 0.293754345512 0.0
0.0 0.648900024414 0.293584596886 0.0
0.0 0.649900024414 0.293414687603 0.0
0.0 0.650900024414 0.293244609128 0.0
0.0 0.651900024414 0.293074303166 0.0
0.0 0.652900024414 0.292903850912 0.0
0.0 0.653900024414 0.292733181528 0.0
0.0 0.654900024414 0.292562383054 0.0
0.0 0.655900024414 0.292391326731 0.0
0.0 0.656900024414 0.29222012463 0.0
0.0 0.657900024414 0.29204874181 0.0
0.0 0.658900024414 0.291877191795 0.0
0.0 0.659900024414 0.291705416739 0.0
0.0 0.660900024414 0.291533486219 0.0
0.0 0.661900024414 0.291361405935 0.0
0.0 0.662900024414 0.291189084214 0.0
0.0 0.663900024414 0.291016625724 0.0
0.0 0.664900024414 0.290843972022 0.0
0.0 0.665900024414 0.290671139129 0.0
0.0 0.666900024414 0.290498142339 0.0
0.0 0.667900024414 0.29032494721 0.0
0.0 0.668900024414 0.290151586541 0.0
0.0 0.669900024414 0.289978050352 0.0
0.0 0.670900024414 0.289804337075 0.0
0.0 0.671900024414 0.289630448812 0.0
0.0 0.672900024414 0.289456385124 0.0
0.0 0.673900024414 0.289282159706 0.0
0.0 0.674900024414 0.289107743964 0.0
0.0 0.675900024414 0.288933170835 0.0
0.0 0.676900024414 0.288758392094 0.0
0.0 0.677900024414 0.288583461375 0.0
0.0 0.678900024414 0.28840838577 0.0
0.0 0.679900024414 0.288233089507 0.0
0.0 0.680900024414 0.288057646084 0.0
0.0 0.681900024414 0.287882023873 0.0
0.0 0.682900024414 0.28770624059 0.0
0.0 0.683900024414 0.287530312602 0.0
0.0 0.684900024414 0.287354159327 0.0
0.0 0.685900024414 0.287177888132 0.0
0.0 0.686900024414 0.287001413607 0.0
0.0 0.687900024414 0.286824787652 0.0
0.0 0.688900024414 0.28664801278 0.0
0.0 0.689900024414 0.286471038199 0.0
0.0 0.690900024414 0.286293898142 0.0
0.0 0.691900024414 0.28611660751 0.0
0.0 0.692900024414 0.285939162397 0.0
0.0 0.693900024414 0.285761538508 0.0
0.0 0.694900024414 0.285583736696 0.0
0.0 0.695900024414 0.285405806585 0.0
0.0 0.696900024414 0.285227678909 0.0
0.0 0.697900024414 0.285049414076 0.0
0.0 0.698900024414 0.28487100039 0.0
0.0 0.699900024414 0.284692379182 0.0
0.0 0.700900024414 0.284513611389 0.0
0.0 0.701900024414 0.2843347305 0.0
0.0 0.702900024414 0.2841556056 0.0
0.0 0.703900024414 0.283976366453 0.0
0.0 0.704900024414 0.283796968359 0.0
0.0 0.705900024414 0.28361741513 0.0
0.0 0.706900024414 0.283437709552 0.0
0.0 0.707900024414 0.283257831913 0.0
0.0 0.708900024414 0.283077824588 0.0
0.0 0.709900024414 0.282897642415 0.0
0.0 0.710900024414 0.282717272619 0.0
0.0 0.711900024414 0.282536777734 0.0
0.0 0.712900024414 0.282356194202 0.0
0.0 0.713900024414 0.282175315611 0.0
0.0 0.714900024414 0.281994358468 0.0
0.0 0.715900024414 0.281813278128 0.0
0.0 0.716900024414 0.28163199704 0.0
0.0 0.717900024414 0.281450564999 0.0
0.0 0.718900024414 0.281268991832 0.0
0.0 0.719900024414 0.281087275208 0.0
0.0 0.720900024414 0.280905397716 0.0
0.0 0.721900024414 0.280723372573 0.0
0.0 0.722900024414 0.280541200854 0.0
0.0 0.723900024414 0.280358871161 0.0
0.0 0.724900024414 0.280176401485 0.0
0.0 0.725900024414 0.279993779126 0.0
0.0 0.726900024414 0.279811012473 0.0
0.0 0.727900024414 0.279628095395 0.0
0.0 0.728900024414 0.279445043108 0.0
0.0 0.729900024414 0.279261833856 0.0
0.0 0.730900024414 0.279078487906 0.0
0.0 0.731900024414 0.278894968875 0.0
0.0 0.732900024414 0.278711323697 0.0
0.0 0.733900024414 0.278527534102 0.0
0.0 0.734900024414 0.278343609744 0.0
0.0 0.735900024414 0.278159538247 0.0
0.0 0.736900024414 0.277975306902 0.0
0.0 0.737900024414 0.277790953025 0.0
0.0 0.738900024414 0.277606443836 0.0
0.0 0.739900024414 0.277421795383 0.0
0.0 0.740900024414 0.27723701106 0.0
0.0 0.741900024414 0.277052079118 0.0
0.0 0.742900024414 0.276867015267 0.0
0.0 0.743900024414 0.276681808354 0.0
0.0 0.744900024414 0.276496464383 0.0
0.0 0.745900024414 0.276310976796 0.0
0.0 0.746900024414 0.276125356584 0.0
0.0 0.747900024414 0.275939601691 0.0
0.0 0.748900024414 0.275753707003 0.0
0.0 0.749900024414 0.275567670708 0.0
0.0 0.750900024414 0.275381510512 0.0
0.0 0.751900024414 0.275195200393 0.0
0.0 0.752900024414 0.275008758885 0.0
0.0 0.753900024414 0.274822190477 0.0
0.0 0.754900024414 0.274635479536 0.0
0.0 0.755900024414 0.274448639518 0.0
0.0 0.756900024414 0.274261666606 0.0
0.0 0.757900024414 0.274074561301 0.0
0.0 0.758900024414 0.273887336495 0.0
0.0 0.759900024414 0.27369996351 0.0
0.0 0.760900024414 0.273512460176 0.0
0.0 0.761900024414 0.27332482617 0.0
0.0 0.762900024414 0.273137066415 0.0
0.0 0.763900024414 0.272949183621 0.0
0.0 0.764900024414 0.272761159971 0.0
0.0 0.765900024414 0.272573012831 0.0
0.0 0.766900024414 0.272384738533 0.0
0.0 0.767900024414 0.272196362758 0.0
0.0 0.768900024414 0.272007843997 0.0
0.0 0.769900024414 0.271819153345 0.0
0.0 0.770900024414 0.271630399529 0.0
0.0 0.771900024414 0.271441475935 0.0
0.0 0.772900024414 0.271252435237 0.0
0.0 0.773900024414 0.271063290696 0.0
0.0 0.774900024414 0.270874003683 0.0
0.0 0.775900024414 0.270684597734 0.0
0.0 0.776900024414 0.270495072151 0.0
0.0 0.777900024414 0.270305424194 0.0
0.0 0.778900024414 0.270115654365 0.0
0.0 0.779900024414 0.269925774715 0.0
0.0 0.780900024414 0.269735781185 0.0
0.0 0.781900024414 0.269545628496 0.0
0.0 0.782900024414 0.269355376322 0.0
0.0 0.783900024414 0.26916500136 0.0
0.0 0.784900024414 0.268974519661 0.0
0.0 0.785900024414 0.268783898236 0.0
0.0 0.786900024414 0.268593180079 0.0
0.0 0.787900024414 0.26840233811 0.0
0.0 0.788900024414 0.268211383095 0.0
0.0 0.789900024414 0.268020306861 0.0
0.0 0.790900024414 0.2678290996 0.0
0.0 0.791900024414 0.267637788565 0.0
0.0 0.792900024414 0.267446367809 0.0
0.0 0.793900024414 0.267254844479 0.0
0.0 0.794900024414 0.267063343634 0.0
0.0 0.795900024414 0.266871636437 0.0
0.0 0.796900024414 0.266679768549 0.0
0.0 0.797900024414 0.266487785598 0.0
0.0 0.798900024414 0.266295664301 0.0
0.0 0.799900024414 0.266103502158 0.0
0.0 0.800900024414 0.265911115584 0.0
0.0 0.801900024414 0.265718773385 0.0
0.0 0.802900024414 0.265526237672 0.0
0.0 0.803900024414 0.265333602683 0.0
0.0 0.804900024414 0.265140817901 0.0
0.0 0.805900024414 0.264947914013 0.0
0.0 0.806900024414 0.264754955531 0.0
0.0 0.807900024414 0.264561925195 0.0
0.0 0.808900024414 0.264368645685 0.0
0.0 0.809900024414 0.264175314047 0.0
0.0 0.810900024414 0.263981976082 0.0
0.0 0.811900024414 0.263788300044 0.0
0.0 0.812900024414 0.263594677961 0.0
0.0 0.813900024414 0.263400955087 0.0
0.0 0.814900024414 0.263207109978 0.0
0.0 0.815900024414 0.263013166932 0.0
0.0 0.816900024414 0.262819122812 0.0
0.0 0.817900024414 0.262624999562 0.0
0.0 0.818900024414 0.262430723415 0.0
0.0 0.819900024414 0.262236432039 0.0
0.0 0.820900024414 0.262041934617 0.0
0.0 0.821900024414 0.261847452087 0.0
0.0 0.822900024414 0.261652799429 0.0
0.0 0.823900024414 0.261458048645 0.0
0.0 0.824900024414 0.261263231884 0.0
0.0 0.825900024414 0.261068311502 0.0
0.0 0.826900024414 0.260873305633 0.0
0.0 0.827900024414 0.260678134571 0.0
0.0 0.828900024414 0.260482926082 0.0
0.0 0.829900024414 0.260287558513 0.0
0.0 0.830900024414 0.26009214686 0.0
0.0 0.831900024414 0.259896645733 0.0
0.0 0.832900024414 0.259701011267 0.0
0.0 0.833900024414 0.259505333957 0.0
0.0 0.834900024414 0.259309556641 0.0
0.0 0.835900024414 0.259113673536 0.0
0.0 0.836900024414 0.258917682413 0.0
0.0 0.837900024414 0.258721622547 0.0
0.0 0.838900024414 0.258525406876 0.0
0.0 0.839900024414 0.258329178369 0.0
0.0 0.840900024414 0.258132849311 0.0
0.0 0.841900024414 0.257936447579 0.0
0.0 0.842900024414 0.257739907586 0.0
0.0 0.843900024414 0.257543257091 0.0
0.0 0.844900024414 0.257346517402 0.0
0.0 0.845900024414 0.257149860278 0.0
0.0 0.846900024414 0.256952920488 0.0
0.0 0.847900024414 0.256755940073 0.0
0.0 0.848900024414 0.256558874655 0.0
0.0 0.849900024414 0.256361791224 0.0
0.0 0.850900024414 0.256164484785 0.0
0.0 0.851900024414 0.255967130398 0.0
0.0 0.852900024414 0.255769805891 0.0
0.0 0.853900024414 0.255572262326 0.0
0.0 0.854900024414 0.255374853153 0.0
0.0 0.855900024414 0.255177090959 0.0
0.0 0.856900024414 0.254979396435 0.0
0.0 0.857900024414 0.254781610728 0.0
0.0 0.858900024414 0.254583723312 0.0
0.0 0.859900024414 0.254385686986 0.0
0.0 0.860900024414 0.254187556054 0.0
0.0 0.861900024414 0.253989587077 0.0
0.0 0.862900024414 0.253791376357 0.0
0.0 0.863900024414 0.253592944079 0.0
0.0 0.864900024414 0.253394604236 0.0
0.0 0.865900024414 0.253196080848 0.0
0.0 0.866900024414 0.252997612071 0.0
0.0 0.867900024414 0.252798917676 0.0
0.0 0.868900024414 0.252600250763 0.0
0.0 0.869900024414 0.252401563386 0.0
0.0 0.870900024414 0.252202734783 0.0
0.0 0.871900024414 0.252003767296 0.0
0.0 0.872900024414 0.251804823954 0.0
0.0 0.873900024414 0.251605669497 0.0
0.0 0.874900024414 0.251406702368 0.0
0.0 0.875900024414 0.25120730429 0.0
0.0 0.876900024414 0.251008275332 0.0
0.0 0.877900024414 0.250808867455 0.0
0.0 0.878900024414 0.250609239982 0.0
0.0 0.879900024414 0.250409935577 0.0
0.0 0.880900024414 0.250210526834 0.0
0.0 0.881900024414 0.250010588375 0.0
0.0 0.882900024414 0.249811086486 0.0
0.0 0.883900024414 0.249612157773 0.0
0.0 0.884900024414 0.249412332825 0.0
0.0 0.885900024414 0.249211972991 0.0
0.0 0.886900024414 0.249012330716 0.0
0.0 0.887900024414 0.248811249177 0.0
0.0 0.888900024414 0.248611565074 0.0
0.0 0.889900024414 0.248412697907 0.0
0.0 0.890900024414 0.248210699435 0.0
0.0 0.891900024414 0.248011806866 0.0
0.0 0.892900024414 0.247810807326 0.0
0.0 0.893900024414 0.247611174864 0.0
0.0 0.894900024414 0.247409185677 0.0
0.0 0.895900024414 0.247208736913 0.0
0.0 0.896900024414 0.24700816 0.0
0.0 0.897900024414 0.246807387271 0.0
0.0 0.898900024414 0.246606663645 0.0
0.0 0.899900024414 0.246405863354 0.0
0.0 0.900900024414 0.246204944358 0.0
0.0 0.901900024414 0.246004086219 0.0
0.0 0.902900024414 0.245803053759 0.0
0.0 0.903900024414 0.245601952452 0.0
0.0 0.904900024414 0.245400826707 0.0
0.0 0.905900024414 0.245199618756 0.0
0.0 0.906900024414 0.24499838829 0.0
0.0 0.907900024414 0.244797106077 0.0
0.0 0.908900024414 0.2445958032 0.0
0.0 0.909900024414 0.244394230935 0.0
0.0 0.910900024414 0.244192907352 0.0
0.0 0.911900024414 0.243991413637 0.0
0.0 0.912900024414 0.243789740964 0.0
0.0 0.913900024414 0.243588232332 0.0
0.0 0.914900024414 0.243386483163 0.0
0.0 0.915900024414 0.243184766315 0.0
0.0 0.916900024414 0.242982935143 0.0
0.0 0.917900024414 0.242781087229 0.0
0.0 0.918900024414 0.242579277476 0.0
0.0 0.919900024414 0.242377412804 0.0
0.0 0.920900024414 0.242175331035 0.0
0.0 0.921900024414 0.241973337554 0.0
0.0 0.922900024414 0.241771341205 0.0
0.0 0.923900024414 0.241569176897 0.0
0.0 0.924900024414 0.241366977574 0.0
0.0 0.925900024414 0.241164765256 0.0
0.0 0.926900024414 0.240962397541 0.0
0.0 0.927900024414 0.24076012471 0.0
0.0 0.928900024414 0.240557796296 0.0
0.0 0.929900024414 0.240355398413 0.0
0.0 0.930900024414 0.240152878242 0.0
0.0 0.931900024414 0.23995044105 0.0
0.0 0.932900024414 0.239747860761 0.0
0.0 0.933900024414 0.239545319894 0.0
0.0 0.934900024414 0.239342628646 0.0
0.0 0.935900024414 0.239139981761 0.0
0.0 0.936900024414 0.23893725157 0.0
0.0 0.937900024414 0.238734434523 0.0
0.0 0.938900024414 0.238531621129 0.0
0.0 0.939900024414 0.238328796727 0.0
0.0 0.940900024414 0.238125913695 0.0
0.0 0.941900024414 0.237922917055 0.0
0.0 0.942900024414 0.237719923164 0.0
0.0 0.943900024414 0.237516865649 0.0
0.0 0.944900024414 0.237313907513 0.0
0.0 0.945900024414 0.237110877911 0.0
0.0 0.946900024414 0.236907582005 0.0
0.0 0.947900024414 0.236704411851 0.0
0.0 0.948900024414 0.236501285841 0.0
0.0 0.949900024414 0.236298002214 0.0
0.0 0.950900024414 0.236094707135 0.0
0.0 0.951900024414 0.235891511732 0.0
0.0 0.952900024414 0.235688060372 0.0
0.0 0.953900024414 0.23548471282 0.0
0.0 0.954900024414 0.235281303239 0.0
0.0 0.955900024414 0.235077781598 0.0
0.0 0.956900024414 0.234874291754 0.0
0.0 0.957900024414 0.23467081573 0.0
0.0 0.958900024414 0.234467297554 0.0
0.0 0.959900024414 0.234263545126 0.0
0.0 0.960900024414 0.234059998441 0.0
0.0 0.961900024414 0.233856419092 0.0
0.0 0.962900024414 0.233652700337 0.0
0.0 0.963900024414 0.233449034151 0.0
0.0 0.964900024414 0.233245303665 0.0
0.0 0.965900024414 0.233041542741 0.0
0.0 0.966900024414 0.23283777072 0.0
0.0 0.967900024414 0.232633927754 0.0
0.0 0.968900024414 0.232430160834 0.0
0.0 0.969900024414 0.23222625058 0.0
0.0 0.970900024414 0.232022342746 0.0
0.0 0.971900024414 0.231818480252 0.0
0.0 0.972900024414 0.231614574808 0.0
0.0 0.973900024414 0.231410581254 0.0
0.0 0.974900024414 0.231206582855 0.0
0.0 0.975900024414 0.231002656394 0.0
0.0 0.976900024414 0.23079861123 0.0
0.0 0.977900024414 0.230594551427 0.0
0.0 0.978900024414 0.230390390524 0.0
0.0 0.979900024414 0.230186361549 0.0
0.0 0.980900024414 0.229982212013 0.0
0.0 0.981900024414 0.229778161805 0.0
0.0 0.982900024414 0.229573921395 0.0
0.0 0.983900024414 0.229369768823 0.0
0.0 0.984900024414 0.229165517953 0.0
0.0 0.985900024414 0.228961297416 0.0
0.0 0.986900024414 0.22875704936 0.0
0.0 0.987900024414 0.228552899552 0.0
0.0 0.988900024414 0.228348626357 0.0
0.0 0.989900024414 0.22814433595 0.0
0.0 0.990900024414 0.227940003021 0.0
0.0 0.991900024414 0.227735693563 0.0
0.0 0.992900024414 0.227531392094 0.0
0.0 0.993900024414 0.227327002362 0.0
0.0 0.994900024414 0.227122648309 0.0
0.0 0.995900024414 0.226920803705 0.0
0.0 0.996900024414 0.226716394911 0.0
0.0 0.997900024414 0.226511698158 0.0
0.0 0.998900024414 0.226306816004 0.0
0.0 0.999900024414 0.226102850981 0.0
0.0 1.00090002441 0.225898357729 0.0
0.0 1.00190002441 0.225694020316 0.0
0.0 1.00290002441 0.225489112438 0.0
0.0 1.00390002441 0.225284866071 0.0
0.0 1.00490002441 0.225080517136 0.0
0.0 1.00590002441 0.224875715067 0.0
0.0 1.00690002441 0.224671433433 0.0
0.0 1.00790002441 0.224466910146 0.0
0.0 1.00890002441 0.224262768678 0.0
0.0 1.00990002441 0.224057426944 0.0
0.0 1.01090002441 0.223853252986 0.0
0.0 1.01190002441 0.22364911773 0.0
0.0 1.01290002441 0.223444610087 0.0
0.0 1.01390002441 0.223239784472 0.0
0.0 1.01490002441 0.223035453285 0.0
0.0 1.01590002441 0.222830820786 0.0
0.0 1.01690002441 0.222626093931 0.0
0.0 1.01790002441 0.222421834006 0.0
0.0 1.01890002441 0.222217285752 0.0
0.0 1.01990002441 0.222012881035 0.0
0.0 1.02090002441 0.221808081221 0.0
0.0 1.02190002441 0.221603400355 0.0
0.0 1.02290002441 0.221398852435 0.0
0.0 1.02390002441 0.221194369968 0.0
0.0 1.02490002441 0.220990094109 0.0
0.0 1.02590002441 0.220785224754 0.0
0.0 1.02690002441 0.220580517671 0.0
0.0 1.02790002441 0.220376149118 0.0
0.0 1.02890002441 0.220172439383 0.0
0.0 1.02990002441 0.219967306864 0.0
0.0 1.03090002441 0.219763090538 0.0
0.0 1.03190002441 0.21955818334 0.0
0.0 1.03290002441 0.219353532463 0.0
0.0 1.03390002441 0.219149209562 0.0
0.0 1.03490002441 0.218944429225 0.0
0.0 1.03590002441 0.218740223391 0.0
0.0 1.03690002441 0.218535821492 0.0
0.0 1.03790002441 0.218331480694 0.0
0.0 1.03890002441 0.218126955105 0.0
0.0 1.03990002441 0.217922366878 0.0
0.0 1.04090002441 0.217717660544 0.0
0.0 1.04190002441 0.217513361856 0.0
0.0 1.04290002441 0.217308681482 0.0
0.0 1.04390002441 0.217104608847 0.0
0.0 1.04490002441 0.216899861852 0.0
0.0 1.04590002441 0.216695717391 0.0
0.0 1.04690002441 0.2164914802 0.0
0.0 1.04790002441 0.216287285843 0.0
0.0 1.04890002441 0.216082804124 0.0
0.0 1.04990002441 0.215878194044 0.0
0.0 1.05090002441 0.215674549847 0.0
0.0 1.05190002441 0.215469595074 0.0
0.0 1.05290002441 0.215265559616 0.0
0.0 1.05390002441 0.215061055074 0.0
0.0 1.05490002441 0.214856835758 0.0
0.0 1.05590002441 0.214652362568 0.0
0.0 1.05690002441 0.214448490969 0.0
0.0 1.05790002441 0.214244005828 0.0
0.0 1.05890002441 0.214040333672 0.0
0.0 1.05990002441 0.213835914363 0.0
0.0 1.06090002441 0.21363158327 0.0
0.0 1.06190002441 0.213427561953 0.0
0.0 1.06290002441 0.213223704227 0.0
0.0 1.06390002441 0.213019054192 0.0
0.0 1.06490002441 0.212815398728 0.0
0.0 1.06590002441 0.21261118366 0.0
0.0 1.06690002441 0.212406699742 0.0
0.0 1.06790002441 0.212203191848 0.0
0.0 1.06890002441 0.211999439279 0.0
0.0 1.06990002441 0.211795101845 0.0
0.0 1.07090002441 0.211591541446 0.0
0.0 1.07190002441 0.21138734127 0.0
0.0 1.07290002441 0.211183891441 0.0
0.0 1.07390002441 0.210979810726 0.0
0.0 1.07490002441 0.210775917143 0.0
0.0 1.07590002441 0.210572434167 0.0
0.0 1.07690002441 0.210368301193 0.0
0.0 1.07790002441 0.210164473153 0.0
0.0 1.07890002441 0.20996089537 0.0
0.0 1.07990002441 0.209756681357 0.0
0.0 1.08090002441 0.209553728641 0.0
0.0 1.08190002441 0.209349933121 0.0
0.0 1.08290002441 0.209146366323 0.0
0.0 1.08390002441 0.208942819486 0.0
0.0 1.08490002441 0.208739551553 0.0
0.0 1.08590002441 0.20853558409 0.0
0.0 1.08690002441 0.208332443001 0.0
0.0 1.08790002441 0.208128789539 0.0
0.0 1.08890002441 0.207925761854 0.0
0.0 1.08990002441 0.207722013673 0.0
0.0 1.09090002441 0.207518735888 0.0
0.0 1.09190002441 0.207315598639 0.0
0.0 1.09290002441 0.207112230489 0.0
0.0 1.09390002441 0.20690901544 0.0
0.0 1.09490002441 0.206706001004 0.0
0.0 1.09590002441 0.206502311367 0.0
0.0 1.09690002441 0.206299661174 0.0
0.0 1.09790002441 0.206096147736 0.0
0.0 1.09890002441 0.205893692421 0.0
0.0 1.09990002441 0.20569045042 0.0
0.0 1.10090002441 0.205487190971 0.0
0.0 1.10190002441 0.205284374093 0.0
0.0 1.10290002441 0.205081887035 0.0
0.0 1.10390002441 0.204878824742 0.0
0.0 1.10490002441 0.204675968395 0.0
0.0 1.10590002441 0.204473238775 0.0
0.0 1.10690002441 0.204270614599 0.0
0.0 1.10790002441 0.204067756492 0.0
0.0 1.10890002441 0.203865318978 0.0
0.0 1.10990002441 0.203663048707 0.0
0.0 1.11090002441 0.203460447502 0.0
0.0 1.11190002441 0.203257369635 0.0
0.0 1.11290002441 0.203054974069 0.0
0.0 1.11390002441 0.202852739511 0.0
0.0 1.11490002441 0.202650669092 0.0
0.0 1.11590002441 0.202448412219 0.0
0.0 1.11690002441 0.20224546864 0.0
0.0 1.11790002441 0.202043610973 0.0
0.0 1.11890002441 0.201841823752 0.0
0.0 1.11990002441 0.201639096652 0.0
0.0 1.12090002441 0.201437031616 0.0
0.0 1.12190002441 0.201235042414 0.0
0.0 1.12290002441 0.201033355387 0.0
0.0 1.12390002441 0.20083131615 0.0
0.0 1.12490002441 0.200629407225 0.0
0.0 1.12590002441 0.200427821396 0.0
0.0 1.12690002441 0.200225824595 0.0
0.0 1.12790002441 0.200024128728 0.0
0.0 1.12890002441 0.199822641615 0.0
0.0 1.12990002441 0.199621201307 0.0
0.0 1.13090002441 0.199419527679 0.0
0.0 1.13190002441 0.199218030838 0.0
0.0 1.13290002441 0.199016730833 0.0
0.0 1.13390002441 0.198815101383 0.0
0.0 1.13490002441 0.198613908574 0.0
0.0 1.13590002441 0.19841250124 0.0
0.0 1.13690002441 0.198211274246 0.0
0.0 1.13790002441 0.198010530846 0.0
0.0 1.13890002441 0.197809023811 0.0
0.0 1.13990002441 0.197607880593 0.0
0.0 1.14090002441 0.197407132914 0.0
0.0 1.14190002441 0.197205984388 0.0
0.0 1.14290002441 0.197005445815 0.0
0.0 1.14390002441 0.196804793745 0.0
0.0 1.14490002441 0.196603777144 0.0
0.0 1.14590002441 0.196403294502 0.0
0.0 1.14690002441 0.196202580568 0.0
0.0 1.14790002441 0.196002271782 0.0
0.0 1.14890002441 0.195801821709 0.0
0.0 1.14990002441 0.195601538052 0.0
0.0 1.15090002441 0.195400691316 0.0
0.0 1.15190002441 0.195200333423 0.0
0.0 1.15290002441 0.195000188979 0.0
0.0 1.15390002441 0.194800510522 0.0
0.0 1.15490002441 0.194599949262 0.0
0.0 1.15590002441 0.194400406649 0.0
0.0 1.15690002441 0.194200425349 0.0
0.0 1.15790002441 0.194000349838 0.0
0.0 1.15890002441 0.193800699217 0.0
0.0 1.15990002441 0.193600391536 0.0
0.0 1.16090002441 0.193401356042 0.0
0.0 1.16190002441 0.193201688977 0.0
0.0 1.16290002441 0.193001370675 0.0
0.0 1.16390002441 0.192802499414 0.0
0.0 1.16490002441 0.192603422768 0.0
0.0 1.16590002441 0.192403915573 0.0
0.0 1.16690002441 0.192204563346 0.0
0.0 1.16790002441 0.192005363333 0.0
0.0 1.16890002441 0.191806550938 0.0
0.0 1.16990002441 0.191607064891 0.0
0.0 1.17090002441 0.191408437854 0.0
0.0 1.17190002441 0.191209306967 0.0
0.0 1.17290002441 0.19101044897 0.0
0.0 1.17390002441 0.190812015401 0.0
0.0 1.17490002441 0.190613353273 0.0
0.0 1.17590002441 0.190414623527 0.0
0.0 1.17690002441 0.190216088478 0.0
0.0 1.17790002441 0.19001769738 0.0
0.0 1.17890002441 0.189819343242 0.0
0.0 1.17990002441 0.189621306041 0.0
0.0 1.18090002441 0.189422934175 0.0
0.0 1.18190002441 0.189225004508 0.0
0.0 1.18290002441 0.189026774325 0.0
0.0 1.18390002441 0.188828607627 0.0
0.0 1.18490002441 0.188631245402 0.0
0.0 1.18590002441 0.188432879183 0.0
0.0 1.18690002441 0.188235688959 0.0
0.0 1.18790002441 0.188037960727 0.0
0.0 1.18890002441 0.187840629784 0.0
0.0 1.18990002441 0.187643060121 0.0
0.0 1.19090002441 0.187445477718 0.0
0.0 1.19190002441 0.187248580171 0.0
0.0 1.19290002441 0.187051860384 0.0
0.0 1.19390002441 0.186854102173 0.0
0.0 1.19490002441 0.186657221906 0.0
0.0 1.19590002441 0.186460147744 0.0
0.0 1.19690002441 0.186263537478 0.0
0.0 1.19790002441 0.186066814759 0.0
0.0 1.19890002441 0.185870282737 0.0
0.0 1.19990002441 0.185673444051 0.0
0.0 1.20090002441 0.1854770249 0.0
0.0 1.20190002441 0.185280209037 0.0
0.0 1.20290002441 0.185084384758 0.0
0.0 1.20390002441 0.18488839122 0.0
0.0 1.20490002441 0.184691733161 0.0
0.0 1.20590002441 0.184495491616 0.0
0.0 1.20690002441 0.184300086117 0.0
0.0 1.20790002441 0.184103940049 0.0
0.0 1.20890002441 0.183908378252 0.0
0.0 1.20990002441 0.183712626235 0.0
0.0 1.21090002441 0.183517146998 0.0
0.0 1.21190002441 0.183321788867 0.0
0.0 1.21290002441 0.183125815735 0.0
0.0 1.21390002441 0.182930960989 0.0
0.0 1.21490002441 0.182735754053 0.0
0.0 1.21590002441 0.182540330985 0.0
0.0 1.21690002441 0.182345390191 0.0
0.0 1.21790002441 0.182151235221 0.0
0.0 1.21890002441 0.181956092398 0.0
0.0 1.21990002441 0.181761365744 0.0
0.0 1.22090002441 0.181566815422 0.0
0.0 1.22190002441 0.18137225431 0.0
0.0 1.22290002441 0.181177963791 0.0
0.0 1.22390002441 0.180983390165 0.0
0.0 1.22490002441 0.180789747547 0.0
0.0 1.22590002441 0.180595662098 0.0
0.0 1.22690002441 0.180401644616 0.0
0.0 1.22790002441 0.180207444134 0.0
0.0 1.22890002441 0.180014041709 0.0
0.0 1.22990002441 0.179820101894 0.0
0.0 1.23090002441 0.179626573877 0.0
0.0 1.23190002441 0.179433085331 0.0
0.0 1.23290002441 0.17923948818 0.0
0.0 1.23390002441 0.179046564788 0.0
0.0 1.23490002441 0.178853430523 0.0
0.0 1.23590002441 0.17866053943 0.0
0.0 1.23690002441 0.178467316346 0.0
0.0 1.23790002441 0.178274614134 0.0
0.0 1.23890002441 0.178081808309 0.0
0.0 1.23990002441 0.177889416517 0.0
0.0 1.24090002441 0.177696896728 0.0
0.0 1.24190002441 0.177504372915 0.0
0.0 1.24290002441 0.177312429048 0.0
0.0 1.24390002441 0.177119900637 0.0
0.0 1.24490002441 0.176928127 0.0
0.0 1.24590002441 0.176735786628 0.0
0.0 1.24690002441 0.176544208548 0.0
0.0 1.24790002441 0.176352881642 0.0
0.0 1.24890002441 0.176161167491 0.0
0.0 1.24990002441 0.175969627529 0.0
0.0 1.25090002441 0.175777686641 0.0
0.0 1.25190002441 0.175587124802 0.0
0.0 1.25290002441 0.175395487024 0.0
0.0 1.25390002441 0.17520476175 0.0
0.0 1.25490002441 0.175013923637 0.0
0.0 1.25590002441 0.174823012908 0.0
0.0 1.25690002441 0.174632239605 0.0
0.0 1.25790002441 0.174441602721 0.0
0.0 1.25890002441 0.174251384529 0.0
0.0 1.25990002441 0.174061032786 0.0
0.0 1.26090002441 0.173870380367 0.0
0.0 1.26190002441 0.173680677319 0.0
0.0 1.26290002441 0.17349080619 0.0
0.0 1.26390002441 0.173301478029 0.0
0.0 1.26490002441 0.173111482758 0.0
0.0 1.26590002441 0.172921466378 0.0
0.0 1.26690002441 0.172732205237 0.0
0.0 1.26790002441 0.172542966864 0.0
0.0 1.26890002441 0.172353572484 0.0
0.0 1.26990002441 0.172164656456 0.0
0.0 1.27090002441 0.171975508704 0.0
0.0 1.27190002441 0.171786956475 0.0
0.0 1.27290002441 0.171597851624 0.0
0.0 1.27390002441 0.171409835744 0.0
0.0 1.27490002441 0.171220575937 0.0
0.0 1.27590002441 0.171032110167 0.0
0.0 1.27690002441 0.170844459076 0.0
0.0 1.27790002441 0.170656396146 0.0
0.0 1.27890002441 0.170468206751 0.0
0.0 1.27990002441 0.170280384424 0.0
0.0 1.28090002441 0.170093028844 0.0
0.0 1.28190002441 0.169905353729 0.0
0.0 1.28290002441 0.169717928709 0.0
0.0 1.28390002441 0.169530362367 0.0
0.0 1.28490002441 0.169343157524 0.0
0.0 1.28590002441 0.169156451274 0.0
0.0 1.28690002441 0.168969490753 0.0
0.0 1.28790002441 0.168782747569 0.0
0.0 1.28890002441 0.1685961544 0.0
0.0 1.28990002441 0.168409791061 0.0
0.0 1.29090002441 0.168223225512 0.0
0.0 1.29190002441 0.168037313645 0.0
0.0 1.29290002441 0.167850887017 0.0
0.0 1.29390002441 0.167665048932 0.0
0.0 1.29490002441 0.167479205199 0.0
0.0 1.29590002441 0.167293080667 0.0
0.0 1.29690002441 0.167107732983 0.0
0.0 1.29790002441 0.166922547111 0.0
0.0 1.29890002441 0.1667370561 0.0
0.0 1.29990002441 0.166551788651 0.0
0.0 1.30090002441 0.166367018463 0.0
0.0 1.30190002441 0.166182096571 0.0
0.0 1.30290002441 0.16599748641 0.0
0.0 1.30390002441 0.165812993623 0.0
0.0 1.30490002441 0.165628298285 0.0
0.0 1.30590002441 0.165444076152 0.0
0.0 1.30690002441 0.165259939678 0.0
0.0 1.30790002441 0.165075681743 0.0
0.0 1.30890002441 0.164891845295 0.0
0.0 1.30990002441 0.164708172898 0.0
0.0 1.31090002441 0.164525011778 0.0
0.0 1.31190002441 0.164341397949 0.0
0.0 1.31290002441 0.164158195701 0.0
0.0 1.31390002441 0.163975490682 0.0
0.0 1.31490002441 0.163791866345 0.0
0.0 1.31590002441 0.163609131988 0.0
0.0 1.31690002441 0.163426277992 0.0
0.0 1.31790002441 0.16324380471 0.0
0.0 1.31890002441 0.16306160453 0.0
0.0 1.31990002441 0.162878951398 0.0
0.0 1.32090002441 0.162697213485 0.0
0.0 1.32190002441 0.162515144399 0.0
0.0 1.32290002441 0.162333516899 0.0
0.0 1.32390002441 0.162151704969 0.0
0.0 1.32490002441 0.161969683471 0.0
0.0 1.32590002441 0.161788600127 0.0
0.0 1.32690002441 0.161607592646 0.0
0.0 1.32790002441 0.16142646615 0.0
0.0 1.32890002441 0.161245790069 0.0
0.0 1.32990002441 0.161065189256 0.0
0.0 1.33090002441 0.160884585147 0.0
0.0 1.33190002441 0.160704118441 0.0
0.0 1.33290002441 0.160523295469 0.0
0.0 1.33390002441 0.160343688548 0.0
0.0 1.33490002441 0.160163530076 0.0
0.0 1.33590002441 0.159983685085 0.0
0.0 1.33690002441 0.159804717584 0.0
0.0 1.33790002441 0.159624516112 0.0
0.0 1.33890002441 0.159445660511 0.0
0.0 1.33990002441 0.159266111711 0.0
0.0 1.34090002441 0.159087310263 0.0
0.0 1.34190002441 0.1589083143 0.0
0.0 1.34290002441 0.158730071065 0.0
0.0 1.34390002441 0.158551826077 0.0
0.0 1.34490002441 0.158372588016 0.0
0.0 1.34590002441 0.158194686881 0.0
0.0 1.34690002441 0.158016934343 0.0
0.0 1.34790002441 0.157838932113 0.0
0.0 1.34890002441 0.157661725891 0.0
0.0 1.34990002441 0.157484168546 0.0
0.0 1.35090002441 0.157306510597 0.0
0.0 1.35190002441 0.157128777075 0.0
0.0 1.35290002441 0.15695262274 0.0
0.0 1.35390002441 0.15677561936 0.0
0.0 1.35490002441 0.156598146185 0.0
0.0 1.35590002441 0.156422149889 0.0
0.0 1.35690002441 0.156245876449 0.0
0.0 1.35790002441 0.156068957378 0.0
0.0 1.35890002441 0.155893420054 0.0
0.0 1.35990002441 0.155718322616 0.0
0.0 1.36090002441 0.155541902672 0.0
0.0 1.36190002441 0.155365754509 0.0
0.0 1.36290002441 0.155190924759 0.0
0.0 1.36390002441 0.155015530577 0.0
0.0 1.36490002441 0.154840550074 0.0
0.0 1.36590002441 0.154666233086 0.0
0.0 1.36690002441 0.15449128965 0.0
0.0 1.36790002441 0.154316532666 0.0
0.0 1.36890002441 0.154142264111 0.0
0.0 1.36990002441 0.153968294727 0.0
0.0 1.37090002441 0.153794385488 0.0
0.0 1.37190002441 0.153620345633 0.0
0.0 1.37290002441 0.153446968248 0.0
0.0 1.37390002441 0.153273698514 0.0
0.0 1.37490002441 0.153100222062 0.0
0.0 1.37590002441 0.152927019405 0.0
0.0 1.37690002441 0.152754443359 0.0
0.0 1.37790002441 0.152581614189 0.0
0.0 1.37890002441 0.152409073246 0.0
0.0 1.37990002441 0.152236713706 0.0
0.0 1.38090002441 0.152064066719 0.0
0.0 1.38190002441 0.151892436911 0.0
0.0 1.38290002441 0.151720716617 0.0
0.0 1.38390002441 0.151548722584 0.0
0.0 1.38490002441 0.151377133349 0.0
0.0 1.38590002441 0.151206052254 0.0
0.0 1.38690002441 0.151034861686 0.0
0.0 1.38790002441 0.150863831221 0.0
0.0 1.38890002441 0.150693211275 0.0
0.0 1.38990002441 0.150522613761 0.0
0.0 1.39090002441 0.150351753921 0.0
0.0 1.39190002441 0.150181944007 0.0
0.0 1.39290002441 0.150011487244 0.0
0.0 1.39390002441 0.149842073245 0.0
0.0 1.39490002441 0.149672388112 0.0
0.0 1.39590002441 0.1495027797 0.0
0.0 1.39690002441 0.149333974803 0.0
0.0 1.39790002441 0.149164621111 0.0
0.0 1.39890002441 0.148995690463 0.0
0.0 1.39990002441 0.148826840855 0.0
0.0 1.40090002441 0.148658557894 0.0
0.0 1.40190002441 0.148490480816 0.0
0.0 1.40290002441 0.148322046089 0.0
0.0 1.40390002441 0.148154486873 0.0
0.0 1.40490002441 0.14798684081 0.0
0.0 1.40590002441 0.147818415046 0.0
0.0 1.40690002441 0.147651495243 0.0
0.0 1.40790002441 0.147484171151 0.0
0.0 1.40890002441 0.147317400843 0.0
0.0 1.40990002441 0.147150978687 0.0
0.0 1.41090002441 0.146983833378 0.0
0.0 1.41190002441 0.146817356355 0.0
0.0 1.41290002441 0.146651700701 0.0
0.0 1.41390002441 0.146485698756 0.0
0.0 1.41490002441 0.146319728334 0.0
0.0 1.41590002441 0.146154309137 0.0
0.0 1.41690002441 0.145988672252 0.0
0.0 1.41790002441 0.145824072368 0.0
0.0 1.41890002441 0.145658743609 0.0
0.0 1.41990002441 0.145494025035 0.0
0.0 1.42090002441 0.145328774849 0.0
0.0 1.42190002441 0.14516443219 0.0
0.0 1.42290002441 0.145000389626 0.0
0.0 1.42390002441 0.144836835465 0.0
0.0 1.42490002441 0.144673245067 0.0
0.0 1.42590002441 0.144508953401 0.0
0.0 1.42690002441 0.144345555616 0.0
0.0 1.42790002441 0.14418259818 0.0
0.0 1.42890002441 0.144019444289 0.0
0.0 1.42990002441 0.143856724484 0.0
0.0 1.43090002441 0.1436937835 0.0
0.0 1.43190002441 0.143531707746 0.0
0.0 1.43290002441 0.143369731057 0.0
0.0 1.43390002441 0.143208146145 0.0
0.0 1.43490002441 0.143046053898 0.0
0.0 1.43590002441 0.142884073572 0.0
0.0 1.43690002441 0.142722945551 0.0
0.0 1.43790002441 0.142562427077 0.0
0.0 1.43890002441 0.142400856229 0.0
0.0 1.43990002441 0.142240122424 0.0
0.0 1.44090002441 0.14208008117 0.0
0.0 1.44190002441 0.141919016728 0.0
0.0 1.44290002441 0.141759813208 0.0
0.0 1.44390002441 0.141599504646 0.0
0.0 1.44490002441 0.141439897855 0.0
0.0 1.44590002441 0.141280684362 0.0
0.0 1.44690002441 0.141120850318 0.0
0.0 1.44790002441 0.14096187632 0.0
0.0 1.44890002441 0.1408032861 0.0
0.0 1.44990002441 0.140644946219 0.0
0.0 1.45090002441 0.140486614397 0.0
0.0 1.45190002441 0.140328629019 0.0
0.0 1.45290002441 0.140170354167 0.0
0.0 1.45390002441 0.140012558142 0.0
0.0 1.45490002441 0.139854980049 0.0
0.0 1.45590002441 0.139697752062 0.0
0.0 1.45690002441 0.139540377562 0.0
0.0 1.45790002441 0.139383849451 0.0
0.0 1.45890002441 0.139227450354 0.0
0.0 1.45990002441 0.139070784884 0.0
0.0 1.46090002441 0.138914961817 0.0
0.0 1.46190002441 0.138758634616 0.0
0.0 1.46290002441 0.138602858223 0.0
0.0 1.46390002441 0.138447073492 0.0
0.0 1.46490002441 0.138291529391 0.0
0.0 1.46590002441 0.138136826107 0.0
0.0 1.46690002441 0.137982334287 0.0
0.0 1.46790002441 0.137827768475 0.0
0.0 1.46890002441 0.137673190515 0.0
0.0 1.46990002441 0.137519469666 0.0
0.0 1.47090002441 0.137365102414 0.0
0.0 1.47190002441 0.137211709764 0.0
0.0 1.47290002441 0.137058029652 0.0
0.0 1.47390002441 0.13690480318 0.0
0.0 1.47490002441 0.136751271066 0.0
0.0 1.47590002441 0.136598875742 0.0
0.0 1.47690002441 0.136445708123 0.0
0.0 1.47790002441 0.136293471995 0.0
0.0 1.47890002441 0.136141399886 0.0
0.0 1.47990002441 0.135989419388 0.0
0.0 1.48090002441 0.135837396665 0.0
0.0 1.48190002441 0.13568576891 0.0
0.0 1.48290002441 0.135534644798 0.0
0.0 1.48390002441 0.135384016583 0.0
0.0 1.48490002441 0.135233002583 0.0
0.0 1.48590002441 0.135083142312 0.0
0.0 1.48690002441 0.134931891825 0.0
0.0 1.48790002441 0.13478186305 0.0
0.0 1.48890002441 0.134632553043 0.0
0.0 1.48990002441 0.134483068737 0.0
0.0 1.49090002441 0.134333062985 0.0
0.0 1.49190002441 0.134183992698 0.0
0.0 1.49290002441 0.134035582524 0.0
0.0 1.49390002441 0.133886769912 0.0
0.0 1.49490002441 0.133738326639 0.0
0.0 1.49590002441 0.133590419236 0.0
0.0 1.49690002441 0.133442185013 0.0
0.0 1.49790002441 0.133294713293 0.0
0.0 1.49890002441 0.13314708815 0.0
0.0 1.49990002441 0.133000052261 0.0
0.0 1.50090002441 0.13285312051 0.0
0.0 1.50190002441 0.132706206639 0.0
0.0 1.50290002441 0.132559603344 0.0
0.0 1.50390002441 0.132412926238 0.0
0.0 1.50490002441 0.132266798132 0.0
0.0 1.50590002441 0.132121646518 0.0
0.0 1.50690002441 0.131975902845 0.0
0.0 1.50790002441 0.131830512461 0.0
0.0 1.50890002441 0.131685994306 0.0
0.0 1.50990002441 0.131540401996 0.0
0.0 1.51090002441 0.13139571775 0.0
0.0 1.51190002441 0.131251833541 0.0
0.0 1.51290002441 0.131107617901 0.0
0.0 1.51390002441 0.13096456867 0.0
0.0 1.51490002441 0.130820378606 0.0
0.0 1.51590002441 0.130677426839 0.0
0.0 1.51690002441 0.130534393801 0.0
0.0 1.51790002441 0.130391093687 0.0
0.0 1.51890002441 0.130248671136 0.0
0.0 1.51990002441 0.130105951223 0.0
0.0 1.52090002441 0.129964045197 0.0
0.0 1.52190002441 0.129822255258 0.0
0.0 1.52290002441 0.129681020977 0.0
0.0 1.52390002441 0.129539738008 0.0
0.0 1.52490002441 0.129399216456 0.0
0.0 1.52590002441 0.129257506785 0.0
0.0 1.52690002441 0.129117233785 0.0
0.0 1.52790002441 0.128976673608 0.0
0.0 1.52890002441 0.12883658089 0.0
0.0 1.52990002441 0.128695896941 0.0
0.0 1.53090002441 0.128557196616 0.0
0.0 1.53190002441 0.128417712511 0.0
0.0 1.53290002441 0.128278582425 0.0
0.0 1.53390002441 0.128139840333 0.0
0.0 1.53490002441 0.128001286826 0.0
0.0 1.53590002441 0.127862344006 0.0
0.0 1.53690002441 0.127725090218 0.0
0.0 1.53790002441 0.127587112505 0.0
0.0 1.53890002441 0.12744990398 0.0
0.0 1.53990002441 0.127312588741 0.0
0.0 1.54090002441 0.127175378196 0.0
0.0 1.54190002441 0.127038965771 0.0
0.0 1.54290002441 0.126902787286 0.0
0.0 1.54390002441 0.12676633819 0.0
0.0 1.54490002441 0.126630119804 0.0
0.0 1.54590002441 0.126493656329 0.0
0.0 1.54690002441 0.126359613449 0.0
0.0 1.54790002441 0.126224502097 0.0
0.0 1.54890002441 0.126089194649 0.0
0.0 1.54990002441 0.125954357295 0.0
0.0 1.55090002441 0.125820273959 0.0
0.0 1.55190002441 0.125685848002 0.0
0.0 1.55290002441 0.125552949085 0.0
0.0 1.55390002441 0.125418736462 0.0
0.0 1.55490002441 0.125285343536 0.0
0.0 1.55590002441 0.125152614342 0.0
0.0 1.55690002441 0.125020053055 0.0
0.0 1.55790002441 0.124887535181 0.0
0.0 1.55890002441 0.124754876515 0.0
0.0 1.55990002441 0.12462320556 0.0
0.0 1.56090002441 0.124490974793 0.0
0.0 1.56190002441 0.124359845464 0.0
0.0 1.56290002441 0.124229056102 0.0
0.0 1.56390002441 0.124096868 0.0
0.0 1.56490002441 0.123967460465 0.0
0.0 1.56590002441 0.123836316108 0.0
0.0 1.56690002441 0.123706470733 0.0
0.0 1.56790002441 0.12357664437 0.0
0.0 1.56890002441 0.123448124591 0.0
0.0 1.56990002441 0.123318329784 0.0
0.0 1.57090002441 0.123189424668 0.0
0.0 1.57190002441 0.123060219725 0.0
0.0 1.57290002441 0.122932204477 0.0
0.0 1.57390002441 0.12280412338 0.0
0.0 1.57490002441 0.12267550321 0.0
0.0 1.57590002441 0.122549096317 0.0
0.0 1.57690002441 0.122421687936 0.0
0.0 1.57790002441 0.122294522766 0.0
0.0 1.57890002441 0.122167051348 0.0
0.0 1.57990002441 0.122040817457 0.0
0.0 1.58090002441 0.121915775871 0.0
0.0 1.58190002441 0.121789419058 0.0
0.0 1.58290002441 0.121662825262 0.0
0.0 1.58390002441 0.121538422722 0.0
0.0 1.58490002441 0.121412394988 0.0
0.0 1.58590002441 0.121288558506 0.0
0.0 1.58690002441 0.121163383042 0.0
0.0 1.58790002441 0.121039769626 0.0
0.0 1.58890002441 0.12091632625 0.0
0.0 1.58990002441 0.120791843566 0.0
0.0 1.59090002441 0.120667664186 0.0
0.0 1.59190002441 0.120546323307 0.0
0.0 1.59290002441 0.120422392467 0.0
0.0 1.59390002441 0.120300391849 0.0
0.0 1.59490002441 0.120178891174 0.0
0.0 1.59590002441 0.1200565241 0.0
0.0 1.59690002441 0.119934039821 0.0
0.0 1.59790002441 0.119812706865 0.0
0.0 1.59890002441 0.119691509065 0.0
0.0 1.59990002441 0.119571193465 0.0
0.0 1.60090002441 0.119451676116 0.0
0.0 1.60190002441 0.11933081749 0.0
0.0 1.60290002441 0.119211345132 0.0
0.0 1.60390002441 0.119091066397 0.0
0.0 1.60490002441 0.118972191897 0.0
0.0 1.60590002441 0.118852741934 0.0
0.0 1.60690002441 0.11873374299 0.0
0.0 1.60790002441 0.118615895826 0.0
0.0 1.60890002441 0.118497957897 0.0
0.0 1.60990002441 0.118380153439 0.0
0.0 1.61090002441 0.118262297052 0.0
0.0 1.61190002441 0.118145024333 0.0
0.0 1.61290002441 0.118028141289 0.0
0.0 1.61390002441 0.117911293142 0.0
0.0 1.61490002441 0.117794931547 0.0
0.0 1.61590002441 0.117679686564 0.0
0.0 1.61690002441 0.117563144917 0.0
0.0 1.61790002441 0.117448554369 0.0
0.0 1.61890002441 0.117332529578 0.0
0.0 1.61990002441 0.117218252253 0.0
0.0 1.62090002441 0.117103547193 0.0
0.0 1.62190002441 0.116988855507 0.0
0.0 1.62290002441 0.116875052092 0.0
0.0 1.62390002441 0.116760955294 0.0
0.0 1.62490002441 0.116648690897 0.0
0.0 1.62590002441 0.116535203286 0.0
0.0 1.62690002441 0.116423361091 0.0
0.0 1.62790002441 0.116309338881 0.0
0.0 1.62890002441 0.116197303251 0.0
0.0 1.62990002441 0.11608549907 0.0
0.0 1.63090002441 0.115974053234 0.0
0.0 1.63190002441 0.115863319524 0.0
0.0 1.63290002441 0.115751751038 0.0
0.0 1.63390002441 0.115641085736 0.0
0.0 1.63490002441 0.115531215957 0.0
0.0 1.63590002441 0.11542121244 0.0
0.0 1.63690002441 0.115311628734 0.0
0.0 1.63790002441 0.115202814527 0.0
0.0 1.63890002441 0.115093015198 0.0
0.0 1.63990002441 0.114985267324 0.0
0.0 1.64090002441 0.114877105284 0.0
0.0 1.64190002441 0.114768892297 0.0
0.0 1.64290002441 0.11466098395 0.0
0.0 1.64390002441 0.114553150534 0.0
0.0 1.64490002441 0.114445672219 0.0
0.0 1.64590002441 0.114338467896 0.0
0.0 1.64690002441 0.114232777535 0.0
0.0 1.64790002441 0.114127634303 0.0
0.0 1.64890002441 0.114020333609 0.0
0.0 1.64990002441 0.113915834723 0.0
0.0 1.65090002441 0.113810785207 0.0
0.0 1.65190002441 0.113706007024 0.0
0.0 1.65290002441 0.113600949551 0.0
0.0 1.65390002441 0.113496004653 0.0
0.0 1.65490002441 0.113393979074 0.0
0.0 1.65590002441 0.113289871445 0.0
0.0 1.65690002441 0.113187226903 0.0
0.0 1.65790002441 0.113083738603 0.0
0.0 1.65890002441 0.11298222287 0.0
0.0 1.65990002441 0.112880370124 0.0
0.0 1.66090002441 0.11277804912 0.0
0.0 1.66190002441 0.11267763474 0.0
0.0 1.66290002441 0.112576420279 0.0
0.0 1.66390002441 0.112476611604 0.0
0.0 1.66490002441 0.112376552427 0.0
0.0 1.66590002441 0.112276929373 0.0
0.0 1.66690002441 0.112177900738 0.0
0.0 1.66790002441 0.112078060155 0.0
0.0 1.66890002441 0.111979984937 0.0
0.0 1.66990002441 0.111882716528 0.0
0.0 1.67090002441 0.111785267977 0.0
0.0 1.67190002441 0.111689193792 0.0
0.0 1.67290002441 0.111593108619 0.0
0.0 1.67390002441 0.111495853049 0.0
0.0 1.67490002441 0.111400947364 0.0
0.0 1.67590002441 0.111306503271 0.0
0.0 1.67690002441 0.11121204124 0.0
0.0 1.67790002441 0.111117499738 0.0
0.0 1.67890002441 0.111024313649 0.0
0.0 1.67990002441 0.110931334347 0.0
0.0 1.68090002441 0.110838484743 0.0
0.0 1.68190002441 0.110746609374 0.0
0.0 1.68290002441 0.110656530641 0.0
0.0 1.68390002441 0.110565136512 0.0
0.0 1.68490002441 0.110474935759 0.0
0.0 1.68590002441 0.110386502717 0.0
0.0 1.68690002441 0.110299579647 0.0
0.0 1.68790002441 0.110210671622 0.0
0.0 1.68890002441 0.11012502889 0.0
0.0 1.68990002441 0.11004010562 0.0
0.0 1.69090002441 0.109956473325 0.0
0.0 1.69190002441 0.109874054494 0.0
0.0 1.69290002441 0.109792933897 0.0
0.0 1.69390002441 0.109713706473 0.0
0.0 1.69490002441 0.109637767675 0.0
0.0 1.69590002441 0.109561003333 0.0
0.0 1.69690002441 0.109491452125 0.0
0.0 1.69790002441 0.109422699534 0.0
0.0 1.69890002441 0.109355452253 0.0
0.0 1.69990002441 0.109297011399 0.0
0.0 1.70090002441 0.109238653197 0.0
0.0 1.70190002441 0.109185745213 0.0
0.0 1.70290002441 0.109140081548 0.0
0.0 1.70390002441 0.109101207041 0.0
0.0 1.70490002441 0.109068664738 0.0
0.0 1.70590002441 0.109043033788 0.0
0.0 1.70690002441 0.109028815448 0.0
0.0 1.70790002441 0.109025736951 0.0
0.0 1.70890002441 0.109029371593 0.0
0.0 1.70990002441 0.109052889087 0.0
0.0 1.71090002441 0.109090969586 0.0
0.0 1.71190002441 0.10913735478 0.0
0.0 1.71290002441 0.109204146221 0.0
0.0 1.71390002441 0.109300925843 0.0
0.0 1.71490002441 0.109406481207 0.0
0.0 1.71590002441 0.109554880423 0.0
0.0 1.71690002441 0.109747207749 0.0
0.0 1.71790002441 0.109951995321 0.0
0.0 1.71890002441 0.110204902374 0.0
0.0 1.71990002441 0.110517566252 0.0
0.0 1.72090002441 0.110880497371 0.0
0.0 1.72190002441 0.111329787487 0.0
0.0 1.72290002441 0.111891817532 0.0
0.0 1.72390002441 0.112540249214 0.0
0.0 1.72490002441 0.113303814841 0.0
0.0 1.72590002441 0.114214556437 0.0
0.0 1.72690002441 0.115381896353 0.0
0.0 1.72790002441 0.116695916573 0.0
0.0 1.72890002441 0.118379994059 0.0
0.0 1.72990002441 0.120426968205 0.0
0.0 1.73090002441 0.122669860056 0.0
0.0 1.73190002441 0.125416214495 0.0
0.0 1.73290002441 0.128677893713 0.0
0.0 1.73390002441 0.132317867202 0.0
0.0 1.73490002441 0.136287591508 0.0
0.0 1.73590002441 0.14087359317 0.0
0.0 1.73690002441 0.145325068213 0.0
0.0 1.73790002441 0.150112640973 0.0
0.0 1.73890002441 0.155151362786 0.0
0.0 1.73990002441 0.160139191784 0.0
0.0 1.74090002441 0.165501874433 0.0
0.0 1.74190002441 0.171855782422 0.0
0.0 1.74290002441 0.179091124163 0.0
0.0 1.74390002441 0.187239533635 0.0
0.0 1.74490002441 0.196743494555 0.0
0.0 1.74590002441 0.207829859998 0.0
0.0 1.74690002441 0.220132878129 0.0
0.0 1.74790002441 0.234997097678 0.0
0.0 1.74890002441 0.251508385544 0.0
0.0 1.74990002441 0.268357558641 0.0
0.0 1.75090002441 0.287537868585 0.0
0.0 1.75190002441 0.307108123168 0.0
0.0 1.75290002441 0.326913200824 0.0
0.0 1.75390002441 0.347399836684 0.0
0.0 1.75490002441 0.36787200946 0.0
0.0 1.75590002441 0.385950227109 0.0
0.0 1.75690002441 0.403460937724 0.0
0.0 1.75790002441 0.419728959542 0.0
0.0 1.75890002441 0.434190019207 0.0
0.0 1.75990002441 0.447390294108 0.0
0.0 1.76090002441 0.460753129383 0.0
0.0 1.76190002441 0.471771790098 0.0
0.0 1.76290002441 0.482604807949 0.0
0.0 1.76390002441 0.492390999851 0.0
0.0 1.76490002441 0.501727517606 0.0
0.0 1.76590002441 0.511547226805 0.0
0.0 1.76690002441 0.520465337862 0.0
0.0 1.76790002441 0.528826391942 0.0
0.0 1.76890002441 0.53555005989 0.0
0.0 1.76990002441 0.541344013751 0.0
0.0 1.77090002441 0.546971468391 0.0
0.0 1.77190002441 0.55141269782 0.0
0.0 1.77290002441 0.555876832866 0.0
0.0 1.77390002441 0.557304028088 0.0
0.0 1.77490002441 0.560124720387 0.0
0.0 1.77590002441 0.560420912383 0.0
0.0 1.77690002441 0.561920663784 0.0
0.0 1.77790002441 0.562679532641 0.0
0.0 1.77890002441 0.562169938639 0.0
0.0 1.77990002441 0.562960392552 0.0
0.0 1.78090002441 0.561871573939 0.0
0.0 1.78190002441 0.561498866305 0.0
0.0 1.78290002441 0.561786288939 0.0
0.0 1.78390002441 0.561784383988 0.0
0.0 1.78490002441 0.561976230926 0.0
0.0 1.78590002441 0.562537074716 0.0
0.0 1.78690002441 0.562500482405 0.0
0.0 1.78790002441 0.562219809269 0.0
0.0 1.78890002441 0.562726934394 0.0
0.0 1.78990002441 0.562524400015 0.0
0.0 1.79090002441 0.562401350818 0.0
0.0 1.79190002441 0.562970710192 0.0
0.0 1.79290002441 0.561220579766 0.0
0.0 1.79390002441 0.560784889602 0.0
0.0 1.79490002441 0.559302212955 0.0
0.0 1.79590002441 0.557806730849 0.0
0.0 1.79690002441 0.557544105675 0.0
0.0 1.79790002441 0.555949587714 0.0
0.0 1.79890002441 0.55479720043 0.0
0.0 1.79990002441 0.552622438297 0.0
0.0 1.80090002441 0.550761713803 0.0
0.0 1.80190002441 0.549374736286 0.0
0.0 1.80290002441 0.54723863852 0.0
0.0 1.80390002441 0.546077001189 0.0
0.0 1.80490002441 0.545273949738 0.0
0.0 1.80590002441 0.544197334977 0.0
0.0 1.80690002441 0.54431538119 0.0
0.0 1.80790002441 0.544506607384 0.0
0.0 1.80890002441 0.543061218101 0.0
0.0 1.80990002441 0.543449106148 0.0
0.0 1.81090002441 0.543139141876 0.0
0.0 1.81190002441 0.543701393519 0.0
0.0 1.81290002441 0.545040981188 0.0
0.0 1.81390002441 0.544994406087 0.0
0.0 1.81490002441 0.54562868078 0.0
0.0 1.81590002441 0.547117580213 0.0
0.0 1.81690002441 0.548408098795 0.0
0.0 1.81790002441 0.548831376345 0.0
0.0 1.81890002441 0.55039965768 0.0
0.0 1.81990002441 0.551538545017 0.0
0.0 1.82090002441 0.551609591188 0.0
0.0 1.82190002441 0.554738799146 0.0
0.0 1.82290002441 0.5556296286 0.0
0.0 1.82390002441 0.556268470188 0.0
0.0 1.82490002441 0.5569328726 0.0
0.0 1.82590002441 0.557562366593 0.0
0.0 1.82690002441 0.558229186266 0.0
0.0 1.82790002441 0.560207183975 0.0
0.0 1.82890002441 0.55973441696 0.0
0.0 1.82990002441 0.561201922542 0.0
0.0 1.83090002441 0.562012147595 0.0
0.0 1.83190002441 0.562198113806 0.0
0.0 1.83290002441 0.56250016173 0.0
0.0 1.83390002441 0.564111673131 0.0
0.0 1.83490002441 0.563585371518 0.0
0.0 1.83590002441 0.56385480755 0.0
0.0 1.83690002441 0.564007131801 0.0
0.0 1.83790002441 0.564249782993 0.0
0.0 1.83890002441 0.563698347968 0.0
0.0 1.83990002441 0.564594784629 0.0
0.0 1.84090002441 0.564202140199 0.0
0.0 1.84190002441 0.56382041286 0.0
0.0 1.84290002441 0.564336949164 0.0
0.0 1.84390002441 0.563443618848 0.0
0.0 1.84490002441 0.562423342515 0.0
0.0 1.84590002441 0.563075073146 0.0
0.0 1.84690002441 0.561928890601 0.0
0.0 1.84790002441 0.560457875497 0.0
0.0 1.84890002441 0.560426260553 0.0
0.0 1.84990002441 0.560229378597 0.0
0.0 1.85090002441 0.559505939753 0.0
0.0 1.85190002441 0.557476027593 0.0
0.0 1.85290002441 0.557463781251 0.0
0.0 1.85390002441 0.556224850472 0.0
0.0 1.85490002441 0.55686975947 0.0
0.0 1.85590002441 0.555777600257 0.0
0.0 1.85690002441 0.555461520445 0.0
0.0 1.85790002441 0.554898453118 0.0
0.0 1.85890002441 0.554229419695 0.0
0.0 1.85990002441 0.553544916256 0.0
0.0 1.86090002441 0.553679130926 0.0
0.0 1.86190002441 0.552057152661 0.0
0.0 1.86290002441 0.552678509613 0.0
0.0 1.86390002441 0.552936110942 0.0
0.0 1.86490002441 0.552329850146 0.0
0.0 1.86590002441 0.552056756741 0.0
0.0 1.86690002441 0.551951380299 0.0
0.0 1.86790002441 0.552235777327 0.0
0.0 1.86890002441 0.552054910642 0.0
0.0 1.86990002441 0.552405230983 0.0
0.0 1.87090002441 0.552665316448 0.0
0.0 1.87190002441 0.553185805568 0.0
0.0 1.87290002441 0.553251332954 0.0
0.0 1.87390002441 0.554906290173 0.0
0.0 1.87490002441 0.555361470811 0.0
0.0 1.87590002441 0.555507861202 0.0
0.0 1.87690002441 0.555614314761 0.0
0.0 1.87790002441 0.556738950668 0.0
0.0 1.87890002441 0.556856107131 0.0
0.0 1.87990002441 0.557761911859 0.0
0.0 1.88090002441 0.557796373395 0.0
0.0 1.88190002441 0.559329793522 0.0
0.0 1.88290002441 0.560049196516 0.0
0.0 1.88390002441 0.561267908043 0.0
0.0 1.88490002441 0.5617469709 0.0
0.0 1.88590002441 0.56128022326 0.0
0.0 1.88690002441 0.562864050252 0.0
0.0 1.88790002441 0.563188570265 0.0
0.0 1.88890002441 0.563662358523 0.0
0.0 1.88990002441 0.563519591516 0.0
0.0 1.89090002441 0.563592893046 0.0
0.0 1.89190002441 0.564784405063 0.0
0.0 1.89290002441 0.565427273053 0.0
0.0 1.89390002441 0.565742311287 0.0
0.0 1.89490002441 0.566331981625 0.0
0.0 1.89590002441 0.566530425072 0.0
0.0 1.89690002441 0.566406189861 0.0
0.0 1.89790002441 0.566359023083 0.0
0.0 1.89890002441 0.565664224548 0.0
0.0 1.89990002441 0.567185485008 0.0
0.0 1.90090002441 0.566394978522 0.0
0.0 1.90190002441 0.566612282804 0.0
0.0 1.90290002441 0.567637800621 0.0
0.0 1.90390002441 0.568506489247 0.0
0.0 1.90490002441 0.568583456088 0.0
0.0 1.90590002441 0.569054283737 0.0
0.0 1.90690002441 0.570675028397 0.0
0.0 1.90790002441 0.572051380213 0.0
0.0 1.90890002441 0.572462817639 0.0
0.0 1.90990002441 0.572265209312 0.0
0.0 1.91090002441 0.572372658792 0.0
0.0 1.91190002441 0.574591118151 0.0
0.0 1.91290002441 0.573689622831 0.0
0.0 1.91390002441 0.573643691447 0.0
0.0 1.91490002441 0.573640866005 0.0
0.0 1.91590002441 0.573670883136 0.0
0.0 1.91690002441 0.573675291334 0.0
0.0 1.91790002441 0.573506901341 0.0
0.0 1.91890002441 0.572823924961 0.0
0.0 1.91990002441 0.574242421269 0.0
0.0 1.92090002441 0.57295515582 0.0
0.0 1.92190002441 0.572706111781 0.0
0.0 1.92290002441 0.572689454478 0.0
0.0 1.92390002441 0.572414205605 0.0
0.0 1.92490002441 0.571879730894 0.0
0.0 1.92590002441 0.570374248637 0.0
0.0 1.92690002441 0.571302324785 0.0
0.0 1.92790002441 0.571814551335 0.0
0.0 1.92890002441 0.571035603796 0.0
0.0 1.92990002441 0.570543902761 0.0
0.0 1.93090002441 0.570346197085 0.0
0.0 1.93190002441 0.568899663985 0.0
0.0 1.93290002441 0.569435794584 0.0
0.0 1.93390002441 0.568669893132 0.0
0.0 1.93490002441 0.568587975277 0.0
0.0 1.93590002441 0.568222863362 0.0
0.0 1.93690002441 0.567903798618 0.0
0.0 1.93790002441 0.567485977517 0.0
0.0 1.93890002441 0.567288303512 0.0
0.0 1.93990002441 0.567346945754 0.0
0.0 1.94090002441 0.56786490217 0.0
0.0 1.94190002441 0.56840523689 0.0
0.0 1.94290002441 0.568081983884 0.0
0.0 1.94390002441 0.568201191999 0.0
0.0 1.94490002441 0.568100977801 0.0
0.0 1.94590002441 0.569243043713 0.0
0.0 1.94690002441 0.569529669174 0.0
0.0 1.94790002441 0.570247611865 0.0
0.0 1.94890002441 0.570283734919 0.0
0.0 1.94990002441 0.569694325935 0.0
0.0 1.95090002441 0.570642757858 0.0
0.0 1.95190002441 0.570481428158 0.0
0.0 1.95290002441 0.570197793664 0.0
0.0 1.95390002441 0.57054164789 0.0
0.0 1.95490002441 0.570447522387 0.0
0.0 1.95590002441 0.570153845389 0.0
0.0 1.95690002441 0.569052981764 0.0
0.0 1.95790002441 0.567900715016 0.0
0.0 1.95890002441 0.565028108123 0.0
0.0 1.95990002441 0.561120150015 0.0
0.0 1.96090002441 0.561823606352 0.0
0.0 1.96190002441 0.565525281817 0.0
0.0 1.96290002441 0.568768509014 0.0
0.0 1.96390002441 0.570440347872 0.0
0.0 1.96490002441 0.571500481856 0.0
0.0 1.96590002441 0.571666169154 0.0
0.0 1.96690002441 0.571767373539 0.0
0.0 1.96790002441 0.57112312376 0.0
0.0 1.96890002441 0.57318877617 0.0
0.0 1.96990002441 0.573116220162 0.0
0.0 1.97090002441 0.571623679087 0.0
0.0 1.97190002441 0.572192912669 0.0
0.0 1.97290002441 0.571906194579 0.0
0.0 1.97390002441 0.571421691079 0.0
0.0 1.97490002441 0.57147355669 0.0
0.0 1.97590002441 0.571539311385 0.0
0.0 1.97690002441 0.571205384333 0.0
0.0 1.97790002441 0.571453526605 0.0
0.0 1.97890002441 0.571010949697 0.0
0.0 1.97990002441 0.571286862409 0.0
0.0 1.98090002441 0.572701007747 0.0
0.0 1.98190002441 0.573024618781 0.0
0.0 1.98290002441 0.572149058852 0.0
0.0 1.98390002441 0.57320539757 0.0
0.0 1.98490002441 0.573443032551 0.0
0.0 1.98590002441 0.573989835346 0.0
0.0 1.98690002441 0.573665914964 0.0
0.0 1.98790002441 0.574733107077 0.0
0.0 1.98890002441 0.574642471656 0.0
0.0 1.98990002441 0.574481063069 0.0
0.0 1.99090002441 0.575866672172 0.0
0.0 1.99190002441 0.575594159875 0.0
0.0 1.99290002441 0.576899968209 0.0
0.0 1.99390002441 0.577201734776 0.0
0.0 1.99490002441 0.577533416937 0.0
0.0 1.99590002441 0.577350625141 0.0
0.0 1.99690002441 0.577130495731 0.0
0.0 1.99790002441 0.577917598327 0.0
0.0 1.99890002441 0.576740065979 0.0
0.0 1.99990002441 0.577692316628 0.0
0.0 2.00090002441 0.578122067176 0.0
0.0 2.00190002441 0.577909411647 0.0
0.0 2.00290002441 0.576843548604 0.0
0.0 2.00390002441 0.577499809018 0.0
0.0 2.00490002441 0.576635408133 0.0
0.0 2.00590002441 0.576491726665 0.0
0.0 2.00690002441 0.576251269247 0.0
0.0 2.00790002441 0.575958172995 0.0
0.0 2.00890002441 0.575545774193 0.0
0.0 2.00990002441 0.576822178624 0.0
0.0 2.01090002441 0.575285019973 0.0
0.0 2.01190002441 0.575198807524 0.0
0.0 2.01290002441 0.575879881702 0.0
0.0 2.01390002441 0.575960196733 0.0
0.0 2.01490002441 0.575686055139 0.0
0.0 2.01590002441 0.576279790644 0.0
0.0 2.01690002441 0.57703471159 0.0
0.0 2.01790002441 0.577463300163 0.0
0.0 2.01890002441 0.576417527136 0.0
0.0 2.01990002441 0.577686904279 0.0
0.0 2.02090002441 0.578133044767 0.0
0.0 2.02190002441 0.578089500175 0.0
0.0 2.02290002441 0.579457813944 0.0
0.0 2.02390002441 0.580843583147 0.0
0.0 2.02490002441 0.580997714101 0.0
0.0 2.02590002441 0.5828585887 0.0
0.0 2.02690002441 0.583308054726 0.0
0.0 2.02790002441 0.584157719805 0.0
0.0 2.02890002441 0.584977938725 0.0
0.0 2.02990002441 0.58537115289 0.0
0.0 2.03090002441 0.585759270814 0.0
0.0 2.03190002441 0.585962339721 0.0
0.0 2.03290002441 0.587064507976 0.0
0.0 2.03390002441 0.586756290737 0.0
0.0 2.03490002441 0.586947592272 0.0
0.0 2.03590002441 0.586883223583 0.0
0.0 2.03690002441 0.58755229328 0.0
0.0 2.03790002441 0.58771993466 0.0
0.0 2.03890002441 0.587802857927 0.0
0.0 2.03990002441 0.588928516921 0.0
0.0 2.04090002441 0.588743525923 0.0
0.0 2.04190002441 0.587349486256 0.0
0.0 2.04290002441 0.588150946854 0.0
0.0 2.04390002441 0.585848511278 0.0
0.0 2.04490002441 0.585572005003 0.0
0.0 2.04590002441 0.585259381753 0.0
0.0 2.04690002441 0.584739764839 0.0
0.0 2.04790002441 0.584240907531 0.0
0.0 2.04889990234 0.583808649535 0.0
0.0 2.04989990234 0.582775860762 0.0
0.0 2.05089990234 0.582777873744 0.0
0.0 2.05189990234 0.582893764055 0.0
0.0 2.05289990234 0.583186840147 0.0
0.0 2.05389990234 0.582110192748 0.0
0.0 2.05489990234 0.582484563636 0.0
0.0 2.05589990234 0.582675093151 0.0
0.0 2.05689990234 0.58238865525 0.0
0.0 2.05789990234 0.582119563971 0.0
0.0 2.05889990234 0.58185238668 0.0
0.0 2.05989990234 0.582243443405 0.0
0.0 2.06089990234 0.583987330541 0.0
0.0 2.06189990234 0.583832707117 0.0
0.0 2.06289990234 0.584417059759 0.0
0.0 2.06389990234 0.585155346779 0.0
0.0 2.06489990234 0.586374596538 0.0
0.0 2.06589990234 0.587017751616 0.0
0.0 2.06689990234 0.587605619651 0.0
0.0 2.06789990234 0.588693768998 0.0
0.0 2.06889990234 0.589614837782 0.0
0.0 2.06989990234 0.589558154084 0.0
0.0 2.07089990234 0.591972967713 0.0
0.0 2.07189990234 0.592569365496 0.0
0.0 2.07289990234 0.592686633652 0.0
0.0 2.07389990234 0.593694368774 0.0
0.0 2.07489990234 0.59453661355 0.0
0.0 2.07589990234 0.594995510247 0.0
0.0 2.07689990234 0.595503819366 0.0
0.0 2.07789990234 0.59505833817 0.0
0.0 2.07889990234 0.594810984894 0.0
0.0 2.07989990234 0.59632606371 0.0
0.0 2.08089990234 0.596029442999 0.0
0.0 2.08189990234 0.596576250111 0.0
0.0 2.08289990234 0.596448177668 0.0
0.0 2.08389990234 0.597006482017 0.0
0.0 2.08489990234 0.597408419118 0.0
0.0 2.08589990234 0.59684339045 0.0
0.0 2.08689990234 0.595236131103 0.0
0.0 2.08789990234 0.595233025869 0.0
0.0 2.08889990234 0.593812136709 0.0
0.0 2.08989990234 0.593913725563 0.0
0.0 2.09089990234 0.594249522611 0.0
0.0 2.09189990234 0.593131304137 0.0
0.0 2.09289990234 0.592377404122 0.0
0.0 2.09389990234 0.592421495971 0.0
0.0 2.09489990234 0.592598772995 0.0
0.0 2.09589990234 0.592323369792 0.0
0.0 2.09689990234 0.592409796765 0.0
0.0 2.09789990234 0.589531923638 0.0
0.0 2.09889990234 0.590234823305 0.0
0.0 2.09989990234 0.588813305776 0.0
0.0 2.10089990234 0.589281207772 0.0
0.0 2.10189990234 0.58841148433 0.0
0.0 2.10289990234 0.58717272186 0.0
0.0 2.10389990234 0.586590300559 0.0
0.0 2.10489990234 0.586800220088 0.0
0.0 2.10589990234 0.586167833857 0.0
0.0 2.10689990234 0.584584113708 0.0
0.0 2.10789990234 0.585433183846 0.0
0.0 2.10889990234 0.58485325255 0.0
0.0 2.10989990234 0.583849515561 0.0
0.0 2.11089990234 0.583258951866 0.0
0.0 2.11189990234 0.583573171974 0.0
0.0 2.11289990234 0.583114000549 0.0
0.0 2.11389990234 0.582792276185 0.0
0.0 2.11489990234 0.581663918493 0.0
0.0 2.11589990234 0.582096223555 0.0
0.0 2.11689990234 0.581793866318 0.0
0.0 2.11789990234 0.582129553569 0.0
0.0 2.11889990234 0.581833305356 0.0
0.0 2.11989990234 0.581473199242 0.0
0.0 2.12089990234 0.582254420498 0.0
0.0 2.12189990234 0.582610217274 0.0
0.0 2.12289990234 0.583016113761 0.0
0.0 2.12389990234 0.582854156514 0.0
0.0 2.12489990234 0.583966879234 0.0
0.0 2.12589990234 0.582946429292 0.0
0.0 2.12689990234 0.585381327329 0.0
0.0 2.12789990234 0.583958362427 0.0
0.0 2.12889990234 0.583589827853 0.0
0.0 2.12989990234 0.584605086316 0.0
0.0 2.13089990234 0.584235993833 0.0
0.0 2.13189990234 0.585531134914 0.0
0.0 2.13289990234 0.584895990823 0.0
0.0 2.13389990234 0.586732468911 0.0
0.0 2.13489990234 0.586891756165 0.0
0.0 2.13589990234 0.587408796227 0.0
0.0 2.13689990234 0.587672976507 0.0
0.0 2.13789990234 0.588896293524 0.0
0.0 2.13889990234 0.588494659933 0.0
0.0 2.13989990234 0.591545035789 0.0
0.0 2.14089990234 0.591160499486 0.0
0.0 2.14189990234 0.591766278886 0.0
0.0 2.14289990234 0.59253173593 0.0
0.0 2.14389990234 0.59264485059 0.0
0.0 2.14489990234 0.594052893637 0.0
0.0 2.14589990234 0.594926926906 0.0
0.0 2.14689990234 0.59384731905 0.0
0.0 2.14789990234 0.595601376487 0.0
0.0 2.14889990234 0.596410111076 0.0
0.0 2.14989990234 0.597918323009 0.0
0.0 2.15089990234 0.596580895778 0.0
0.0 2.15189990234 0.597762360115 0.0
0.0 2.15289990234 0.597411801928 0.0
0.0 2.15389990234 0.598146639328 0.0
0.0 2.15489990234 0.596782235539 0.0
0.0 2.15589990234 0.597226382148 0.0
0.0 2.15689990234 0.597728091812 0.0
0.0 2.15789990234 0.596779806161 0.0
0.0 2.15889990234 0.596851553372 0.0
0.0 2.15989990234 0.595466957221 0.0
0.0 2.16089990234 0.595902013202 0.0
0.0 2.16189990234 0.594778875991 0.0
0.0 2.16289990234 0.594222146794 0.0
0.0 2.16389990234 0.594440422304 0.0
0.0 2.16489990234 0.593076091063 0.0
0.0 2.16589990234 0.593447094471 0.0
0.0 2.16689990234 0.59181757759 0.0
0.0 2.16789990234 0.591861624953 0.0
0.0 2.16889990234 0.590150713453 0.0
0.0 2.16989990234 0.591280176746 0.0
0.0 2.17089990234 0.590013728391 0.0
0.0 2.17189990234 0.589604893451 0.0
0.0 2.17289990234 0.589685677526 0.0
0.0 2.17389990234 0.588745723589 0.0
0.0 2.17489990234 0.589044601841 0.0
0.0 2.17589990234 0.587353354683 0.0
0.0 2.17689990234 0.588186075869 0.0
0.0 2.17789990234 0.589541583012 0.0
0.0 2.17889990234 0.589323147037 0.0
0.0 2.17989990234 0.589053398287 0.0
0.0 2.18089990234 0.588840684541 0.0
0.0 2.18189990234 0.588750457489 0.0
0.0 2.18289990234 0.590493202088 0.0
0.0 2.18389990234 0.591122399169 0.0
0.0 2.18489990234 0.590631418791 0.0
0.0 2.18589990234 0.592744598318 0.0
0.0 2.18689990234 0.591823573798 0.0
0.0 2.18789990234 0.592545773187 0.0
0.0 2.18889990234 0.593741832574 0.0
0.0 2.18989990234 0.594062246678 0.0
0.0 2.19089990234 0.594698827481 0.0
0.0 2.19189990234 0.595722676399 0.0
0.0 2.19289990234 0.596158464411 0.0
0.0 2.19389990234 0.596677341153 0.0
0.0 2.19489990234 0.598222491518 0.0
0.0 2.19589990234 0.598994617748 0.0
0.0 2.19689990234 0.599759298102 0.0
0.0 2.19789990234 0.602045403071 0.0
0.0 2.19889990234 0.601816097742 0.0
0.0 2.19989990234 0.60281090393 0.0
0.0 2.20089990234 0.6028391429 0.0
0.0 2.20189990234 0.604025235973 0.0
0.0 2.20289990234 0.604237492473 0.0
0.0 2.20389990234 0.604062700529 0.0
0.0 2.20489990234 0.603654404784 0.0
0.0 2.20589990234 0.603071958194 0.0
0.0 2.20689990234 0.602146348988 0.0
0.0 2.20789990234 0.60202104483 0.0
0.0 2.20889990234 0.599822832266 0.0
0.0 2.20989990234 0.597548063526 0.0
0.0 2.21089990234 0.594112457483 0.0
0.0 2.21189990234 0.587757990623 0.0
0.0 2.21289990234 0.584088666836 0.0
0.0 2.21389990234 0.574367493778 0.0
0.0 2.21489990234 0.566539018033 0.0
0.0 2.21589990234 0.555816000374 0.0
0.0 2.21689990234 0.542539018592 0.0
0.0 2.21789990234 0.528227889061 0.0
0.0 2.21889990234 0.512328792883 0.0
0.0 2.21989990234 0.49506926577 0.0
0.0 2.22089990234 0.47629060929 0.0
0.0 2.22189990234 0.456256597539 0.0
0.0 2.22289990234 0.435886026178 0.0
0.0 2.22389990234 0.415461763885 0.0
0.0 2.22489990234 0.395651341812 0.0
0.0 2.22589990234 0.375683217203 0.0
0.0 2.22689990234 0.356639530133 0.0
0.0 2.22789990234 0.338996414428 0.0
0.0 2.22889990234 0.321502199172 0.0
0.0 2.22989990234 0.305842969318 0.0
0.0 2.23089990234 0.291781512143 0.0
0.0 2.23189990234 0.278532640328 0.0
0.0 2.23289990234 0.265538566746 0.0
0.0 2.23389990234 0.253691259239 0.0
0.0 2.23489990234 0.24153183037 0.0
0.0 2.23589990234 0.230090644301 0.0
0.0 2.23689990234 0.220019661389 0.0
0.0 2.23789990234 0.210207981614 0.0
0.0 2.23889990234 0.200916923352 0.0
0.0 2.23989990234 0.192597275603 0.0
0.0 2.24089990234 0.184830945666 0.0
0.0 2.24189990234 0.17744557036 0.0
0.0 2.24289990234 0.171300334142 0.0
0.0 2.24389990234 0.165813077661 0.0
0.0 2.24489990234 0.160713125683 0.0
0.0 2.24589990234 0.156334254452 0.0
0.0 2.24689990234 0.15241062072 0.0
0.0 2.24789990234 0.148896156961 0.0
0.0 2.24889990234 0.145939134286 0.0
0.0 2.24989990234 0.143525840066 0.0
0.0 2.25089990234 0.141391218149 0.0
0.0 2.25189990234 0.139490602346 0.0
0.0 2.25289990234 0.137922768902 0.0
0.0 2.25389990234 0.136504863663 0.0
0.0 2.25489990234 0.135293921726 0.0
0.0 2.25589990234 0.134353639936 0.0
0.0 2.25689990234 0.133537873734 0.0
0.0 2.25789990234 0.132833645217 0.0
0.0 2.25889990234 0.132259489534 0.0
0.0 2.25989990234 0.131754342624 0.0
0.0 2.26089990234 0.131333047434 0.0
0.0 2.26189990234 0.131027389685 0.0
0.0 2.26289990234 0.130785815463 0.0
0.0 2.26389990234 0.130584092014 0.0
0.0 2.26489990234 0.130442235983 0.0
0.0 2.26589990234 0.130338503349 0.0
0.0 2.26689990234 0.130262338605 0.0
0.0 2.26789990234 0.130231978139 0.0
0.0 2.26889990234 0.130225249245 0.0
0.0 2.26989990234 0.130245005169 0.0
0.0 2.27089990234 0.130294192294 0.0
0.0 2.27189990234 0.13035061634 0.0
0.0 2.27289990234 0.130425479735 0.0
0.0 2.27389990234 0.13051503028 0.0
0.0 2.27489990234 0.130624584705 0.0
0.0 2.27589990234 0.130740460091 0.0
0.0 2.27689990234 0.130863374773 0.0
0.0 2.27789990234 0.131004620717 0.0
0.0 2.27889990234 0.131140858568 0.0
0.0 2.27989990234 0.13128411563 0.0
0.0 2.28089990234 0.131439462377 0.0
0.0 2.28189990234 0.131600072008 0.0
0.0 2.28289990234 0.131762672938 0.0
0.0 2.28389990234 0.131926952737 0.0
0.0 2.28489990234 0.132094014991 0.0
0.0 2.28589990234 0.132271645622 0.0
0.0 2.28689990234 0.132440464469 0.0
0.0 2.28789990234 0.132621698986 0.0
0.0 2.28889990234 0.132802886226 0.0
0.0 2.28989990234 0.132983471319 0.0
0.0 2.29089990234 0.133165611781 0.0
0.0 2.29189990234 0.133352853452 0.0
0.0 2.29289990234 0.133542031126 0.0
0.0 2.29389990234 0.133728045949 0.0
0.0 2.29489990234 0.133924692061 0.0
0.0 2.29589990234 0.134113095635 0.0
0.0 2.29689990234 0.134309631716 0.0
0.0 2.29789990234 0.13450469792 0.0
0.0 2.29889990234 0.134701637932 0.0
0.0 2.29989990234 0.134898394304 0.0
0.0 2.30089990234 0.135097256844 0.0
0.0 2.30189990234 0.135300123678 0.0
0.0 2.30289990234 0.135498120685 0.0
0.0 2.30389990234 0.135699650947 0.0
0.0 2.30489990234 0.135902531469 0.0
0.0 2.30589990234 0.136108703752 0.0
0.0 2.30689990234 0.136311772325 0.0
0.0 2.30789990234 0.136519677098 0.0
0.0 2.30889990234 0.136726784198 0.0
0.0 2.30989990234 0.136933436434 0.0
0.0 2.31089990234 0.137145890305 0.0
0.0 2.31189990234 0.137353621804 0.0
0.0 2.31289990234 0.137563154769 0.0
0.0 2.31389990234 0.137774060651 0.0
0.0 2.31489990234 0.137987625846 0.0
0.0 2.31589990234 0.138200520733 0.0
0.0 2.31689990234 0.138414804051 0.0
0.0 2.31789990234 0.13862849707 0.0
0.0 2.31889990234 0.138842845531 0.0
0.0 2.31989990234 0.139060122512 0.0
0.0 2.32089990234 0.139277191538 0.0
0.0 2.32189990234 0.139494688541 0.0
0.0 2.32289990234 0.139713416444 0.0
0.0 2.32389990234 0.139930751433 0.0
0.0 2.32489990234 0.140151146408 0.0
0.0 2.32589990234 0.140371132947 0.0
0.0 2.32689990234 0.140592929079 0.0
0.0 2.32789990234 0.140813737411 0.0
0.0 2.32889990234 0.141036573581 0.0
0.0 2.32989990234 0.14126073743 0.0
0.0 2.33089990234 0.14148416859 0.0
0.0 2.33189990234 0.141709100528 0.0
0.0 2.33289990234 0.141934040724 0.0
0.0 2.33389990234 0.142160505295 0.0
0.0 2.33489990234 0.142387201938 0.0
0.0 2.33589990234 0.142615112843 0.0
0.0 2.33689990234 0.142843284293 0.0
0.0 2.33789990234 0.14307271128 0.0
0.0 2.33889990234 0.143302078703 0.0
0.0 2.33989990234 0.143532096658 0.0
0.0 2.34089990234 0.143763541306 0.0
0.0 2.34189990234 0.143995392324 0.0
0.0 2.34289990234 0.144228225313 0.0
0.0 2.34389990234 0.144461153093 0.0
0.0 2.34489990234 0.144694934799 0.0
0.0 2.34589990234 0.144930083575 0.0
0.0 2.34689990234 0.145165266062 0.0
0.0 2.34789990234 0.145400869111 0.0
0.0 2.34889990234 0.14563751743 0.0
0.0 2.34989990234 0.145875617418 0.0
0.0 2.35089990234 0.146113079118 0.0
0.0 2.35189990234 0.14635212234 0.0
0.0 2.35289990234 0.146590942216 0.0
0.0 2.35389990234 0.14683100415 0.0
0.0 2.35489990234 0.147071221689 0.0
0.0 2.35589990234 0.147312849616 0.0
0.0 2.35689990234 0.147555227756 0.0
0.0 2.35789990234 0.147797286389 0.0
0.0 2.35889990234 0.148040902687 0.0
0.0 2.35989990234 0.148284534078 0.0
0.0 2.36089990234 0.148529138061 0.0
0.0 2.36189990234 0.148774445776 0.0
0.0 2.36289990234 0.149020309712 0.0
0.0 2.36389990234 0.149267339713 0.0
0.0 2.36489990234 0.149514640041 0.0
0.0 2.36589990234 0.149762120141 0.0
0.0 2.36689990234 0.150011111941 0.0
0.0 2.36789990234 0.15026046876 0.0
0.0 2.36889990234 0.150510075602 0.0
0.0 2.36989990234 0.150760732059 0.0
0.0 2.37089990234 0.151012068247 0.0
0.0 2.37189990234 0.151264237591 0.0
0.0 2.37289990234 0.151517021151 0.0
0.0 2.37389990234 0.151770339019 0.0
0.0 2.37489990234 0.152024563952 0.0
0.0 2.37589990234 0.152279392334 0.0
0.0 2.37689990234 0.152534808947 0.0
0.0 2.37789990234 0.152791002655 0.0
0.0 2.37889990234 0.153047950161 0.0
0.0 2.37989990234 0.15330560803 0.0
0.0 2.38089990234 0.226408020402 0.0
0.0 2.38189990234 0.300239167368 0.0
0.0 2.38289990234 0.367024483999 0.0
0.0 2.38389990234 0.42743635837 0.0
0.0 2.38489990234 0.482082922969 0.0
0.0 2.38589990234 0.531514335357 0.0
0.0 2.38689990234 0.576228248549 0.0
0.0 2.38789990234 0.616674851246 0.0
0.0 2.38889990234 0.653261367718 0.0
0.0 2.38989990234 0.686356185409 0.0
0.0 2.39089990234 0.716292468844 0.0
0.0 2.39189990234 0.743371707046 0.0
0.0 2.39289990234 0.767866445133 0.0
0.0 2.39389990234 0.790023455654 0.0
0.0 2.39489990234 0.81006573531 0.0
0.0 2.39589990234 0.828195139564 0.0
0.0 2.39689990234 0.844594207572 0.0
0.0 2.39789990234 0.859428090728 0.0
0.0 2.39889990234 0.872846158178 0.0
0.0 2.39989990234 0.8849835324 0.0
0.0 2.40089990234 0.895962428433 0.0
0.0 2.40189990234 0.905893450781 0.0
0.0 2.40289990234 0.914876551197 0.0
0.0 2.40389990234 0.923002230045 0.0
0.0 2.40489990234 0.930352311269 0.0
0.0 2.40589990234 0.937000826536 0.0
0.0 2.40689990234 0.943014735317 0.0
0.0 2.40789990234 0.948454608874 0.0
0.0 2.40889990234 0.953375216868 0.0
0.0 2.40989990234 0.957826152771 0.0
0.0 2.41089990234 0.96185221649 0.0
0.0 2.41189990234 0.965493966856 0.0
0.0 2.41289990234 0.968788091536 0.0
0.0 2.41389990234 0.971767771361 0.0
0.0 2.41489990234 0.974463013437 0.0
0.0 2.41589990234 0.97690097566 0.0
0.0 2.41689990234 0.979106206059 0.0
0.0 2.41789990234 0.981100925618 0.0
0.0 2.41889990234 0.982905228603 0.0
0.0 2.41989990234 0.984537286807 0.0
0.0 2.42089990234 0.986013544787 0.0
0.0 2.42189990234 0.987348872034 0.0
0.0 2.42289990234 0.988556725231 0.0
0.0 2.42389990234 0.989649268346 0.0
0.0 2.42489990234 0.990637510038 0.0
0.0 2.42589990234 0.991531407155 0.0
0.0 2.42689990234 0.992339966286 0.0
0.0 2.42789990234 0.993071331906 0.0
0.0 2.42889990234 0.993732874807 0.0
0.0 2.42989990234 0.994331259544 0.0
0.0 2.43089990234 0.994872515648 0.0
0.0 2.43189990234 0.995362097049 0.0
0.0 2.43289990234 0.995804935682 0.0
0.0 2.43389990234 0.99620549526 0.0
0.0 2.43489990234 0.996567810884 0.0
0.0 2.43589990234 0.996895534584 0.0
0.0 2.43689990234 0.997191967566 0.0
0.0 2.43789990234 0.997460098256 0.0
0.0 2.43889990234 0.997702628238 0.0
0.0 2.43989990234 0.997922001422 0.0
0.0 2.44089990234 0.998120428987 0.0
0.0 2.44189990234 0.998299910149 0.0
0.0 2.44289990234 0.99846225428 0.0
0.0 2.44389990234 0.998609097241 0.0
0.0 2.44489990234 0.998741919136 0.0
0.0 2.44589990234 0.998862058525 0.0
0.0 2.44689990234 0.99897072632 0.0
0.0 2.44789990234 0.999069017811 0.0
0.0 2.44889990234 0.999157923741 0.0
0.0 2.44989990234 0.999238340102 0.0
0.0 2.45089990234 0.999311077694 0.0
0.0 2.45189990234 0.999376869421 0.0
0.0 2.45289990234 0.999436378668 0.0
0.0 2.45389990234 0.999490205442 0.0
0.0 2.45489990234 0.999538891943 0.0
0.0 2.45589990234 0.999582929253 0.0
0.0 2.45689990234 0.99962276125 0.0
0.0 2.45789990234 0.999658789468 0.0
0.0 2.45889990234 0.999691377098 0.0
0.0 2.45989990234 0.999720852701 0.0
0.0 2.46089990234 0.999747513493 0.0
0.0 2.46189990234 0.999771628145 0.0
0.0 2.46289990234 0.999793439896 0.0
0.0 2.46389990234 0.999813168578 0.0
0.0 2.46489990234 0.999831013122 0.0
0.0 2.46589990234 0.999847153481 0.0
0.0 2.46689990234 0.999861752377 0.0
0.0 2.46789990234 0.999874957 0.0
0.0 2.46889990234 0.999886900522 0.0
0.0 2.46989990234 0.999897703353 0.0
0.0 2.47089990234 0.999907474434 0.0
0.0 2.47189990234 0.999916312305 0.0
0.0 2.47289990234 0.999924306074 0.0
0.0 2.47389990234 0.999931536358 0.0
0.0 2.47489990234 0.999938076063 0.0
0.0 2.47589990234 0.999943991155 0.0
0.0 2.47689990234 0.999949341277 0.0
0.0 2.47789990234 0.999954180389 0.0
0.0 2.47889990234 0.999958557294 0.0
0.0 2.47989990234 0.999962516138 0.0
0.0 2.48089990234 0.999966096844 0.0
0.0 2.48189990234 0.999969335532 0.0
0.0 2.48289990234 0.999972264863 0.0
0.0 2.48389990234 0.999974914387 0.0
0.0 2.48489990234 0.999977310828 0.0
0.0 2.48589990234 0.999979478356 0.0
0.0 2.48689990234 0.999981438839 0.0
0.0 2.48789990234 0.999983212049 0.0
0.0 2.48889990234 0.999984815874 0.0
0.0 2.48989990234 0.999986266495 0.0
0.0 2.49089990234 0.999987578542 0.0
0.0 2.49189990234 0.999988765254 0.0
0.0 2.49289990234 0.999989838602 0.0
0.0 2.49389990234 0.999990809414 0.0
0.0 2.49489990234 0.999991687485 0.0
0.0 2.49589990234 0.999992481672 0.0
0.0 2.49689990234 0.999993199989 0.0
0.0 2.49789990234 0.999993849683 0.0
0.0 2.49889990234 0.999994437309 0.0
0.0 2.49989990234 0.999994968797 0.0
0.0 2.50089990234 0.999995449509 0.0
0.0 2.50189990234 0.999995884295 0.0
0.0 2.50289990234 0.999996277543 0.0
0.0 2.50389990234 0.99999663322 0.0
0.0 2.50489990234 0.999996954916 0.0
0.0 2.50589990234 0.999997245878 0.0
0.0 2.50689990234 0.99999750904 0.0
0.0 2.50789990234 0.999997747059 0.0
0.0 2.50889990234 0.999997962336 0.0
0.0 2.50989990234 0.999998157046 0.0
0.0 2.51089990234 0.999998333151 0.0
0.0 2.51189990234 0.99999849243 0.0
0.0 2.51289990234 0.999998636491 0.0
0.0 2.51389990234 0.999998766786 0.0
0.0 2.51489990234 0.999998884633 0.0
0.0 2.51589990234 0.999998991218 0.0
0.0 2.51689990234 0.99999908762 0.0
0.0 2.51789990234 0.999999174809 0.0
0.0 2.51889990234 0.999999253668 0.0
0.0 2.51989990234 0.999999324991 0.0
0.0 2.52089990234 0.999999389499 0.0
0.0 2.52189990234 0.999999447843 0.0
0.0 2.52289990234 0.999999500612 0.0
0.0 2.52389990234 0.999999548338 0.0
0.0 2.52489990234 0.999999591503 0.0
0.0 2.52589990234 0.999999630544 0.0
0.0 2.52689990234 0.999999665854 0.0
0.0 2.52789990234 0.999999697789 0.0
0.0 2.52889990234 0.999999726673 0.0
0.0 2.52989990234 0.999999752796 0.0
0.0 2.53089990234 0.999999776423 0.0
0.0 2.53189990234 0.999999797792 0.0
0.0 2.53289990234 0.999999817119 0.0
0.0 2.53389990234 0.999999834599 0.0
0.0 2.53489990234 0.999999850408 0.0
0.0 2.53589990234 0.999999864706 0.0
0.0 2.53689990234 0.999999877638 0.0
0.0 2.53789990234 0.999999889334 0.0
0.0 2.53889990234 0.999999899912 0.0
0.0 2.53989990234 0.999999909479 0.0
0.0 2.54089990234 0.999999918131 0.0
0.0 2.54189990234 0.999999925957 0.0
0.0 2.54289990234 0.999999933035 0.0
0.0 2.54389990234 0.999999939436 0.0
0.0 2.54489990234 0.999999945225 0.0
0.0 2.54589990234 0.999999950461 0.0
0.0 2.54689990234 0.999999955197 0.0
0.0 2.54789990234 0.99999995948 0.0
0.0 2.54889990234 0.999999963354 0.0
0.0 2.54989990234 0.999999966857 0.0
0.0 2.55089990234 0.999999970025 0.0
0.0 2.55189990234 0.999999972891 0.0
0.0 2.55289990234 0.999999975482 0.0
0.0 2.55389990234 0.999999977826 0.0
0.0 2.55489990234 0.999999979946 0.0
0.0 2.55589990234 0.999999981863 0.0
0.0 2.55689990234 0.999999983597 0.0
0.0 2.55789990234 0.999999985166 0.0
0.0 2.55889990234 0.999999986584 0.0
0.0 2.55989990234 0.999999987866 0.0
0.0 2.56089990234 0.999999989027 0.0
0.0 2.56189990234 0.999999990076 0.0
0.0 2.56289990234 0.999999991025 0.0
0.0 2.56389990234 0.999999991883 0.0
0.0 2.56489990234 0.999999992659 0.0
0.0 2.56589990234 0.999999993361 0.0
0.0 2.56689990234 0.999999993996 0.0
0.0 2.56789990234 0.99999999457 0.0
0.0 2.56889990234 0.999999995089 0.0
0.0 2.56989990234 0.999999995559 0.0
0.0 2.57089990234 0.999999995983 0.0
0.0 2.57189990234 0.999999996367 0.0
0.0 2.57289990234 0.999999996715 0.0
0.0 2.57389990234 0.999999997029 0.0
0.0 2.57489990234 0.999999997313 0.0
0.0 2.57589990234 0.99999999757 0.0
0.0 2.57689990234 0.999999997802 0.0
0.0 2.57789990234 0.999999998012 0.0
0.0 2.57889990234 0.999999998203 0.0
0.0 2.57989990234 0.999999998374 0.0
0.0 2.58089990234 0.99999999853 0.0
0.0 2.58189990234 0.99999999867 0.0
0.0 2.58289990234 0.999999998798 0.0
0.0 2.58389990234 0.999999998913 0.0
0.0 2.58489990234 0.999999999017 0.0
0.0 2.58589990234 0.999999999111 0.0
0.0 2.58689990234 0.999999999196 0.0
0.0 2.58789990234 0.999999999273 0.0
0.0 2.58889990234 0.999999999342 0.0
0.0 2.58989990234 0.999999999405 0.0
0.0 2.59089990234 0.999999999462 0.0
0.0 2.59189990234 0.999999999513 0.0
0.0 2.59289990234 0.99999999956 0.0
0.0 2.59389990234 0.999999999602 0.0
0.0 2.59489990234 0.99999999964 0.0
