0.0 0.551400024414 0.30917808473 0.0
0.0 0.552400024414 0.309028713534 0.0
0.0 0.553400024414 0.308879107794 0.0
0.0 0.554400024414 0.308729267239 0.0
0.0 0.555400024414 0.308579193176 0.0
0.0 0.556400024414 0.308428885135 0.0
0.0 0.557400024414 0.308278344454 0.0
0.0 0.558400024414 0.308127571393 0.0
0.0 0.559400024414 0.307976566701 0.0
0.0 0.560400024414 0.307825331003 0.0
0.0 0.561400024414 0.307673864087 0.0
0.0 0.562400024414 0.307522166479 0.0
0.0 0.563400024414 0.307370238913 0.0
0.0 0.564400024414 0.307218082471 0.0
0.0 0.565400024414 0.307065697302 0.0
0.0 0.566400024414 0.306913084184 0.0
0.0 0.567400024414 0.306760242754 0.0
0.0 0.568400024414 0.306607174356 0.0
0.0 0.569400024414 0.306453878608 0.0
0.0 0.570400024414 0.306300356628 0.0
0.0 0.571400024414 0.306146608562 0.0
0.0 0.572400024414 0.305992636247 0.0
0.0 0.573400024414 0.305838439056 0.0
0.0 0.574400024414 0.305684016687 0.0
0.0 0.575400024414 0.305529370529 0.0
0.0 0.576400024414 0.305374501181 0.0
0.0 0.577400024414 0.30521941004 0.0
0.0 0.578400024414 0.305064094311 0.0
0.0 0.579400024414 0.304908558282 0.0
0.0 0.580400024414 0.304752800599 0.0
0.0 0.581400024414 0.304596822609 0.0
0.0 0.582400024414 0.30444062262 0.0
0.0 0.583400024414 0.304284205333 0.0
0.0 0.584400024414 0.304127571208 0.0
0.0 0.585400024414 0.303970714449 0.0
0.0 0.586400024414 0.303813637984 0.0
0.0 0.587400024414 0.303656342885 0.0
0.0 0.588400024414 0.303498833022 0.0
0.0 0.589400024414 0.303341105134 0.0
0.0 0.590400024414 0.303183165534 0.0
0.0 0.591400024414 0.303025006586 0.0
0.0 0.592400024414 0.302866633702 0.0
0.0 0.593400024414 0.302708043805 0.0
0.0 0.594400024414 0.302549239984 0.0
0.0 0.595400024414 0.302390222615 0.0
0.0 0.596400024414 0.302230988653 0.0
0.0 0.597400024414 0.302071547796 0.0
0.0 0.598400024414 0.301911894857 0.0
0.0 0.599400024414 0.301752027834 0.0
0.0 0.600400024414 0.301591955253 0.0
0.0 0.601400024414 0.301431661818 0.0
0.0 0.602400024414 0.301271158265 0.0
0.0 0.603400024414 0.301110448422 0.0
0.0 0.604400024414 0.300949529487 0.0
0.0 0.605400024414 0.300788401045 0.0
0.0 0.606400024414 0.300627064844 0.0
0.0 0.607400024414 0.30046552231 0.0
0.0 0.608400024414 0.300303771997 0.0
0.0 0.609400024414 0.300141816533 0.0
0.0 0.610400024414 0.299979654771 0.0
0.0 0.611400024414 0.299817284479 0.0
0.0 0.612400024414 0.299654704008 0.0
0.0 0.613400024414 0.299491924518 0.0
0.0 0.614400024414 0.29932893761 0.0
0.0 0.615400024414 0.299165751998 0.0
0.0 0.616400024414 0.299002359418 0.0
0.0 0.617400024414 0.298838765646 0.0
0.0 0.618400024414 0.298674969648 0.0
0.0 0.619400024414 0.298510968355 0.0
0.0 0.620400024414 0.298346769854 0.0
0.0 0.621400024414 0.298182372498 0.0
0.0 0.622400024414 0.298017775317 0.0
0.0 0.623400024414 0.297852974071 0.0
0.0 0.624400024414 0.297687967892 0.0
0.0 0.625400024414 0.297522768262 0.0
0.0 0.626400024414 0.297357374065 0.0
0.0 0.627400024414 0.297191781672 0.0
0.0 0.628400024414 0.297025986336 0.0
0.0 0.629400024414 0.296859993977 0.0
0.0 0.630400024414 0.296693818824 0.0
0.0 0.631400024414 0.296527446165 0.0
0.0 0.632400024414 0.296360872234 0.0
0.0 0.633400024414 0.296194100321 0.0
0.0 0.634400024414 0.296027138156 0.0
0.0 0.635400024414 0.295859981494 0.0
0.0 0.636400024414 0.29569262696 0.0
0.0 0.637400024414 0.295525087521 0.0
0.0 0.638400024414 0.295357347621 0.0
0.0 0.639400024414 0.295189413686 0.0
0.0 0.640400024414 0.295021290644 0.0
0.0 0.641400024414 0.294852981659 0.0
0.0 0.642400024414 0.294684485733 0.0
0.0 0.643400024414 0.294515792938 0.0
0.0 0.644400024414 0.294346915944 0.0
0.0 0.645400024414 0.294177855466 0.0
0.0 0.646400024414 0.294008597716 0.0
0.0 0.647400024414 0.293839158689 0.0
0.0 0.648400024414 0.293669527719 0.0
0.0 0.649400024414 0.293499706873 0.0
0.0 0.650400024414 0.293329700531 0.0
0.0 0.651400024414 0.293159506429 0.0
0.0 0.652400024414 0.292989132751 0.0
0.0 0.653400024414 0.292818581476 0.0
0.0 0.654400024414 0.29264783485 0.0
0.0 0.655400024414 0.29247690122 0.0
0.0 0.656400024414 0.292305776104 0.0
0.0 0.657400024414 0.29213448979 0.0
0.0 0.658400024414 0.291963023077 0.0
0.0 0.659400024414 0.291791361436 0.0
0.0 0.660400024414 0.291619509623 0.0
0.0 0.661400024414 0.291447497626 0.0
0.0 0.662400024414 0.291275295371 0.0
0.0 0.663400024414 0.291102908897 0.0
0.0 0.664400024414 0.290930345054 0.0
0.0 0.665400024414 0.290757597537 0.0
0.0 0.666400024414 0.290584684337 0.0
0.0 0.667400024414 0.290411588611 0.0
0.0 0.668400024414 0.290238316698 0.0
0.0 0.669400024414 0.290064863896 0.0
0.0 0.670400024414 0.289891238446 0.0
0.0 0.671400024414 0.289717442129 0.0
0.0 0.672400024414 0.289543470204 0.0
0.0 0.673400024414 0.289369319734 0.0
0.0 0.674400024414 0.289194998998 0.0
0.0 0.675400024414 0.289020500529 0.0
0.0 0.676400024414 0.288845830371 0.0
0.0 0.677400024414 0.28867097984 0.0
0.0 0.678400024414 0.288495967678 0.0
0.0 0.679400024414 0.288320782601 0.0
0.0 0.680400024414 0.288145411153 0.0
0.0 0.681400024414 0.287969883952 0.0
0.0 0.682400024414 0.287794182204 0.0
0.0 0.683400024414 0.287618318041 0.0
0.0 0.684400024414 0.28744228267 0.0
0.0 0.685400024414 0.287266074242 0.0
0.0 0.686400024414 0.287089702182 0.0
0.0 0.687400024414 0.286913156781 0.0
0.0 0.688400024414 0.286736453728 0.0
0.0 0.689400024414 0.286559583004 0.0
0.0 0.690400024414 0.286382522536 0.0
0.0 0.691400024414 0.286205306152 0.0
0.0 0.692400024414 0.286027929913 0.0
0.0 0.693400024414 0.28585039188 0.0
0.0 0.694400024414 0.285672671177 0.0
0.0 0.695400024414 0.285494801694 0.0
0.0 0.696400024414 0.285316766841 0.0
0.0 0.697400024414 0.285138582204 0.0
0.0 0.698400024414 0.284960236343 0.0
0.0 0.699400024414 0.284781730791 0.0
0.0 0.700400024414 0.284603050863 0.0
0.0 0.701400024414 0.284424215065 0.0
0.0 0.702400024414 0.284245211808 0.0
0.0 0.703400024414 0.284066036323 0.0
0.0 0.704400024414 0.283886729721 0.0
0.0 0.705400024414 0.283707255902 0.0
0.0 0.706400024414 0.283527621201 0.0
0.0 0.707400024414 0.283347827225 0.0
0.0 0.708400024414 0.283167884456 0.0
0.0 0.709400024414 0.282987790239 0.0
0.0 0.710400024414 0.282807517179 0.0
0.0 0.711400024414 0.282627077823 0.0
0.0 0.712400024414 0.282446516304 0.0
0.0 0.713400024414 0.282265787442 0.0
0.0 0.714400024414 0.282084892485 0.0
0.0 0.715400024414 0.281903862458 0.0
0.0 0.716400024414 0.281722672623 0.0
0.0 0.717400024414 0.28154132601 0.0
0.0 0.718400024414 0.281359826246 0.0
0.0 0.719400024414 0.281178183888 0.0
0.0 0.720400024414 0.280996377649 0.0
0.0 0.721400024414 0.280814433617 0.0
0.0 0.722400024414 0.280632336008 0.0
0.0 0.723400024414 0.280450084591 0.0
0.0 0.724400024414 0.280267677743 0.0
0.0 0.725400024414 0.28008512634 0.0
0.0 0.726400024414 0.279902441387 0.0
0.0 0.727400024414 0.279719601522 0.0
0.0 0.728400024414 0.279536617863 0.0
0.0 0.729400024414 0.279353485632 0.0
0.0 0.730400024414 0.279170211518 0.0
0.0 0.731400024414 0.278986785103 0.0
0.0 0.732400024414 0.278803212421 0.0
0.0 0.733400024414 0.278619499407 0.0
0.0 0.734400024414 0.278435649533 0.0
0.0 0.735400024414 0.278251646997 0.0
0.0 0.736400024414 0.278067504093 0.0
0.0 0.737400024414 0.277883202338 0.0
0.0 0.738400024414 0.27769876954 0.0
0.0 0.739400024414 0.27751418622 0.0
0.0 0.740400024414 0.277329472906 0.0
0.0 0.741400024414 0.277144601188 0.0
0.0 0.742400024414 0.276959587841 0.0
0.0 0.743400024414 0.276774445194 0.0
0.0 0.744400024414 0.276589169688 0.0
0.0 0.745400024414 0.276403771189 0.0
0.0 0.746400024414 0.276218213427 0.0
0.0 0.747400024414 0.276032541437 0.0
0.0 0.748400024414 0.275846706826 0.0
0.0 0.749400024414 0.275660742685 0.0
0.0 0.750400024414 0.275474633494 0.0
0.0 0.751400024414 0.275288396065 0.0
0.0 0.752400024414 0.275102024233 0.0
0.0 0.753400024414 0.274915519256 0.0
0.0 0.754400024414 0.274728878277 0.0
0.0 0.755400024414 0.274542102796 0.0
0.0 0.756400024414 0.274355211927 0.0
0.0 0.757400024414 0.274168181118 0.0
0.0 0.758400024414 0.273981017028 0.0
0.0 0.759400024414 0.273793703552 0.0
0.0 0.760400024414 0.273606267985 0.0
0.0 0.761400024414 0.273418696502 0.0
0.0 0.762400024414 0.273231001716 0.0
0.0 0.763400024414 0.273043173678 0.0
0.0 0.764400024414 0.272855223465 0.0
0.0 0.765400024414 0.272667140462 0.0
0.0 0.766400024414 0.272478936976 0.0
0.0 0.767400024414 0.272290612675 0.0
0.0 0.768400024414 0.272102157585 0.0
0.0 0.769400024414 0.271913558942 0.0
0.0 0.770400024414 0.271724833646 0.0
0.0 0.771400024414 0.271536004672 0.0
0.0 0.772400024414 0.271347029658 0.0
0.0 0.773400024414 0.271157948162 0.0
0.0 0.774400024414 0.270968719769 0.0
0.0 0.775400024414 0.270779381554 0.0
0.0 0.776400024414 0.270589910733 0.0
0.0 0.777400024414 0.270400327763 0.0
0.0 0.778400024414 0.270210609744 0.0
0.0 0.779400024414 0.270020781648 0.0
0.0 0.780400024414 0.269830828451 0.0
0.0 0.781400024414 0.269640755496 0.0
0.0 0.782400024414 0.269450551071 0.0
0.0 0.783400024414 0.269260240055 0.0
0.0 0.784400024414 0.269069808244 0.0
0.0 0.785400024414 0.268879255197 0.0
0.0 0.786400024414 0.268688584861 0.0
0.0 0.787400024414 0.268497808534 0.0
0.0 0.788400024414 0.268306923991 0.0
0.0 0.789400024414 0.268115910608 0.0
0.0 0.790400024414 0.267924765333 0.0
0.0 0.791400024414 0.26773350207 0.0
0.0 0.792400024414 0.267542132438 0.0
0.0 0.793400024414 0.267350648487 0.0
0.0 0.794400024414 0.267159095418 0.0
0.0 0.795400024414 0.266967441862 0.0
0.0 0.796400024414 0.266775660329 0.0
0.0 0.797400024414 0.266583753072 0.0
0.0 0.798400024414 0.266391727892 0.0
0.0 0.799400024414 0.266199589922 0.0
0.0 0.800400024414 0.266007317196 0.0
0.0 0.801400024414 0.265814950935 0.0
0.0 0.802400024414 0.265622481 0.0
0.0 0.803400024414 0.265429901536 0.0
0.0 0.804400024414 0.265237198676 0.0
0.0 0.805400024414 0.265044388397 0.0
0.0 0.806400024414 0.264851462208 0.0
0.0 0.807400024414 0.264658443347 0.0
0.0 0.808400024414 0.26446529061 0.0
0.0 0.809400024414 0.264272022105 0.0
0.0 0.810400024414 0.264078677098 0.0
0.0 0.811400024414 0.263885184196 0.0
0.0 0.812400024414 0.263691569517 0.0
0.0 0.813400024414 0.26349787772 0.0
0.0 0.814400024414 0.263304082407 0.0
0.0 0.815400024414 0.26311016843 0.0
0.0 0.816400024414 0.262916177198 0.0
0.0 0.817400024414 0.262722088038 0.0
0.0 0.818400024414 0.262527887974 0.0
0.0 0.819400024414 0.262333600159 0.0
0.0 0.820400024414 0.262139202079 0.0
0.0 0.821400024414 0.261944715646 0.0
0.0 0.822400024414 0.261750128645 0.0
0.0 0.823400024414 0.261555440888 0.0
0.0 0.824400024414 0.261360652434 0.0
0.0 0.825400024414 0.261165780034 0.0
0.0 0.826400024414 0.260970805231 0.0
0.0 0.827400024414 0.260775723815 0.0
0.0 0.828400024414 0.260580549884 0.0
0.0 0.829400024414 0.260385268314 0.0
0.0 0.830400024414 0.26018988861 0.0
0.0 0.831400024414 0.259994415829 0.0
0.0 0.832400024414 0.259798847891 0.0
0.0 0.833400024414 0.259603187705 0.0
0.0 0.834400024414 0.259407448 0.0
0.0 0.835400024414 0.259211613213 0.0
0.0 0.836400024414 0.259015679556 0.0
0.0 0.837400024414 0.258819660931 0.0
0.0 0.838400024414 0.25862353448 0.0
0.0 0.839400024414 0.258427319417 0.0
0.0 0.840400024414 0.258231021137 0.0
0.0 0.841400024414 0.258034640646 0.0
0.0 0.842400024414 0.257838163189 0.0
0.0 0.843400024414 0.257641593225 0.0
0.0 0.844400024414 0.257444921954 0.0
0.0 0.845400024414 0.257248196123 0.0
0.0 0.846400024414 0.257051364515 0.0
0.0 0.847400024414 0.256854433192 0.0
0.0 0.848400024414 0.256657422885 0.0
0.0 0.849400024414 0.256460347433 0.0
0.0 0.850400024414 0.256263144205 0.0
0.0 0.851400024414 0.256065849849 0.0
0.0 0.852400024414 0.255868497296 0.0
0.0 0.853400024414 0.255671049988 0.0
0.0 0.854400024414 0.255473541922 0.0
0.0 0.855400024414 0.255275940307 0.0
0.0 0.856400024414 0.255078258925 0.0
0.0 0.857400024414 0.254880499336 0.0
0.0 0.858400024414 0.254682667013 0.0
0.0 0.859400024414 0.254484709726 0.0
0.0 0.860400024414 0.254286671504 0.0
0.0 0.861400024414 0.254088593707 0.0
0.0 0.862400024414 0.253890439036 0.0
0.0 0.863400024414 0.253692155576 0.0
0.0 0.864400024414 0.253493811434 0.0
0.0 0.865400024414 0.253295395018 0.0
0.0 0.866400024414 0.253096885024 0.0
0.0 0.867400024414 0.252898280605 0.0
0.0 0.868400024414 0.252699621468 0.0
0.0 0.869400024414 0.252500905466 0.0
0.0 0.870400024414 0.252302125862 0.0
0.0 0.871400024414 0.252103240446 0.0
0.0 0.872400024414 0.251904304752 0.0
0.0 0.873400024414 0.25170527268 0.0
0.0 0.874400024414 0.251506192497 0.0
0.0 0.875400024414 0.25130699764 0.0
0.0 0.876400024414 0.251107788241 0.0
0.0 0.877400024414 0.2509085011 0.0
0.0 0.878400024414 0.25070908606 0.0
0.0 0.879400024414 0.250509623748 0.0
0.0 0.880400024414 0.250310178732 0.0
0.0 0.881400024414 0.250110529741 0.0
0.0 0.882400024414 0.249910857798 0.0
0.0 0.883400024414 0.249711387422 0.0
0.0 0.884400024414 0.249511804092 0.0
0.0 0.885400024414 0.249311943487 0.0
0.0 0.886400024414 0.24911214857 0.0
0.0 0.887400024414 0.248912031545 0.0
0.0 0.888400024414 0.248711785184 0.0
0.0 0.889400024414 0.248511882555 0.0
0.0 0.890400024414 0.248311515044 0.0
0.0 0.891400024414 0.248111271705 0.0
0.0 0.892400024414 0.247911125363 0.0
0.0 0.893400024414 0.247710926276 0.0
0.0 0.894400024414 0.247510123332 0.0
0.0 0.895400024414 0.247309511943 0.0
0.0 0.896400024414 0.247108738593 0.0
0.0 0.897400024414 0.246907977081 0.0
0.0 0.898400024414 0.246707023579 0.0
0.0 0.899400024414 0.24650626567 0.0
0.0 0.900400024414 0.246305413676 0.0
0.0 0.901400024414 0.246104510548 0.0
0.0 0.902400024414 0.245903555292 0.0
0.0 0.903400024414 0.245702517493 0.0
0.0 0.904400024414 0.245501418132 0.0
0.0 0.905400024414 0.245300262416 0.0
0.0 0.906400024414 0.24509903651 0.0
0.0 0.907400024414 0.244897763341 0.0
0.0 0.908400024414 0.244696451237 0.0
0.0 0.909400024414 0.244495041191 0.0
0.0 0.910400024414 0.244293610714 0.0
0.0 0.911400024414 0.244092143516 0.0
0.0 0.912400024414 0.243890582778 0.0
0.0 0.913400024414 0.243688987151 0.0
0.0 0.914400024414 0.243487356359 0.0
0.0 0.915400024414 0.24328564326 0.0
0.0 0.916400024414 0.243083867683 0.0
0.0 0.917400024414 0.242882052665 0.0
0.0 0.918400024414 0.242680189835 0.0
0.0 0.919400024414 0.242478307026 0.0
0.0 0.920400024414 0.242276341305 0.0
0.0 0.921400024414 0.242074338529 0.0
0.0 0.922400024414 0.241872318749 0.0
0.0 0.923400024414 0.24167022632 0.0
0.0 0.924400024414 0.24146806197 0.0
0.0 0.925400024414 0.241265872668 0.0
0.0 0.926400024414 0.24106360756 0.0
0.0 0.927400024414 0.240861291878 0.0
0.0 0.928400024414 0.240658952558 0.0
0.0 0.929400024414 0.240456570251 0.0
0.0 0.930400024414 0.240254121005 0.0
0.0 0.931400024414 0.240051657673 0.0
0.0 0.932400024414 0.239849138375 0.0
0.0 0.933400024414 0.239646575453 0.0
0.0 0.934400024414 0.239443955225 0.0
0.0 0.935400024414 0.239241305806 0.0
0.0 0.936400024414 0.239038604764 0.0
0.0 0.937400024414 0.238835850405 0.0
0.0 0.938400024414 0.238633044366 0.0
0.0 0.939400024414 0.238430216298 0.0
0.0 0.940400024414 0.238227343804 0.0
0.0 0.941400024414 0.238024413378 0.0
0.0 0.942400024414 0.23782144507 0.0
0.0 0.943400024414 0.237618432029 0.0
0.0 0.944400024414 0.237415400643 0.0
0.0 0.945400024414 0.237212347679 0.0
0.0 0.946400024414 0.237009217188 0.0
0.0 0.947400024414 0.236806046298 0.0
0.0 0.948400024414 0.236602878602 0.0
0.0 0.949400024414 0.23639964766 0.0
0.0 0.950400024414 0.236196358983 0.0
0.0 0.951400024414 0.235993094781 0.0
0.0 0.952400024414 0.235789770954 0.0
0.0 0.953400024414 0.235586397732 0.0
0.0 0.954400024414 0.235383007819 0.0
0.0 0.955400024414 0.235179566436 0.0
0.0 0.956400024414 0.234976070057 0.0
0.0 0.957400024414 0.234772574218 0.0
0.0 0.958400024414 0.23456904868 0.0
0.0 0.959400024414 0.234365443607 0.0
0.0 0.960400024414 0.234161832285 0.0
0.0 0.961400024414 0.233958221461 0.0
0.0 0.962400024414 0.233754556367 0.0
0.0 0.963400024414 0.233550860014 0.0
0.0 0.964400024414 0.233347166862 0.0
0.0 0.965400024414 0.23314343064 0.0
0.0 0.966400024414 0.232939659297 0.0
0.0 0.967400024414 0.232735861204 0.0
0.0 0.968400024414 0.232532047529 0.0
0.0 0.969400024414 0.232328198821 0.0
0.0 0.970400024414 0.232124314535 0.0
0.0 0.971400024414 0.231920419536 0.0
0.0 0.972400024414 0.231716514894 0.0
0.0 0.973400024414 0.231512562092 0.0
0.0 0.974400024414 0.231308587554 0.0
0.0 0.975400024414 0.23110461609 0.0
0.0 0.976400024414 0.230900610711 0.0
0.0 0.977400024414 0.230696569085 0.0
0.0 0.978400024414 0.230492490684 0.0
0.0 0.979400024414 0.230288410351 0.0
0.0 0.980400024414 0.230084294649 0.0
0.0 0.981400024414 0.229880176962 0.0
0.0 0.982400024414 0.229676022305 0.0
0.0 0.983400024414 0.229471861144 0.0
0.0 0.984400024414 0.2292676628 0.0
0.0 0.985400024414 0.229063447588 0.0
0.0 0.986400024414 0.22885920019 0.0
0.0 0.987400024414 0.228654974406 0.0
0.0 0.988400024414 0.228450726975 0.0
0.0 0.989400024414 0.228246461855 0.0
0.0 0.990400024414 0.228042173606 0.0
0.0 0.991400024414 0.227837874148 0.0
0.0 0.992400024414 0.227633552662 0.0
0.0 0.993400024414 0.227429205737 0.0
0.0 0.994400024414 0.227224844421 0.0
0.0 0.995400024414 0.227021110581 0.0
0.0 0.996400024414 0.226817356458 0.0
0.0 0.997400024414 0.226613344205 0.0
0.0 0.998400024414 0.226409152121 0.0
0.0 0.999400024414 0.226205194756 0.0
0.0 1.00040002441 0.226000871832 0.0
0.0 1.00140002441 0.225796536493 0.0
0.0 1.00240002441 0.225591963977 0.0
0.0 1.00340002441 0.225387424325 0.0
0.0 1.00440002441 0.225182865115 0.0
0.0 1.00540002441 0.224978406255 0.0
0.0 1.00640002441 0.224773844775 0.0
0.0 1.00740002441 0.224569490247 0.0
0.0 1.00840002441 0.224365025384 0.0
0.0 1.00940002441 0.224160462634 0.0
0.0 1.01040002441 0.223955876193 0.0
0.0 1.01140002441 0.223751527764 0.0
0.0 1.01240002441 0.223547115241 0.0
0.0 1.01340002441 0.223342550094 0.0
0.0 1.01440002441 0.223138062936 0.0
0.0 1.01540002441 0.222933457909 0.0
0.0 1.01640002441 0.222728744039 0.0
0.0 1.01740002441 0.222524200366 0.0
0.0 1.01840002441 0.222319704587 0.0
0.0 1.01940002441 0.222115248905 0.0
0.0 1.02040002441 0.221910621792 0.0
0.0 1.02140002441 0.221706049157 0.0
0.0 1.02240002441 0.221501494811 0.0
0.0 1.02340002441 0.221296977991 0.0
0.0 1.02440002441 0.22109252287 0.0
0.0 1.02540002441 0.220887850486 0.0
0.0 1.02640002441 0.220683102328 0.0
0.0 1.02740002441 0.220478526359 0.0
0.0 1.02840002441 0.220274346747 0.0
0.0 1.02940002441 0.220069972252 0.0
0.0 1.03040002441 0.219865439532 0.0
0.0 1.03140002441 0.219660951443 0.0
0.0 1.03240002441 0.219456260773 0.0
0.0 1.03340002441 0.219251694648 0.0
0.0 1.03440002441 0.219047090131 0.0
0.0 1.03540002441 0.218842636833 0.0
0.0 1.03640002441 0.218638233124 0.0
0.0 1.03740002441 0.218433774989 0.0
0.0 1.03840002441 0.218229329165 0.0
0.0 1.03940002441 0.218024870436 0.0
0.0 1.04040002441 0.217820338365 0.0
0.0 1.04140002441 0.217615871283 0.0
0.0 1.04240002441 0.21741143947 0.0
0.0 1.04340002441 0.217206979431 0.0
0.0 1.04440002441 0.217002551065 0.0
0.0 1.04540002441 0.216798070345 0.0
0.0 1.04640002441 0.21659385736 0.0
0.0 1.04740002441 0.216389564688 0.0
0.0 1.04840002441 0.216185255434 0.0
0.0 1.04940002441 0.215980781165 0.0
0.0 1.05040002441 0.215776554854 0.0
0.0 1.05140002441 0.215572213445 0.0
0.0 1.05240002441 0.215367880097 0.0
0.0 1.05340002441 0.215163549327 0.0
0.0 1.05440002441 0.214959304845 0.0
0.0 1.05540002441 0.214754916183 0.0
0.0 1.05640002441 0.214550673004 0.0
0.0 1.05740002441 0.214346321193 0.0
0.0 1.05840002441 0.214142298212 0.0
0.0 1.05940002441 0.21393821449 0.0
0.0 1.06040002441 0.213733969095 0.0
0.0 1.06140002441 0.213529770019 0.0
0.0 1.06240002441 0.213325771507 0.0
0.0 1.06340002441 0.21312165216 0.0
0.0 1.06440002441 0.21291743802 0.0
0.0 1.06540002441 0.212713465592 0.0
0.0 1.06640002441 0.212509268688 0.0
0.0 1.06740002441 0.212305351648 0.0
0.0 1.06840002441 0.212101526812 0.0
0.0 1.06940002441 0.211897545354 0.0
0.0 1.07040002441 0.211693516567 0.0
0.0 1.07140002441 0.211489647953 0.0
0.0 1.07240002441 0.211285772176 0.0
0.0 1.07340002441 0.211081971155 0.0
0.0 1.07440002441 0.210877972249 0.0
0.0 1.07540002441 0.210674209941 0.0
0.0 1.07640002441 0.210470471446 0.0
0.0 1.07740002441 0.210266738258 0.0
0.0 1.07840002441 0.210063058215 0.0
0.0 1.07940002441 0.209859169485 0.0
0.0 1.08040002441 0.209655455742 0.0
0.0 1.08140002441 0.209451932645 0.0
0.0 1.08240002441 0.209248321925 0.0
0.0 1.08340002441 0.209044813236 0.0
0.0 1.08440002441 0.208841325475 0.0
0.0 1.08540002441 0.208637769908 0.0
0.0 1.08640002441 0.208434221143 0.0
0.0 1.08740002441 0.208230734019 0.0
0.0 1.08840002441 0.208027461071 0.0
0.0 1.08940002441 0.207823963108 0.0
0.0 1.09040002441 0.207620606693 0.0
0.0 1.09140002441 0.207417237733 0.0
0.0 1.09240002441 0.207214065149 0.0
0.0 1.09340002441 0.207010831528 0.0
0.0 1.09440002441 0.206807733941 0.0
0.0 1.09540002441 0.206604433796 0.0
0.0 1.09640002441 0.206401178088 0.0
0.0 1.09740002441 0.206198001679 0.0
0.0 1.09840002441 0.205995020157 0.0
0.0 1.09940002441 0.205792174591 0.0
0.0 1.10040002441 0.205589129736 0.0
0.0 1.10140002441 0.205386114164 0.0
0.0 1.10240002441 0.205183350504 0.0
0.0 1.10340002441 0.204980472208 0.0
0.0 1.10440002441 0.204777572769 0.0
0.0 1.10540002441 0.204574776417 0.0
0.0 1.10640002441 0.204372075984 0.0
0.0 1.10740002441 0.20416937837 0.0
0.0 1.10840002441 0.20396668508 0.0
0.0 1.10940002441 0.203764218842 0.0
0.0 1.11040002441 0.203561689366 0.0
0.0 1.11140002441 0.203359094519 0.0
0.0 1.11240002441 0.203156445451 0.0
0.0 1.11340002441 0.202954079772 0.0
0.0 1.11440002441 0.20275175049 0.0
0.0 1.11540002441 0.202549620806 0.0
0.0 1.11640002441 0.202347184941 0.0
0.0 1.11740002441 0.202144814606 0.0
0.0 1.11840002441 0.20194273279 0.0
0.0 1.11940002441 0.201740501347 0.0
0.0 1.12040002441 0.201538314009 0.0
0.0 1.12140002441 0.201336287956 0.0
0.0 1.12240002441 0.201134380756 0.0
0.0 1.12340002441 0.200932456966 0.0
0.0 1.12440002441 0.200730533194 0.0
0.0 1.12540002441 0.200528750845 0.0
0.0 1.12640002441 0.200327005769 0.0
0.0 1.12740002441 0.200125250799 0.0
0.0 1.12840002441 0.199923568738 0.0
0.0 1.12940002441 0.199721957197 0.0
0.0 1.13040002441 0.19952036421 0.0
0.0 1.13140002441 0.199318887633 0.0
0.0 1.13240002441 0.199117460473 0.0
0.0 1.13340002441 0.198916019246 0.0
0.0 1.13440002441 0.198714593468 0.0
0.0 1.13540002441 0.198513337705 0.0
0.0 1.13640002441 0.198312021731 0.0
0.0 1.13740002441 0.198110997605 0.0
0.0 1.13840002441 0.197909854677 0.0
0.0 1.13940002441 0.197708651458 0.0
0.0 1.14040002441 0.197507632893 0.0
0.0 1.14140002441 0.197306710278 0.0
0.0 1.14240002441 0.19710591762 0.0
0.0 1.14340002441 0.196905218136 0.0
0.0 1.14440002441 0.196704379292 0.0
0.0 1.14540002441 0.19650364858 0.0
0.0 1.14640002441 0.196303071227 0.0
0.0 1.14740002441 0.196102575753 0.0
0.0 1.14840002441 0.195902074142 0.0
0.0 1.14940002441 0.19570169077 0.0
0.0 1.15040002441 0.19550119698 0.0
0.0 1.15140002441 0.195300716209 0.0
0.0 1.15240002441 0.19510039182 0.0
0.0 1.15340002441 0.194900313623 0.0
0.0 1.15440002441 0.194700214584 0.0
0.0 1.15540002441 0.194500160035 0.0
0.0 1.15640002441 0.194300280372 0.0
0.0 1.15740002441 0.194100401303 0.0
0.0 1.15840002441 0.193900632018 0.0
0.0 1.15940002441 0.19370075748 0.0
0.0 1.16040002441 0.193501028716 0.0
0.0 1.16140002441 0.193301533661 0.0
0.0 1.16240002441 0.193101808058 0.0
0.0 1.16340002441 0.192902213932 0.0
0.0 1.16440002441 0.192702938336 0.0
0.0 1.16540002441 0.192503543484 0.0
0.0 1.16640002441 0.192304302659 0.0
0.0 1.16740002441 0.192105092567 0.0
0.0 1.16840002441 0.191906075372 0.0
0.0 1.16940002441 0.191706876608 0.0
0.0 1.17040002441 0.191507796524 0.0
0.0 1.17140002441 0.191308899915 0.0
0.0 1.17240002441 0.191109967774 0.0
0.0 1.17340002441 0.19091129163 0.0
0.0 1.17440002441 0.19071260403 0.0
0.0 1.17540002441 0.190513970982 0.0
0.0 1.17640002441 0.190315417421 0.0
0.0 1.17740002441 0.19011700617 0.0
0.0 1.17840002441 0.189918614239 0.0
0.0 1.17940002441 0.189720385596 0.0
0.0 1.18040002441 0.189522175712 0.0
0.0 1.18140002441 0.189324022302 0.0
0.0 1.18240002441 0.189125927673 0.0
0.0 1.18340002441 0.188927912378 0.0
0.0 1.18440002441 0.188730093076 0.0
0.0 1.18540002441 0.188532236741 0.0
0.0 1.18640002441 0.188334402682 0.0
0.0 1.18740002441 0.188136901743 0.0
0.0 1.18840002441 0.187939364436 0.0
0.0 1.18940002441 0.187741826444 0.0
0.0 1.19040002441 0.18754430767 0.0
0.0 1.19140002441 0.187347059161 0.0
0.0 1.19240002441 0.187150117267 0.0
0.0 1.19340002441 0.186952936041 0.0
0.0 1.19440002441 0.186755712492 0.0
0.0 1.19540002441 0.186558733935 0.0
0.0 1.19640002441 0.186361821428 0.0
0.0 1.19740002441 0.186165097086 0.0
0.0 1.19840002441 0.185968427532 0.0
0.0 1.19940002441 0.185771792395 0.0
0.0 1.20040002441 0.185575192116 0.0
0.0 1.20140002441 0.185378693703 0.0
0.0 1.20240002441 0.185182397771 0.0
0.0 1.20340002441 0.184986249374 0.0
0.0 1.20440002441 0.184789987295 0.0
0.0 1.20540002441 0.184593665134 0.0
0.0 1.20640002441 0.184397852364 0.0
0.0 1.20740002441 0.184202049027 0.0
0.0 1.20840002441 0.184006293563 0.0
0.0 1.20940002441 0.183810533966 0.0
0.0 1.21040002441 0.183614815528 0.0
0.0 1.21140002441 0.183419299143 0.0
0.0 1.21240002441 0.183223807241 0.0
0.0 1.21340002441 0.183028502691 0.0
0.0 1.21440002441 0.182833382777 0.0
0.0 1.21540002441 0.182638128336 0.0
0.0 1.21640002441 0.182443011971 0.0
0.0 1.21740002441 0.182248245706 0.0
0.0 1.21840002441 0.182053544606 0.0
0.0 1.21940002441 0.181858731065 0.0
0.0 1.22040002441 0.181664142811 0.0
0.0 1.22140002441 0.181469627776 0.0
0.0 1.22240002441 0.18127521458 0.0
0.0 1.22340002441 0.18108077288 0.0
0.0 1.22440002441 0.180886599976 0.0
0.0 1.22540002441 0.180692602305 0.0
0.0 1.22640002441 0.180498606551 0.0
0.0 1.22740002441 0.180304605254 0.0
0.0 1.22840002441 0.180110802146 0.0
0.0 1.22940002441 0.179917070299 0.0
0.0 1.23040002441 0.179723361088 0.0
0.0 1.23140002441 0.179529828313 0.0
0.0 1.23240002441 0.17933635047 0.0
0.0 1.23340002441 0.179143051186 0.0
0.0 1.23440002441 0.178949998288 0.0
0.0 1.23540002441 0.178756984758 0.0
0.0 1.23640002441 0.178563992886 0.0
0.0 1.23740002441 0.178371018867 0.0
0.0 1.23840002441 0.178178247517 0.0
0.0 1.23940002441 0.17798560706 0.0
0.0 1.24040002441 0.177793113164 0.0
0.0 1.24140002441 0.177600631095 0.0
0.0 1.24240002441 0.177408311708 0.0
0.0 1.24340002441 0.177216091241 0.0
0.0 1.24440002441 0.177023981671 0.0
0.0 1.24540002441 0.176832021313 0.0
0.0 1.24640002441 0.176640127555 0.0
0.0 1.24740002441 0.1764485323 0.0
0.0 1.24840002441 0.17625692503 0.0
0.0 1.24940002441 0.176065342637 0.0
0.0 1.25040002441 0.175873756876 0.0
0.0 1.25140002441 0.175682467227 0.0
0.0 1.25240002441 0.175491380301 0.0
0.0 1.25340002441 0.175300190423 0.0
0.0 1.25440002441 0.175109285171 0.0
0.0 1.25540002441 0.174918400095 0.0
0.0 1.25640002441 0.17472765163 0.0
0.0 1.25740002441 0.174537013755 0.0
0.0 1.25840002441 0.174346506798 0.0
0.0 1.25940002441 0.17415620725 0.0
0.0 1.26040002441 0.173965878118 0.0
0.0 1.26140002441 0.173775712687 0.0
0.0 1.26240002441 0.173585828979 0.0
0.0 1.26340002441 0.173396133722 0.0
0.0 1.26440002441 0.173206373242 0.0
0.0 1.26540002441 0.173016507207 0.0
0.0 1.26640002441 0.172826896657 0.0
0.0 1.26740002441 0.172637516131 0.0
0.0 1.26840002441 0.172448254992 0.0
0.0 1.26940002441 0.172259061366 0.0
0.0 1.27040002441 0.17207008538 0.0
0.0 1.27140002441 0.17188118894 0.0
0.0 1.27240002441 0.17169240323 0.0
0.0 1.27340002441 0.171503826078 0.0
0.0 1.27440002441 0.171315271385 0.0
0.0 1.27540002441 0.171126634894 0.0
0.0 1.27640002441 0.170938521728 0.0
0.0 1.27740002441 0.170750492161 0.0
0.0 1.27840002441 0.170562360086 0.0
0.0 1.27940002441 0.170374355883 0.0
0.0 1.28040002441 0.170186635283 0.0
0.0 1.28140002441 0.169999082618 0.0
0.0 1.28240002441 0.169811597773 0.0
0.0 1.28340002441 0.169624237321 0.0
0.0 1.28440002441 0.169436919489 0.0
0.0 1.28540002441 0.169249759548 0.0
0.0 1.28640002441 0.169062792671 0.0
0.0 1.28740002441 0.168876004261 0.0
0.0 1.28840002441 0.168689448017 0.0
0.0 1.28940002441 0.168502908058 0.0
0.0 1.29040002441 0.168316367719 0.0
0.0 1.29140002441 0.168130092227 0.0
0.0 1.29240002441 0.167943956072 0.0
0.0 1.29340002441 0.167757944051 0.0
0.0 1.29440002441 0.167572075243 0.0
0.0 1.29540002441 0.167386198291 0.0
0.0 1.29640002441 0.167200558181 0.0
0.0 1.29740002441 0.167015160374 0.0
0.0 1.29840002441 0.166829856406 0.0
0.0 1.29940002441 0.166644536064 0.0
0.0 1.30040002441 0.166459470021 0.0
0.0 1.30140002441 0.166274622466 0.0
0.0 1.30240002441 0.166089777346 0.0
0.0 1.30340002441 0.165905244598 0.0
0.0 1.30440002441 0.165720640606 0.0
0.0 1.30540002441 0.165536292422 0.0
0.0 1.30640002441 0.165352077162 0.0
0.0 1.30740002441 0.165168001904 0.0
0.0 1.30840002441 0.164983998051 0.0
0.0 1.30940002441 0.164800276243 0.0
0.0 1.31040002441 0.164616711225 0.0
0.0 1.31140002441 0.16443329837 0.0
0.0 1.31240002441 0.164249816994 0.0
0.0 1.31340002441 0.164066713722 0.0
0.0 1.31440002441 0.163883574701 0.0
0.0 1.31540002441 0.163700550768 0.0
0.0 1.31640002441 0.163517802012 0.0
0.0 1.31740002441 0.163335238213 0.0
0.0 1.31840002441 0.163152812591 0.0
0.0 1.31940002441 0.162970403934 0.0
0.0 1.32040002441 0.162788171689 0.0
0.0 1.32140002441 0.162606237683 0.0
0.0 1.32240002441 0.162424283343 0.0
0.0 1.32340002441 0.162242582304 0.0
0.0 1.32440002441 0.162060803028 0.0
0.0 1.32540002441 0.161879480357 0.0
0.0 1.32640002441 0.161698291666 0.0
0.0 1.32740002441 0.161517172182 0.0
0.0 1.32840002441 0.161336190697 0.0
0.0 1.32940002441 0.161155501695 0.0
0.0 1.33040002441 0.160974917114 0.0
0.0 1.33140002441 0.160794437601 0.0
0.0 1.33240002441 0.160613850802 0.0
0.0 1.33340002441 0.160433680197 0.0
0.0 1.33440002441 0.160253669875 0.0
0.0 1.33540002441 0.160073804345 0.0
0.0 1.33640002441 0.159894202646 0.0
0.0 1.33740002441 0.159714622612 0.0
0.0 1.33840002441 0.159535180868 0.0
0.0 1.33940002441 0.159355991672 0.0
0.0 1.34040002441 0.159176932237 0.0
0.0 1.34140002441 0.158998000494 0.0
0.0 1.34240002441 0.158819354646 0.0
0.0 1.34340002441 0.158640946095 0.0
0.0 1.34440002441 0.158462401216 0.0
0.0 1.34540002441 0.158283955442 0.0
0.0 1.34640002441 0.1581059196 0.0
0.0 1.34740002441 0.157928053139 0.0
0.0 1.34840002441 0.157750377977 0.0
0.0 1.34940002441 0.157572907156 0.0
0.0 1.35040002441 0.157395280106 0.0
0.0 1.35140002441 0.157217817178 0.0
0.0 1.35240002441 0.157040796708 0.0
0.0 1.35340002441 0.156864091113 0.0
0.0 1.35440002441 0.156687010844 0.0
0.0 1.35540002441 0.156510343794 0.0
0.0 1.35640002441 0.156334050764 0.0
0.0 1.35740002441 0.156157643048 0.0
0.0 1.35840002441 0.1559815703 0.0
0.0 1.35940002441 0.155806001623 0.0
0.0 1.36040002441 0.155630315605 0.0
0.0 1.36140002441 0.155454339649 0.0
0.0 1.36240002441 0.155278871723 0.0
0.0 1.36340002441 0.155103539591 0.0
0.0 1.36440002441 0.154928356004 0.0
0.0 1.36540002441 0.154753493483 0.0
0.0 1.36640002441 0.154578858773 0.0
0.0 1.36740002441 0.154404048753 0.0
0.0 1.36840002441 0.154229624525 0.0
0.0 1.36940002441 0.154055517098 0.0
0.0 1.37040002441 0.153881606818 0.0
0.0 1.37140002441 0.153707679622 0.0
0.0 1.37240002441 0.153533921689 0.0
0.0 1.37340002441 0.153360527335 0.0
0.0 1.37440002441 0.153187092725 0.0
0.0 1.37540002441 0.153013967762 0.0
0.0 1.37640002441 0.152840969144 0.0
0.0 1.37740002441 0.152668262438 0.0
0.0 1.37840002441 0.15249544491 0.0
0.0 1.37940002441 0.15232308465 0.0
0.0 1.38040002441 0.152150690167 0.0
0.0 1.38140002441 0.151978567589 0.0
0.0 1.38240002441 0.151806729973 0.0
0.0 1.38340002441 0.151634926373 0.0
0.0 1.38440002441 0.151463355626 0.0
0.0 1.38540002441 0.151291962983 0.0
0.0 1.38640002441 0.151120759579 0.0
0.0 1.38740002441 0.150949511745 0.0
0.0 1.38840002441 0.150778702147 0.0
0.0 1.38940002441 0.150607992828 0.0
0.0 1.39040002441 0.150437477527 0.0
0.0 1.39140002441 0.150267145762 0.0
0.0 1.39240002441 0.150097176886 0.0
0.0 1.39340002441 0.149927264007 0.0
0.0 1.39440002441 0.149757511421 0.0
0.0 1.39540002441 0.149587805987 0.0
0.0 1.39640002441 0.149418498293 0.0
0.0 1.39740002441 0.149249451474 0.0
0.0 1.39840002441 0.149080423892 0.0
0.0 1.39940002441 0.148911606577 0.0
0.0 1.40040002441 0.148743031217 0.0
0.0 1.40140002441 0.148574826092 0.0
0.0 1.40240002441 0.148406646443 0.0
0.0 1.40340002441 0.148238625674 0.0
0.0 1.40440002441 0.148070743507 0.0
0.0 1.40540002441 0.147902815349 0.0
0.0 1.40640002441 0.147735220209 0.0
0.0 1.40740002441 0.147568094251 0.0
0.0 1.40840002441 0.147401045015 0.0
0.0 1.40940002441 0.147234279843 0.0
0.0 1.41040002441 0.147067521296 0.0
0.0 1.41140002441 0.146900785506 0.0
0.0 1.41240002441 0.146734571903 0.0
0.0 1.41340002441 0.146568686486 0.0
0.0 1.41440002441 0.146402793276 0.0
0.0 1.41540002441 0.14623720508 0.0
0.0 1.41640002441 0.146071615513 0.0
0.0 1.41740002441 0.145906443163 0.0
0.0 1.41840002441 0.145741358236 0.0
0.0 1.41940002441 0.145576451929 0.0
0.0 1.42040002441 0.145411558584 0.0
0.0 1.42140002441 0.145246907786 0.0
0.0 1.42240002441 0.1450826359 0.0
0.0 1.42340002441 0.144918711921 0.0
0.0 1.42440002441 0.144754916706 0.0
0.0 1.42540002441 0.144591059932 0.0
0.0 1.42640002441 0.144427369921 0.0
0.0 1.42740002441 0.144264199607 0.0
0.0 1.42840002441 0.144101148699 0.0
0.0 1.42940002441 0.14393834584 0.0
0.0 1.43040002441 0.143775621869 0.0
0.0 1.43140002441 0.143613169297 0.0
0.0 1.43240002441 0.143450956015 0.0
0.0 1.43340002441 0.143289018338 0.0
0.0 1.43440002441 0.143127090454 0.0
0.0 1.43540002441 0.142965244692 0.0
0.0 1.43640002441 0.142803784226 0.0
0.0 1.43740002441 0.142642875148 0.0
0.0 1.43840002441 0.142481773189 0.0
0.0 1.43940002441 0.142320710593 0.0
0.0 1.44040002441 0.142160152516 0.0
0.0 1.44140002441 0.141999763256 0.0
0.0 1.44240002441 0.141839582712 0.0
0.0 1.44340002441 0.141679669546 0.0
0.0 1.44440002441 0.141519829719 0.0
0.0 1.44540002441 0.141360347479 0.0
0.0 1.44640002441 0.141200942894 0.0
0.0 1.44740002441 0.14104164378 0.0
0.0 1.44840002441 0.140882847883 0.0
0.0 1.44940002441 0.140724185281 0.0
0.0 1.45040002441 0.140565735495 0.0
0.0 1.45140002441 0.140407529633 0.0
0.0 1.45240002441 0.140249543607 0.0
0.0 1.45340002441 0.140091675007 0.0
0.0 1.45440002441 0.139934036781 0.0
0.0 1.45540002441 0.139776577968 0.0
0.0 1.45640002441 0.139619276798 0.0
0.0 1.45740002441 0.139462285829 0.0
0.0 1.45840002441 0.13930573814 0.0
0.0 1.45940002441 0.139149290235 0.0
0.0 1.46040002441 0.138992969724 0.0
0.0 1.46140002441 0.138836785918 0.0
0.0 1.46240002441 0.13868066075 0.0
0.0 1.46340002441 0.138525025916 0.0
0.0 1.46440002441 0.13836963334 0.0
0.0 1.46540002441 0.138214597112 0.0
0.0 1.46640002441 0.138059726521 0.0
0.0 1.46740002441 0.137905117017 0.0
0.0 1.46840002441 0.137750579538 0.0
0.0 1.46940002441 0.137596448952 0.0
0.0 1.47040002441 0.137442291644 0.0
0.0 1.47140002441 0.137288443941 0.0
0.0 1.47240002441 0.137134868993 0.0
0.0 1.47340002441 0.136981395529 0.0
0.0 1.47440002441 0.136828082648 0.0
0.0 1.47540002441 0.136675122231 0.0
0.0 1.47640002441 0.136522411725 0.0
0.0 1.47740002441 0.136369761974 0.0
0.0 1.47840002441 0.136217536637 0.0
0.0 1.47940002441 0.136065424552 0.0
0.0 1.48040002441 0.135913649454 0.0
0.0 1.48140002441 0.13576184962 0.0
0.0 1.48240002441 0.135610473236 0.0
0.0 1.48340002441 0.135459387791 0.0
0.0 1.48440002441 0.135308648039 0.0
0.0 1.48540002441 0.135158197636 0.0
0.0 1.48640002441 0.13500782897 0.0
0.0 1.48740002441 0.134857419424 0.0
0.0 1.48840002441 0.1347076753 0.0
0.0 1.48940002441 0.134558031815 0.0
0.0 1.49040002441 0.134408382609 0.0
0.0 1.49140002441 0.134258878255 0.0
0.0 1.49240002441 0.13410999148 0.0
0.0 1.49340002441 0.133961407876 0.0
0.0 1.49440002441 0.13381284133 0.0
0.0 1.49540002441 0.133664609468 0.0
0.0 1.49640002441 0.133516520334 0.0
0.0 1.49740002441 0.133368707918 0.0
0.0 1.49840002441 0.133221173583 0.0
0.0 1.49940002441 0.133073759518 0.0
0.0 1.50040002441 0.132926759087 0.0
0.0 1.50140002441 0.132779757816 0.0
0.0 1.50240002441 0.132633048781 0.0
0.0 1.50340002441 0.132486519489 0.0
0.0 1.50440002441 0.132340289124 0.0
0.0 1.50540002441 0.132194544447 0.0
0.0 1.50640002441 0.132049001485 0.0
0.0 1.50740002441 0.131903472851 0.0
0.0 1.50840002441 0.1317583745 0.0
0.0 1.50940002441 0.13161337993 0.0
0.0 1.51040002441 0.131468541094 0.0
0.0 1.51140002441 0.131324166721 0.0
0.0 1.51240002441 0.131180054235 0.0
0.0 1.51340002441 0.131036231004 0.0
0.0 1.51440002441 0.130892708058 0.0
0.0 1.51540002441 0.130749186968 0.0
0.0 1.51640002441 0.130606120889 0.0
0.0 1.51740002441 0.130462955789 0.0
0.0 1.51840002441 0.130320121507 0.0
0.0 1.51940002441 0.130177617233 0.0
0.0 1.52040002441 0.130035254294 0.0
0.0 1.52140002441 0.129893392094 0.0
0.0 1.52240002441 0.129751710263 0.0
0.0 1.52340002441 0.129610566621 0.0
0.0 1.52440002441 0.129469500795 0.0
0.0 1.52540002441 0.129328408546 0.0
0.0 1.52640002441 0.129187434459 0.0
0.0 1.52740002441 0.129047094159 0.0
0.0 1.52840002441 0.128906958873 0.0
0.0 1.52940002441 0.128766944209 0.0
0.0 1.53040002441 0.128627192901 0.0
0.0 1.53140002441 0.128487851291 0.0
0.0 1.53240002441 0.128348461522 0.0
0.0 1.53340002441 0.128209600725 0.0
0.0 1.53440002441 0.128070976976 0.0
0.0 1.53540002441 0.127932431065 0.0
0.0 1.53640002441 0.127794152273 0.0
0.0 1.53740002441 0.127656421994 0.0
0.0 1.53840002441 0.127518743929 0.0
0.0 1.53940002441 0.127381496003 0.0
0.0 1.54040002441 0.127244202113 0.0
0.0 1.54140002441 0.127107298711 0.0
0.0 1.54240002441 0.126970817558 0.0
0.0 1.54340002441 0.126834589179 0.0
0.0 1.54440002441 0.12669846271 0.0
0.0 1.54540002441 0.12656231529 0.0
0.0 1.54640002441 0.126426815257 0.0
0.0 1.54740002441 0.126291877951 0.0
0.0 1.54840002441 0.126156911015 0.0
0.0 1.54940002441 0.126022011326 0.0
0.0 1.55040002441 0.12588757241 0.0
0.0 1.55140002441 0.125753197364 0.0
0.0 1.55240002441 0.125619450469 0.0
0.0 1.55340002441 0.125485895271 0.0
0.0 1.55440002441 0.125352447353 0.0
0.0 1.55540002441 0.125219393679 0.0
0.0 1.55640002441 0.125086571873 0.0
0.0 1.55740002441 0.124953870791 0.0
0.0 1.55840002441 0.12482134685 0.0
0.0 1.55940002441 0.1246892234 0.0
0.0 1.56040002441 0.124557331669 0.0
0.0 1.56140002441 0.124425838616 0.0
0.0 1.56240002441 0.124294628513 0.0
0.0 1.56340002441 0.124163497241 0.0
0.0 1.56440002441 0.124032754743 0.0
0.0 1.56540002441 0.123902566128 0.0
0.0 1.56640002441 0.123772154971 0.0
0.0 1.56740002441 0.123642198795 0.0
0.0 1.56840002441 0.123512759363 0.0
0.0 1.56940002441 0.123383544539 0.0
0.0 1.57040002441 0.123254384401 0.0
0.0 1.57140002441 0.123125368539 0.0
0.0 1.57240002441 0.122996764177 0.0
0.0 1.57340002441 0.122868581817 0.0
0.0 1.57440002441 0.122740464422 0.0
0.0 1.57540002441 0.122612849461 0.0
0.0 1.57640002441 0.12248560663 0.0
0.0 1.57740002441 0.122358376512 0.0
0.0 1.57840002441 0.122231352357 0.0
0.0 1.57940002441 0.122104534983 0.0
0.0 1.58040002441 0.121978549061 0.0
0.0 1.58140002441 0.12185260495 0.0
0.0 1.58240002441 0.121726595245 0.0
0.0 1.58340002441 0.121601169846 0.0
0.0 1.58440002441 0.121476019379 0.0
0.0 1.58540002441 0.121351175858 0.0
0.0 1.58640002441 0.121226582029 0.0
0.0 1.58740002441 0.121102105667 0.0
0.0 1.58840002441 0.120978163959 0.0
0.0 1.58940002441 0.120854328889 0.0
0.0 1.59040002441 0.120730565223 0.0
0.0 1.59140002441 0.120607765087 0.0
0.0 1.59240002441 0.120484849897 0.0
0.0 1.59340002441 0.120361888378 0.0
0.0 1.59440002441 0.120239718175 0.0
0.0 1.59540002441 0.120117699295 0.0
0.0 1.59640002441 0.119995624233 0.0
0.0 1.59740002441 0.11987386119 0.0
0.0 1.59840002441 0.119752690323 0.0
0.0 1.59940002441 0.119631955576 0.0
0.0 1.60040002441 0.119511737994 0.0
0.0 1.60140002441 0.119391575828 0.0
0.0 1.60240002441 0.119271414535 0.0
0.0 1.60340002441 0.119151775016 0.0
0.0 1.60440002441 0.119032260408 0.0
0.0 1.60540002441 0.118913074415 0.0
0.0 1.60640002441 0.118793856983 0.0
0.0 1.60740002441 0.11867540702 0.0
0.0 1.60840002441 0.118557381266 0.0
0.0 1.60940002441 0.118439362186 0.0
0.0 1.61040002441 0.118321375755 0.0
0.0 1.61140002441 0.118204000722 0.0
0.0 1.61240002441 0.11808700012 0.0
0.0 1.61340002441 0.117970280561 0.0
0.0 1.61440002441 0.117853596444 0.0
0.0 1.61540002441 0.117737602664 0.0
0.0 1.61640002441 0.117621654493 0.0
0.0 1.61740002441 0.117506236596 0.0
0.0 1.61840002441 0.117391120743 0.0
0.0 1.61940002441 0.117276072164 0.0
0.0 1.62040002441 0.117161290798 0.0
0.0 1.62140002441 0.117046522703 0.0
0.0 1.62240002441 0.116932408606 0.0
0.0 1.62340002441 0.116818646497 0.0
0.0 1.62440002441 0.116705297394 0.0
0.0 1.62540002441 0.116592252363 0.0
0.0 1.62640002441 0.11647951895 0.0
0.0 1.62740002441 0.116366796788 0.0
0.0 1.62840002441 0.116254168755 0.0
0.0 1.62940002441 0.11614210164 0.0
0.0 1.63040002441 0.116030484952 0.0
0.0 1.63140002441 0.115919359394 0.0
0.0 1.63240002441 0.11580829815 0.0
0.0 1.63340002441 0.115697421367 0.0
0.0 1.63440002441 0.115587122192 0.0
0.0 1.63540002441 0.115476941412 0.0
0.0 1.63640002441 0.115367133578 0.0
0.0 1.63740002441 0.115257738912 0.0
0.0 1.63840002441 0.11514870432 0.0
0.0 1.63940002441 0.115039913049 0.0
0.0 1.64040002441 0.114931588152 0.0
0.0 1.64140002441 0.114823535196 0.0
0.0 1.64240002441 0.114715627591 0.0
0.0 1.64340002441 0.114608061125 0.0
0.0 1.64440002441 0.114500697143 0.0
0.0 1.64540002441 0.11439367063 0.0
0.0 1.64640002441 0.114287276559 0.0
0.0 1.64740002441 0.114181265485 0.0
0.0 1.64840002441 0.114075307582 0.0
0.0 1.64940002441 0.113969557326 0.0
0.0 1.65040002441 0.113864509079 0.0
0.0 1.65140002441 0.113759357194 0.0
0.0 1.65240002441 0.113654417061 0.0
0.0 1.65340002441 0.113549919636 0.0
0.0 1.65440002441 0.113446214235 0.0
0.0 1.65540002441 0.113342933089 0.0
0.0 1.65640002441 0.113239473279 0.0
0.0 1.65740002441 0.113136667396 0.0
0.0 1.65840002441 0.113034258797 0.0
0.0 1.65940002441 0.112932365969 0.0
0.0 1.66040002441 0.112830390965 0.0
0.0 1.66140002441 0.112728936308 0.0
0.0 1.66240002441 0.112628179222 0.0
0.0 1.66340002441 0.112527747504 0.0
0.0 1.66440002441 0.112427840551 0.0
0.0 1.66540002441 0.112328089729 0.0
0.0 1.66640002441 0.112228627358 0.0
0.0 1.66740002441 0.112129341065 0.0
0.0 1.66840002441 0.11203071287 0.0
0.0 1.66940002441 0.111932824352 0.0
0.0 1.67040002441 0.11183541593 0.0
0.0 1.67140002441 0.111738356619 0.0
0.0 1.67240002441 0.111642142071 0.0
0.0 1.67340002441 0.111545623673 0.0
0.0 1.67440002441 0.111449907921 0.0
0.0 1.67540002441 0.111355086454 0.0
0.0 1.67640002441 0.111260618974 0.0
0.0 1.67740002441 0.111166296982 0.0
0.0 1.67840002441 0.111072557889 0.0
0.0 1.67940002441 0.110979578669 0.0
0.0 1.68040002441 0.110886830982 0.0
0.0 1.68140002441 0.110794931957 0.0
0.0 1.68240002441 0.110703989547 0.0
0.0 1.68340002441 0.110613546971 0.0
0.0 1.68440002441 0.110523190933 0.0
0.0 1.68540002441 0.110434169899 0.0
0.0 1.68640002441 0.110346202045 0.0
0.0 1.68740002441 0.110258679884 0.0
0.0 1.68840002441 0.110171748514 0.0
0.0 1.68940002441 0.110086314862 0.0
0.0 1.69040002441 0.110001989174 0.0
0.0 1.69140002441 0.109918950166 0.0
0.0 1.69240002441 0.109837743672 0.0
0.0 1.69340002441 0.109758016701 0.0
0.0 1.69440002441 0.109680662912 0.0
0.0 1.69540002441 0.109604698397 0.0
0.0 1.69640002441 0.109531526945 0.0
0.0 1.69740002441 0.109461965584 0.0
0.0 1.69840002441 0.10939444703 0.0
0.0 1.69940002441 0.109331263733 0.0
0.0 1.70040002441 0.109272687544 0.0
0.0 1.70140002441 0.109217624021 0.0
0.0 1.70240002441 0.109168661639 0.0
0.0 1.70340002441 0.109126216845 0.0
0.0 1.70440002441 0.109090480167 0.0
0.0 1.70540002441 0.109061728197 0.0
0.0 1.70640002441 0.109041551421 0.0
0.0 1.70740002441 0.10903175337 0.0
0.0 1.70840002441 0.109031386176 0.0
0.0 1.70940002441 0.109043383747 0.0
0.0 1.71040002441 0.109070823228 0.0
0.0 1.71140002441 0.109110355651 0.0
0.0 1.71240002441 0.109165341186 0.0
0.0 1.71340002441 0.109241944336 0.0
0.0 1.71440002441 0.109338215091 0.0
0.0 1.71540002441 0.109459369861 0.0
0.0 1.71640002441 0.109617129964 0.0
0.0 1.71740002441 0.109805198164 0.0
0.0 1.71840002441 0.110026016841 0.0
0.0 1.71940002441 0.110296175522 0.0
0.0 1.72040002441 0.110619702836 0.0
0.0 1.72140002441 0.11100876961 0.0
0.0 1.72240002441 0.111483650903 0.0
0.0 1.72340002441 0.11205360005 0.0
0.0 1.72440002441 0.112723882597 0.0
0.0 1.72540002441 0.113526782334 0.0
0.0 1.72640002441 0.114507829873 0.0
0.0 1.72740002441 0.115688368657 0.0
0.0 1.72840002441 0.117118401453 0.0
0.0 1.72940002441 0.118871923568 0.0
0.0 1.73040002441 0.120927819177 0.0
0.0 1.73140002441 0.12334002638 0.0
0.0 1.73240002441 0.126252104738 0.0
0.0 1.73340002441 0.12951589838 0.0
0.0 1.73440002441 0.132994456997 0.0
0.0 1.73540002441 0.136493249992 0.0
0.0 1.73640002441 0.140098215605 0.0
0.0 1.73740002441 0.143702200312 0.0
0.0 1.73840002441 0.147734884531 0.0
0.0 1.73940002441 0.151974725338 0.0
0.0 1.74040002441 0.156661983593 0.0
0.0 1.74140002441 0.162131333536 0.0
0.0 1.74240002441 0.168383753661 0.0
0.0 1.74340002441 0.175543447144 0.0
0.0 1.74440002441 0.183505519367 0.0
0.0 1.74540002441 0.192940252338 0.0
0.0 1.74640002441 0.203569747741 0.0
0.0 1.74740002441 0.216190689764 0.0
0.0 1.74840002441 0.230912974121 0.0
0.0 1.74940002441 0.247419789671 0.0
0.0 1.75040002441 0.26562970002 0.0
0.0 1.75140002441 0.285513960974 0.0
0.0 1.75240002441 0.305972235772 0.0
0.0 1.75340002441 0.327070434829 0.0
0.0 1.75440002441 0.348314446192 0.0
0.0 1.75540002441 0.368991755347 0.0
0.0 1.75640002441 0.388162544969 0.0
0.0 1.75740002441 0.40612270912 0.0
0.0 1.75840002441 0.422265496428 0.0
0.0 1.75940002441 0.436753242465 0.0
0.0 1.76040002441 0.449849986873 0.0
0.0 1.76140002441 0.462031242574 0.0
0.0 1.76240002441 0.473319598087 0.0
0.0 1.76340002441 0.483869535605 0.0
0.0 1.76440002441 0.4939020247 0.0
0.0 1.76540002441 0.503695998059 0.0
0.0 1.76640002441 0.513279838265 0.0
0.0 1.76740002441 0.521862640248 0.0
0.0 1.76840002441 0.529557981393 0.0
0.0 1.76940002441 0.536406910663 0.0
0.0 1.77040002441 0.542727959497 0.0
0.0 1.77140002441 0.548114326844 0.0
0.0 1.77240002441 0.552956991363 0.0
0.0 1.77340002441 0.556150521016 0.0
0.0 1.77440002441 0.558524991244 0.0
0.0 1.77540002441 0.560131139671 0.0
0.0 1.77640002441 0.561148848728 0.0
0.0 1.77740002441 0.562107746125 0.0
0.0 1.77840002441 0.562156272938 0.0
0.0 1.77940002441 0.562573910022 0.0
0.0 1.78040002441 0.562736404053 0.0
0.0 1.78140002441 0.562617306552 0.0
0.0 1.78240002441 0.562518168553 0.0
0.0 1.78340002441 0.562822345522 0.0
0.0 1.78440002441 0.563057593804 0.0
0.0 1.78540002441 0.56354842942 0.0
0.0 1.78640002441 0.56371387731 0.0
0.0 1.78740002441 0.563919909208 0.0
0.0 1.78840002441 0.564682036254 0.0
0.0 1.78940002441 0.565003402617 0.0
0.0 1.79040002441 0.565338161979 0.0
0.0 1.79140002441 0.565366694712 0.0
0.0 1.79240002441 0.565153978427 0.0
0.0 1.79340002441 0.564262888344 0.0
0.0 1.79440002441 0.563439603097 0.0
0.0 1.79540002441 0.562349282931 0.0
0.0 1.79640002441 0.561385175372 0.0
0.0 1.79740002441 0.560347406525 0.0
0.0 1.79840002441 0.55896801311 0.0
0.0 1.79940002441 0.557475920183 0.0
0.0 1.80040002441 0.555716771956 0.0
0.0 1.80140002441 0.554426322623 0.0
0.0 1.80240002441 0.552985822179 0.0
0.0 1.80340002441 0.5516803881 0.0
0.0 1.80440002441 0.550163394818 0.0
0.0 1.80540002441 0.549173253153 0.0
0.0 1.80640002441 0.548604942304 0.0
0.0 1.80740002441 0.548770816863 0.0
0.0 1.80840002441 0.548341860083 0.0
0.0 1.80940002441 0.54774501962 0.0
0.0 1.81040002441 0.547478526847 0.0
0.0 1.81140002441 0.547390534148 0.0
0.0 1.81240002441 0.548362983359 0.0
0.0 1.81340002441 0.549035494562 0.0
0.0 1.81440002441 0.549819024998 0.0
0.0 1.81540002441 0.550373930772 0.0
0.0 1.81640002441 0.551665736978 0.0
0.0 1.81740002441 0.552568779407 0.0
0.0 1.81840002441 0.553664781611 0.0
0.0 1.81940002441 0.55460355819 0.0
0.0 1.82040002441 0.555246686425 0.0
0.0 1.82140002441 0.556553123723 0.0
0.0 1.82240002441 0.558280927061 0.0
0.0 1.82340002441 0.558889473135 0.0
0.0 1.82440002441 0.5597120381 0.0
0.0 1.82540002441 0.560681265934 0.0
0.0 1.82640002441 0.561640647442 0.0
0.0 1.82740002441 0.562574004666 0.0
0.0 1.82840002441 0.563049312019 0.0
0.0 1.82940002441 0.563587546087 0.0
0.0 1.83040002441 0.56454643542 0.0
0.0 1.83140002441 0.565207971439 0.0
0.0 1.83240002441 0.565797427413 0.0
0.0 1.83340002441 0.566305416531 0.0
0.0 1.83440002441 0.566483608117 0.0
0.0 1.83540002441 0.566342433603 0.0
0.0 1.83640002441 0.566907754268 0.0
0.0 1.83740002441 0.567213893699 0.0
0.0 1.83840002441 0.56728579806 0.0
0.0 1.83940002441 0.567179480809 0.0
0.0 1.84040002441 0.567531209748 0.0
0.0 1.84140002441 0.567099088836 0.0
0.0 1.84240002441 0.566939270481 0.0
0.0 1.84340002441 0.566898098571 0.0
0.0 1.84440002441 0.566341892846 0.0
0.0 1.84540002441 0.566019675861 0.0
0.0 1.84640002441 0.565307285096 0.0
0.0 1.84740002441 0.564469758692 0.0
0.0 1.84840002441 0.563965494089 0.0
0.0 1.84940002441 0.56360998494 0.0
0.0 1.85040002441 0.563097461854 0.0
0.0 1.85140002441 0.562170836999 0.0
0.0 1.85240002441 0.561598469976 0.0
0.0 1.85340002441 0.560988794144 0.0
0.0 1.85440002441 0.560358950066 0.0
0.0 1.85540002441 0.559912612453 0.0
0.0 1.85640002441 0.559336128225 0.0
0.0 1.85740002441 0.559349549764 0.0
0.0 1.85840002441 0.558941810341 0.0
0.0 1.85940002441 0.558116291607 0.0
0.0 1.86040002441 0.557707913201 0.0
0.0 1.86140002441 0.557020169786 0.0
0.0 1.86240002441 0.556341088495 0.0
0.0 1.86340002441 0.55605844235 0.0
0.0 1.86440002441 0.555972244452 0.0
0.0 1.86540002441 0.555774363139 0.0
0.0 1.86640002441 0.555737769031 0.0
0.0 1.86740002441 0.555652608099 0.0
0.0 1.86840002441 0.556054469202 0.0
0.0 1.86940002441 0.556374433786 0.0
0.0 1.87040002441 0.5569326566 0.0
0.0 1.87140002441 0.557724103348 0.0
0.0 1.87240002441 0.558235284759 0.0
0.0 1.87340002441 0.55935705942 0.0
0.0 1.87440002441 0.560410699553 0.0
0.0 1.87540002441 0.56093732077 0.0
0.0 1.87640002441 0.561347413902 0.0
0.0 1.87740002441 0.561443276914 0.0
0.0 1.87840002441 0.561997418014 0.0
0.0 1.87940002441 0.562453671183 0.0
0.0 1.88040002441 0.563105420028 0.0
0.0 1.88140002441 0.563912804198 0.0
0.0 1.88240002441 0.564519326308 0.0
0.0 1.88340002441 0.565565390419 0.0
0.0 1.88440002441 0.566239660899 0.0
0.0 1.88540002441 0.566523923164 0.0
0.0 1.88640002441 0.567144611863 0.0
0.0 1.88740002441 0.567786905506 0.0
0.0 1.88840002441 0.568250733584 0.0
0.0 1.88940002441 0.568527817203 0.0
0.0 1.89040002441 0.568565790449 0.0
0.0 1.89140002441 0.56871183211 0.0
0.0 1.89240002441 0.569035095164 0.0
0.0 1.89340002441 0.569261840676 0.0
0.0 1.89440002441 0.569727971533 0.0
0.0 1.89540002441 0.570312898479 0.0
0.0 1.89640002441 0.570572369089 0.0
0.0 1.89740002441 0.570747298325 0.0
0.0 1.89840002441 0.570592669687 0.0
0.0 1.89940002441 0.571017202364 0.0
0.0 1.90040002441 0.571035654523 0.0
0.0 1.90140002441 0.571122258947 0.0
0.0 1.90240002441 0.571435585011 0.0
0.0 1.90340002441 0.572324530741 0.0
0.0 1.90440002441 0.572358521682 0.0
0.0 1.90540002441 0.572626582762 0.0
0.0 1.90640002441 0.573116466851 0.0
0.0 1.90740002441 0.574125877928 0.0
0.0 1.90840002441 0.574732079578 0.0
0.0 1.90940002441 0.574505518989 0.0
0.0 1.91040002441 0.57443370641 0.0
0.0 1.91140002441 0.574935128882 0.0
0.0 1.91240002441 0.575870780941 0.0
0.0 1.91340002441 0.575977492038 0.0
0.0 1.91440002441 0.576026500988 0.0
0.0 1.91540002441 0.575823460353 0.0
0.0 1.91640002441 0.575429589252 0.0
0.0 1.91740002441 0.575689917027 0.0
0.0 1.91840002441 0.575462798144 0.0
0.0 1.91940002441 0.575551543115 0.0
0.0 1.92040002441 0.574989630722 0.0
0.0 1.92140002441 0.574663656543 0.0
0.0 1.92240002441 0.574549327739 0.0
0.0 1.92340002441 0.574159733668 0.0
0.0 1.92440002441 0.573966245787 0.0
0.0 1.92540002441 0.573086679205 0.0
0.0 1.92640002441 0.572786803876 0.0
0.0 1.92740002441 0.572988063564 0.0
0.0 1.92840002441 0.573035955836 0.0
0.0 1.92940002441 0.572537626348 0.0
0.0 1.93040002441 0.572193196468 0.0
0.0 1.93140002441 0.571472077287 0.0
0.0 1.93240002441 0.571226185076 0.0
0.0 1.93340002441 0.570775080366 0.0
0.0 1.93440002441 0.570239671071 0.0
0.0 1.93540002441 0.569727138312 0.0
0.0 1.93640002441 0.569443468961 0.0
0.0 1.93740002441 0.568811143138 0.0
0.0 1.93840002441 0.568538094446 0.0
0.0 1.93940002441 0.568312958414 0.0
0.0 1.94040002441 0.568583134426 0.0
0.0 1.94140002441 0.568897745747 0.0
0.0 1.94240002441 0.56917612141 0.0
0.0 1.94340002441 0.569578293615 0.0
0.0 1.94440002441 0.569899616716 0.0
0.0 1.94540002441 0.57065070044 0.0
0.0 1.94640002441 0.571177171331 0.0
0.0 1.94740002441 0.571684863758 0.0
0.0 1.94840002441 0.572086343691 0.0
0.0 1.94940002441 0.572014088987 0.0
0.0 1.95040002441 0.572293364621 0.0
0.0 1.95140002441 0.572590665663 0.0
0.0 1.95240002441 0.572938497746 0.0
0.0 1.95340002441 0.573151485796 0.0
0.0 1.95440002441 0.573222339428 0.0
0.0 1.95540002441 0.573429613702 0.0
0.0 1.95640002441 0.573470696452 0.0
0.0 1.95740002441 0.573378905006 0.0
0.0 1.95840002441 0.572452020965 0.0
0.0 1.95940002441 0.570535176652 0.0
0.0 1.96040002441 0.569880103143 0.0
0.0 1.96140002441 0.570920390457 0.0
0.0 1.96240002441 0.573199995362 0.0
0.0 1.96340002441 0.574281313642 0.0
0.0 1.96440002441 0.575064398633 0.0
0.0 1.96540002441 0.575171689273 0.0
0.0 1.96640002441 0.575046447498 0.0
0.0 1.96740002441 0.574847317729 0.0
0.0 1.96840002441 0.575381827755 0.0
0.0 1.96940002441 0.575897391989 0.0
0.0 1.97040002441 0.575295113583 0.0
0.0 1.97140002441 0.575020920891 0.0
0.0 1.97240002441 0.575182994107 0.0
0.0 1.97340002441 0.574743514365 0.0
0.0 1.97440002441 0.574231488208 0.0
0.0 1.97540002441 0.574219142556 0.0
0.0 1.97640002441 0.574428539349 0.0
0.0 1.97740002441 0.574606606533 0.0
0.0 1.97840002441 0.574596153028 0.0
0.0 1.97940002441 0.574633550608 0.0
0.0 1.98040002441 0.575220927271 0.0
0.0 1.98140002441 0.575962347788 0.0
0.0 1.98240002441 0.575896234832 0.0
0.0 1.98340002441 0.575699950511 0.0
0.0 1.98440002441 0.576118257399 0.0
0.0 1.98540002441 0.57623478604 0.0
0.0 1.98640002441 0.576260967571 0.0
0.0 1.98740002441 0.576662564784 0.0
0.0 1.98840002441 0.577167500791 0.0
0.0 1.98940002441 0.577592997712 0.0
0.0 1.99040002441 0.577710568491 0.0
0.0 1.99140002441 0.578070996215 0.0
0.0 1.99240002441 0.578316550028 0.0
0.0 1.99340002441 0.578829356716 0.0
0.0 1.99440002441 0.578418560666 0.0
0.0 1.99540002441 0.577689038813 0.0
0.0 1.99640002441 0.576452876142 0.0
0.0 1.99740002441 0.576545300277 0.0
0.0 1.99840002441 0.577317346392 0.0
0.0 1.99940002441 0.5780425423 0.0
0.0 2.00040002441 0.578714329442 0.0
0.0 2.00140002441 0.578922674771 0.0
0.0 2.00240002441 0.579120261201 0.0
0.0 2.00340002441 0.579778774065 0.0
0.0 2.00440002441 0.579864752582 0.0
0.0 2.00540002441 0.579436193201 0.0
0.0 2.00640002441 0.578938575156 0.0
0.0 2.00740002441 0.578689953034 0.0
0.0 2.00840002441 0.578281751819 0.0
0.0 2.00940002441 0.578655039852 0.0
0.0 2.01040002441 0.578832825901 0.0
0.0 2.01140002441 0.578484926829 0.0
0.0 2.01240002441 0.578523399379 0.0
0.0 2.01340002441 0.578654053013 0.0
0.0 2.01440002441 0.579019164955 0.0
0.0 2.01540002441 0.579529641145 0.0
0.0 2.01640002441 0.580171758724 0.0
0.0 2.01740002441 0.580630167345 0.0
0.0 2.01840002441 0.581086103665 0.0
0.0 2.01940002441 0.580767893745 0.0
0.0 2.02040002441 0.581187461888 0.0
0.0 2.02140002441 0.580864637151 0.0
0.0 2.02240002441 0.581710491168 0.0
0.0 2.02340002441 0.582943556284 0.0
0.0 2.02440002441 0.584113674257 0.0
0.0 2.02540002441 0.585257252513 0.0
0.0 2.02640002441 0.586026080744 0.0
0.0 2.02740002441 0.586286836162 0.0
0.0 2.02840002441 0.586659825715 0.0
0.0 2.02940002441 0.587219603381 0.0
0.0 2.03040002441 0.5876486427 0.0
0.0 2.03140002441 0.587801907878 0.0
0.0 2.03240002441 0.588184796156 0.0
0.0 2.03340002441 0.588552730095 0.0
0.0 2.03440002441 0.58845493597 0.0
0.0 2.03540002441 0.588311160245 0.0
0.0 2.03640002441 0.588282454615 0.0
0.0 2.03740002441 0.588694337924 0.0
0.0 2.03840002441 0.588961543347 0.0
0.0 2.03940002441 0.589456997932 0.0
0.0 2.04040002441 0.589318276383 0.0
0.0 2.04140002441 0.588335958425 0.0
0.0 2.04240002441 0.587898754361 0.0
0.0 2.04340002441 0.586806340038 0.0
0.0 2.04440002441 0.585835407681 0.0
0.0 2.04540002441 0.585109222495 0.0
0.0 2.04640002441 0.584519002521 0.0
0.0 2.04740002441 0.584057471229 0.0
0.0 2.04839990234 0.583271860516 0.0
0.0 2.04939990234 0.582850044274 0.0
0.0 2.05039990234 0.582577972613 0.0
0.0 2.05139990234 0.582588355946 0.0
0.0 2.05239990234 0.582651425245 0.0
0.0 2.05339990234 0.582333392645 0.0
0.0 2.05439990234 0.582182394269 0.0
0.0 2.05539990234 0.582270974662 0.0
0.0 2.05639990234 0.582148720969 0.0
0.0 2.05739990234 0.581873710426 0.0
0.0 2.05839990234 0.581816104156 0.0
0.0 2.05939990234 0.582030180012 0.0
0.0 2.06039990234 0.582897865336 0.0
0.0 2.06139990234 0.583861700471 0.0
0.0 2.06239990234 0.584297241505 0.0
0.0 2.06339990234 0.58494189806 0.0
0.0 2.06439990234 0.58585081294 0.0
0.0 2.06539990234 0.586393767227 0.0
0.0 2.06639990234 0.587150223228 0.0
0.0 2.06739990234 0.588144274178 0.0
0.0 2.06839990234 0.589319086046 0.0
0.0 2.06939990234 0.589947119458 0.0
0.0 2.07039990234 0.590874186722 0.0
0.0 2.07139990234 0.592313311989 0.0
0.0 2.07239990234 0.593294781032 0.0
0.0 2.07339990234 0.594189954178 0.0
0.0 2.07439990234 0.595029913554 0.0
0.0 2.07539990234 0.595707567281 0.0
0.0 2.07639990234 0.595945001125 0.0
0.0 2.07739990234 0.596071040765 0.0
0.0 2.07839990234 0.59597326015 0.0
0.0 2.07939990234 0.596492789778 0.0
0.0 2.08039990234 0.597019908139 0.0
0.0 2.08139990234 0.597184217355 0.0
0.0 2.08239990234 0.597419785329 0.0
0.0 2.08339990234 0.597637545951 0.0
0.0 2.08439990234 0.598258690704 0.0
0.0 2.08539990234 0.598269825838 0.0
0.0 2.08639990234 0.597939691154 0.0
0.0 2.08739990234 0.597226075369 0.0
0.0 2.08839990234 0.596879350728 0.0
0.0 2.08939990234 0.596292146078 0.0
0.0 2.09039990234 0.596215284985 0.0
0.0 2.09139990234 0.595375638599 0.0
0.0 2.09239990234 0.594424437182 0.0
0.0 2.09339990234 0.594500558727 0.0
0.0 2.09439990234 0.595052974301 0.0
0.0 2.09539990234 0.595124279002 0.0
0.0 2.09639990234 0.594848260682 0.0
0.0 2.09739990234 0.593955741168 0.0
0.0 2.09839990234 0.593351971426 0.0
0.0 2.09939990234 0.593036911724 0.0
0.0 2.10039990234 0.59269824786 0.0
0.0 2.10139990234 0.592590863212 0.0
0.0 2.10239990234 0.591842983094 0.0
0.0 2.10339990234 0.591586253559 0.0
0.0 2.10439990234 0.591976821752 0.0
0.0 2.10539990234 0.592165791313 0.0
0.0 2.10639990234 0.59145700194 0.0
0.0 2.10739990234 0.59084199563 0.0
0.0 2.10839990234 0.5910293276 0.0
0.0 2.10939990234 0.59040019916 0.0
0.0 2.11039990234 0.590220118941 0.0
0.0 2.11139990234 0.589638845122 0.0
0.0 2.11239990234 0.58999419094 0.0
0.0 2.11339990234 0.589429143048 0.0
0.0 2.11439990234 0.589200046439 0.0
0.0 2.11539990234 0.588602943229 0.0
0.0 2.11639990234 0.588772639027 0.0
0.0 2.11739990234 0.589238485114 0.0
0.0 2.11839990234 0.58942304759 0.0
0.0 2.11939990234 0.589148459088 0.0
0.0 2.12039990234 0.588749038738 0.0
0.0 2.12139990234 0.589112282075 0.0
0.0 2.12239990234 0.58934650364 0.0
0.0 2.12339990234 0.589236095435 0.0
0.0 2.12439990234 0.589095959862 0.0
0.0 2.12539990234 0.588917821205 0.0
0.0 2.12639990234 0.589257625325 0.0
0.0 2.12739990234 0.589598779979 0.0
0.0 2.12839990234 0.589010221103 0.0
0.0 2.12939990234 0.589189457644 0.0
0.0 2.13039990234 0.589357684242 0.0
0.0 2.13139990234 0.589611558086 0.0
0.0 2.13239990234 0.590049872087 0.0
0.0 2.13339990234 0.590442768081 0.0
0.0 2.13439990234 0.590981985976 0.0
0.0 2.13539990234 0.591201506749 0.0
0.0 2.13639990234 0.591035082505 0.0
0.0 2.13739990234 0.591693131915 0.0
0.0 2.13839990234 0.592027642497 0.0
0.0 2.13939990234 0.5931157337 0.0
0.0 2.14039990234 0.594085986294 0.0
0.0 2.14139990234 0.594391401203 0.0
0.0 2.14239990234 0.594831027103 0.0
0.0 2.14339990234 0.595270766013 0.0
0.0 2.14439990234 0.596255718272 0.0
0.0 2.14539990234 0.597333548855 0.0
0.0 2.14639990234 0.597497686788 0.0
0.0 2.14739990234 0.597428378139 0.0
0.0 2.14839990234 0.598418759646 0.0
0.0 2.14939990234 0.599528732821 0.0
0.0 2.15039990234 0.59985694563 0.0
0.0 2.15139990234 0.59952494305 0.0
0.0 2.15239990234 0.599620072644 0.0
0.0 2.15339990234 0.59970058697 0.0
0.0 2.15439990234 0.599508101626 0.0
0.0 2.15539990234 0.598889268693 0.0
0.0 2.15639990234 0.598873388971 0.0
0.0 2.15739990234 0.599088077149 0.0
0.0 2.15839990234 0.598703705817 0.0
0.0 2.15939990234 0.598219839216 0.0
0.0 2.16039990234 0.597479780315 0.0
0.0 2.16139990234 0.597125141936 0.0
0.0 2.16239990234 0.595950755222 0.0
0.0 2.16339990234 0.595424890431 0.0
0.0 2.16439990234 0.595144376208 0.0
0.0 2.16539990234 0.594503227081 0.0
0.0 2.16639990234 0.593893224965 0.0
0.0 2.16739990234 0.59297709889 0.0
0.0 2.16839990234 0.59238839856 0.0
0.0 2.16939990234 0.591566197027 0.0
0.0 2.17039990234 0.590913054775 0.0
0.0 2.17139990234 0.590091101445 0.0
0.0 2.17239990234 0.58994094426 0.0
0.0 2.17339990234 0.589496391503 0.0
0.0 2.17439990234 0.589453858153 0.0
0.0 2.17539990234 0.58890321565 0.0
0.0 2.17639990234 0.589011761993 0.0
0.0 2.17739990234 0.589343130146 0.0
0.0 2.17839990234 0.589886144288 0.0
0.0 2.17939990234 0.589460616233 0.0
0.0 2.18039990234 0.589191752039 0.0
0.0 2.18139990234 0.588882786742 0.0
0.0 2.18239990234 0.589029156836 0.0
0.0 2.18339990234 0.589915969257 0.0
0.0 2.18439990234 0.590450816895 0.0
0.0 2.18539990234 0.591570408186 0.0
0.0 2.18639990234 0.592151693689 0.0
0.0 2.18739990234 0.592102835421 0.0
0.0 2.18839990234 0.592528044101 0.0
0.0 2.18939990234 0.593178512655 0.0
0.0 2.19039990234 0.593749872743 0.0
0.0 2.19139990234 0.594552019559 0.0
0.0 2.19239990234 0.595177368553 0.0
0.0 2.19339990234 0.595793695272 0.0
0.0 2.19439990234 0.596706643161 0.0
0.0 2.19539990234 0.597545599733 0.0
0.0 2.19639990234 0.598424088422 0.0
0.0 2.19739990234 0.599777923807 0.0
0.0 2.19839990234 0.60099751736 0.0
0.0 2.19939990234 0.601774447153 0.0
0.0 2.20039990234 0.602377256569 0.0
0.0 2.20139990234 0.602787859218 0.0
0.0 2.20239990234 0.603787090862 0.0
0.0 2.20339990234 0.604146213969 0.0
0.0 2.20439990234 0.604379924839 0.0
0.0 2.20539990234 0.604054127692 0.0
0.0 2.20639990234 0.603290201035 0.0
0.0 2.20739990234 0.602445507476 0.0
0.0 2.20839990234 0.601039746822 0.0
0.0 2.20939990234 0.598991593321 0.0
0.0 2.21039990234 0.596151931654 0.0
0.0 2.21139990234 0.591764129162 0.0
0.0 2.21239990234 0.586734340372 0.0
0.0 2.21339990234 0.579940357748 0.0
0.0 2.21439990234 0.571404495108 0.0
0.0 2.21539990234 0.561638583208 0.0
0.0 2.21639990234 0.550032394324 0.0
0.0 2.21739990234 0.536410870753 0.0
0.0 2.21839990234 0.521449111576 0.0
0.0 2.21939990234 0.504965462014 0.0
0.0 2.22039990234 0.487092625803 0.0
0.0 2.22139990234 0.467927221119 0.0
0.0 2.22239990234 0.447969950488 0.0
0.0 2.22339990234 0.427263245662 0.0
0.0 2.22439990234 0.406109027186 0.0
0.0 2.22539990234 0.385196345588 0.0
0.0 2.22639990234 0.364974979855 0.0
0.0 2.22739990234 0.345904203473 0.0
0.0 2.22839990234 0.327813157003 0.0
0.0 2.22939990234 0.310957252649 0.0
0.0 2.23039990234 0.295531647802 0.0
0.0 2.23139990234 0.281388564131 0.0
0.0 2.23239990234 0.268130003697 0.0
0.0 2.23339990234 0.255644128175 0.0
0.0 2.23439990234 0.243821587258 0.0
0.0 2.23539990234 0.232463595519 0.0
0.0 2.23639990234 0.221987010845 0.0
0.0 2.23739990234 0.212163358486 0.0
0.0 2.23839990234 0.202858961691 0.0
0.0 2.23939990234 0.194377518314 0.0
0.0 2.24039990234 0.186599578708 0.0
0.0 2.24139990234 0.179393843441 0.0
0.0 2.24239990234 0.172965449281 0.0
0.0 2.24339990234 0.167311205703 0.0
0.0 2.24439990234 0.162180686402 0.0
0.0 2.24539990234 0.157609072849 0.0
0.0 2.24639990234 0.153591439048 0.0
0.0 2.24739990234 0.15005266651 0.0
0.0 2.24839990234 0.146966289746 0.0
0.0 2.24939990234 0.14435290891 0.0
0.0 2.25039990234 0.142112307684 0.0
0.0 2.25139990234 0.140150819653 0.0
0.0 2.25239990234 0.138466121696 0.0
0.0 2.25339990234 0.137018399616 0.0
0.0 2.25439990234 0.135761043637 0.0
0.0 2.25539990234 0.134711090377 0.0
0.0 2.25639990234 0.133829598879 0.0
0.0 2.25739990234 0.133084970582 0.0
0.0 2.25839990234 0.13245461792 0.0
0.0 2.25939990234 0.1319298888 0.0
0.0 2.26039990234 0.131482898877 0.0
0.0 2.26139990234 0.131129679245 0.0
0.0 2.26239990234 0.130855022124 0.0
0.0 2.26339990234 0.130639227145 0.0
0.0 2.26439990234 0.130472996264 0.0
0.0 2.26539990234 0.130355029489 0.0
0.0 2.26639990234 0.130271172218 0.0
0.0 2.26739990234 0.130225789635 0.0
0.0 2.26839990234 0.130212278377 0.0
0.0 2.26939990234 0.130225466885 0.0
0.0 2.27039990234 0.13026235591 0.0
0.0 2.27139990234 0.130320158311 0.0
0.0 2.27239990234 0.130390544567 0.0
0.0 2.27339990234 0.130477789816 0.0
0.0 2.27439990234 0.130577684236 0.0
0.0 2.27539990234 0.130690573669 0.0
0.0 2.27639990234 0.130809806335 0.0
0.0 2.27739990234 0.130941412765 0.0
0.0 2.27839990234 0.131079476582 0.0
0.0 2.27939990234 0.131221776881 0.0
0.0 2.28039990234 0.131370635914 0.0
0.0 2.28139990234 0.131526901074 0.0
0.0 2.28239990234 0.13168686424 0.0
0.0 2.28339990234 0.131851007394 0.0
0.0 2.28439990234 0.132017356277 0.0
0.0 2.28539990234 0.132189023891 0.0
0.0 2.28639990234 0.132361122413 0.0
0.0 2.28739990234 0.132537014405 0.0
0.0 2.28839990234 0.132716222981 0.0
0.0 2.28939990234 0.132897184773 0.0
0.0 2.29039990234 0.133079049277 0.0
0.0 2.29139990234 0.133263599389 0.0
0.0 2.29239990234 0.133450779149 0.0
0.0 2.29339990234 0.133638067852 0.0
0.0 2.29439990234 0.133828854684 0.0
0.0 2.29539990234 0.134020834572 0.0
0.0 2.29639990234 0.134214253353 0.0
0.0 2.29739990234 0.134409002273 0.0
0.0 2.29839990234 0.134605506513 0.0
0.0 2.29939990234 0.134802200546 0.0
0.0 2.30039990234 0.135000424122 0.0
0.0 2.30139990234 0.135199955223 0.0
0.0 2.30239990234 0.135400813285 0.0
0.0 2.30339990234 0.135601502097 0.0
0.0 2.30439990234 0.135803897873 0.0
0.0 2.30539990234 0.13600790545 0.0
0.0 2.30639990234 0.136212827904 0.0
0.0 2.30739990234 0.136418425916 0.0
0.0 2.30839990234 0.13662508402 0.0
0.0 2.30939990234 0.136832464337 0.0
0.0 2.31039990234 0.13704141487 0.0
0.0 2.31139990234 0.137251136584 0.0
0.0 2.31239990234 0.137459868265 0.0
0.0 2.31339990234 0.13767010241 0.0
0.0 2.31439990234 0.13788187791 0.0
0.0 2.31539990234 0.138094804997 0.0
0.0 2.31639990234 0.138308211519 0.0
0.0 2.31739990234 0.138522411252 0.0
0.0 2.31839990234 0.138736647598 0.0
0.0 2.31939990234 0.138952329162 0.0
0.0 2.32039990234 0.139168906092 0.0
0.0 2.32139990234 0.139386513537 0.0
0.0 2.32239990234 0.139604759357 0.0
0.0 2.32339990234 0.139823101201 0.0
0.0 2.32439990234 0.140041752688 0.0
0.0 2.32539990234 0.140261756822 0.0
0.0 2.32639990234 0.140482362157 0.0
0.0 2.32739990234 0.140703870219 0.0
0.0 2.32839990234 0.140925795957 0.0
0.0 2.32939990234 0.141149183551 0.0
0.0 2.33039990234 0.141372750641 0.0
0.0 2.33139990234 0.14159702318 0.0
0.0 2.33239990234 0.141821928492 0.0
0.0 2.33339990234 0.142047608236 0.0
0.0 2.33439990234 0.142274124187 0.0
0.0 2.33539990234 0.142501407177 0.0
0.0 2.33639990234 0.14272940108 0.0
0.0 2.33739990234 0.142958129948 0.0
0.0 2.33839990234 0.143187459416 0.0
0.0 2.33939990234 0.143417296126 0.0
0.0 2.34039990234 0.143647970095 0.0
0.0 2.34139990234 0.143879500264 0.0
0.0 2.34239990234 0.144111912844 0.0
0.0 2.34339990234 0.144344827683 0.0
0.0 2.34439990234 0.144578378695 0.0
0.0 2.34539990234 0.144812666272 0.0
0.0 2.34639990234 0.145047728937 0.0
0.0 2.34739990234 0.145283175405 0.0
0.0 2.34839990234 0.145519371938 0.0
0.0 2.34939990234 0.145756614123 0.0
0.0 2.35039990234 0.145994370644 0.0
0.0 2.35139990234 0.146232587571 0.0
0.0 2.35239990234 0.146471477185 0.0
0.0 2.35339990234 0.146710997333 0.0
0.0 2.35439990234 0.146951251444 0.0
0.0 2.35539990234 0.147192197666 0.0
0.0 2.35639990234 0.147433934057 0.0
0.0 2.35739990234 0.147676221817 0.0
0.0 2.35839990234 0.147919092124 0.0
0.0 2.35939990234 0.148162778677 0.0
0.0 2.36039990234 0.148407026368 0.0
0.0 2.36139990234 0.148651952221 0.0
0.0 2.36239990234 0.148897523731 0.0
0.0 2.36339990234 0.14914383282 0.0
0.0 2.36439990234 0.149390898545 0.0
0.0 2.36539990234 0.149638417079 0.0
0.0 2.36639990234 0.149886640478 0.0
0.0 2.36739990234 0.150135666565 0.0
0.0 2.36839990234 0.150385178592 0.0
0.0 2.36939990234 0.150635415769 0.0
0.0 2.37039990234 0.150886399917 0.0
0.0 2.37139990234 0.151138123244 0.0
0.0 2.37239990234 0.151390548001 0.0
0.0 2.37339990234 0.151643623178 0.0
0.0 2.37439990234 0.151897411848 0.0
0.0 2.37539990234 0.152151939078 0.0
0.0 2.37639990234 0.15240710539 0.0
0.0 2.37739990234 0.152662965834 0.0
0.0 2.37839990234 0.152919519513 0.0
0.0 2.37939990234 0.153176788345 0.0
0.0 2.38039990234 0.186621049261 0.0
0.0 2.38139990234 0.264249116688 0.0
0.0 2.38239990234 0.334469027036 0.0
0.0 2.38339990234 0.397987724736 0.0
0.0 2.38439990234 0.455444648865 0.0
0.0 2.38539990234 0.507418266399 0.0
0.0 2.38639990234 0.554431793427 0.0
0.0 2.38739990234 0.596958569002 0.0
0.0 2.38839990234 0.635426745504 0.0
0.0 2.38939990234 0.670223638982 0.0
0.0 2.39039990234 0.701699592585 0.0
0.0 2.39139990234 0.730171529119 0.0
0.0 2.39239990234 0.755926126201 0.0
0.0 2.39339990234 0.779222698825 0.0
0.0 2.39439990234 0.800295830657 0.0
0.0 2.39539990234 0.819357692297 0.0
0.0 2.39639990234 0.836600238663 0.0
0.0 2.39739990234 0.852197094617 0.0
0.0 2.39839990234 0.866305324799 0.0
0.0 2.39939990234 0.879066994616 0.0
0.0 2.40039990234 0.890610613142 0.0
0.0 2.40139990234 0.901052434336 0.0
0.0 2.40239990234 0.910497609838 0.0
0.0 2.40339990234 0.919041253139 0.0
0.0 2.40439990234 0.926769412516 0.0
0.0 2.40539990234 0.933759918852 0.0
0.0 2.40639990234 0.94008317781 0.0
0.0 2.40739990234 0.945802871948 0.0
0.0 2.40839990234 0.950976605081 0.0
0.0 2.40939990234 0.955656488367 0.0
0.0 2.41039990234 0.959889659586 0.0
0.0 2.41139990234 0.963718749234 0.0
0.0 2.41239990234 0.96718232969 0.0
0.0 2.41339990234 0.970315289815 0.0
0.0 2.41439990234 0.973149185066 0.0
0.0 2.41539990234 0.975712561989 0.0
0.0 2.41639990234 0.978031240448 0.0
0.0 2.41739990234 0.980128576976 0.0
0.0 2.41839990234 0.982025700684 0.0
0.0 2.41939990234 0.983741721724 0.0
0.0 2.42039990234 0.98529392666 0.0
0.0 2.42139990234 0.986697952578 0.0
0.0 2.42239990234 0.98796794446 0.0
0.0 2.42339990234 0.989116696385 0.0
0.0 2.42439990234 0.990155781157 0.0
0.0 2.42539990234 0.991095667665 0.0
0.0 2.42639990234 0.991945825703 0.0
0.0 2.42739990234 0.992714820078 0.0
0.0 2.42839990234 0.993410398943 0.0
0.0 2.42939990234 0.994039570786 0.0
0.0 2.43039990234 0.994608674827 0.0
0.0 2.43139990234 0.995123445518 0.0
0.0 2.43239990234 0.995589069399 0.0
0.0 2.43339990234 0.996010238418 0.0
0.0 2.43439990234 0.996391196442 0.0
0.0 2.43539990234 0.996735782339 0.0
0.0 2.43639990234 0.997047468315 0.0
0.0 2.43739990234 0.997329395344 0.0
0.0 2.43839990234 0.997584404598 0.0
0.0 2.43939990234 0.997815065809 0.0
0.0 2.44039990234 0.998023703526 0.0
0.0 2.44139990234 0.998212420321 0.0
0.0 2.44239990234 0.998383118112 0.0
0.0 2.44339990234 0.998537517262 0.0
0.0 2.44439990234 0.998677173858 0.0
0.0 2.44539990234 0.998803495444 0.0
0.0 2.44639990234 0.99891775518 0.0
0.0 2.44739990234 0.999021104704 0.0
0.0 2.44839990234 0.999114585709 0.0
0.0 2.44939990234 0.999199140405 0.0
0.0 2.45039990234 0.999275621092 0.0
0.0 2.45139990234 0.999344798659 0.0
0.0 2.45239990234 0.999407370395 0.0
0.0 2.45339990234 0.99946396712 0.0
0.0 2.45439990234 0.999515159284 0.0
0.0 2.45539990234 0.99956146291 0.0
0.0 2.45639990234 0.999603344828 0.0
0.0 2.45739990234 0.999641227239 0.0
0.0 2.45839990234 0.999675492023 0.0
0.0 2.45939990234 0.999706484623 0.0
0.0 2.46039990234 0.999734517513 0.0
0.0 2.46139990234 0.999759873301 0.0
0.0 2.46239990234 0.999782807619 0.0
0.0 2.46339990234 0.999803551704 0.0
0.0 2.46439990234 0.999822314688 0.0
0.0 2.46539990234 0.999839285769 0.0
0.0 2.46639990234 0.999854636061 0.0
0.0 2.46739990234 0.999868520335 0.0
0.0 2.46839990234 0.999881078591 0.0
0.0 2.46939990234 0.99989243746 0.0
0.0 2.47039990234 0.999902711476 0.0
0.0 2.47139990234 0.999912004246 0.0
0.0 2.47239990234 0.999920409477 0.0
0.0 2.47339990234 0.999928011925 0.0
0.0 2.47439990234 0.999934888258 0.0
0.0 2.47539990234 0.999941107823 0.0
0.0 2.47639990234 0.999946733342 0.0
0.0 2.47739990234 0.999951821548 0.0
0.0 2.47839990234 0.999956423758 0.0
0.0 2.47939990234 0.999960586388 0.0
0.0 2.48039990234 0.99996435142 0.0
0.0 2.48139990234 0.999967756826 0.0
0.0 2.48239990234 0.999970836954 0.0
0.0 2.48339990234 0.99997362287 0.0
0.0 2.48439990234 0.999976142677 0.0
0.0 2.48539990234 0.99997842179 0.0
0.0 2.48639990234 0.999980483198 0.0
0.0 2.48739990234 0.999982347694 0.0
0.0 2.48839990234 0.999984034088 0.0
0.0 2.48939990234 0.999985559388 0.0
0.0 2.49039990234 0.999986938983 0.0
0.0 2.49139990234 0.999988186791 0.0
0.0 2.49239990234 0.999989315397 0.0
0.0 2.49339990234 0.999990336191 0.0
0.0 2.49439990234 0.999991259469 0.0
0.0 2.49539990234 0.999992094544 0.0
0.0 2.49639990234 0.999992849845 0.0
0.0 2.49739990234 0.999993532989 0.0
0.0 2.49839990234 0.999994150871 0.0
0.0 2.49939990234 0.999994709724 0.0
0.0 2.50039990234 0.999995215186 0.0
0.0 2.50139990234 0.999995672358 0.0
0.0 2.50239990234 0.999996085854 0.0
0.0 2.50339990234 0.999996459845 0.0
0.0 2.50439990234 0.999996798106 0.0
0.0 2.50539990234 0.999997104048 0.0
0.0 2.50639990234 0.999997380761 0.0
0.0 2.50739990234 0.999997631036 0.0
0.0 2.50839990234 0.999997857399 0.0
0.0 2.50939990234 0.999998062135 0.0
0.0 2.51039990234 0.999998247309 0.0
0.0 2.51139990234 0.99999841479 0.0
0.0 2.51239990234 0.999998566269 0.0
0.0 2.51339990234 0.999998703274 0.0
0.0 2.51439990234 0.999998827189 0.0
0.0 2.51539990234 0.999998939263 0.0
0.0 2.51639990234 0.999999040628 0.0
0.0 2.51739990234 0.999999132308 0.0
0.0 2.51839990234 0.999999215228 0.0
0.0 2.51939990234 0.999999290225 0.0
0.0 2.52039990234 0.999999358055 0.0
0.0 2.52139990234 0.999999419404 0.0
0.0 2.52239990234 0.99999947489 0.0
0.0 2.52339990234 0.999999525074 0.0
0.0 2.52439990234 0.999999570463 0.0
0.0 2.52539990234 0.999999611514 0.0
0.0 2.52639990234 0.999999648642 0.0
0.0 2.52739990234 0.999999682222 0.0
0.0 2.52839990234 0.999999712594 0.0
0.0 2.52939990234 0.999999740063 0.0
0.0 2.53039990234 0.999999764906 0.0
0.0 2.53139990234 0.999999787376 0.0
0.0 2.53239990234 0.999999807698 0.0
0.0 2.53339990234 0.999999826078 0.0
0.0 2.53439990234 0.999999842702 0.0
0.0 2.53539990234 0.999999857736 0.0
0.0 2.53639990234 0.999999871334 0.0
0.0 2.53739990234 0.999999883633 0.0
0.0 2.53839990234 0.999999894756 0.0
0.0 2.53939990234 0.999999904815 0.0
0.0 2.54039990234 0.999999913914 0.0
0.0 2.54139990234 0.999999922143 0.0
0.0 2.54239990234 0.999999929585 0.0
0.0 2.54339990234 0.999999936316 0.0
0.0 2.54439990234 0.999999942403 0.0
0.0 2.54539990234 0.999999947909 0.0
0.0 2.54639990234 0.999999952889 0.0
0.0 2.54739990234 0.999999957392 0.0
0.0 2.54839990234 0.999999961465 0.0
0.0 2.54939990234 0.999999965149 0.0
0.0 2.55039990234 0.999999968481 0.0
0.0 2.55139990234 0.999999971494 0.0
0.0 2.55239990234 0.999999974219 0.0
0.0 2.55339990234 0.999999976684 0.0
0.0 2.55439990234 0.999999978913 0.0
0.0 2.55539990234 0.999999980929 0.0
0.0 2.55639990234 0.999999982752 0.0
0.0 2.55739990234 0.999999984401 0.0
0.0 2.55839990234 0.999999985892 0.0
0.0 2.55939990234 0.999999987241 0.0
0.0 2.56039990234 0.999999988461 0.0
0.0 2.56139990234 0.999999989564 0.0
0.0 2.56239990234 0.999999990562 0.0
0.0 2.56339990234 0.999999991464 0.0
0.0 2.56439990234 0.999999992281 0.0
0.0 2.56539990234 0.999999993019 0.0
0.0 2.56639990234 0.999999993686 0.0
0.0 2.56739990234 0.99999999429 0.0
0.0 2.56839990234 0.999999994836 0.0
0.0 2.56939990234 0.99999999533 0.0
0.0 2.57039990234 0.999999995776 0.0
0.0 2.57139990234 0.99999999618 0.0
0.0 2.57239990234 0.999999996545 0.0
0.0 2.57339990234 0.999999996876 0.0
0.0 2.57439990234 0.999999997174 0.0
0.0 2.57539990234 0.999999997445 0.0
0.0 2.57639990234 0.999999997689 0.0
0.0 2.57739990234 0.99999999791 0.0
0.0 2.57839990234 0.99999999811 0.0
0.0 2.57939990234 0.999999998291 0.0
0.0 2.58039990234 0.999999998454 0.0
0.0 2.58139990234 0.999999998602 0.0
0.0 2.58239990234 0.999999998736 0.0
0.0 2.58339990234 0.999999998857 0.0
0.0 2.58439990234 0.999999998966 0.0
0.0 2.58539990234 0.999999999065 0.0
0.0 2.58639990234 0.999999999154 0.0
0.0 2.58739990234 0.999999999235 0.0
0.0 2.58839990234 0.999999999308 0.0
0.0 2.58939990234 0.999999999374 0.0
0.0 2.59039990234 0.999999999434 0.0
0.0 2.59139990234 0.999999999488 0.0
0.0 2.59239990234 0.999999999537 0.0
0.0 2.59339990234 0.999999999582 0.0
0.0 2.59439990234 0.999999999622 0.0
0.0 2.59539990234 0.999999999658 0.0
0.0 2.59639990234 0.999999999691 0.0
0.0 2.59739990234 0.99999999972 0.0
