0.0 0.551299987793 0.309193014494 0.0
0.0 0.552299987793 0.309043666364 0.0
0.0 0.553299987793 0.308894083662 0.0
0.0 0.554299987793 0.308744267733 0.0
0.0 0.555299987793 0.308594216816 0.0
0.0 0.556299987793 0.308443931179 0.0
0.0 0.557299987793 0.308293413895 0.0
0.0 0.558299987793 0.308142664562 0.0
0.0 0.559299987793 0.307991682652 0.0
0.0 0.560299987793 0.307840469694 0.0
0.0 0.561299987793 0.307689027196 0.0
0.0 0.562299987793 0.307537351609 0.0
0.0 0.563299987793 0.307385448025 0.0
0.0 0.564299987793 0.307233314437 0.0
0.0 0.565299987793 0.307080951578 0.0
0.0 0.566299987793 0.306928361079 0.0
0.0 0.567299987793 0.306775542131 0.0
0.0 0.568299987793 0.306622497677 0.0
0.0 0.569299987793 0.306469223154 0.0
0.0 0.570299987793 0.306315724542 0.0
0.0 0.571299987793 0.306161998945 0.0
0.0 0.572299987793 0.306008050319 0.0
0.0 0.573299987793 0.305853874713 0.0
0.0 0.574299987793 0.305699478003 0.0
0.0 0.575299987793 0.305544850652 0.0
0.0 0.576299987793 0.305390002173 0.0
0.0 0.577299987793 0.305234932738 0.0
0.0 0.578299987793 0.30507964071 0.0
0.0 0.579299987793 0.304924129215 0.0
0.0 0.580299987793 0.304768390021 0.0
0.0 0.581299987793 0.304612434637 0.0
0.0 0.582299987793 0.304456256789 0.0
0.0 0.583299987793 0.30429986046 0.0
0.0 0.584299987793 0.304143245326 0.0
0.0 0.585299987793 0.303986409871 0.0
0.0 0.586299987793 0.303829355922 0.0
0.0 0.587299987793 0.303672085071 0.0
0.0 0.588299987793 0.303514601173 0.0
0.0 0.589299987793 0.303356890947 0.0
0.0 0.590299987793 0.303198972226 0.0
0.0 0.591299987793 0.30304083166 0.0
0.0 0.592299987793 0.302882479942 0.0
0.0 0.593299987793 0.302723916158 0.0
0.0 0.594299987793 0.30256512879 0.0
0.0 0.595299987793 0.302406134976 0.0
0.0 0.596299987793 0.302246926636 0.0
0.0 0.597299987793 0.302087503143 0.0
0.0 0.598299987793 0.301927870544 0.0
0.0 0.599299987793 0.301768020681 0.0
0.0 0.600299987793 0.301607967313 0.0
0.0 0.601299987793 0.301447704258 0.0
0.0 0.602299987793 0.301287219862 0.0
0.0 0.603299987793 0.30112652608 0.0
0.0 0.604299987793 0.30096563754 0.0
0.0 0.605299987793 0.300804520915 0.0
0.0 0.606299987793 0.300643205565 0.0
0.0 0.607299987793 0.300481694342 0.0
0.0 0.608299987793 0.300319959908 0.0
0.0 0.609299987793 0.300158014459 0.0
0.0 0.610299987793 0.299995873625 0.0
0.0 0.611299987793 0.299833522586 0.0
0.0 0.612299987793 0.299670970708 0.0
0.0 0.613299987793 0.299508210282 0.0
0.0 0.614299987793 0.299345258822 0.0
0.0 0.615299987793 0.299182076441 0.0
0.0 0.616299987793 0.299018703331 0.0
0.0 0.617299987793 0.298855136958 0.0
0.0 0.618299987793 0.298691352847 0.0
0.0 0.619299987793 0.298527374607 0.0
0.0 0.620299987793 0.298363195038 0.0
0.0 0.621299987793 0.298198819301 0.0
0.0 0.622299987793 0.29803424256 0.0
0.0 0.623299987793 0.297869484169 0.0
0.0 0.624299987793 0.29770448014 0.0
0.0 0.625299987793 0.297539297388 0.0
0.0 0.626299987793 0.297373955935 0.0
0.0 0.627299987793 0.297208349744 0.0
0.0 0.628299987793 0.29704259763 0.0
0.0 0.629299987793 0.296876619013 0.0
0.0 0.630299987793 0.296710436998 0.0
0.0 0.631299987793 0.296544127022 0.0
0.0 0.632299987793 0.296377536633 0.0
0.0 0.633299987793 0.296210805763 0.0
0.0 0.634299987793 0.296043873028 0.0
0.0 0.635299987793 0.295876723786 0.0
0.0 0.636299987793 0.295709416313 0.0
0.0 0.637299987793 0.295541838529 0.0
0.0 0.638299987793 0.295374147291 0.0
0.0 0.639299987793 0.295206231575 0.0
0.0 0.640299987793 0.295038133271 0.0
0.0 0.641299987793 0.294869850821 0.0
0.0 0.642299987793 0.294701370789 0.0
0.0 0.643299987793 0.294532727307 0.0
0.0 0.644299987793 0.294363858855 0.0
0.0 0.645299987793 0.294194808281 0.0
0.0 0.646299987793 0.294025558324 0.0
0.0 0.647299987793 0.293856116295 0.0
0.0 0.648299987793 0.293686499416 0.0
0.0 0.649299987793 0.293516697964 0.0
0.0 0.650299987793 0.293346710326 0.0
0.0 0.651299987793 0.293176551499 0.0
0.0 0.652299987793 0.293006201536 0.0
0.0 0.653299987793 0.292835654386 0.0
0.0 0.654299987793 0.292664887002 0.0
0.0 0.655299987793 0.292493999708 0.0
0.0 0.656299987793 0.292322886244 0.0
0.0 0.657299987793 0.292151621732 0.0
0.0 0.658299987793 0.29198016237 0.0
0.0 0.659299987793 0.291808534668 0.0
0.0 0.660299987793 0.291636677351 0.0
0.0 0.661299987793 0.291464693633 0.0
0.0 0.662299987793 0.291292506011 0.0
0.0 0.663299987793 0.291120127209 0.0
0.0 0.664299987793 0.290947597259 0.0
0.0 0.665299987793 0.290774866634 0.0
0.0 0.666299987793 0.290601970555 0.0
0.0 0.667299987793 0.290428928508 0.0
0.0 0.668299987793 0.290255637084 0.0
0.0 0.669299987793 0.290082204479 0.0
0.0 0.670299987793 0.289908607183 0.0
0.0 0.671299987793 0.289734866265 0.0
0.0 0.672299987793 0.289560850461 0.0
0.0 0.673299987793 0.289386722536 0.0
0.0 0.674299987793 0.289212445869 0.0
0.0 0.675299987793 0.289037934807 0.0
0.0 0.676299987793 0.288863295764 0.0
0.0 0.677299987793 0.28868851293 0.0
0.0 0.678299987793 0.28851345369 0.0
0.0 0.679299987793 0.288338299534 0.0
0.0 0.680299987793 0.288162958199 0.0
0.0 0.681299987793 0.287987443462 0.0
0.0 0.682299987793 0.287811750527 0.0
0.0 0.683299987793 0.287635915874 0.0
0.0 0.684299987793 0.287459914963 0.0
0.0 0.685299987793 0.287283714792 0.0
0.0 0.686299987793 0.287107330213 0.0
0.0 0.687299987793 0.286930789004 0.0
0.0 0.688299987793 0.286754148495 0.0
0.0 0.689299987793 0.286577267297 0.0
0.0 0.690299987793 0.286400248782 0.0
0.0 0.691299987793 0.286223054847 0.0
0.0 0.692299987793 0.286045709775 0.0
0.0 0.693299987793 0.285868180421 0.0
0.0 0.694299987793 0.285690456594 0.0
0.0 0.695299987793 0.285512602941 0.0
0.0 0.696299987793 0.285334580254 0.0
0.0 0.697299987793 0.285156407475 0.0
0.0 0.698299987793 0.284978074793 0.0
0.0 0.699299987793 0.284799570181 0.0
0.0 0.700299987793 0.284620913594 0.0
0.0 0.701299987793 0.284442066679 0.0
0.0 0.702299987793 0.284263079143 0.0
0.0 0.703299987793 0.284083956222 0.0
0.0 0.704299987793 0.283904647329 0.0
0.0 0.705299987793 0.283725217871 0.0
0.0 0.706299987793 0.28354558736 0.0
0.0 0.707299987793 0.283365781641 0.0
0.0 0.708299987793 0.283185855022 0.0
0.0 0.709299987793 0.283005828314 0.0
0.0 0.710299987793 0.282825504981 0.0
0.0 0.711299987793 0.282645145137 0.0
0.0 0.712299987793 0.282464578476 0.0
0.0 0.713299987793 0.282283844105 0.0
0.0 0.714299987793 0.282103009539 0.0
0.0 0.715299987793 0.281921959307 0.0
0.0 0.716299987793 0.281740760592 0.0
0.0 0.717299987793 0.2815594566 0.0
0.0 0.718299987793 0.281377967498 0.0
0.0 0.719299987793 0.281196334361 0.0
0.0 0.720299987793 0.281014544819 0.0
0.0 0.721299987793 0.280832642825 0.0
0.0 0.722299987793 0.280650522745 0.0
0.0 0.723299987793 0.280468310412 0.0
0.0 0.724299987793 0.280285967071 0.0
0.0 0.725299987793 0.280103385273 0.0
0.0 0.726299987793 0.279920730619 0.0
0.0 0.727299987793 0.279737872246 0.0
0.0 0.728299987793 0.279554909801 0.0
0.0 0.729299987793 0.279371838456 0.0
0.0 0.730299987793 0.279188527345 0.0
0.0 0.731299987793 0.279005109193 0.0
0.0 0.732299987793 0.278821584409 0.0
0.0 0.733299987793 0.278637844348 0.0
0.0 0.734299987793 0.278454021055 0.0
0.0 0.735299987793 0.278270004516 0.0
0.0 0.736299987793 0.278085868516 0.0
0.0 0.737299987793 0.277901598703 0.0
0.0 0.738299987793 0.277717193732 0.0
0.0 0.739299987793 0.277532618162 0.0
0.0 0.740299987793 0.277347938121 0.0
0.0 0.741299987793 0.277163120795 0.0
0.0 0.742299987793 0.276978110202 0.0
0.0 0.743299987793 0.276792974852 0.0
0.0 0.744299987793 0.276607690815 0.0
0.0 0.745299987793 0.276422290282 0.0
0.0 0.746299987793 0.276236810176 0.0
0.0 0.747299987793 0.276051109282 0.0
0.0 0.748299987793 0.275865295755 0.0
0.0 0.749299987793 0.275679314535 0.0
0.0 0.750299987793 0.275493291447 0.0
0.0 0.751299987793 0.275307016764 0.0
0.0 0.752299987793 0.275120700007 0.0
0.0 0.753299987793 0.274934222133 0.0
0.0 0.754299987793 0.274747560934 0.0
0.0 0.755299987793 0.274560810602 0.0
0.0 0.756299987793 0.274373930399 0.0
0.0 0.757299987793 0.274186860112 0.0
0.0 0.758299987793 0.273999722559 0.0
0.0 0.759299987793 0.273812430082 0.0
0.0 0.760299987793 0.273625015551 0.0
0.0 0.761299987793 0.273437438304 0.0
0.0 0.762299987793 0.273249802536 0.0
0.0 0.763299987793 0.273061937923 0.0
0.0 0.764299987793 0.272874004902 0.0
0.0 0.765299987793 0.272685936481 0.0
0.0 0.766299987793 0.272497742183 0.0
0.0 0.767299987793 0.272309467301 0.0
0.0 0.768299987793 0.272120995036 0.0
0.0 0.769299987793 0.271932396002 0.0
0.0 0.770299987793 0.271743745969 0.0
0.0 0.771299987793 0.271554891945 0.0
0.0 0.772299987793 0.271365913198 0.0
0.0 0.773299987793 0.271176899851 0.0
0.0 0.774299987793 0.270987660369 0.0
0.0 0.775299987793 0.270798319778 0.0
0.0 0.776299987793 0.270608854975 0.0
0.0 0.777299987793 0.270419299219 0.0
0.0 0.778299987793 0.270229563583 0.0
0.0 0.779299987793 0.270039745861 0.0
0.0 0.780299987793 0.269849823889 0.0
0.0 0.781299987793 0.26965977164 0.0
0.0 0.782299987793 0.269469625867 0.0
0.0 0.783299987793 0.269279290358 0.0
0.0 0.784299987793 0.26908887329 0.0
0.0 0.785299987793 0.268898326466 0.0
0.0 0.786299987793 0.268707662423 0.0
0.0 0.787299987793 0.268516908612 0.0
0.0 0.788299987793 0.268326047538 0.0
0.0 0.789299987793 0.268135030991 0.0
0.0 0.790299987793 0.267943895172 0.0
0.0 0.791299987793 0.267752675481 0.0
0.0 0.792299987793 0.267561319489 0.0
0.0 0.793299987793 0.267369826989 0.0
0.0 0.794299987793 0.267178289393 0.0
0.0 0.795299987793 0.266986620981 0.0
0.0 0.796299987793 0.266794736599 0.0
0.0 0.797299987793 0.266602805771 0.0
0.0 0.798299987793 0.266410732044 0.0
0.0 0.799299987793 0.266218630493 0.0
0.0 0.800299987793 0.266026422907 0.0
0.0 0.801299987793 0.26583398685 0.0
0.0 0.802299987793 0.265641485408 0.0
0.0 0.803299987793 0.265448956805 0.0
0.0 0.804299987793 0.265256184444 0.0
0.0 0.805299987793 0.265063416042 0.0
0.0 0.806299987793 0.264870559546 0.0
0.0 0.807299987793 0.264677548634 0.0
0.0 0.808299987793 0.264484404243 0.0
0.0 0.809299987793 0.264291079355 0.0
0.0 0.810299987793 0.264097851119 0.0
0.0 0.811299987793 0.263904393007 0.0
0.0 0.812299987793 0.263710822166 0.0
0.0 0.813299987793 0.263517090482 0.0
0.0 0.814299987793 0.26332349111 0.0
0.0 0.815299987793 0.263129540512 0.0
0.0 0.816299987793 0.262935566846 0.0
0.0 0.817299987793 0.262741459473 0.0
0.0 0.818299987793 0.262547302023 0.0
0.0 0.819299987793 0.262352973791 0.0
0.0 0.820299987793 0.262158611987 0.0
0.0 0.821299987793 0.261964170631 0.0
0.0 0.822299987793 0.261769587966 0.0
0.0 0.823299987793 0.261574859861 0.0
0.0 0.824299987793 0.261380109204 0.0
0.0 0.825299987793 0.261185285799 0.0
0.0 0.826299987793 0.260990336282 0.0
0.0 0.827299987793 0.260795219297 0.0
0.0 0.828299987793 0.260600085586 0.0
0.0 0.829299987793 0.260404820456 0.0
0.0 0.830299987793 0.26020947189 0.0
0.0 0.831299987793 0.260013959045 0.0
0.0 0.832299987793 0.259818406281 0.0
0.0 0.833299987793 0.259622749741 0.0
0.0 0.834299987793 0.259427071188 0.0
0.0 0.835299987793 0.259231210545 0.0
0.0 0.836299987793 0.259035276204 0.0
0.0 0.837299987793 0.258839221123 0.0
0.0 0.838299987793 0.258643142232 0.0
0.0 0.839299987793 0.258447018491 0.0
0.0 0.840299987793 0.25825070623 0.0
0.0 0.841299987793 0.258054266393 0.0
0.0 0.842299987793 0.257857825212 0.0
0.0 0.843299987793 0.257661274631 0.0
0.0 0.844299987793 0.257464605483 0.0
0.0 0.845299987793 0.257267900535 0.0
0.0 0.846299987793 0.25707108758 0.0
0.0 0.847299987793 0.256874091521 0.0
0.0 0.848299987793 0.256677156098 0.0
0.0 0.849299987793 0.256480100266 0.0
0.0 0.850299987793 0.256282878098 0.0
0.0 0.851299987793 0.256085568147 0.0
0.0 0.852299987793 0.25588822717 0.0
0.0 0.853299987793 0.255690806687 0.0
0.0 0.854299987793 0.255493316296 0.0
0.0 0.855299987793 0.255295778223 0.0
0.0 0.856299987793 0.25509816582 0.0
0.0 0.857299987793 0.254900458748 0.0
0.0 0.858299987793 0.254702383695 0.0
0.0 0.859299987793 0.254504563564 0.0
0.0 0.860299987793 0.25430642764 0.0
0.0 0.861299987793 0.254108413148 0.0
0.0 0.862299987793 0.253910352323 0.0
0.0 0.863299987793 0.253712074491 0.0
0.0 0.864299987793 0.253513788092 0.0
0.0 0.865299987793 0.253315384798 0.0
0.0 0.866299987793 0.253116895954 0.0
0.0 0.867299987793 0.252918133705 0.0
0.0 0.868299987793 0.252719863345 0.0
0.0 0.869299987793 0.25252082114 0.0
0.0 0.870299987793 0.252321936988 0.0
0.0 0.871299987793 0.252123155734 0.0
0.0 0.872299987793 0.251924149904 0.0
0.0 0.873299987793 0.251725226297 0.0
0.0 0.874299987793 0.251526058362 0.0
0.0 0.875299987793 0.251326924573 0.0
0.0 0.876299987793 0.251127824008 0.0
0.0 0.877299987793 0.250928457033 0.0
0.0 0.878299987793 0.250728911225 0.0
0.0 0.879299987793 0.250529672772 0.0
0.0 0.880299987793 0.250330039801 0.0
0.0 0.881299987793 0.25013081775 0.0
0.0 0.882299987793 0.24993189275 0.0
0.0 0.883299987793 0.249732233955 0.0
0.0 0.884299987793 0.249531121863 0.0
0.0 0.885299987793 0.2493312474 0.0
0.0 0.886299987793 0.24913159341 0.0
0.0 0.887299987793 0.248932538223 0.0
0.0 0.888299987793 0.248732737172 0.0
0.0 0.889299987793 0.248531218433 0.0
0.0 0.890299987793 0.248330864136 0.0
0.0 0.891299987793 0.248131208339 0.0
0.0 0.892299987793 0.247930248405 0.0
0.0 0.893299987793 0.247731468196 0.0
0.0 0.894299987793 0.247532006335 0.0
0.0 0.895299987793 0.247328841879 0.0
0.0 0.896299987793 0.247130681473 0.0
0.0 0.897299987793 0.246931540499 0.0
0.0 0.898299987793 0.246730663178 0.0
0.0 0.899299987793 0.246527575622 0.0
0.0 0.900299987793 0.246327123732 0.0
0.0 0.901299987793 0.246127978748 0.0
0.0 0.902299987793 0.245925291428 0.0
0.0 0.903299987793 0.245725119892 0.0
0.0 0.904299987793 0.245524350899 0.0
0.0 0.905299987793 0.245321699317 0.0
0.0 0.906299987793 0.245122954088 0.0
0.0 0.907299987793 0.244920596337 0.0
0.0 0.908299987793 0.244717951617 0.0
0.0 0.909299987793 0.244518004372 0.0
0.0 0.910299987793 0.244316188962 0.0
0.0 0.911299987793 0.244114437657 0.0
0.0 0.912299987793 0.243912697858 0.0
0.0 0.913299987793 0.243711856504 0.0
0.0 0.914299987793 0.243508952809 0.0
0.0 0.915299987793 0.243307651364 0.0
0.0 0.916299987793 0.243105308206 0.0
0.0 0.917299987793 0.242903932105 0.0
0.0 0.918299987793 0.242702328219 0.0
0.0 0.919299987793 0.242500236336 0.0
0.0 0.920299987793 0.24229766419 0.0
0.0 0.921299987793 0.242096459611 0.0
0.0 0.922299987793 0.241894100239 0.0
0.0 0.923299987793 0.241691336567 0.0
0.0 0.924299987793 0.241489604814 0.0
0.0 0.925299987793 0.24128675099 0.0
0.0 0.926299987793 0.241085398204 0.0
0.0 0.927299987793 0.240883467672 0.0
0.0 0.928299987793 0.240680276681 0.0
0.0 0.929299987793 0.24047727941 0.0
0.0 0.930299987793 0.240275067202 0.0
0.0 0.931299987793 0.240074615686 0.0
0.0 0.932299987793 0.239869746967 0.0
0.0 0.933299987793 0.239668785405 0.0
0.0 0.934299987793 0.23946457377 0.0
0.0 0.935299987793 0.239263674675 0.0
0.0 0.936299987793 0.239060197496 0.0
0.0 0.937299987793 0.238857498327 0.0
0.0 0.938299987793 0.238655175041 0.0
0.0 0.939299987793 0.238451658937 0.0
0.0 0.940299987793 0.238248515339 0.0
0.0 0.941299987793 0.23804607652 0.0
0.0 0.942299987793 0.237841762794 0.0
0.0 0.943299987793 0.237640170888 0.0
0.0 0.944299987793 0.237437487164 0.0
0.0 0.945299987793 0.237233092497 0.0
0.0 0.946299987793 0.237030999143 0.0
0.0 0.947299987793 0.236828042435 0.0
0.0 0.948299987793 0.236623319189 0.0
0.0 0.949299987793 0.236421213881 0.0
0.0 0.950299987793 0.236218482475 0.0
0.0 0.951299987793 0.236013971629 0.0
0.0 0.952299987793 0.235811146696 0.0
0.0 0.953299987793 0.235607625522 0.0
0.0 0.954299987793 0.235404552945 0.0
0.0 0.955299987793 0.235200723734 0.0
0.0 0.956299987793 0.234997014186 0.0
0.0 0.957299987793 0.234793243903 0.0
0.0 0.958299987793 0.234590550673 0.0
0.0 0.959299987793 0.234386791109 0.0
0.0 0.960299987793 0.234183315713 0.0
0.0 0.961299987793 0.2339798501 0.0
0.0 0.962299987793 0.233776180816 0.0
0.0 0.963299987793 0.233571742393 0.0
0.0 0.964299987793 0.233368428945 0.0
0.0 0.965299987793 0.233164647045 0.0
0.0 0.966299987793 0.23296155687 0.0
0.0 0.967299987793 0.232757221246 0.0
0.0 0.968299987793 0.232553467161 0.0
0.0 0.969299987793 0.232348910776 0.0
0.0 0.970299987793 0.232145167821 0.0
0.0 0.971299987793 0.231942011097 0.0
0.0 0.972299987793 0.231737756978 0.0
0.0 0.973299987793 0.231534170788 0.0
0.0 0.974299987793 0.23132987564 0.0
0.0 0.975299987793 0.231125591346 0.0
0.0 0.976299987793 0.230921788149 0.0
0.0 0.977299987793 0.230717675056 0.0
0.0 0.978299987793 0.230513482536 0.0
0.0 0.979299987793 0.230309693735 0.0
0.0 0.980299987793 0.230104865413 0.0
0.0 0.981299987793 0.229901426781 0.0
0.0 0.982299987793 0.229697090802 0.0
0.0 0.983299987793 0.229493056723 0.0
0.0 0.984299987793 0.229288807211 0.0
0.0 0.985299987793 0.229084242486 0.0
0.0 0.986299987793 0.228879916401 0.0
0.0 0.987299987793 0.228675758226 0.0
0.0 0.988299987793 0.228471801219 0.0
0.0 0.989299987793 0.228267419765 0.0
0.0 0.990299987793 0.228063327607 0.0
0.0 0.991299987793 0.227859138356 0.0
0.0 0.992299987793 0.227655066194 0.0
0.0 0.993299987793 0.227450570106 0.0
0.0 0.994299987793 0.227246133692 0.0
0.0 0.995299987793 0.227041624646 0.0
0.0 0.996299987793 0.226837160437 0.0
0.0 0.997299987793 0.226632737033 0.0
0.0 0.998299987793 0.226428445703 0.0
0.0 0.999299987793 0.226223956292 0.0
0.0 1.00029998779 0.22601966177 0.0
0.0 1.00129998779 0.225815471278 0.0
0.0 1.00229998779 0.225611108228 0.0
0.0 1.00329998779 0.225406370998 0.0
0.0 1.00429998779 0.22520198195 0.0
0.0 1.00529998779 0.224997810786 0.0
0.0 1.00629998779 0.224793238362 0.0
0.0 1.00729998779 0.224588384543 0.0
0.0 1.00829998779 0.224384143133 0.0
0.0 1.00929998779 0.224179220053 0.0
0.0 1.01029998779 0.22397490217 0.0
0.0 1.01129998779 0.223770327458 0.0
0.0 1.01229998779 0.223566149427 0.0
0.0 1.01329998779 0.223360997992 0.0
0.0 1.01429998779 0.223156973765 0.0
0.0 1.01529998779 0.22295234825 0.0
0.0 1.01629998779 0.222747701597 0.0
0.0 1.01729998779 0.222543250531 0.0
0.0 1.01829998779 0.222339109465 0.0
0.0 1.01929998779 0.222134570541 0.0
0.0 1.02029998779 0.22192958752 0.0
0.0 1.02129998779 0.221725629206 0.0
0.0 1.02229998779 0.221520714774 0.0
0.0 1.02329998779 0.221316014139 0.0
0.0 1.02430004883 0.221111412227 0.0
0.0 1.02530004883 0.220906705334 0.0
0.0 1.02630004883 0.220702409038 0.0
0.0 1.02730004883 0.220498120979 0.0
0.0 1.02830004883 0.220293967713 0.0
0.0 1.02930004883 0.220088829879 0.0
0.0 1.03030004883 0.219884544955 0.0
0.0 1.03130004883 0.219679873169 0.0
0.0 1.03230004883 0.219475136046 0.0
0.0 1.03330004883 0.219270596838 0.0
0.0 1.03430004883 0.219066747337 0.0
0.0 1.03530004883 0.21886190679 0.0
0.0 1.03630004883 0.218657273006 0.0
0.0 1.03730004883 0.2184535104 0.0
0.0 1.03830004883 0.218248823782 0.0
0.0 1.03930004883 0.218044274477 0.0
0.0 1.04030004883 0.217840264422 0.0
0.0 1.04130004883 0.21763546098 0.0
0.0 1.04230004883 0.217431117973 0.0
0.0 1.04330004883 0.217226910616 0.0
0.0 1.04430004883 0.217022367358 0.0
0.0 1.04530004883 0.21681799802 0.0
0.0 1.04630004883 0.216613530907 0.0
0.0 1.04730004883 0.216409672954 0.0
0.0 1.04830004883 0.216205137898 0.0
0.0 1.04930004883 0.216001224634 0.0
0.0 1.05030004883 0.215796190719 0.0
0.0 1.05130004883 0.215592284341 0.0
0.0 1.05230004883 0.215388004722 0.0
0.0 1.05330004883 0.215183668947 0.0
0.0 1.05430004883 0.214979496762 0.0
0.0 1.05530004883 0.214775167045 0.0
0.0 1.05630004883 0.214570818841 0.0
0.0 1.05730004883 0.214366328214 0.0
0.0 1.05830004883 0.214162401187 0.0
0.0 1.05930004883 0.213958007313 0.0
0.0 1.06030004883 0.21375353526 0.0
0.0 1.06130004883 0.213549811049 0.0
0.0 1.06230004883 0.213345585078 0.0
0.0 1.06330004883 0.213141326023 0.0
0.0 1.06430004883 0.212937737848 0.0
0.0 1.06530004883 0.212732958887 0.0
0.0 1.06630004883 0.212528906712 0.0
0.0 1.06730004883 0.212324872728 0.0
0.0 1.06830004883 0.212120582619 0.0
0.0 1.06930004883 0.211917092153 0.0
0.0 1.07030004883 0.211713166518 0.0
0.0 1.07130004883 0.211509197864 0.0
0.0 1.07230004883 0.211305455704 0.0
0.0 1.07330004883 0.211101495743 0.0
0.0 1.07430004883 0.210897452258 0.0
0.0 1.07530004883 0.210693981547 0.0
0.0 1.07630004883 0.210490140777 0.0
0.0 1.07730004883 0.210286013854 0.0
0.0 1.07830004883 0.210082447465 0.0
0.0 1.07930004883 0.209879118026 0.0
0.0 1.08030004883 0.209675450311 0.0
0.0 1.08130004883 0.209471674286 0.0
0.0 1.08230004883 0.209267775611 0.0
0.0 1.08330004883 0.209064186366 0.0
0.0 1.08430004883 0.208861038277 0.0
0.0 1.08530004883 0.208657320422 0.0
0.0 1.08630004883 0.208453740232 0.0
0.0 1.08730004883 0.208250172142 0.0
0.0 1.08830004883 0.208046771433 0.0
0.0 1.08930004883 0.207843623329 0.0
0.0 1.09030004883 0.207639968559 0.0
0.0 1.09130004883 0.207437125866 0.0
0.0 1.09230004883 0.207233720026 0.0
0.0 1.09330004883 0.207030292618 0.0
0.0 1.09430004883 0.206827390192 0.0
0.0 1.09530004883 0.206624030727 0.0
0.0 1.09630004883 0.206421144893 0.0
0.0 1.09730004883 0.206218079707 0.0
0.0 1.09830004883 0.206014608096 0.0
0.0 1.09930004883 0.205811619589 0.0
0.0 1.10030004883 0.205608740755 0.0
0.0 1.10130004883 0.205405667185 0.0
0.0 1.10230004883 0.205203104706 0.0
0.0 1.10330004883 0.205000248203 0.0
0.0 1.10430004883 0.20479721381 0.0
0.0 1.10530004883 0.204594867044 0.0
0.0 1.10630004883 0.204391940424 0.0
0.0 1.10730004883 0.204188983191 0.0
0.0 1.10830004883 0.203986340665 0.0
0.0 1.10930004883 0.203783688057 0.0
0.0 1.11030004883 0.203580904396 0.0
0.0 1.11130004883 0.203378956177 0.0
0.0 1.11230004883 0.203176195508 0.0
0.0 1.11330004883 0.202973734896 0.0
0.0 1.11430004883 0.202771541185 0.0
0.0 1.11530004883 0.202569128863 0.0
0.0 1.11630004883 0.202366937726 0.0
0.0 1.11730004883 0.202164398806 0.0
0.0 1.11830004883 0.201962338563 0.0
0.0 1.11930004883 0.20176070737 0.0
0.0 1.12030004883 0.201558236379 0.0
0.0 1.12130004883 0.20135639615 0.0
0.0 1.12230004883 0.201154312454 0.0
0.0 1.12330004883 0.20095226788 0.0
0.0 1.12430004883 0.200750139626 0.0
0.0 1.12530004883 0.200548403669 0.0
0.0 1.12630004883 0.20034647277 0.0
0.0 1.12730004883 0.200144912484 0.0
0.0 1.12830004883 0.199943264491 0.0
0.0 1.12930004883 0.199741761904 0.0
0.0 1.13030004883 0.199540386303 0.0
0.0 1.13130004883 0.199338587803 0.0
0.0 1.13230004883 0.19913733833 0.0
0.0 1.13330004883 0.198935465774 0.0
0.0 1.13430004883 0.19873472899 0.0
0.0 1.13530004883 0.198533160897 0.0
0.0 1.13630004883 0.198331961899 0.0
0.0 1.13730004883 0.19813064692 0.0
0.0 1.13830004883 0.197929650213 0.0
0.0 1.13930004883 0.197728660605 0.0
0.0 1.14030004883 0.197527491443 0.0
0.0 1.14130004883 0.197326983271 0.0
0.0 1.14230004883 0.197125555773 0.0
0.0 1.14330004883 0.19692506666 0.0
0.0 1.14430004883 0.196724174384 0.0
0.0 1.14530004883 0.19652336822 0.0
0.0 1.14630004883 0.196322892147 0.0
0.0 1.14730004883 0.196122060232 0.0
0.0 1.14830004883 0.195921497262 0.0
0.0 1.14930004883 0.195721087315 0.0
0.0 1.15030004883 0.195520961695 0.0
0.0 1.15130004883 0.195320190576 0.0
0.0 1.15230004883 0.195120109214 0.0
0.0 1.15330004883 0.194919760159 0.0
0.0 1.15430004883 0.194720273476 0.0
0.0 1.15530004883 0.194519433897 0.0
0.0 1.15630004883 0.194319570524 0.0
0.0 1.15730004883 0.194119654162 0.0
0.0 1.15830004883 0.193919938067 0.0
0.0 1.15930004883 0.193719922358 0.0
0.0 1.16030004883 0.193520467894 0.0
0.0 1.16130004883 0.193320709176 0.0
0.0 1.16230004883 0.193120938403 0.0
0.0 1.16330004883 0.192921805632 0.0
0.0 1.16430004883 0.192721911752 0.0
0.0 1.16530004883 0.192522784713 0.0
0.0 1.16630004883 0.19232358086 0.0
0.0 1.16730004883 0.192124062967 0.0
0.0 1.16830004883 0.191925342928 0.0
0.0 1.16930004883 0.191726087004 0.0
0.0 1.17030004883 0.191527595638 0.0
0.0 1.17130004883 0.191328101608 0.0
0.0 1.17230004883 0.191129282858 0.0
0.0 1.17330004883 0.190930302873 0.0
0.0 1.17430004883 0.190732187941 0.0
0.0 1.17530004883 0.190533404595 0.0
0.0 1.17630004883 0.190334743036 0.0
0.0 1.17730004883 0.190135978376 0.0
0.0 1.17830004883 0.189937697847 0.0
0.0 1.17930004883 0.189739523878 0.0
0.0 1.18030004883 0.189541340521 0.0
0.0 1.18130004883 0.189343245002 0.0
0.0 1.18230004883 0.189145107956 0.0
0.0 1.18330004883 0.188946772912 0.0
0.0 1.18430004883 0.188749501664 0.0
0.0 1.18530004883 0.188551461157 0.0
0.0 1.18630004883 0.188353779224 0.0
0.0 1.18730004883 0.18815612795 0.0
0.0 1.18830004883 0.187958432922 0.0
0.0 1.18930004883 0.187761270593 0.0
0.0 1.19030004883 0.187563792302 0.0
0.0 1.19130004883 0.187366693447 0.0
0.0 1.19230004883 0.187169304762 0.0
0.0 1.19330004883 0.186972341864 0.0
0.0 1.19430004883 0.186774751304 0.0
0.0 1.19530004883 0.186577658762 0.0
0.0 1.19630004883 0.186380911975 0.0
0.0 1.19730004883 0.186184236541 0.0
0.0 1.19830004883 0.185987614856 0.0
0.0 1.19930004883 0.185790990785 0.0
0.0 1.20030004883 0.185594470325 0.0
0.0 1.20130004883 0.185398046994 0.0
0.0 1.20230004883 0.185201847806 0.0
0.0 1.20330004883 0.185005202964 0.0
0.0 1.20430004883 0.184809027464 0.0
0.0 1.20530004883 0.184612883047 0.0
0.0 1.20630004883 0.184416753337 0.0
0.0 1.20730004883 0.184220521456 0.0
0.0 1.20830004883 0.184025323068 0.0
0.0 1.20930004883 0.183829396408 0.0
0.0 1.21030004883 0.183633595737 0.0
0.0 1.21130004883 0.183438321977 0.0
0.0 1.21230004883 0.1832427568 0.0
0.0 1.21330004883 0.183047464395 0.0
0.0 1.21430004883 0.182852112217 0.0
0.0 1.21530004883 0.182657141052 0.0
0.0 1.21630004883 0.182462192628 0.0
0.0 1.21730004883 0.18226724719 0.0
0.0 1.21830004883 0.182072047843 0.0
0.0 1.21930004883 0.181878012942 0.0
0.0 1.22030004883 0.181682868283 0.0
0.0 1.22130004883 0.181488413465 0.0
0.0 1.22230004883 0.181294149386 0.0
0.0 1.22330004883 0.181099653251 0.0
0.0 1.22430004883 0.180905220919 0.0
0.0 1.22530004883 0.180711069543 0.0
0.0 1.22630004883 0.180517038515 0.0
0.0 1.22730004883 0.180322986469 0.0
0.0 1.22830004883 0.180129135214 0.0
0.0 1.22930004883 0.179935840417 0.0
0.0 1.23030004883 0.179742216828 0.0
0.0 1.23130004883 0.179548924861 0.0
0.0 1.23230004883 0.179354980793 0.0
0.0 1.23330004883 0.17916170872 0.0
0.0 1.23430004883 0.178968490367 0.0
0.0 1.23530004883 0.178775655605 0.0
0.0 1.23630004883 0.178582493988 0.0
0.0 1.23730004883 0.178389628394 0.0
0.0 1.23830004883 0.178196962743 0.0
0.0 1.23930004883 0.178004153237 0.0
0.0 1.24030004883 0.177811643897 0.0
0.0 1.24130004883 0.177619624987 0.0
0.0 1.24230004883 0.177427020898 0.0
0.0 1.24330004883 0.177234898341 0.0
0.0 1.24430004883 0.177042418699 0.0
0.0 1.24530004883 0.176850470465 0.0
0.0 1.24630004883 0.176658619599 0.0
0.0 1.24730004883 0.17646670602 0.0
0.0 1.24830004883 0.176274956111 0.0
0.0 1.24930004883 0.176083238013 0.0
0.0 1.25030004883 0.175891861387 0.0
0.0 1.25130004883 0.175700962752 0.0
0.0 1.25230004883 0.175509411124 0.0
0.0 1.25330004883 0.175318815976 0.0
0.0 1.25430004883 0.175127395568 0.0
0.0 1.25530004883 0.174936722073 0.0
0.0 1.25630004883 0.174745761413 0.0
0.0 1.25730004883 0.174555658982 0.0
0.0 1.25830004883 0.174364859078 0.0
0.0 1.25930004883 0.174174524977 0.0
0.0 1.26030004883 0.173984515236 0.0
0.0 1.26130004883 0.173794083746 0.0
0.0 1.26230004883 0.173604094287 0.0
0.0 1.26330004883 0.173414023567 0.0
0.0 1.26430004883 0.173224611868 0.0
0.0 1.26530004883 0.173034535071 0.0
0.0 1.26630004883 0.172845171239 0.0
0.0 1.26730004883 0.172655824095 0.0
0.0 1.26830004883 0.172466538533 0.0
0.0 1.26930004883 0.172277450044 0.0
0.0 1.27030004883 0.172088262337 0.0
0.0 1.27130004883 0.17189922567 0.0
0.0 1.27230004883 0.171710513842 0.0
0.0 1.27330004883 0.171522013997 0.0
0.0 1.27430004883 0.171333578245 0.0
0.0 1.27530004883 0.17114519004 0.0
0.0 1.27630004883 0.170956727131 0.0
0.0 1.27730004883 0.170768496834 0.0
0.0 1.27830004883 0.170580363717 0.0
0.0 1.27930004883 0.170392794594 0.0
0.0 1.28030004883 0.170204272459 0.0
0.0 1.28130004883 0.170017355147 0.0
0.0 1.28230004883 0.169829761238 0.0
0.0 1.28330004883 0.169642057248 0.0
0.0 1.28430004883 0.169455358253 0.0
0.0 1.28530004883 0.169267678265 0.0
0.0 1.28630004883 0.169080588886 0.0
0.0 1.28730004883 0.168893735225 0.0
0.0 1.28830004883 0.168707545001 0.0
0.0 1.28930004883 0.168520646676 0.0
0.0 1.29030004883 0.168334147547 0.0
0.0 1.29130004883 0.168148121992 0.0
0.0 1.29230004883 0.167962432865 0.0
0.0 1.29330004883 0.16777544362 0.0
0.0 1.29430004883 0.167590010956 0.0
0.0 1.29530004883 0.167403896728 0.0
0.0 1.29630004883 0.167218309032 0.0
0.0 1.29730004883 0.167032761951 0.0
0.0 1.29830004883 0.166847507719 0.0
0.0 1.29930004883 0.166661950781 0.0
0.0 1.30030004883 0.166477374013 0.0
0.0 1.30130004883 0.166292529072 0.0
0.0 1.30230004883 0.166107216897 0.0
0.0 1.30330004883 0.165922973278 0.0
0.0 1.30430004883 0.165738269493 0.0
0.0 1.30530004883 0.165554050181 0.0
0.0 1.30630004883 0.16536952151 0.0
0.0 1.30730004883 0.165185333915 0.0
0.0 1.30830004883 0.165001568652 0.0
0.0 1.30930004883 0.164817640996 0.0
0.0 1.31030004883 0.164634315375 0.0
0.0 1.31130004883 0.164450652706 0.0
0.0 1.31230004883 0.164267616969 0.0
0.0 1.31330004883 0.164084028647 0.0
0.0 1.31430004883 0.163900935047 0.0
0.0 1.31530004883 0.163718217711 0.0
0.0 1.31630004883 0.163535178491 0.0
0.0 1.31730004883 0.16335221308 0.0
0.0 1.31830004883 0.163169884418 0.0
0.0 1.31930004883 0.162987912083 0.0
0.0 1.32030004883 0.162805845028 0.0
0.0 1.32130004883 0.162623183172 0.0
0.0 1.32230004883 0.162441498641 0.0
0.0 1.32330004883 0.162260366326 0.0
0.0 1.32430004883 0.162078409736 0.0
0.0 1.32530004883 0.161897022305 0.0
0.0 1.32630004883 0.161715674936 0.0
0.0 1.32730004883 0.161534180615 0.0
0.0 1.32830004883 0.161353452613 0.0
0.0 1.32930004883 0.16117256082 0.0
0.0 1.33030004883 0.160992051703 0.0
0.0 1.33130004883 0.160811769048 0.0
0.0 1.33230004883 0.160631533462 0.0
0.0 1.33330004883 0.160450627033 0.0
0.0 1.33430004883 0.160270994174 0.0
0.0 1.33530004883 0.160091455353 0.0
0.0 1.33630004883 0.159911487767 0.0
0.0 1.33730004883 0.159732037398 0.0
0.0 1.33830004883 0.159552470916 0.0
0.0 1.33930004883 0.159373015551 0.0
0.0 1.34030004883 0.1591934563 0.0
0.0 1.34130004883 0.159014837696 0.0
0.0 1.34230004883 0.158835656789 0.0
0.0 1.34330004883 0.158657686159 0.0
0.0 1.34430004883 0.158479378603 0.0
0.0 1.34530004883 0.158301108144 0.0
0.0 1.34630004883 0.158122986097 0.0
0.0 1.34730004883 0.15794465694 0.0
0.0 1.34830004883 0.157766992142 0.0
0.0 1.34930004883 0.157589210414 0.0
0.0 1.35030004883 0.157412287185 0.0
0.0 1.35130004883 0.157234696085 0.0
0.0 1.35230004883 0.157057512316 0.0
0.0 1.35330004883 0.156880367753 0.0
0.0 1.35430004883 0.156703935771 0.0
0.0 1.35530004883 0.156527430274 0.0
0.0 1.35630004883 0.156350428027 0.0
0.0 1.35730004883 0.156174205729 0.0
0.0 1.35830004883 0.155998529741 0.0
0.0 1.35930004883 0.15582241242 0.0
0.0 1.36030004883 0.155646260457 0.0
0.0 1.36130004883 0.155470835089 0.0
0.0 1.36230004883 0.15529517587 0.0
0.0 1.36330004883 0.155119927952 0.0
0.0 1.36430004883 0.154944484333 0.0
0.0 1.36530004883 0.154769860008 0.0
0.0 1.36630004883 0.154594577477 0.0
0.0 1.36730004883 0.15442045303 0.0
0.0 1.36830004883 0.154246096854 0.0
0.0 1.36930004883 0.154071795267 0.0
0.0 1.37030004883 0.153897955227 0.0
0.0 1.37130004883 0.153723623074 0.0
0.0 1.37230004883 0.153550022786 0.0
0.0 1.37330004883 0.153376454209 0.0
0.0 1.37430004883 0.153203095271 0.0
0.0 1.37530004883 0.153030075397 0.0
0.0 1.37630004883 0.152856676257 0.0
0.0 1.37730004883 0.152684416463 0.0
0.0 1.37830004883 0.152511909491 0.0
0.0 1.37930004883 0.152338596966 0.0
0.0 1.38030004883 0.152166691063 0.0
0.0 1.38130004883 0.151994535547 0.0
0.0 1.38230004883 0.151822541028 0.0
0.0 1.38330004883 0.151650365242 0.0
0.0 1.38430004883 0.151478895712 0.0
0.0 1.38530004883 0.151307463568 0.0
0.0 1.38630004883 0.151136385672 0.0
0.0 1.38730004883 0.150965887099 0.0
0.0 1.38830004883 0.150794605616 0.0
0.0 1.38930004883 0.150624528716 0.0
0.0 1.39030004883 0.150453104773 0.0
0.0 1.39130004883 0.150283301477 0.0
0.0 1.39230004883 0.150113201474 0.0
0.0 1.39330004883 0.1499431881 0.0
0.0 1.39430004883 0.149773869905 0.0
0.0 1.39530004883 0.149603839728 0.0
0.0 1.39630004883 0.149434359696 0.0
0.0 1.39730004883 0.149264923386 0.0
0.0 1.39830004883 0.1490965291 0.0
0.0 1.39930004883 0.148927834026 0.0
0.0 1.40030004883 0.148758721538 0.0
0.0 1.40130004883 0.148590421916 0.0
0.0 1.40230004883 0.148422291725 0.0
0.0 1.40330004883 0.14825422861 0.0
0.0 1.40430004883 0.148086268355 0.0
0.0 1.40530004883 0.147918953003 0.0
0.0 1.40630004883 0.147751106733 0.0
0.0 1.40730004883 0.147583851816 0.0
0.0 1.40830004883 0.147416903453 0.0
0.0 1.40930004883 0.147250265897 0.0
0.0 1.41030004883 0.147083246601 0.0
0.0 1.41130004883 0.14691681128 0.0
0.0 1.41230004883 0.146750474608 0.0
0.0 1.41330004883 0.146584665729 0.0
0.0 1.41430004883 0.146418470336 0.0
0.0 1.41530004883 0.146253015049 0.0
0.0 1.41630004883 0.14608710782 0.0
0.0 1.41730004883 0.145921424701 0.0
0.0 1.41830004883 0.14575668633 0.0
0.0 1.41930004883 0.145591797398 0.0
0.0 1.42030004883 0.14542692202 0.0
0.0 1.42130004883 0.145262176453 0.0
0.0 1.42230004883 0.145098396449 0.0
0.0 1.42330004883 0.144934240073 0.0
0.0 1.42430004883 0.144770324911 0.0
0.0 1.42530004883 0.144606561022 0.0
0.0 1.42630004883 0.144443037286 0.0
0.0 1.42730004883 0.144279697506 0.0
0.0 1.42830004883 0.144116724437 0.0
0.0 1.42930004883 0.143953431325 0.0
0.0 1.43030004883 0.143791016986 0.0
0.0 1.43130004883 0.143628518873 0.0
0.0 1.43230004883 0.143465796555 0.0
0.0 1.43330004883 0.143303802658 0.0
0.0 1.43430004883 0.143141922145 0.0
0.0 1.43530004883 0.142980303245 0.0
0.0 1.43630004883 0.142818940799 0.0
0.0 1.43730004883 0.142657944899 0.0
0.0 1.43830004883 0.142496781891 0.0
0.0 1.43930004883 0.142335963321 0.0
0.0 1.44030004883 0.142175274549 0.0
0.0 1.44130004883 0.142014676099 0.0
0.0 1.44230004883 0.141854818527 0.0
0.0 1.44330004883 0.141694818731 0.0
0.0 1.44430004883 0.141534715868 0.0
0.0 1.44530004883 0.141375385484 0.0
0.0 1.44630004883 0.141215333301 0.0
0.0 1.44730004883 0.141056737418 0.0
0.0 1.44830004883 0.140897554914 0.0
0.0 1.44930004883 0.140738873559 0.0
0.0 1.45030004883 0.140580419972 0.0
0.0 1.45130004883 0.140422331399 0.0
0.0 1.45230004883 0.140264157512 0.0
0.0 1.45330004883 0.140106306384 0.0
0.0 1.45430004883 0.139949235124 0.0
0.0 1.45530004883 0.139791374735 0.0
0.0 1.45630004883 0.139634090408 0.0
0.0 1.45730004883 0.139477014103 0.0
0.0 1.45830004883 0.139320007457 0.0
0.0 1.45930004883 0.139163729273 0.0
0.0 1.46030004883 0.139007497807 0.0
0.0 1.46130004883 0.138851372652 0.0
0.0 1.46230004883 0.138695269072 0.0
0.0 1.46330004883 0.138539653865 0.0
0.0 1.46430004883 0.138384016958 0.0
0.0 1.46530004883 0.138229420981 0.0
0.0 1.46630004883 0.138073697969 0.0
0.0 1.46730004883 0.137919343525 0.0
0.0 1.46830004883 0.137765173905 0.0
0.0 1.46930004883 0.137610443976 0.0
0.0 1.47030004883 0.137456241119 0.0
0.0 1.47130004883 0.137302506485 0.0
0.0 1.47230004883 0.137148613857 0.0
0.0 1.47330004883 0.136995319674 0.0
0.0 1.47430004883 0.136841789407 0.0
0.0 1.47530004883 0.136689080535 0.0
0.0 1.47630004883 0.136536025901 0.0
0.0 1.47730004883 0.136383377779 0.0
0.0 1.47830004883 0.136231838682 0.0
0.0 1.47930004883 0.136079447016 0.0
0.0 1.48030004883 0.13592763004 0.0
0.0 1.48130004883 0.13577601902 0.0
0.0 1.48230004883 0.135624795462 0.0
0.0 1.48330004883 0.135472887056 0.0
0.0 1.48430004883 0.135322858112 0.0
0.0 1.48530004883 0.135172079785 0.0
0.0 1.48630004883 0.13502144853 0.0
0.0 1.48730004883 0.134871509031 0.0
0.0 1.48830004883 0.134721354313 0.0
0.0 1.48930004883 0.134571534463 0.0
0.0 1.49030004883 0.134421530682 0.0
0.0 1.49130004883 0.134272376822 0.0
0.0 1.49230004883 0.134123258791 0.0
0.0 1.49330004883 0.133975138202 0.0
0.0 1.49430004883 0.133826422844 0.0
0.0 1.49530004883 0.133677901121 0.0
0.0 1.49630004883 0.133530086254 0.0
0.0 1.49730004883 0.133381921006 0.0
0.0 1.49830004883 0.13323397268 0.0
0.0 1.49930004883 0.133086728949 0.0
0.0 1.50030004883 0.132940196371 0.0
0.0 1.50130004883 0.132792605131 0.0
0.0 1.50230004883 0.132646530808 0.0
0.0 1.50330004883 0.132499591835 0.0
0.0 1.50430004883 0.132353551647 0.0
0.0 1.50530004883 0.13220812338 0.0
0.0 1.50630004883 0.132062414103 0.0
0.0 1.50730004883 0.131916321398 0.0
0.0 1.50830004883 0.131772093736 0.0
0.0 1.50930004883 0.131626797955 0.0
0.0 1.51030004883 0.131482192287 0.0
0.0 1.51130004883 0.131336967112 0.0
0.0 1.51230004883 0.13119271156 0.0
0.0 1.51330004883 0.131049395011 0.0
0.0 1.51430004883 0.13090561434 0.0
0.0 1.51530004883 0.130761586446 0.0
0.0 1.51630004883 0.130619116472 0.0
0.0 1.51730004883 0.130476151333 0.0
0.0 1.51830004883 0.130332634699 0.0
0.0 1.51930004883 0.130190088598 0.0
0.0 1.52030004883 0.130048501187 0.0
0.0 1.52130004883 0.129906341662 0.0
0.0 1.52230004883 0.129764383433 0.0
0.0 1.52330004883 0.129623257494 0.0
0.0 1.52430004883 0.129481348967 0.0
0.0 1.52530004883 0.129340667295 0.0
0.0 1.52630004883 0.129199555515 0.0
0.0 1.52730004883 0.12905938953 0.0
0.0 1.52830004883 0.128919460136 0.0
0.0 1.52930004883 0.128778880035 0.0
0.0 1.53030004883 0.128639548836 0.0
0.0 1.53130004883 0.128500613357 0.0
0.0 1.53230004883 0.128360448035 0.0
0.0 1.53330004883 0.12822156729 0.0
0.0 1.53430004883 0.12808362044 0.0
0.0 1.53530004883 0.127945405433 0.0
0.0 1.53630004883 0.127806474093 0.0
0.0 1.53730004883 0.127668913435 0.0
0.0 1.53830004883 0.127530970208 0.0
0.0 1.53930004883 0.127394163578 0.0
0.0 1.54030004883 0.12725669844 0.0
0.0 1.54130004883 0.12711991847 0.0
0.0 1.54230004883 0.126982988334 0.0
0.0 1.54330004883 0.126845927975 0.0
0.0 1.54430004883 0.126710334397 0.0
0.0 1.54530004883 0.126574410131 0.0
0.0 1.54630004883 0.126438950191 0.0
0.0 1.54730004883 0.12630379477 0.0
0.0 1.54830004883 0.12616902421 0.0
0.0 1.54930004883 0.126033949149 0.0
0.0 1.55030004883 0.125899655054 0.0
0.0 1.55130004883 0.125765858115 0.0
0.0 1.55230004883 0.125631441045 0.0
0.0 1.55330004883 0.125497349479 0.0
0.0 1.55430004883 0.125363594489 0.0
0.0 1.55530004883 0.125230949186 0.0
0.0 1.55630004883 0.125098449573 0.0
0.0 1.55730004883 0.124965556704 0.0
0.0 1.55830004883 0.124832482696 0.0
0.0 1.55930004883 0.124701040331 0.0
0.0 1.56030004883 0.124568988183 0.0
0.0 1.56130004883 0.124437021113 0.0
0.0 1.56230004883 0.124306120126 0.0
0.0 1.56330004883 0.124174763127 0.0
0.0 1.56430004883 0.12404438775 0.0
0.0 1.56530004883 0.123913784189 0.0
0.0 1.56630004883 0.12378406346 0.0
0.0 1.56730004883 0.123653595823 0.0
0.0 1.56830004883 0.123523501263 0.0
0.0 1.56930004883 0.123394209771 0.0
0.0 1.57030004883 0.123265599309 0.0
0.0 1.57130004883 0.123136640503 0.0
0.0 1.57230004883 0.123007479949 0.0
0.0 1.57330004883 0.122879960759 0.0
0.0 1.57430004883 0.122751795743 0.0
0.0 1.57530004883 0.122623619485 0.0
0.0 1.57630004883 0.122496285564 0.0
0.0 1.57730004883 0.122369512801 0.0
0.0 1.57830004883 0.122242639595 0.0
0.0 1.57930004883 0.122115525917 0.0
0.0 1.58030004883 0.121989105297 0.0
0.0 1.58130004883 0.121863250158 0.0
0.0 1.58230004883 0.121737461608 0.0
0.0 1.58330004883 0.121612108148 0.0
0.0 1.58430004883 0.121486452026 0.0
0.0 1.58530004883 0.121361212623 0.0
0.0 1.58630004883 0.121236876326 0.0
0.0 1.58730004883 0.121112914615 0.0
0.0 1.58830004883 0.120988838337 0.0
0.0 1.58930004883 0.120864958846 0.0
0.0 1.59030004883 0.120741340731 0.0
0.0 1.59130004883 0.120617185071 0.0
0.0 1.59230004883 0.120495058376 0.0
0.0 1.59330004883 0.120371830615 0.0
0.0 1.59430004883 0.120250223604 0.0
0.0 1.59530004883 0.120127528752 0.0
0.0 1.59630004883 0.120005949526 0.0
0.0 1.59730004883 0.119884483575 0.0
0.0 1.59830004883 0.119763050101 0.0
0.0 1.59930004883 0.119642621352 0.0
0.0 1.60030004883 0.119521422206 0.0
0.0 1.60130004883 0.11940089329 0.0
0.0 1.60230004883 0.11928092406 0.0
0.0 1.60330004883 0.119161270388 0.0
0.0 1.60430004883 0.119041445437 0.0
0.0 1.60530004883 0.118922553319 0.0
0.0 1.60630004883 0.118803664881 0.0
0.0 1.60730004883 0.118684745969 0.0
0.0 1.60830004883 0.118567043454 0.0
0.0 1.60930004883 0.118448762493 0.0
0.0 1.61030004883 0.118331244024 0.0
0.0 1.61130004883 0.118214488991 0.0
0.0 1.61230004883 0.118096474084 0.0
0.0 1.61330004883 0.117979158073 0.0
0.0 1.61430004883 0.117863558907 0.0
0.0 1.61530004883 0.11774667275 0.0
0.0 1.61630004883 0.11763125495 0.0
0.0 1.61730004883 0.117515595583 0.0
0.0 1.61830004883 0.117400782166 0.0
0.0 1.61930004883 0.117284997446 0.0
0.0 1.62030004883 0.117169635715 0.0
0.0 1.62130004883 0.117055252268 0.0
0.0 1.62230004883 0.116941350265 0.0
0.0 1.62330004883 0.116828162272 0.0
0.0 1.62430004883 0.116713697154 0.0
0.0 1.62530004883 0.116601535985 0.0
0.0 1.62630004883 0.116487570461 0.0
0.0 1.62730004883 0.116375149108 0.0
0.0 1.62830004883 0.116262959485 0.0
0.0 1.62930004883 0.116151004474 0.0
0.0 1.63030004883 0.116039493131 0.0
0.0 1.63130004883 0.115927634952 0.0
0.0 1.63230004883 0.115816310949 0.0
0.0 1.63330004883 0.115705527114 0.0
0.0 1.63430004883 0.115595206332 0.0
0.0 1.63530004883 0.115484927757 0.0
0.0 1.63630004883 0.115375214248 0.0
0.0 1.63730004883 0.115266296611 0.0
0.0 1.63830004883 0.115156421701 0.0
0.0 1.63930004883 0.115046886665 0.0
0.0 1.64030004883 0.114938429634 0.0
0.0 1.64130004883 0.114830183456 0.0
0.0 1.64230004883 0.114722413431 0.0
0.0 1.64330004883 0.114614188807 0.0
0.0 1.64430004883 0.114507018039 0.0
0.0 1.64530004883 0.114400373079 0.0
0.0 1.64630004883 0.114292323187 0.0
0.0 1.64730004883 0.114187099757 0.0
0.0 1.64830004883 0.114079946224 0.0
0.0 1.64930004883 0.113973869395 0.0
0.0 1.65030004883 0.113868624695 0.0
0.0 1.65130004883 0.113764575331 0.0
0.0 1.65230004883 0.11365919606 0.0
0.0 1.65330004883 0.113554261319 0.0
0.0 1.65430004883 0.113450378052 0.0
0.0 1.65530004883 0.113346838465 0.0
0.0 1.65630004883 0.113242429062 0.0
0.0 1.65730004883 0.113138594961 0.0
0.0 1.65830004883 0.113036665156 0.0
0.0 1.65930004883 0.112933497783 0.0
0.0 1.66030004883 0.112830995563 0.0
0.0 1.66130004883 0.112728342332 0.0
0.0 1.66230004883 0.112627421354 0.0
0.0 1.66330004883 0.112525682056 0.0
0.0 1.66430004883 0.112424373068 0.0
0.0 1.66530004883 0.112323650524 0.0
0.0 1.66630004883 0.11222415905 0.0
0.0 1.66730004883 0.112124091662 0.0
0.0 1.66830004883 0.112024110635 0.0
0.0 1.66930004883 0.111924756708 0.0
0.0 1.67030004883 0.111824777219 0.0
0.0 1.67130004883 0.111727177248 0.0
0.0 1.67230004883 0.111627238523 0.0
0.0 1.67330004883 0.111530169754 0.0
0.0 1.67430004883 0.111432243298 0.0
0.0 1.67530004883 0.111334230614 0.0
0.0 1.67630004883 0.111236943847 0.0
0.0 1.67730004883 0.11114023189 0.0
0.0 1.67830004883 0.111043771923 0.0
0.0 1.67930004883 0.110948644737 0.0
0.0 1.68030004883 0.110851547298 0.0
0.0 1.68130004883 0.110755949349 0.0
0.0 1.68230004883 0.110661543528 0.0
0.0 1.68330004883 0.110566278731 0.0
0.0 1.68430004883 0.110472345715 0.0
0.0 1.68530004883 0.110377715983 0.0
0.0 1.68630004883 0.110283688689 0.0
0.0 1.68730004883 0.110190579973 0.0
0.0 1.68830004883 0.110097662695 0.0
0.0 1.68930004883 0.110004093109 0.0
0.0 1.69030004883 0.109912660867 0.0
0.0 1.69130004883 0.109819821311 0.0
0.0 1.69230004883 0.109728825457 0.0
0.0 1.69330004883 0.109636972283 0.0
0.0 1.69430004883 0.109544351116 0.0
0.0 1.69530004883 0.109455231983 0.0
0.0 1.69630004883 0.109362913729 0.0
0.0 1.69730004883 0.109275031908 0.0
0.0 1.69830004883 0.109183800398 0.0
0.0 1.69930004883 0.109094774763 0.0
0.0 1.70030004883 0.109005536298 0.0
0.0 1.70130004883 0.108917475628 0.0
0.0 1.70230004883 0.108829695678 0.0
0.0 1.70330004883 0.108739926061 0.0
0.0 1.70430004883 0.108652441244 0.0
0.0 1.70530004883 0.108566196313 0.0
0.0 1.70630004883 0.10847805348 0.0
0.0 1.70730004883 0.108390984178 0.0
0.0 1.70830004883 0.108305047792 0.0
0.0 1.70930004883 0.108218344561 0.0
0.0 1.71030004883 0.108132606378 0.0
0.0 1.71130004883 0.108048089189 0.0
0.0 1.71230004883 0.107963249749 0.0
0.0 1.71330004883 0.107877247747 0.0
0.0 1.71430004883 0.107793312245 0.0
0.0 1.71530004883 0.107709235803 0.0
0.0 1.71630004883 0.10762595814 0.0
0.0 1.71730004883 0.107542561733 0.0
0.0 1.71830004883 0.107459531407 0.0
0.0 1.71930004883 0.107377217722 0.0
0.0 1.72030004883 0.107293709137 0.0
0.0 1.72130004883 0.107212258795 0.0
0.0 1.72230004883 0.107132513971 0.0
0.0 1.72330004883 0.107050527113 0.0
0.0 1.72430004883 0.106969836903 0.0
0.0 1.72530004883 0.106888704778 0.0
0.0 1.72630004883 0.106809198378 0.0
0.0 1.72730004883 0.10673003585 0.0
0.0 1.72830004883 0.106650052066 0.0
0.0 1.72930004883 0.106571041941 0.0
0.0 1.73030004883 0.10649165596 0.0
0.0 1.73130004883 0.106413632888 0.0
0.0 1.73230004883 0.106336288692 0.0
0.0 1.73330004883 0.106257221507 0.0
0.0 1.73430004883 0.106181278039 0.0
0.0 1.73530004883 0.106102820519 0.0
0.0 1.73630004883 0.106028032307 0.0
0.0 1.73730004883 0.105950001073 0.0
0.0 1.73830004883 0.105874836728 0.0
0.0 1.73930004883 0.105798589522 0.0
0.0 1.74030004883 0.105723925882 0.0
0.0 1.74130004883 0.105648619129 0.0
0.0 1.74230004883 0.1055737619 0.0
0.0 1.74330004883 0.105501831293 0.0
0.0 1.74430004883 0.105427471524 0.0
0.0 1.74530004883 0.105352401634 0.0
0.0 1.74630004883 0.105279870075 0.0
0.0 1.74730004883 0.105208487874 0.0
0.0 1.74830004883 0.105135585529 0.0
0.0 1.74930004883 0.105062723064 0.0
0.0 1.75030004883 0.104991261184 0.0
0.0 1.75130004883 0.10491931081 0.0
0.0 1.75230004883 0.104850018837 0.0
0.0 1.75330004883 0.104778649325 0.0
0.0 1.75430004883 0.104708482221 0.0
0.0 1.75530004883 0.104639302441 0.0
0.0 1.75630004883 0.104570515086 0.0
0.0 1.75730004883 0.104501664398 0.0
0.0 1.75830004883 0.104432067817 0.0
0.0 1.75930004883 0.104364022089 0.0
0.0 1.76030004883 0.104296962871 0.0
0.0 1.76130004883 0.104230256896 0.0
0.0 1.76230004883 0.104162252301 0.0
0.0 1.76330004883 0.104094672095 0.0
0.0 1.76430004883 0.104028618897 0.0
0.0 1.76530004883 0.103962462161 0.0
0.0 1.76630004883 0.103897016549 0.0
0.0 1.76730004883 0.103832174818 0.0
0.0 1.76830004883 0.103767892643 0.0
0.0 1.76930004883 0.103701395089 0.0
0.0 1.77030004883 0.103639877905 0.0
0.0 1.77130004883 0.103574761661 0.0
0.0 1.77230004883 0.103510724862 0.0
0.0 1.77330004883 0.103448523154 0.0
0.0 1.77430004883 0.103386197956 0.0
0.0 1.77530004883 0.103324178518 0.0
0.0 1.77630004883 0.103262581982 0.0
0.0 1.77730004883 0.103202105225 0.0
0.0 1.77830004883 0.103139775032 0.0
0.0 1.77930004883 0.103078787348 0.0
0.0 1.78030004883 0.103018066412 0.0
0.0 1.78130004883 0.102959308616 0.0
0.0 1.78230004883 0.102898908588 0.0
0.0 1.78330004883 0.102839457778 0.0
0.0 1.78430004883 0.102779433771 0.0
0.0 1.78530004883 0.102723331911 0.0
0.0 1.78630004883 0.102665674225 0.0
0.0 1.78730004883 0.10260732973 0.0
0.0 1.78830004883 0.102548903262 0.0
0.0 1.78930004883 0.102492560031 0.0
0.0 1.79030004883 0.102435061262 0.0
0.0 1.79130004883 0.102381611359 0.0
0.0 1.79230004883 0.102325320561 0.0
0.0 1.79330004883 0.102268013141 0.0
0.0 1.79430004883 0.10221398019 0.0
0.0 1.79530004883 0.102160080341 0.0
0.0 1.79630004883 0.10210595081 0.0
0.0 1.79730004883 0.102050595029 0.0
0.0 1.79830004883 0.10199774263 0.0
0.0 1.79930004883 0.101944726989 0.0
0.0 1.80030004883 0.101892689677 0.0
0.0 1.80130004883 0.101840494657 0.0
0.0 1.80230004883 0.101787722334 0.0
0.0 1.80330004883 0.101736761973 0.0
0.0 1.80430004883 0.101684662108 0.0
0.0 1.80530004883 0.101633582002 0.0
0.0 1.80630004883 0.101583618883 0.0
0.0 1.80730004883 0.101535426447 0.0
0.0 1.80830004883 0.101484415579 0.0
0.0 1.80930004883 0.101434791572 0.0
0.0 1.81030004883 0.101386431644 0.0
0.0 1.81130004883 0.101338305849 0.0
0.0 1.81230004883 0.101290218266 0.0
0.0 1.81330004883 0.101244528609 0.0
0.0 1.81430004883 0.1011962778 0.0
0.0 1.81530004883 0.101150815504 0.0
0.0 1.81630004883 0.101103560515 0.0
0.0 1.81730004883 0.101057684479 0.0
0.0 1.81830004883 0.101011047857 0.0
0.0 1.81930004883 0.100966762036 0.0
0.0 1.82030004883 0.100920766997 0.0
0.0 1.82130004883 0.100876735588 0.0
0.0 1.82230004883 0.100832374428 0.0
0.0 1.82330004883 0.100789263094 0.0
0.0 1.82430004883 0.100745090598 0.0
0.0 1.82530004883 0.100704910001 0.0
0.0 1.82630004883 0.100661065658 0.0
0.0 1.82730004883 0.100618978582 0.0
0.0 1.82830004883 0.100577792724 0.0
0.0 1.82930004883 0.100538619928 0.0
0.0 1.83030004883 0.100496267587 0.0
0.0 1.83130004883 0.100456811624 0.0
0.0 1.83230004883 0.100416751559 0.0
0.0 1.83330004883 0.100377049129 0.0
0.0 1.83430004883 0.100339943038 0.0
0.0 1.83530004883 0.100299056007 0.0
0.0 1.83630004883 0.100260685682 0.0
0.0 1.83730004883 0.100223628125 0.0
0.0 1.83830004883 0.100184580649 0.0
0.0 1.83930004883 0.100150660784 0.0
0.0 1.84030004883 0.100111249955 0.0
0.0 1.84130004883 0.100076118191 0.0
0.0 1.84230004883 0.100038600072 0.0
0.0 1.84330004883 0.100004301302 0.0
0.0 1.84430004883 0.0999685154282 0.0
0.0 1.84530004883 0.0999336880758 0.0
0.0 1.84630004883 0.0999013096766 0.0
0.0 1.84730004883 0.0998653101188 0.0
0.0 1.84830004883 0.0998334241774 0.0
0.0 1.84930004883 0.0997987832212 0.0
0.0 1.85030004883 0.0997677186494 0.0
0.0 1.85130004883 0.0997355445349 0.0
0.0 1.85230004883 0.0997032403817 0.0
0.0 1.85330004883 0.0996727256718 0.0
0.0 1.85430004883 0.0996407191563 0.0
0.0 1.85530004883 0.0996092933651 0.0
0.0 1.85630004883 0.0995821478742 0.0
0.0 1.85730004883 0.0995496537856 0.0
0.0 1.85830004883 0.0995228268544 0.0
0.0 1.85930004883 0.0994928340995 0.0
0.0 1.86030004883 0.0994634002149 0.0
0.0 1.86130004883 0.0994390203246 0.0
0.0 1.86230004883 0.0994073504537 0.0
0.0 1.86330004883 0.0993839365821 0.0
0.0 1.86430004883 0.0993548957938 0.0
0.0 1.86530004883 0.0993283607088 0.0
0.0 1.86630004883 0.0993035481182 0.0
0.0 1.86730004883 0.0992776446308 0.0
0.0 1.86830004883 0.0992533985968 0.0
0.0 1.86930004883 0.0992296078402 0.0
0.0 1.87030004883 0.0992035235038 0.0
0.0 1.87130004883 0.0991808919688 0.0
0.0 1.87230004883 0.0991577242901 0.0
0.0 1.87330004883 0.0991355223887 0.0
0.0 1.87430004883 0.0991107602437 0.0
0.0 1.87530004883 0.099090442794 0.0
0.0 1.87630004883 0.0990680409336 0.0
0.0 1.87730004883 0.0990474350215 0.0
0.0 1.87830004883 0.0990274073448 0.0
0.0 1.87930004883 0.0990066685363 0.0
0.0 1.88030004883 0.0989883458902 0.0
0.0 1.88130004883 0.0989667444965 0.0
0.0 1.88230004883 0.098949665463 0.0
0.0 1.88330004883 0.0989292617139 0.0
0.0 1.88430004883 0.0989118755491 0.0
0.0 1.88530004883 0.0988963446196 0.0
0.0 1.88630004883 0.0988782829565 0.0
0.0 1.88730004883 0.0988612910776 0.0
0.0 1.88830004883 0.0988465310751 0.0
0.0 1.88930004883 0.0988274975379 0.0
0.0 1.89030004883 0.0988149470731 0.0
0.0 1.89130004883 0.0987978230676 0.0
0.0 1.89230004883 0.0987830298544 0.0
0.0 1.89330004883 0.0987709224705 0.0
0.0 1.89430004883 0.0987557271689 0.0
0.0 1.89530004883 0.0987422508287 0.0
0.0 1.89630004883 0.0987298804598 0.0
0.0 1.89730004883 0.0987164720642 0.0
0.0 1.89830004883 0.0987050304059 0.0
0.0 1.89930004883 0.098693095157 0.0
0.0 1.90030004883 0.0986816776124 0.0
0.0 1.90130004883 0.0986713533101 0.0
0.0 1.90230004883 0.0986611071471 0.0
0.0 1.90330004883 0.0986523643645 0.0
0.0 1.90430004883 0.0986415742392 0.0
0.0 1.90530004883 0.0986330514622 0.0
0.0 1.90630004883 0.0986233106965 0.0
0.0 1.90730004883 0.0986147742012 0.0
0.0 1.90830004883 0.0986084396732 0.0
0.0 1.90930004883 0.0986014909235 0.0
0.0 1.91030004883 0.0985936466011 0.0
0.0 1.91130004883 0.0985872767961 0.0
0.0 1.91230004883 0.0985839290174 0.0
0.0 1.91330004883 0.098575498316 0.0
0.0 1.91430004883 0.0985710784969 0.0
0.0 1.91530004883 0.0985671809962 0.0
0.0 1.91630004883 0.0985625879478 0.0
0.0 1.91730004883 0.0985578798497 0.0
0.0 1.91830004883 0.0985569975179 0.0
0.0 1.91930004883 0.0985516764064 0.0
0.0 1.92030004883 0.0985515012253 0.0
0.0 1.92130004883 0.0985466785035 0.0
0.0 1.92230004883 0.0985477749451 0.0
0.0 1.92330004883 0.0985477125179 0.0
0.0 1.92430004883 0.0985479236721 0.0
0.0 1.92530004883 0.0985454530586 0.0
0.0 1.92630004883 0.0985484373864 0.0
0.0 1.92730004883 0.0985465094696 0.0
0.0 1.92830004883 0.098548738023 0.0
0.0 1.92930004883 0.0985519490828 0.0
0.0 1.93030004883 0.098552402915 0.0
0.0 1.93130004883 0.0985560623154 0.0
0.0 1.93230004883 0.0985573971192 0.0
0.0 1.93330004883 0.0985640611013 0.0
0.0 1.93430004883 0.0985656964327 0.0
0.0 1.93530004883 0.0985725846595 0.0
0.0 1.93630004883 0.0985737411075 0.0
0.0 1.93730004883 0.0985836679559 0.0
0.0 1.93830004883 0.0985882388236 0.0
0.0 1.93930004883 0.0985938943617 0.0
0.0 1.94030004883 0.098599266866 0.0
0.0 1.94130004883 0.0986081030727 0.0
0.0 1.94230004883 0.0986152921698 0.0
0.0 1.94330004883 0.0986238722281 0.0
0.0 1.94430004883 0.0986335764968 0.0
0.0 1.94530004883 0.0986415507998 0.0
0.0 1.94630004883 0.0986517084161 0.0
0.0 1.94730004883 0.0986640181657 0.0
0.0 1.94830004883 0.0986715850927 0.0
0.0 1.94930004883 0.09868589657 0.0
0.0 1.95030004883 0.0986945605006 0.0
0.0 1.95130004883 0.0987089169575 0.0
0.0 1.95230004883 0.0987180313838 0.0
0.0 1.95330004883 0.0987334844554 0.0
0.0 1.95430004883 0.0987440123903 0.0
0.0 1.95530004883 0.0987581428745 0.0
0.0 1.95630004883 0.0987745873281 0.0
0.0 1.95730004883 0.098790364549 0.0
0.0 1.95830004883 0.0988033466192 0.0
0.0 1.95930004883 0.0988209093057 0.0
0.0 1.96030004883 0.0988371558226 0.0
0.0 1.96130004883 0.0988529457867 0.0
0.0 1.96230004883 0.0988701184082 0.0
0.0 1.96330004883 0.0988874482471 0.0
0.0 1.96430004883 0.0989055620772 0.0
0.0 1.96530004883 0.0989249458647 0.0
0.0 1.96630004883 0.0989437878845 0.0
0.0 1.96730004883 0.0989616267666 0.0
0.0 1.96830004883 0.0989825587081 0.0
0.0 1.96930004883 0.0990029678709 0.0
0.0 1.97030004883 0.099022558319 0.0
0.0 1.97130004883 0.0990449947644 0.0
0.0 1.97230004883 0.0990669841232 0.0
0.0 1.97330004883 0.0990894271582 0.0
0.0 1.97430004883 0.0991122990076 0.0
0.0 1.97530004883 0.0991345060274 0.0
0.0 1.97630004883 0.0991590796504 0.0
0.0 1.97730004883 0.0991832117378 0.0
0.0 1.97830004883 0.0992085039275 0.0
0.0 1.97930004883 0.0992313670385 0.0
0.0 1.98030004883 0.0992602510378 0.0
0.0 1.98130004883 0.0992832175725 0.0
0.0 1.98230004883 0.0993120951835 0.0
0.0 1.98330004883 0.0993401571808 0.0
0.0 1.98430004883 0.0993683373675 0.0
0.0 1.98530004883 0.0993937807375 0.0
0.0 1.98630004883 0.0994216690137 0.0
0.0 1.98730004883 0.0994542187034 0.0
0.0 1.98830004883 0.0994827479203 0.0
0.0 1.98930004883 0.0995122522266 0.0
0.0 1.99030004883 0.0995430850152 0.0
0.0 1.99130004883 0.0995709797781 0.0
0.0 1.99230004883 0.0996052054223 0.0
0.0 1.99330004883 0.0996372391349 0.0
0.0 1.99430004883 0.0996694225818 0.0
0.0 1.99530004883 0.099702279983 0.0
0.0 1.99630004883 0.0997358725395 0.0
0.0 1.99730004883 0.0997703470814 0.0
0.0 1.99830004883 0.0998039949336 0.0
0.0 1.99930004883 0.0998381573881 0.0
0.0 2.00030004883 0.0998752038649 0.0
0.0 2.00130004883 0.0999106897491 0.0
0.0 2.00230004883 0.0999475011156 0.0
0.0 2.00330004883 0.0999849778554 0.0
0.0 2.00430004883 0.10002051734 0.0
0.0 2.00530004883 0.100059750245 0.0
0.0 2.00630004883 0.100098810207 0.0
0.0 2.00730004883 0.100139125944 0.0
0.0 2.00830004883 0.100174054234 0.0
0.0 2.00930004883 0.100214968616 0.0
0.0 2.01030004883 0.100256267962 0.0
0.0 2.01130004883 0.100295813471 0.0
0.0 2.01230004883 0.100337680536 0.0
0.0 2.01330004883 0.100377265895 0.0
0.0 2.01430004883 0.100420261317 0.0
0.0 2.01530004883 0.100464705564 0.0
0.0 2.01630004883 0.100508963807 0.0
0.0 2.01730004883 0.100550674583 0.0
0.0 2.01830004883 0.100595895652 0.0
0.0 2.01930004883 0.100641387223 0.0
0.0 2.02030004883 0.10068761447 0.0
0.0 2.02130004883 0.100732802678 0.0
0.0 2.02230004883 0.100778041889 0.0
0.0 2.02330004883 0.100823973206 0.0
0.0 2.02430004883 0.100873268262 0.0
0.0 2.02530004883 0.10091974048 0.0
0.0 2.02630004883 0.100969615505 0.0
0.0 2.02730004883 0.101015766714 0.0
0.0 2.02830004883 0.101069164183 0.0
0.0 2.02930004883 0.101115752536 0.0
0.0 2.03030004883 0.101168634687 0.0
0.0 2.03130004883 0.10121910178 0.0
0.0 2.03230004883 0.101269015339 0.0
0.0 2.03330004883 0.101323453269 0.0
0.0 2.03430004883 0.101375063023 0.0
0.0 2.03530004883 0.101426297834 0.0
0.0 2.03630004883 0.101478666922 0.0
0.0 2.03730004883 0.101532420699 0.0
0.0 2.03830004883 0.101589107897 0.0
0.0 2.03930004883 0.10164193814 0.0
0.0 2.04030004883 0.101696922865 0.0
0.0 2.04130004883 0.101754055277 0.0
0.0 2.04230004883 0.101807711643 0.0
0.0 2.04330004883 0.10187034364 0.0
0.0 2.04430004883 0.101922791038 0.0
0.0 2.04530004883 0.101981542628 0.0
0.0 2.04630004883 0.102040007789 0.0
0.0 2.04730004883 0.102099572474 0.0
0.0 2.04830004883 0.102160569599 0.0
0.0 2.04930004883 0.10221855429 0.0
0.0 2.05030004883 0.102279647831 0.0
0.0 2.05130004883 0.102341070014 0.0
0.0 2.05230004883 0.102404683168 0.0
0.0 2.05330004883 0.102469691472 0.0
0.0 2.05430004883 0.102526558622 0.0
0.0 2.05530004883 0.102591216455 0.0
0.0 2.05630004883 0.102656566416 0.0
0.0 2.05730004883 0.102720747938 0.0
0.0 2.05830004883 0.102784812571 0.0
0.0 2.05930004883 0.102851184673 0.0
0.0 2.06030004883 0.102915662077 0.0
0.0 2.06130004883 0.102981655671 0.0
0.0 2.06230004883 0.103052385642 0.0
0.0 2.06330004883 0.103117753077 0.0
0.0 2.06430004883 0.103188252513 0.0
0.0 2.06530004883 0.103256749317 0.0
0.0 2.06630004883 0.103326199604 0.0
0.0 2.06730004883 0.103395215206 0.0
0.0 2.06830004883 0.103467631111 0.0
0.0 2.06930004883 0.103540471136 0.0
0.0 2.07030004883 0.103610706462 0.0
0.0 2.07130004883 0.103684354283 0.0
0.0 2.07230004883 0.103760247238 0.0
0.0 2.07330004883 0.103838209951 0.0
0.0 2.07430004883 0.103916650632 0.0
0.0 2.07530004883 0.103993923216 0.0
0.0 2.07630004883 0.10408196435 0.0
0.0 2.07730004883 0.104165444319 0.0
0.0 2.07830004883 0.104251359895 0.0
0.0 2.07930004883 0.104351252454 0.0
0.0 2.08030004883 0.104451014613 0.0
0.0 2.08130004883 0.104565532952 0.0
0.0 2.08230004883 0.104698180291 0.0
0.0 2.08330004883 0.104848415224 0.0
0.0 2.08430004883 0.105028395483 0.0
0.0 2.08530004883 0.105262517295 0.0
0.0 2.08630004883 0.105574189637 0.0
0.0 2.08730004883 0.106012520983 0.0
0.0 2.08830004883 0.106634857235 0.0
0.0 2.08930004883 0.107598845185 0.0
0.0 2.09030004883 0.109000379628 0.0
0.0 2.09130004883 0.111084873151 0.0
0.0 2.09230004883 0.114308884523 0.0
0.0 2.09330004883 0.11847307768 0.0
0.0 2.09430004883 0.124155259556 0.0
0.0 2.09530004883 0.131254686661 0.0
0.0 2.09630004883 0.139765696697 0.0
0.0 2.09730004883 0.149768693195 0.0
0.0 2.09830004883 0.161336157841 0.0
0.0 2.09930004883 0.173378206403 0.0
0.0 2.10030004883 0.183500855296 0.0
0.0 2.10130004883 0.19209779114 0.0
0.0 2.10230004883 0.201450715557 0.0
0.0 2.10330004883 0.211301926351 0.0
0.0 2.10430004883 0.223065570376 0.0
0.0 2.10530004883 0.238365810851 0.0
0.0 2.10630004883 0.254622234316 0.0
0.0 2.10730004883 0.275452843444 0.0
0.0 2.10830004883 0.29845858314 0.0
0.0 2.10930004883 0.325330297697 0.0
0.0 2.11030004883 0.354978916439 0.0
0.0 2.11130004883 0.390038334695 0.0
0.0 2.11230004883 0.426470888344 0.0
0.0 2.11330004883 0.462043881321 0.0
0.0 2.11430004883 0.499823209793 0.0
0.0 2.11530004883 0.529418710204 0.0
0.0 2.11630004883 0.554822098906 0.0
0.0 2.11730004883 0.571634804371 0.0
0.0 2.11830004883 0.587919351925 0.0
0.0 2.11930004883 0.59083434719 0.0
0.0 2.12030004883 0.597552600463 0.0
0.0 2.12130004883 0.600008399656 0.0
0.0 2.12230004883 0.601555303704 0.0
0.0 2.12330004883 0.60272374306 0.0
0.0 2.12430004883 0.599467439668 0.0
0.0 2.12530004883 0.599424819181 0.0
0.0 2.12630004883 0.595191630088 0.0
0.0 2.12730004883 0.585083589803 0.0
0.0 2.12830004883 0.570142116042 0.0
0.0 2.12930004883 0.547300383572 0.0
0.0 2.13030004883 0.512925229579 0.0
0.0 2.13130004883 0.480069379665 0.0
0.0 2.13230004883 0.439725311358 0.0
0.0 2.13330004883 0.401217548905 0.0
0.0 2.13430004883 0.364754714719 0.0
0.0 2.13530004883 0.330512646689 0.0
0.0 2.13630004883 0.298403138784 0.0
0.0 2.13730004883 0.271981317798 0.0
0.0 2.13830004883 0.251845319465 0.0
0.0 2.13930004883 0.23278572523 0.0
0.0 2.14030004883 0.217794306443 0.0
0.0 2.14130004883 0.204196277923 0.0
0.0 2.14230004883 0.19078325962 0.0
0.0 2.14330004883 0.178188367802 0.0
0.0 2.14430004883 0.167023595488 0.0
0.0 2.14530004883 0.157452492714 0.0
0.0 2.14630004883 0.148211704084 0.0
0.0 2.14730004883 0.140741201664 0.0
0.0 2.14830004883 0.134209289549 0.0
0.0 2.14930004883 0.128551221623 0.0
0.0 2.15030004883 0.124044782207 0.0
0.0 2.15130004883 0.120375771152 0.0
0.0 2.15230004883 0.1175700095 0.0
0.0 2.15330004883 0.115546868054 0.0
0.0 2.15430004883 0.114230566283 0.0
0.0 2.15530004883 0.113374783004 0.0
0.0 2.15630004883 0.112879445911 0.0
0.0 2.15730004883 0.112620694786 0.0
0.0 2.15830004883 0.112492057216 0.0
0.0 2.15930004883 0.112447863349 0.0
0.0 2.16030004883 0.112463819716 0.0
0.0 2.16130004883 0.112511808814 0.0
0.0 2.16230004883 0.112580059221 0.0
0.0 2.16330004883 0.112670589192 0.0
0.0 2.16430004883 0.112764463042 0.0
0.0 2.16530004883 0.112871683207 0.0
0.0 2.16630004883 0.112980501597 0.0
0.0 2.16730004883 0.113095075903 0.0
0.0 2.16830004883 0.113208027054 0.0
0.0 2.16930004883 0.11332713199 0.0
0.0 2.17030004883 0.113449861131 0.0
0.0 2.17130004883 0.113577927551 0.0
0.0 2.17230004883 0.113695987579 0.0
0.0 2.17330004883 0.113822632617 0.0
0.0 2.17430004883 0.11394967313 0.0
0.0 2.17530004883 0.11407864375 0.0
0.0 2.17630004883 0.114204874679 0.0
0.0 2.17730004883 0.114335364456 0.0
0.0 2.17830004883 0.114464553803 0.0
0.0 2.17930004883 0.114594690159 0.0
0.0 2.18030004883 0.114728386391 0.0
0.0 2.18130004883 0.114859125096 0.0
0.0 2.18230004883 0.114993720502 0.0
0.0 2.18330004883 0.115119137283 0.0
0.0 2.18430004883 0.115257177963 0.0
0.0 2.18530004883 0.115391040819 0.0
0.0 2.18630004883 0.115527483621 0.0
0.0 2.18730004883 0.115661365077 0.0
0.0 2.18830004883 0.115797268821 0.0
0.0 2.18930004883 0.115932918348 0.0
0.0 2.19030004883 0.116075820474 0.0
0.0 2.19130004883 0.116213329061 0.0
0.0 2.19230004883 0.116350612404 0.0
0.0 2.19330004883 0.116486522462 0.0
0.0 2.19430004883 0.116631214511 0.0
0.0 2.19530004883 0.116768617397 0.0
0.0 2.19630004883 0.116910313615 0.0
0.0 2.19730004883 0.117053123112 0.0
0.0 2.19830004883 0.117196762661 0.0
0.0 2.19930004883 0.117336446756 0.0
0.0 2.20030004883 0.117481919172 0.0
0.0 2.20130004883 0.11762330933 0.0
0.0 2.20230004883 0.117772748895 0.0
0.0 2.20330004883 0.117917326866 0.0
0.0 2.20430004883 0.118061638213 0.0
0.0 2.20530004883 0.118208077794 0.0
0.0 2.20630004883 0.11835527318 0.0
0.0 2.20730004883 0.118500118665 0.0
0.0 2.20830004883 0.118651034355 0.0
0.0 2.20930004883 0.118799043611 0.0
0.0 2.21030004883 0.118945275179 0.0
0.0 2.21130004883 0.119098689194 0.0
0.0 2.21230004883 0.119252341471 0.0
0.0 2.21330004883 0.119396924838 0.0
0.0 2.21430004883 0.11955584426 0.0
0.0 2.21530004883 0.119703226591 0.0
0.0 2.21630004883 0.119858147437 0.0
0.0 2.21730004883 0.12001041953 0.0
0.0 2.21830004883 0.120174110078 0.0
0.0 2.21930004883 0.120326611143 0.0
0.0 2.22030004883 0.120472102824 0.0
0.0 2.22130004883 0.120633726843 0.0
0.0 2.22230004883 0.120788241041 0.0
0.0 2.22330004883 0.120949009112 0.0
0.0 2.22430004883 0.12110158905 0.0
0.0 2.22530004883 0.121263179049 0.0
0.0 2.22630004883 0.121420711746 0.0
0.0 2.22730004883 0.121581155275 0.0
0.0 2.22830004883 0.121735130621 0.0
0.0 2.22930004883 0.121907077705 0.0
0.0 2.23030004883 0.122063760878 0.0
0.0 2.23130004883 0.12223045548 0.0
0.0 2.23230004883 0.122386928015 0.0
0.0 2.23330004883 0.122551073899 0.0
0.0 2.23430004883 0.122709622858 0.0
0.0 2.23530004883 0.12288012478 0.0
0.0 2.23630004883 0.123042878359 0.0
0.0 2.23730004883 0.123211452378 0.0
0.0 2.23830004883 0.123373959095 0.0
0.0 2.23930004883 0.123547506917 0.0
0.0 2.24030004883 0.123713102246 0.0
0.0 2.24130004883 0.123883563249 0.0
0.0 2.24230004883 0.124053393128 0.0
0.0 2.24330004883 0.124214830563 0.0
0.0 2.24430004883 0.124385759688 0.0
0.0 2.24530004883 0.124565981343 0.0
0.0 2.24630004883 0.124733287477 0.0
0.0 2.24730004883 0.124901943809 0.0
0.0 2.24830004883 0.125071433818 0.0
0.0 2.24930004883 0.125250651613 0.0
0.0 2.25030004883 0.125425613567 0.0
0.0 2.25130004883 0.125598972077 0.0
0.0 2.25230004883 0.125765899454 0.0
0.0 2.25330004883 0.125946219523 0.0
0.0 2.25430004883 0.126116573544 0.0
0.0 2.25530004883 0.126297181198 0.0
0.0 2.25630004883 0.126477598311 0.0
0.0 2.25730004883 0.126644407355 0.0
0.0 2.25830004883 0.126830964657 0.0
0.0 2.25930004883 0.127010571763 0.0
0.0 2.26030004883 0.127188879642 0.0
0.0 2.26130004883 0.127368782064 0.0
0.0 2.26230004883 0.127551621351 0.0
0.0 2.26330004883 0.127734319481 0.0
0.0 2.26430004883 0.127926317604 0.0
0.0 2.26530004883 0.128094439893 0.0
0.0 2.26630004883 0.128283100502 0.0
0.0 2.26730004883 0.12846559373 0.0
0.0 2.26830004883 0.128646703999 0.0
0.0 2.26930004883 0.128836474663 0.0
0.0 2.27030004883 0.129023545178 0.0
0.0 2.27130004883 0.129205748624 0.0
0.0 2.27230004883 0.129401631555 0.0
0.0 2.27330004883 0.129586036179 0.0
0.0 2.27430004883 0.129776789773 0.0
0.0 2.27530004883 0.129968187147 0.0
0.0 2.27630004883 0.130148911749 0.0
0.0 2.27730004883 0.130338081451 0.0
0.0 2.27830004883 0.130535598095 0.0
0.0 2.27930004883 0.13072449054 0.0
0.0 2.28030004883 0.130916523405 0.0
0.0 2.28130004883 0.131108735108 0.0
0.0 2.28230004883 0.131303339555 0.0
0.0 2.28330004883 0.131496541995 0.0
0.0 2.28430004883 0.13168987883 0.0
0.0 2.28530004883 0.131886147315 0.0
0.0 2.28630004883 0.132084715464 0.0
0.0 2.28730004883 0.132274395749 0.0
0.0 2.28830004883 0.132477609682 0.0
0.0 2.28930004883 0.132675884298 0.0
0.0 2.29030004883 0.132875844192 0.0
0.0 2.29130004883 0.133073650437 0.0
0.0 2.29230004883 0.133268952788 0.0
0.0 2.29330004883 0.133469425933 0.0
0.0 2.29430004883 0.133675891387 0.0
0.0 2.29530004883 0.133875322224 0.0
0.0 2.29630004883 0.134076003846 0.0
0.0 2.29730004883 0.134278837025 0.0
0.0 2.29830004883 0.134479736325 0.0
0.0 2.29930004883 0.134689365849 0.0
0.0 2.30030004883 0.134893645818 0.0
0.0 2.30130004883 0.135097542468 0.0
0.0 2.30230004883 0.135301150989 0.0
0.0 2.30330004883 0.135512529912 0.0
0.0 2.30430004883 0.135718211874 0.0
0.0 2.30530004883 0.135925165324 0.0
0.0 2.30630004883 0.136135825009 0.0
0.0 2.30730004883 0.136345131053 0.0
0.0 2.30830004883 0.136555170123 0.0
0.0 2.30930004883 0.136764314714 0.0
0.0 2.31030004883 0.136975533082 0.0
0.0 2.31130004883 0.137189495992 0.0
0.0 2.31230004883 0.137401633358 0.0
0.0 2.31330004883 0.137616325997 0.0
0.0 2.31430004883 0.137827997535 0.0
0.0 2.31530004883 0.138043186488 0.0
0.0 2.31630004883 0.13825792733 0.0
0.0 2.31730004883 0.138472197767 0.0
0.0 2.31830004883 0.138691312736 0.0
0.0 2.31930004883 0.138907407982 0.0
0.0 2.32030004883 0.139126066946 0.0
0.0 2.32130004883 0.139342847047 0.0
0.0 2.32230004883 0.139562726898 0.0
0.0 2.32330004883 0.139782935737 0.0
0.0 2.32430004883 0.140002718891 0.0
0.0 2.32530004883 0.140223752253 0.0
0.0 2.32630004883 0.140446338186 0.0
0.0 2.32730004883 0.140668929903 0.0
0.0 2.32830004883 0.140892012779 0.0
0.0 2.32930004883 0.141115477022 0.0
0.0 2.33030004883 0.141339199833 0.0
0.0 2.33130004883 0.141567277458 0.0
0.0 2.33230004883 0.141791919545 0.0
0.0 2.33330004883 0.142017685187 0.0
0.0 2.33430004883 0.142245186342 0.0
0.0 2.33530004883 0.142472654372 0.0
0.0 2.33630004883 0.142700627191 0.0
0.0 2.33730004883 0.142929989933 0.0
0.0 2.33830004883 0.143159166693 0.0
0.0 2.33930004883 0.143389501715 0.0
0.0 2.34030004883 0.143620294388 0.0
0.0 2.34130004883 0.14385165684 0.0
0.0 2.34230004883 0.144084726975 0.0
0.0 2.34330004883 0.144318086014 0.0
0.0 2.34430004883 0.144551710658 0.0
0.0 2.34530004883 0.144785579044 0.0
0.0 2.34630004883 0.145020131906 0.0
0.0 2.34730004883 0.145256739102 0.0
0.0 2.34830004883 0.145492509961 0.0
0.0 2.34930004883 0.145730038221 0.0
0.0 2.35030004883 0.145967513088 0.0
0.0 2.35130004883 0.146205359557 0.0
0.0 2.35230004883 0.14644458219 0.0
0.0 2.35330004883 0.146684323081 0.0
0.0 2.35430004883 0.146924894457 0.0
0.0 2.35530004883 0.147165557933 0.0
0.0 2.35630004883 0.147407401558 0.0
0.0 2.35730004883 0.147649667411 0.0
0.0 2.35830004883 0.147892359586 0.0
0.0 2.35930004883 0.14813654151 0.0
0.0 2.36030004883 0.14838069707 0.0
0.0 2.36130004883 0.14862534123 0.0
0.0 2.36230004883 0.14887133291 0.0
0.0 2.36330004883 0.149117833758 0.0
0.0 2.36430004883 0.149364508534 0.0
0.0 2.36530004883 0.149612188631 0.0
0.0 2.36630004883 0.149860713708 0.0
0.0 2.36730004883 0.150109768382 0.0
0.0 2.36830004883 0.15035933318 0.0
0.0 2.36930004883 0.150609635193 0.0
0.0 2.37030004883 0.150860631991 0.0
0.0 2.37130004883 0.151112247681 0.0
0.0 2.37230004883 0.151364766022 0.0
0.0 2.37330004883 0.151617899532 0.0
0.0 2.37430004883 0.151871712786 0.0
0.0 2.37530004883 0.152126095643 0.0
0.0 2.37630004883 0.15238123985 0.0
0.0 2.37730004883 0.152637084295 0.0
0.0 2.37830004883 0.152893622106 0.0
0.0 2.37930004883 0.153150802663 0.0
0.0 2.38030004883 0.178433207371 0.0
0.0 2.38130004883 0.256842716625 0.0
0.0 2.38230004883 0.327769455234 0.0
0.0 2.38330004883 0.391927423537 0.0
0.0 2.38430004883 0.449962727297 0.0
0.0 2.38530004883 0.502459469995 0.0
0.0 2.38630004883 0.549946293808 0.0
0.0 2.38730004883 0.592901089118 0.0
0.0 2.38830004883 0.631756500067 0.0
0.0 2.38930004883 0.666903690865 0.0
0.0 2.39030004883 0.698696491901 0.0
0.0 2.39130004883 0.727455044172 0.0
0.0 2.39230004883 0.753468863943 0.0
0.0 2.39330004883 0.776999966909 0.0
0.0 2.39430004883 0.798285234582 0.0
0.0 2.39530004883 0.817539005085 0.0
0.0 2.39630004883 0.834955127171 0.0
0.0 2.39730004883 0.850709012257 0.0
0.0 2.39830004883 0.864959257947 0.0
0.0 2.39930004883 0.877849410354 0.0
0.0 2.40030004883 0.88950923981 0.0
0.0 2.40130004883 0.900056193383 0.0
0.0 2.40230004883 0.909596450435 0.0
0.0 2.40330004883 0.918226105929 0.0
0.0 2.40430004883 0.926032079499 0.0
0.0 2.40530004883 0.933092963585 0.0
0.0 2.40630004883 0.939479886031 0.0
0.0 2.40730004883 0.945257162136 0.0
0.0 2.40830004883 0.95048298679 0.0
0.0 2.40930004883 0.955209989524 0.0
0.0 2.41030004883 0.95948577837 0.0
0.0 2.41130004883 0.963353421608 0.0
0.0 2.41230004883 0.966851874778 0.0
0.0 2.41330004883 0.970016382201 0.0
0.0 2.41430004883 0.972878808654 0.0
0.0 2.41530004883 0.97546799698 0.0
0.0 2.41630004883 0.977810022419 0.0
0.0 2.41730004883 0.979928475617 0.0
0.0 2.41830004883 0.981844702648 0.0
0.0 2.41930004883 0.98357800107 0.0
0.0 2.42030004883 0.985145834873 0.0
0.0 2.42130004883 0.986563999333 0.0
0.0 2.42230004883 0.98784677866 0.0
0.0 2.42330004883 0.989007097436 0.0
0.0 2.42430004883 0.99005664514 0.0
0.0 2.42530004883 0.991005995739 0.0
0.0 2.42630004883 0.991864714849 0.0
0.0 2.42730004883 0.992641452366 0.0
0.0 2.42830004883 0.993344036446 0.0
0.0 2.42930004883 0.993979543781 0.0
0.0 2.43030004883 0.994554378528 0.0
0.0 2.43130004883 0.995074333135 0.0
0.0 2.43230004883 0.995544645466 0.0
0.0 2.43330004883 0.995970055881 0.0
0.0 2.43430004883 0.99635485055 0.0
0.0 2.43530004883 0.996702906628 0.0
0.0 2.43630004883 0.997017731352 0.0
0.0 2.43730004883 0.997302497756 0.0
0.0 2.43830004883 0.997560075069 0.0
0.0 2.43930004883 0.997793059146 0.0
0.0 2.44030004883 0.998003798087 0.0
0.0 2.44130004883 0.998194415579 0.0
0.0 2.44230004883 0.998366832504 0.0
0.0 2.44330004883 0.998522786589 0.0
0.0 2.44430004883 0.99866384968 0.0
0.0 2.44530004883 0.998791443579 0.0
0.0 2.44630004883 0.998906854066 0.0
0.0 2.44730004883 0.999011244487 0.0
0.0 2.44830004883 0.999105667022 0.0
0.0 2.44930004883 0.999191073355 0.0
0.0 2.45030004883 0.999268324354 0.0
0.0 2.45130004883 0.999338198691 0.0
0.0 2.45230004883 0.999401400698 0.0
0.0 2.45330004883 0.999458567444 0.0
0.0 2.45430004883 0.999510275221 0.0
0.0 2.45530004883 0.999557045278 0.0
0.0 2.45630004883 0.999599349057 0.0
0.0 2.45730004883 0.999637613013 0.0
0.0 2.45830004883 0.99967222299 0.0
0.0 2.45930004883 0.999703527761 0.0
0.0 2.46030004883 0.999731843022 0.0
0.0 2.46130004883 0.999757454224 0.0
0.0 2.46230004883 0.999780619561 0.0
0.0 2.46330004883 0.999801572603 0.0
0.0 2.46430004883 0.999820524597 0.0
0.0 2.46530004883 0.999837666628 0.0
0.0 2.46630004883 0.999853171559 0.0
0.0 2.46730004883 0.999867195705 0.0
0.0 2.46830004883 0.999879880471 0.0
0.0 2.46930004883 0.999891353766 0.0
0.0 2.47030004883 0.999901731286 0.0
0.0 2.47130004883 0.999911117675 0.0
0.0 2.47230004883 0.999919607578 0.0
0.0 2.47330004883 0.99992728662 0.0
0.0 2.47430004883 0.999934232222 0.0
0.0 2.47530004883 0.999940514452 0.0
0.0 2.47630004883 0.999946196645 0.0
0.0 2.47730004883 0.999951336115 0.0
0.0 2.47830004883 0.999955984692 0.0
0.0 2.47930004883 0.999960189256 0.0
0.0 2.48030004883 0.999963992218 0.0
0.0 2.48130004883 0.999967431937 0.0
0.0 2.48230004883 0.999970543097 0.0
0.0 2.48330004883 0.999973357081 0.0
0.0 2.48430004883 0.999975902277 0.0
0.0 2.48530004883 0.999978204355 0.0
0.0 2.48630004883 0.999980286533 0.0
0.0 2.48730004883 0.999982169816 0.0
0.0 2.48830004883 0.9999838732 0.0
0.0 2.48930004883 0.99998541387 0.0
0.0 2.49030004883 0.999986807365 0.0
0.0 2.49130004883 0.999988067746 0.0
0.0 2.49230004883 0.999989207724 0.0
0.0 2.49330004883 0.999990238803 0.0
0.0 2.49430004883 0.999991171384 0.0
0.0 2.49530004883 0.999992014875 0.0
0.0 2.49630004883 0.999992777786 0.0
0.0 2.49730004883 0.999993467815 0.0
0.0 2.49830004883 0.999994091923 0.0
0.0 2.49930004883 0.999994656408 0.0
0.0 2.50030004883 0.999995166964 0.0
0.0 2.50130004883 0.999995628743 0.0
0.0 2.50230004883 0.999996046406 0.0
0.0 2.50330004883 0.999996424166 0.0
0.0 2.50430004883 0.999996765834 0.0
0.0 2.50530004883 0.999997074861 0.0
0.0 2.50630004883 0.999997354361 0.0
0.0 2.50730004883 0.999997607159 0.0
0.0 2.50830004883 0.999997835803 0.0
0.0 2.50930004883 0.999998042602 0.0
0.0 2.51030004883 0.999998229642 0.0
0.0 2.51130004883 0.999998398811 0.0
0.0 2.51230004883 0.999998551817 0.0
0.0 2.51330004883 0.999998690203 0.0
0.0 2.51430004883 0.999998815366 0.0
0.0 2.51530004883 0.999998928571 0.0
0.0 2.51630004883 0.999999030958 0.0
0.0 2.51730004883 0.999999123562 0.0
0.0 2.51830004883 0.999999207318 0.0
0.0 2.51930004883 0.99999928307 0.0
0.0 2.52030004883 0.999999351584 0.0
0.0 2.52130004883 0.999999413551 0.0
0.0 2.52230004883 0.999999469596 0.0
0.0 2.52330004883 0.999999520286 0.0
0.0 2.52430004883 0.999999566132 0.0
0.0 2.52530004883 0.999999607598 0.0
0.0 2.52630004883 0.9999996451 0.0
0.0 2.52730004883 0.999999679019 0.0
0.0 2.52830004883 0.999999709696 0.0
0.0 2.52930004883 0.999999737442 0.0
0.0 2.53030004883 0.999999762536 0.0
0.0 2.53130004883 0.999999785232 0.0
0.0 2.53230004883 0.999999805759 0.0
0.0 2.53330004883 0.999999824325 0.0
0.0 2.53430004883 0.999999841116 0.0
0.0 2.53530004883 0.999999856302 0.0
0.0 2.53630004883 0.999999870037 0.0
0.0 2.53730004883 0.999999882459 0.0
0.0 2.53830004883 0.999999893694 0.0
0.0 2.53930004883 0.999999903856 0.0
0.0 2.54030004883 0.999999913046 0.0
0.0 2.54130004883 0.999999921358 0.0
0.0 2.54230004883 0.999999928875 0.0
0.0 2.54330004883 0.999999935674 0.0
0.0 2.54430004883 0.999999941823 0.0
0.0 2.54530004883 0.999999947384 0.0
0.0 2.54630004883 0.999999952414 0.0
0.0 2.54730004883 0.999999956963 0.0
0.0 2.54830004883 0.999999961077 0.0
0.0 2.54930004883 0.999999964798 0.0
0.0 2.55030004883 0.999999968163 0.0
0.0 2.55130004883 0.999999971207 0.0
0.0 2.55230004883 0.999999973959 0.0
0.0 2.55330004883 0.999999976449 0.0
0.0 2.55430004883 0.9999999787 0.0
0.0 2.55530004883 0.999999980737 0.0
0.0 2.55630004883 0.999999982578 0.0
0.0 2.55730004883 0.999999984244 0.0
0.0 2.55830004883 0.99999998575 0.0
0.0 2.55930004883 0.999999987113 0.0
0.0 2.56030004883 0.999999988345 0.0
0.0 2.56130004883 0.999999989459 0.0
0.0 2.56230004883 0.999999990467 0.0
0.0 2.56330004883 0.999999991378 0.0
0.0 2.56430004883 0.999999992203 0.0
0.0 2.56530004883 0.999999992948 0.0
0.0 2.56630004883 0.999999993622 0.0
0.0 2.56730004883 0.999999994232 0.0
0.0 2.56830004883 0.999999994784 0.0
0.0 2.56930004883 0.999999995283 0.0
0.0 2.57030004883 0.999999995734 0.0
0.0 2.57130004883 0.999999996142 0.0
0.0 2.57230004883 0.999999996511 0.0
0.0 2.57330004883 0.999999996844 0.0
0.0 2.57430004883 0.999999997146 0.0
0.0 2.57530004883 0.999999997419 0.0
0.0 2.57630004883 0.999999997666 0.0
0.0 2.57730004883 0.999999997889 0.0
0.0 2.57830004883 0.999999998091 0.0
0.0 2.57930004883 0.999999998273 0.0
0.0 2.58030004883 0.999999998438 0.0
0.0 2.58130004883 0.999999998588 0.0
0.0 2.58230004883 0.999999998723 0.0
0.0 2.58330004883 0.999999998845 0.0
0.0 2.58430004883 0.999999998955 0.0
0.0 2.58530004883 0.999999999055 0.0
0.0 2.58630004883 0.999999999146 0.0
0.0 2.58730004883 0.999999999227 0.0
0.0 2.58830004883 0.999999999301 0.0
0.0 2.58930004883 0.999999999368 0.0
0.0 2.59030004883 0.999999999429 0.0
0.0 2.59130004883 0.999999999483 0.0
0.0 2.59230004883 0.999999999533 0.0
0.0 2.59330004883 0.999999999577 0.0
0.0 2.59430004883 0.999999999618 0.0
0.0 2.59530004883 0.999999999654 0.0
0.0 2.59630004883 0.999999999687 0.0
0.0 2.59730004883 0.999999999717 0.0
0.0 2.59830004883 0.999999999744 0.0
